0	0
1	1
2	1.77161
3	2.5426
4	3.31148
5	4.0794
6	4.8435
7	5.60529
8	6.3667
9	7.12675
10	7.88536
11	8.6426
12	9.39835
13	10.1535
14	10.908
15	11.6616
16	12.4147
17	13.1672
18	13.9193
19	14.671
20	15.4221
21	16.173
22	16.9231
23	17.6728
24	18.4223
25	19.1712
26	19.9198
27	20.6682
28	21.4163
29	22.1642
30	22.9117
31	23.659
32	24.406
33	25.1526
34	25.899
35	26.6451
36	27.3908
37	28.1364
38	28.8818
39	29.6269
40	30.3719
41	31.1166
42	31.8611
43	32.6054
44	33.3494
45	34.0933
46	34.8368
47	35.5801
48	36.3232
49	37.0652
50	37.8069
51	38.5484
52	39.2897
53	40.0309
54	40.7718
55	41.5126
56	42.2532
57	42.9936
58	43.7339
59	44.4741
60	45.214
61	45.9539
62	46.6935
63	47.4331
64	48.1726
65	48.9118
66	49.6509
67	50.3898
68	51.1286
69	51.8673
70	52.6059
71	53.3443
72	54.0826
73	54.8208
74	55.5589
75	56.2969
76	57.0346
77	57.7723
78	58.5098
79	59.2472
80	59.9845
81	60.7217
82	61.4587
83	62.1957
84	62.9325
85	63.6693
86	64.4058
87	65.1423
88	65.8786
89	66.6148
90	67.3509
91	68.0868
92	68.8226
93	69.5584
94	70.294
95	71.0295
96	71.7649
97	72.5002
98	73.2353
99	73.9703
100	74.7053
101	75.4401
102	76.1749
103	76.9095
104	77.6441
105	78.3786
106	79.1129
107	79.8472
108	80.5812
109	81.3152
110	82.049
111	82.7826
112	83.5162
113	84.2496
114	84.9829
115	85.7161
116	86.4491
117	87.1821
118	87.9149
119	88.6476
120	89.3802
121	90.1128
122	90.8452
123	91.5775
124	92.3098
125	93.042
126	93.7741
127	94.5061
128	95.238
130	96.7016
132	98.1649
134	99.6279
136	101.091
138	102.553
140	104.015
142	105.476
144	106.937
146	108.398
148	109.859
150	111.319
152	112.779
154	114.238
156	115.697
158	117.156
160	118.615
162	120.073
164	121.531
166	122.989
168	124.446
170	125.903
172	127.36
174	128.817
176	130.273
178	131.729
180	133.185
182	134.64
184	136.095
186	137.55
188	139.004
190	140.459
192	141.912
194	143.366
196	144.819
198	146.271
200	147.722
202	149.174
204	150.625
206	152.076
208	153.527
210	154.977
212	156.428
214	157.878
216	159.328
218	160.777
220	162.227
222	163.676
224	165.125
226	166.574
228	168.023
230	169.471
232	170.919
234	172.367
236	173.815
238	175.262
240	176.71
242	178.157
244	179.604
246	181.05
248	182.497
250	183.943
252	185.389
254	186.835
256	188.281
260	191.171
264	194.061
268	196.95
272	199.838
276	202.725
280	205.612
284	208.498
288	211.383
292	214.267
296	217.151
300	220.035
304	222.917
308	225.799
312	228.681
316	231.562
320	234.442
324	237.321
328	240.2
332	243.078
336	245.956
340	248.833
344	251.709
348	254.585
352	257.459
356	260.334
360	263.208
364	266.081
368	268.953
372	271.825
376	274.696
380	277.567
384	280.437
388	283.307
392	286.175
396	289.044
400	291.911
404	294.777
408	297.643
412	300.508
416	303.373
420	306.237
424	309.101
428	311.964
432	314.827
436	317.688
440	320.55
444	323.41
448	326.27
452	329.129
456	331.988
460	334.846
464	337.703
468	340.56
472	343.415
476	346.271
480	349.125
484	351.979
488	354.833
492	357.685
496	360.538
500	363.389
504	366.24
508	369.091
512	371.942
520	377.641
528	383.339
536	389.036
544	394.732
552	400.427
560	406.12
568	411.813
576	417.505
584	423.196
592	428.885
600	434.574
608	440.262
616	445.949
624	451.635
632	457.319
640	463.003
648	468.686
656	474.368
664	480.049
672	485.729
680	491.408
688	497.085
696	502.762
704	508.438
712	514.113
720	519.787
728	525.46
736	531.133
744	536.805
752	542.475
760	548.146
768	553.815
776	559.483
784	565.151
792	570.818
800	576.484
808	582.149
816	587.813
824	593.476
832	599.139
840	604.801
848	610.462
856	616.123
864	621.783
872	627.442
880	633.101
888	638.759
896	644.417
904	650.074
912	655.73
920	661.386
928	667.042
936	672.697
944	678.351
952	684.004
960	689.657
968	695.308
976	700.959
984	706.609
992	712.259
1000	717.907
1008	723.555
1016	729.203
1024	734.85
1040	746.144
1056	757.435
1072	768.726
1088	780.014
1104	791.302
1120	802.588
1136	813.872
1152	825.154
1168	836.434
1184	847.712
1200	858.989
1216	870.263
1232	881.536
1248	892.807
1264	904.077
1280	915.345
1296	926.612
1312	937.877
1328	949.14
1344	960.402
1360	971.662
1376	982.922
1392	994.18
1408	1005.44
1424	1016.69
1440	1027.95
1456	1039.2
1472	1050.45
1488	1061.7
1504	1072.94
1520	1084.19
1536	1095.44
1552	1106.68
1568	1117.92
1584	1129.16
1600	1140.41
1616	1151.64
1632	1162.88
1648	1174.12
1664	1185.36
1680	1196.59
1696	1207.82
1712	1219.06
1728	1230.29
1744	1241.52
1760	1252.75
1776	1263.98
1792	1275.21
1808	1286.43
1824	1297.66
1840	1308.89
1856	1320.11
1872	1331.33
1888	1342.56
1904	1353.78
1920	1365
1936	1376.22
1952	1387.44
1968	1398.65
1984	1409.87
2000	1421.09
2016	1432.3
2032	1443.51
2048	1454.73
2080	1477.15
2112	1499.57
2144	1521.98
2176	1544.39
2208	1566.8
2240	1589.2
2272	1611.6
2304	1634
2336	1656.39
2368	1678.77
2400	1701.16
2432	1723.53
2464	1745.91
2496	1768.29
2528	1790.66
2560	1813.03
2592	1835.4
2624	1857.76
2656	1880.12
2688	1902.48
2720	1924.83
2752	1947.18
2784	1969.53
2816	1991.88
2848	2014.23
2880	2036.57
2912	2058.91
2944	2081.25
2976	2103.58
3008	2125.92
3040	2148.25
3072	2170.58
3104	2192.91
3136	2215.23
3168	2237.56
3200	2259.88
3232	2282.2
3264	2304.52
3296	2326.84
3328	2349.15
3360	2371.46
3392	2393.78
3424	2416.09
3456	2438.4
3488	2460.7
3520	2483.01
3552	2505.31
3584	2527.61
3616	2549.91
3648	2572.2
3680	2594.5
3712	2616.79
3744	2639.08
3776	2661.37
3808	2683.66
3840	2705.95
3872	2728.24
3904	2750.52
3936	2772.81
3968	2795.09
4000	2817.37
4032	2839.65
4064	2861.93
4096	2884.21
4160	2928.76
4224	2973.3
4288	3017.85
4352	3062.38
4416	3106.91
4480	3151.44
4544	3195.96
4608	3240.48
4672	3284.99
4736	3329.5
4800	3374
4864	3418.5
4928	3463
4992	3507.49
5056	3551.98
5120	3596.46
5184	3640.95
5248	3685.42
5312	3729.9
5376	3774.37
5440	3818.83
5504	3863.29
5568	3907.75
5632	3952.21
5696	3996.66
5760	4041.11
5824	4085.55
5888	4129.99
5952	4174.43
6016	4218.86
6080	4263.29
6144	4307.71
6208	4352.13
6272	4396.55
6336	4440.97
6400	4485.38
6464	4529.79
6528	4574.2
6592	4618.6
6656	4663
6720	4707.39
6784	4751.78
6848	4796.17
6912	4840.56
6976	4884.94
7040	4929.32
7104	4973.69
7168	5018.07
7232	5062.44
7296	5106.8
7360	5151.17
7424	5195.53
7488	5239.88
7552	5284.24
7616	5328.59
7680	5372.94
7744	5417.29
7808	5461.63
7872	5505.97
7936	5550.31
8000	5594.65
8064	5638.98
8128	5683.31
8192	5727.64
8320	5816.28
8448	5904.92
8576	5993.55
8704	6082.18
8832	6170.82
8960	6259.46
9088	6348.1
9216	6436.74
9344	6525.39
9472	6614.03
9600	6702.67
9728	6791.32
9856	6879.97
9984	6968.62
10112	7057.27
10240	7145.93
10368	7234.59
10496	7323.25
10624	7411.91
10752	7500.58
10880	7589.24
11008	7677.91
11136	7766.59
11264	7855.26
11392	7943.94
11520	8032.62
11648	8121.31
11776	8209.99
11904	8298.68
12032	8387.38
12160	8476.07
12288	8564.77
12416	8653.47
12544	8742.18
12672	8830.88
12800	8919.6
12928	9008.31
13056	9097.03
13184	9185.75
13312	9274.47
13440	9363.2
13568	9451.92
13696	9540.66
13824	9629.39
13952	9718.13
14080	9806.86
14208	9895.61
14336	9984.35
14464	10073.1
14592	10161.9
14720	10250.6
14848	10339.4
14976	10428.1
15104	10516.9
15232	10605.7
15360	10694.4
15488	10783.2
15616	10872
15744	10960.8
15872	11049.6
16000	11138.4
16128	11227.2
16256	11315.9
16384	11404.7
16640	11582.3
16896	11759.9
17152	11937.1
17408	12114
17664	12290.5
17920	12466.8
18176	12643
18432	12819.1
18688	12995.1
18944	13171.2
19200	13347.2
19456	13523.2
19712	13699.2
19968	13875.3
20224	14051.3
20480	14227.4
20736	14403.5
20992	14579.6
21248	14755.7
21504	14931.9
21760	15108
22016	15284.1
22272	15460.3
22528	15636.5
22784	15812.7
23040	15988.8
23296	16165.1
23552	16341.3
23808	16517.5
24064	16693.7
24320	16870
24576	17046.2
24832	17222.5
25088	17398.8
25344	17575.1
25600	17751.4
25856	17927.5
26112	18103.4
26368	18278.9
26624	18453.4
26880	18627.7
27136	18801.9
27392	18976.1
27648	19150.3
27904	19324.6
28160	19498.8
28416	19673
28672	19847.2
28928	20021.4
29184	20195.7
29440	20369.9
29696	20544.2
29952	20718.5
30208	20892.8
30464	21067.1
30720	21241.5
30976	21415.8
31232	21590.2
31488	21764.6
31744	21939
32000	22113.4
32256	22287.9
32512	22462.3
32768	22636.8
33280	22985.8
33792	23334.9
34304	23684.1
34816	24033.3
35328	24382.5
35840	24731.9
36352	25081.2
36864	25430.7
37376	25780.2
37888	26129.8
38400	26479.5
38912	26829.3
39424	27179.2
39936	27529.1
40448	27879.1
40960	28229.1
41472	28579.2
41984	28929.4
42496	29279.5
43008	29629.7
43520	29978.7
44032	30326.6
44544	30671.9
45056	31016
45568	31359.3
46080	31702.2
46592	32044.9
47104	32387.7
47616	32730.4
48128	33073
48640	33415.7
49152	33758.5
49664	34101.3
50176	34444.2
50688	34787.2
51200	35130.2
51712	35473.4
52224	35816.7
52736	36160
53248	36503.4
53760	36846.9
54272	37190.5
54784	37534.2
55296	37878
55808	38221.9
56320	38565.9
56832	38910
57344	39254.3
57856	39598.6
58368	39943
58880	40287.6
59392	40632.2
59904	40977
60416	41321.8
60928	41666.7
61440	42011.6
61952	42356.6
62464	42701.5
62976	43046.3
63488	43391.2
64000	43736.1
64512	44080.9
65024	44425.7
65536	44770.7
66560	45460.9
67584	46151.4
68608	46842.3
69632	47533.4
70656	48224.6
71680	48915.7
72704	49606.8
73728	50298.2
74752	50990
75776	51682.1
76800	52374.5
77824	53067.3
78848	53760.6
79872	54454.3
80896	55148.4
81920	55842.7
82944	56537.5
83968	57232.7
84992	57928.1
86016	58624
87040	59319.6
88064	60014.3
89088	60707.2
90112	61397.8
91136	62085.9
92160	62773.5
93184	63461
94208	64148.4
95232	64836.1
96256	65524.2
97280	66212.7
98304	66901.5
99328	67590.7
100352	68280.3
101376	68970.2
102400	69660.4
103424	70351.1
104448	71042
105472	71733.4
106496	72424.9
107520	73116.7
108544	73807.8
109568	74498.7
110592	75189.7
111616	75880.4
112640	76571.5
113664	77262.5
114688	77953.7
115712	78645
116736	79336.1
117760	80026.9
118784	80718
119808	81409.5
120832	82101.3
121856	82793.6
122880	83486.4
123904	84179.8
124928	84873.6
125952	85567.9
126976	86262.6
128000	86957.8
129024	87653.4
130048	88349.1
131072	89043.7
133120	90431.4
135168	91810.8
137216	93186.4
139264	94563.2
141312	95942
143360	97322.7
145408	98705.6
147456	100090
149504	101476
151552	102864
153600	104252
155648	105641
157696	107030
159744	108421
161792	109808
163840	111193
165888	112576
167936	113959
169984	115341
172032	116721
174080	118101
176128	119478
178176	120846
180224	122205
182272	123562
184320	124918
186368	126273
188416	127626
190464	128979
192512	130331
194560	131680
196608	133024
198656	134367
200704	135708
202752	137047
204800	138383
206848	139717
208896	141048
210944	142379
212992	143709
215040	145038
217088	146365
219136	147691
221184	149004
223232	150303
225280	151594
227328	152881
229376	154166
231424	155449
233472	156728
235520	158006
237568	159280
239616	160547
241664	161813
243712	163079
245760	164347
247808	165611
249856	166874
251904	168139
253952	169403
256000	170670
258048	171940
260096	173211
262144	174484
266240	177021
270336	179544
274432	182070
278528	184602
282624	187139
286720	189680
290816	192225
294912	194772
299008	197326
303104	199891
307200	202463
311296	205027
315392	207588
319488	210158
323584	212738
327680	215325
331776	217922
335872	220527
339968	223143
344064	225771
348160	228411
352256	231060
356352	233714
360448	236367
364544	239029
368640	241702
372736	244381
376832	247068
380928	249760
385024	252457
389120	255163
393216	257880
397312	260594
401408	263300
405504	265991
409600	268677
413696	271360
417792	274039
421888	276708
425984	279370
430080	282022
434176	284667
438272	287310
442368	289939
446464	292546
450560	295142
454656	297731
458752	300313
462848	302880
466944	305443
471040	307997
475136	310545
479232	313093
483328	315638
487424	318158
491520	320657
495616	323149
499712	325635
503808	328118
507904	330590
512000	333054
516096	335508
520192	337956
524288	340402
532480	345276
540672	350099
548864	354900
557056	359672
565248	364403
573440	369119
581632	373784
589824	378412
598016	383009
606208	387570
614400	392113
622592	396632
630784	401104
638976	405552
647168	409961
655360	414346
663552	418715
671744	423047
679936	427362
688128	431659
696320	435933
704512	440191
712704	444407
720896	448539
729088	452615
737280	456646
745472	460656
753664	464662
761856	468634
770048	472576
778240	476478
786432	480321
794624	484134
802816	487925
811008	491675
819200	495387
827392	499053
835584	502657
843776	506232
851968	509726
860160	513132
868352	516450
876544	519701
884736	522916
892928	526083
901120	529167
909312	532160
917504	535057
925696	537881
933888	540715
942080	543560
950272	546418
958464	549299
966656	552202
974848	555136
983040	558095
991232	561064
999424	564060
1007616	567079
1015808	570138
1024000	573257
1032192	576421
1040384	579624
1048576	582862
1064960	589521
1081344	596344
1097728	602828
1114112	608914
1130496	614539
1146880	619539
1163264	623793
1179648	627857
1196032	631880
1212416	635869
1228800	639684
1245184	643467
1261568	647216
1277952	651090
1294336	655554
1310720	663115
1327104	664416
1343488	664416
1359872	664416
1376256	664416
1392640	664416
1409024	664416
1425408	664416
1441792	664416
1458176	664416
1474560	664416
1490944	664416
1507328	664416
1523712	664416
1540096	664416
1556480	664416
1572864	664416
1589248	664416
1605632	664416
1622016	664416
1638400	664416
1654784	664416
1671168	664416
1687552	664416
1703936	664416
1720320	664416
1736704	664416
1753088	664416
1769472	664416
1785856	664416
1802240	664416
1818624	664416
1835008	664416
1851392	664416
1867776	664416
1884160	664416
1900544	664416
1916928	664416
1933312	664416
1949696	664416
1966080	664416
1982464	664416
1998848	664416
2015232	664416
2031616	664416
2048000	664416
2064384	664416
2080768	664416
2097152	664416
2129920	664416
2162688	664416
2195456	664416
2228224	664416
2260992	664416
2293760	664416
2326528	664416
2359296	664416
2392064	664416
2424832	664416
2457600	664416
2490368	664416
2523136	664416
2555904	664416
2588672	664416
2621440	664416
2654208	664416
2686976	664416
2719744	664416
2752512	664416
2785280	664416
2818048	664416
2850816	664416
2883584	664416
2916352	664416
2949120	664416
2981888	664416
3014656	664416
3047424	664416
3080192	664416
3112960	664416
3145728	664416
3178496	664416
3211264	664416
3244032	664416
3276800	664416
3309568	664416
3342336	664416
3375104	664416
3407872	664416
3440640	664416
3473408	664416
3506176	664416
3538944	664416
3571712	664416
3604480	664416
3637248	664416
3670016	664416
3702784	664416
3735552	664416
3768320	664416
3801088	664416
3833856	664416
3866624	664416
3899392	664416
3932160	664416
3964928	664416
3997696	664416
4030464	664416
4063232	664416
4096000	664416
4128768	664416
4161536	664416
4194304	664416
4259840	664416
4325376	664416
4390912	664416
4456448	664416
4521984	664416
4587520	664416
4653056	664416
4718592	664416
4784128	664416
4849664	664416
4915200	664416
4980736	664416
5046272	664416
5111808	664416
5177344	664416
5242880	664416
5308416	664416
5373952	664416
5439488	664416
5505024	664416
5570560	664416
5636096	664416
5701632	664416
5767168	664416
5832704	664416
5898240	664416
5963776	664416
6029312	664416
6094848	664416
6160384	664416
6225920	664416
6291456	664416
6356992	664416
6422528	664416
6488064	664416
6553600	664416
6619136	664416
6684672	664416
6750208	664416
6815744	664416
6881280	664416
6946816	664416
7012352	664416
7077888	664416
7143424	664416
7208960	664416
7274496	664416
7340032	664416
7405568	664416
7471104	664416
7536640	664416
7602176	664416
7667712	664416
7733248	664416
7798784	664416
7864320	664416
7929856	664416
7995392	664416
8060928	664416
8126464	664416
8192000	664416
8257536	664416
8323072	664416
8388608	664416
8519680	664416
8650752	664416
8781824	664416
8912896	664416
9043968	664416
9175040	664416
9306112	664416
9437184	664416
9568256	664416
9699328	664416
9830400	664416
9961472	664416
10092544	664416
10223616	664416
10354688	664416
10485760	664416
10616832	664416
10747904	664416
10878976	664416
11010048	664416
11141120	664416
11272192	664416
11403264	664416
11534336	664416
11665408	664416
11796480	664416
11927552	664416
12058624	664416
12189696	664416
12320768	664416
12451840	664416
12582912	664416
12713984	664416
12845056	664416
12976128	664416
13107200	664416
13238272	664416
13369344	664416
13500416	664416
13631488	664416
13762560	664416
13893632	664416
14024704	664416
14155776	664416
14286848	664416
14417920	664416
14548992	664416
14680064	664416
14811136	664416
14942208	664416
15073280	664416
15204352	664416
15335424	664416
15466496	664416
15597568	664416
15728640	664416
15859712	664416
15990784	664416
16121856	664416
16252928	664416
16384000	664416
16515072	664416
16646144	664416
16777216	664416
17039360	664416
17301504	664416
17563648	664416
17825792	664416
18087936	664416
18350080	664416
18612224	664416
18874368	664416
19136512	664416
19398656	664416
19660800	664416
19922944	664416
20185088	664416
20447232	664416
20709376	664416
20971520	664416
21233664	664416
21495808	664416
21757952	664416
22020096	664416
22282240	664416
22544384	664416
22806528	664416
23068672	664416
23330816	664416
23592960	664416
23855104	664416
24117248	664416
24379392	664416
24641536	664416
24903680	664416
25165824	664416
25427968	664416
25690112	664416
25952256	664416
26214400	664416
26476544	664416
26738688	664416
27000832	664416
27262976	664416
27525120	664416
27787264	664416
28049408	664416
28311552	664416
28573696	664416
28835840	664416
29097984	664416
29360128	664416
29622272	664416
29884416	664416
30146560	664416
30408704	664416
30670848	664416
30932992	664416
31195136	664416
31457280	664416
31719424	664416
31981568	664416
32243712	664416
32505856	664416
32768000	664416
33030144	664416
33292288	664416
33554432	664416
34078720	664416
34603008	664416
35127296	664416
35651584	664416
36175872	664416
36700160	664416
37224448	664416
37748736	664416
38273024	664416
38797312	664416
39321600	664416
39845888	664416
40370176	664416
40894464	664416
41418752	664416
41943040	664416
42467328	664416
42991616	664416
43515904	664416
44040192	664416
44564480	664416
45088768	664416
45613056	664416
46137344	664416
46661632	664416
47185920	664416
47710208	664416
48234496	664416
48758784	664416
49283072	664416
49807360	664416
50331648	664416
50855936	664416
51380224	664416
51904512	664416
52428800	664416
52953088	664416
53477376	664416
54001664	664416
54525952	664416
55050240	664416
55574528	664416
56098816	664416
56623104	664416
57147392	664416
57671680	664416
58195968	664416
58720256	664416
59244544	664416
59768832	664416
60293120	664416
60817408	664416
61341696	664416
61865984	664416
62390272	664416
62914560	664416
63438848	664416
63963136	664416
64487424	664416
65011712	664416
65536000	664416
66060288	664416
66584576	664416
67108864	664416
68157440	664416
69206016	664416
70254592	664416
71303168	664416
72351744	664416
73400320	664416
74448896	664416
75497472	664416
76546048	664416
77594624	664416
78643200	664416
79691776	664416
80740352	664416
81788928	664416
82837504	664416
83886080	664416
84934656	664416
85983232	664416
87031808	664416
88080384	664416
89128960	664416
90177536	664416
91226112	664416
92274688	664416
93323264	664416
94371840	664416
95420416	664416
96468992	664416
97517568	664416
98566144	664416
99614720	664416
100663296	664416
101711872	664416
102760448	664416
103809024	664416
104857600	664416
105906176	664416
106954752	664416
108003328	664416
109051904	664416
110100480	664416
111149056	664416
112197632	664416
113246208	664416
114294784	664416
115343360	664416
116391936	664416
117440512	664416
118489088	664416
119537664	664416
120586240	664416
121634816	664416
122683392	664416
123731968	664416
124780544	664416
125829120	664416
126877696	664416
127926272	664416
128974848	664416
130023424	664416
131072000	664416
132120576	664416
133169152	664416
134217728	664416
136314880	664416
138412032	664416
140509184	664416
142606336	664416
144703488	664416
146800640	664416
148897792	664416
150994944	664416
153092096	664416
155189248	664416
157286400	664416
159383552	664416
161480704	664416
163577856	664416
165675008	664416
167772160	664416
169869312	664416
171966464	664416
174063616	664416
176160768	664416
178257920	664416
180355072	664416
182452224	664416
184549376	664416
186646528	664416
188743680	664416
190840832	664416
192937984	664416
195035136	664416
197132288	664416
199229440	664416
201326592	664416
203423744	664416
205520896	664416
207618048	664416
209715200	664416
211812352	664416
213909504	664416
216006656	664416
218103808	664416
220200960	664416
222298112	664416
224395264	664416
226492416	664416
228589568	664416
230686720	664416
232783872	664416
234881024	664416
236978176	664416
239075328	664416
241172480	664416
243269632	664416
245366784	664416
247463936	664416
249561088	664416
251658240	664416
253755392	664416
255852544	664416
257949696	664416
260046848	664416
262144000	664416
264241152	664416
266338304	664416
268435456	664416
272629760	664416
276824064	664416
281018368	664416
285212672	664416
289406976	664416
293601280	664416
297795584	664416
301989888	664416
306184192	664416
310378496	664416
314572800	664416
318767104	664416
322961408	664416
327155712	664416
331350016	664416
335544320	664416
339738624	664416
343932928	664416
348127232	664416
352321536	664416
356515840	664416
360710144	664416
364904448	664416
369098752	664416
373293056	664416
377487360	664416
381681664	664416
385875968	664416
390070272	664416
394264576	664416
398458880	664416
402653184	664416
406847488	664416
411041792	664416
415236096	664416
419430400	664416
423624704	664416
427819008	664416
432013312	664416
436207616	664416
440401920	664416
444596224	664416
448790528	664416
452984832	664416
457179136	664416
461373440	664416
465567744	664416
469762048	664416
473956352	664416
478150656	664416
482344960	664416
486539264	664416
490733568	664416
494927872	664416
499122176	664416
503316480	664416
507510784	664416
511705088	664416
515899392	664416
520093696	664416
524288000	664416
528482304	664416
532676608	664416
536870912	664416
545259520	664416
553648128	664416
562036736	664416
570425344	664416
578813952	664416
587202560	664416
595591168	664416
603979776	664416
612368384	664416
620756992	664416
629145600	664416
637534208	664416
645922816	664416
654311424	664416
662700032	664416
671088640	664416
679477248	664416
687865856	664416
696254464	664416
704643072	664416
713031680	664416
721420288	664416
729808896	664416
738197504	664416
746586112	664416
754974720	664416
763363328	664416
771751936	664416
780140544	664416
788529152	664416
796917760	664416
805306368	664416
813694976	664416
822083584	664416
830472192	664416
838860800	664416
847249408	664416
855638016	664416
864026624	664416
872415232	664416
880803840	664416
889192448	664416
897581056	664416
905969664	664416
914358272	664416
922746880	664416
931135488	664416
939524096	664416
947912704	664416
956301312	664416
964689920	664416
973078528	664416
981467136	664416
989855744	664416
998244352	664416
1006632960	664416
1015021568	664416
1023410176	664416
1031798784	664416
1040187392	664416
1048576000	664416
1056964608	664416
1065353216	664416
1073741824	664416
1090519040	664416
1107296256	664416
1124073472	664416
1140850688	664416
1157627904	664416
1174405120	664416
1191182336	664416
1207959552	664416
1224736768	664416
1241513984	664416
1258291200	664416
1275068416	664416
1291845632	664416
1308622848	664416
1325400064	664416
1342177280	664416
1358954496	664416
1375731712	664416
1392508928	664416
1409286144	664416
1426063360	664416
1442840576	664416
1459617792	664416
1476395008	664416
1493172224	664416
1509949440	664416
1526726656	664416
1543503872	664416
1560281088	664416
1577058304	664416
1593835520	664416
1610612736	664416
1627389952	664416
1644167168	664416
1660944384	664416
1677721600	664416
1694498816	664416
1711276032	664416
1728053248	664416
1744830464	664416
1761607680	664416
1778384896	664416
1795162112	664416
1811939328	664416
1828716544	664416
1845493760	664416
1862270976	664416
1879048192	664416
1895825408	664416
1912602624	664416
1929379840	664416
1946157056	664416
1962934272	664416
1979711488	664416
1996488704	664416
2013265920	664416
2030043136	664416
2046820352	664416
2063597568	664416
2080374784	664416
2097152000	664416
2113929216	664416
2130706432	664416
2147483648	664416
2181038080	664416
2214592512	664416
2248146944	664416
2281701376	664416
2315255808	664416
2348810240	664416
2382364672	664416
2415919104	664416
2449473536	664416
2483027968	664416
2516582400	664416
2550136832	664416
2583691264	664416
2617245696	664416
2650800128	664416
2684354560	664416
2717908992	664416
2751463424	664416
2785017856	664416
2818572288	664416
2852126720	664416
2885681152	664416
2919235584	664416
2952790016	664416
2986344448	664416
3019898880	664416
3053453312	664416
3087007744	664416
3120562176	664416
3154116608	664416
3187671040	664416
3221225472	664416
3254779904	664416
3288334336	664416
3321888768	664416
3355443200	664416
3388997632	664416
3422552064	664416
3456106496	664416
3489660928	664416
3523215360	664416
3556769792	664416
3590324224	664416
3623878656	664416
3657433088	664416
3690987520	664416
3724541952	664416
3758096384	664416
3791650816	664416
3825205248	664416
3858759680	664416
3892314112	664416
3925868544	664416
3959422976	664416
3992977408	664416
4026531840	664416
4060086272	664416
4093640704	664416
4127195136	664416
4160749568	664416
4194304000	664416
4227858432	664416
4261412864	664416
4294967296	664416
4362076160	664416
4429185024	664416
4496293888	664416
4563402752	664416
4630511616	664416
4697620480	664416
4764729344	664416
4831838208	664416
4898947072	664416
4966055936	664416
5033164800	664416
5100273664	664416
5167382528	664416
5234491392	664416
5301600256	664416
5368709120	664416
5435817984	664416
5502926848	664416
5570035712	664416
5637144576	664416
5704253440	664416
5771362304	664416
5838471168	664416
5905580032	664416
5972688896	664416
6039797760	664416
6106906624	664416
6174015488	664416
6241124352	664416
6308233216	664416
6375342080	664416
6442450944	664416
6509559808	664416
6576668672	664416
6643777536	664416
6710886400	664416
6777995264	664416
6845104128	664416
6912212992	664416
6979321856	664416
7046430720	664416
7113539584	664416
7180648448	664416
7247757312	664416
7314866176	664416
7381975040	664416
7449083904	664416
7516192768	664416
7583301632	664416
7650410496	664416
7717519360	664416
7784628224	664416
7851737088	664416
7918845952	664416
7985954816	664416
8053063680	664416
8120172544	664416
8187281408	664416
8254390272	664416
8321499136	664416
8388608000	664416
8455716864	664416
8522825728	664416
8589934592	664416
8724152320	664416
8858370048	664416
8992587776	664416
9126805504	664416
9261023232	664416
9395240960	664416
9529458688	664416
9663676416	664416
9797894144	664416
9932111872	664416
10066329600	664416
10200547328	664416
10334765056	664416
10468982784	664416
10603200512	664416
10737418240	664416
10871635968	664416
11005853696	664416
11140071424	664416
11274289152	664416
11408506880	664416
11542724608	664416
11676942336	664416
11811160064	664416
11945377792	664416
12079595520	664416
12213813248	664416
12348030976	664416
12482248704	664416
12616466432	664416
12750684160	664416
12884901888	664416
13019119616	664416
13153337344	664416
13287555072	664416
13421772800	664416
13555990528	664416
13690208256	664416
13824425984	664416
13958643712	664416
14092861440	664416
14227079168	664416
14361296896	664416
14495514624	664416
14629732352	664416
14763950080	664416
14898167808	664416
15032385536	664416
15166603264	664416
15300820992	664416
15435038720	664416
15569256448	664416
15703474176	664416
15837691904	664416
15971909632	664416
16106127360	664416
16240345088	664416
16374562816	664416
16508780544	664416
16642998272	664416
16777216000	664416
16911433728	664416
17045651456	664416
17179869184	664416
17448304640	664416
17716740096	664416
17985175552	664416
18253611008	664416
18522046464	664416
18790481920	664416
19058917376	664416
19327352832	664416
19595788288	664416
19864223744	664416
20132659200	664416
20401094656	664416
20669530112	664416
20937965568	664416
21206401024	664416
21474836480	664416
21743271936	664416
22011707392	664416
22280142848	664416
22548578304	664416
22817013760	664416
23085449216	664416
23353884672	664416
23622320128	664416
23890755584	664416
24159191040	664416
24427626496	664416
24696061952	664416
24964497408	664416
25232932864	664416
25501368320	664416
25769803776	664416
26038239232	664416
26306674688	664416
26575110144	664416
26843545600	664416
27111981056	664416
27380416512	664416
27648851968	664416
27917287424	664416
28185722880	664416
28454158336	664416
28722593792	664416
28991029248	664416
29259464704	664416
29527900160	664416
29796335616	664416
30064771072	664416
30333206528	664416
30601641984	664416
30870077440	664416
31138512896	664416
31406948352	664416
31675383808	664416
31943819264	664416
32212254720	664416
32480690176	664416
32749125632	664416
33017561088	664416
33285996544	664416
33554432000	664416
33822867456	664416
34091302912	664416
34359738368	664416
34896609280	664416
35433480192	664416
35970351104	664416
36507222016	664416
37044092928	664416
37580963840	664416
38117834752	664416
38654705664	664416
39191576576	664416
39728447488	664416
40265318400	664416
40802189312	664416
41339060224	664416
41875931136	664416
42412802048	664416
42949672960	664416
43486543872	664416
44023414784	664416
44560285696	664416
45097156608	664416
45634027520	664416
46170898432	664416
46707769344	664416
47244640256	664416
47781511168	664416
48318382080	664416
48855252992	664416
49392123904	664416
49928994816	664416
50465865728	664416
51002736640	664416
51539607552	664416
52076478464	664416
52613349376	664416
53150220288	664416
53687091200	664416
54223962112	664416
54760833024	664416
55297703936	664416
55834574848	664416
56371445760	664416
56908316672	664416
57445187584	664416
57982058496	664416
58518929408	664416
59055800320	664416
59592671232	664416
60129542144	664416
60666413056	664416
61203283968	664416
61740154880	664416
62277025792	664416
62813896704	664416
63350767616	664416
63887638528	664416
64424509440	664416
64961380352	664416
65498251264	664416
66035122176	664416
66571993088	664416
67108864000	664416
67645734912	664416
68182605824	664416
68719476736	664416
69793218560	664416
70866960384	664416
71940702208	664416
73014444032	664416
74088185856	664416
75161927680	664416
76235669504	664416
77309411328	664416
78383153152	664416
79456894976	664416
80530636800	664416
81604378624	664416
82678120448	664416
83751862272	664416
84825604096	664416
85899345920	664416
86973087744	664416
88046829568	664416
89120571392	664416
90194313216	664416
91268055040	664416
92341796864	664416
93415538688	664416
94489280512	664416
95563022336	664416
96636764160	664416
97710505984	664416
98784247808	664416
99857989632	664416
100931731456	664416
102005473280	664416
103079215104	664416
104152956928	664416
105226698752	664416
106300440576	664416
107374182400	664416
108447924224	664416
109521666048	664416
110595407872	664416
111669149696	664416
112742891520	664416
113816633344	664416
114890375168	664416
115964116992	664416
117037858816	664416
118111600640	664416
119185342464	664416
120259084288	664416
121332826112	664416
122406567936	664416
123480309760	664416
124554051584	664416
125627793408	664416
126701535232	664416
127775277056	664416
128849018880	664416
129922760704	664416
130996502528	664416
132070244352	664416
133143986176	664416
134217728000	664416
135291469824	664416
136365211648	664416
137438953472	664416
139586437120	664416
141733920768	664416
143881404416	664416
146028888064	664416
148176371712	664416
150323855360	664416
152471339008	664416
154618822656	664416
156766306304	664416
158913789952	664416
161061273600	664416
163208757248	664416
165356240896	664416
167503724544	664416
169651208192	664416
171798691840	664416
173946175488	664416
176093659136	664416
178241142784	664416
180388626432	664416
182536110080	664416
184683593728	664416
186831077376	664416
188978561024	664416
191126044672	664416
193273528320	664416
195421011968	664416
197568495616	664416
199715979264	664416
201863462912	664416
204010946560	664416
206158430208	664416
208305913856	664416
210453397504	664416
212600881152	664416
214748364800	664416
216895848448	664416
219043332096	664416
221190815744	664416
223338299392	664416
225485783040	664416
227633266688	664416
229780750336	664416
231928233984	664416
234075717632	664416
236223201280	664416
238370684928	664416
240518168576	664416
242665652224	664416
244813135872	664416
246960619520	664416
249108103168	664416
251255586816	664416
253403070464	664416
255550554112	664416
257698037760	664416
259845521408	664416
261993005056	664416
264140488704	664416
266287972352	664416
268435456000	664416
270582939648	664416
272730423296	664416
274877906944	664416
279172874240	664416
283467841536	664416
287762808832	664416
292057776128	664416
296352743424	664416
300647710720	664416
304942678016	664416
309237645312	664416
313532612608	664416
317827579904	664416
322122547200	664416
326417514496	664416
330712481792	664416
335007449088	664416
339302416384	664416
343597383680	664416
347892350976	664416
352187318272	664416
356482285568	664416
360777252864	664416
365072220160	664416
369367187456	664416
373662154752	664416
377957122048	664416
382252089344	664416
386547056640	664416
390842023936	664416
395136991232	664416
399431958528	664416
403726925824	664416
408021893120	664416
412316860416	664416
416611827712	664416
420906795008	664416
425201762304	664416
429496729600	664416
433791696896	664416
438086664192	664416
442381631488	664416
446676598784	664416
450971566080	664416
455266533376	664416
459561500672	664416
463856467968	664416
468151435264	664416
472446402560	664416
476741369856	664416
481036337152	664416
485331304448	664416
489626271744	664416
493921239040	664416
498216206336	664416
502511173632	664416
506806140928	664416
511101108224	664416
515396075520	664416
519691042816	664416
523986010112	664416
528280977408	664416
532575944704	664416
536870912000	664416
541165879296	664416
545460846592	664416
549755813888	664416
558345748480	664416
566935683072	664416
575525617664	664416
584115552256	664416
592705486848	664416
601295421440	664416
609885356032	664416
618475290624	664416
627065225216	664416
635655159808	664416
644245094400	664416
652835028992	664416
661424963584	664416
670014898176	664416
678604832768	664416
687194767360	664416
695784701952	664416
704374636544	664416
712964571136	664416
721554505728	664416
730144440320	664416
738734374912	664416
747324309504	664416
755914244096	664416
764504178688	664416
773094113280	664416
781684047872	664416
790273982464	664416
798863917056	664416
807453851648	664416
816043786240	664416
824633720832	664416
833223655424	664416
841813590016	664416
850403524608	664416
858993459200	664416
867583393792	664416
876173328384	664416
884763262976	664416
893353197568	664416
901943132160	664416
910533066752	664416
919123001344	664416
927712935936	664416
936302870528	664416
944892805120	664416
953482739712	664416
962072674304	664416
970662608896	664416
979252543488	664416
987842478080	664416
996432412672	664416
1005022347264	664416
1013612281856	664416
1022202216448	664416
1030792151040	664416
1039382085632	664416
1047972020224	664416
1056561954816	664416
1065151889408	664416
1073741824000	664416
1082331758592	664416
1090921693184	664416
1099511627776	664416
1116691496960	664416
1133871366144	664416
1151051235328	664416
1168231104512	664416
1185410973696	664416
1202590842880	664416
1219770712064	664416
1236950581248	664416
1254130450432	664416
1271310319616	664416
1288490188800	664416
1305670057984	664416
1322849927168	664416
1340029796352	664416
1357209665536	664416
1374389534720	664416
1391569403904	664416
1408749273088	664416
1425929142272	664416
1443109011456	664416
1460288880640	664416
1477468749824	664416
1494648619008	664416
1511828488192	664416
1529008357376	664416
1546188226560	664416
1563368095744	664416
1580547964928	664416
1597727834112	664416
1614907703296	664416
1632087572480	664416
1649267441664	664416
1666447310848	664416
1683627180032	664416
1700807049216	664416
1717986918400	664416
1735166787584	664416
1752346656768	664416
1769526525952	664416
1786706395136	664416
1803886264320	664416
1821066133504	664416
1838246002688	664416
1855425871872	664416
1872605741056	664416
1889785610240	664416
1906965479424	664416
1924145348608	664416
1941325217792	664416
1958505086976	664416
1975684956160	664416
1992864825344	664416
2010044694528	664416
2027224563712	664416
2044404432896	664416
2061584302080	664416
2078764171264	664416
2095944040448	664416
2113123909632	664416
2130303778816	664416
2147483648000	664416
2164663517184	664416
2181843386368	664416
2199023255552	664416
2233382993920	664416
2267742732288	664416
2302102470656	664416
2336462209024	664416
2370821947392	664416
2405181685760	664416
2439541424128	664416
2473901162496	664416
2508260900864	664416
2542620639232	664416
2576980377600	664416
2611340115968	664416
2645699854336	664416
2680059592704	664416
2714419331072	664416
2748779069440	664416
2783138807808	664416
2817498546176	664416
2851858284544	664416
2886218022912	664416
2920577761280	664416
2954937499648	664416
2989297238016	664416
3023656976384	664416
3058016714752	664416
3092376453120	664416
3126736191488	664416
3161095929856	664416
3195455668224	664416
3229815406592	664416
3264175144960	664416
3298534883328	664416
3332894621696	664416
3367254360064	664416
3401614098432	664416
3435973836800	664416
3470333575168	664416
3504693313536	664416
3539053051904	664416
3573412790272	664416
3607772528640	664416
3642132267008	664416
3676492005376	664416
3710851743744	664416
3745211482112	664416
3779571220480	664416
3813930958848	664416
3848290697216	664416
3882650435584	664416
3917010173952	664416
3951369912320	664416
3985729650688	664416
4020089389056	664416
4054449127424	664416
4088808865792	664416
4123168604160	664416
4157528342528	664416
4191888080896	664416
4226247819264	664416
4260607557632	664416
4294967296000	664416
4329327034368	664416
4363686772736	664416
4398046511104	664416
4466765987840	664416
4535485464576	664416
4604204941312	664416
4672924418048	664416
4741643894784	664416
4810363371520	664416
4879082848256	664416
4947802324992	664416
5016521801728	664416
5085241278464	664416
5153960755200	664416
5222680231936	664416
5291399708672	664416
5360119185408	664416
5428838662144	664416
5497558138880	664416
5566277615616	664416
5634997092352	664416
5703716569088	664416
5772436045824	664416
5841155522560	664416
5909874999296	664416
5978594476032	664416
6047313952768	664416
6116033429504	664416
6184752906240	664416
6253472382976	664416
6322191859712	664416
6390911336448	664416
6459630813184	664416
6528350289920	664416
6597069766656	664416
6665789243392	664416
6734508720128	664416
6803228196864	664416
6871947673600	664416
6940667150336	664416
7009386627072	664416
7078106103808	664416
7146825580544	664416
7215545057280	664416
7284264534016	664416
7352984010752	664416
7421703487488	664416
7490422964224	664416
7559142440960	664416
7627861917696	664416
7696581394432	664416
7765300871168	664416
7834020347904	664416
7902739824640	664416
7971459301376	664416
8040178778112	664416
8108898254848	664416
8177617731584	664416
8246337208320	664416
8315056685056	664416
8383776161792	664416
8452495638528	664416
8521215115264	664416
8589934592000	664416
8658654068736	664416
8727373545472	664416
8796093022208	664416
8933531975680	664416
9070970929152	664416
9208409882624	664416
9345848836096	664416
9483287789568	664416
9620726743040	664416
9758165696512	664416
9895604649984	664416
10033043603456	664416
10170482556928	664416
10307921510400	664416
10445360463872	664416
10582799417344	664416
10720238370816	664416
10857677324288	664416
10995116277760	664416
11132555231232	664416
11269994184704	664416
11407433138176	664416
11544872091648	664416
11682311045120	664416
11819749998592	664416
11957188952064	664416
12094627905536	664416
12232066859008	664416
12369505812480	664416
12506944765952	664416
12644383719424	664416
12781822672896	664416
12919261626368	664416
13056700579840	664416
13194139533312	664416
13331578486784	664416
13469017440256	664416
13606456393728	664416
13743895347200	664416
13881334300672	664416
14018773254144	664416
14156212207616	664416
14293651161088	664416
14431090114560	664416
14568529068032	664416
14705968021504	664416
14843406974976	664416
14980845928448	664416
15118284881920	664416
15255723835392	664416
15393162788864	664416
15530601742336	664416
15668040695808	664416
15805479649280	664416
15942918602752	664416
16080357556224	664416
16217796509696	664416
16355235463168	664416
16492674416640	664416
16630113370112	664416
16767552323584	664416
16904991277056	664416
17042430230528	664416
17179869184000	664416
17317308137472	664416
17454747090944	664416
17592186044416	664416
17867063951360	664416
18141941858304	664416
18416819765248	664416
18691697672192	664416
18966575579136	664416
19241453486080	664416
19516331393024	664416
19791209299968	664416
20066087206912	664416
20340965113856	664416
20615843020800	664416
20890720927744	664416
21165598834688	664416
21440476741632	664416
21715354648576	664416
21990232555520	664416
22265110462464	664416
22539988369408	664416
22814866276352	664416
23089744183296	664416
23364622090240	664416
23639499997184	664416
23914377904128	664416
24189255811072	664416
24464133718016	664416
24739011624960	664416
25013889531904	664416
25288767438848	664416
25563645345792	664416
25838523252736	664416
26113401159680	664416
26388279066624	664416
26663156973568	664416
26938034880512	664416
27212912787456	664416
27487790694400	664416
27762668601344	664416
28037546508288	664416
28312424415232	664416
28587302322176	664416
28862180229120	664416
29137058136064	664416
29411936043008	664416
29686813949952	664416
29961691856896	664416
30236569763840	664416
30511447670784	664416
30786325577728	664416
31061203484672	664416
31336081391616	664416
31610959298560	664416
31885837205504	664416
32160715112448	664416
32435593019392	664416
32710470926336	664416
32985348833280	664416
33260226740224	664416
33535104647168	664416
33809982554112	664416
34084860461056	664416
34359738368000	664416
34634616274944	664416
34909494181888	664416
35184372088832	664416
35734127902720	664416
36283883716608	664416
36833639530496	664416
37383395344384	664416
37933151158272	664416
38482906972160	664416
39032662786048	664416
39582418599936	664416
40132174413824	664416
40681930227712	664416
41231686041600	664416
41781441855488	664416
42331197669376	664416
42880953483264	664416
43430709297152	664416
43980465111040	664416
44530220924928	664416
45079976738816	664416
45629732552704	664416
46179488366592	664416
46729244180480	664416
47278999994368	664416
47828755808256	664416
48378511622144	664416
48928267436032	664416
49478023249920	664416
50027779063808	664416
50577534877696	664416
51127290691584	664416
51677046505472	664416
52226802319360	664416
52776558133248	664416
53326313947136	664416
53876069761024	664416
54425825574912	664416
54975581388800	664416
55525337202688	664416
56075093016576	664416
56624848830464	664416
57174604644352	664416
57724360458240	664416
58274116272128	664416
58823872086016	664416
59373627899904	664416
59923383713792	664416
60473139527680	664416
61022895341568	664416
61572651155456	664416
62122406969344	664416
62672162783232	664416
63221918597120	664416
63771674411008	664416
64321430224896	664416
64871186038784	664416
65420941852672	664416
65970697666560	664416
66520453480448	664416
67070209294336	664416
67619965108224	664416
68169720922112	664416
68719476736000	664416
69269232549888	664416
69818988363776	664416
70368744177664	664416
71468255805440	664416
72567767433216	664416
73667279060992	664416
74766790688768	664416
75866302316544	664416
76965813944320	664416
78065325572096	664416
79164837199872	664416
80264348827648	664416
81363860455424	664416
82463372083200	664416
83562883710976	664416
84662395338752	664416
85761906966528	664416
86861418594304	664416
87960930222080	664416
89060441849856	664416
90159953477632	664416
91259465105408	664416
92358976733184	664416
93458488360960	664416
94557999988736	664416
95657511616512	664416
96757023244288	664416
97856534872064	664416
98956046499840	664416
100055558127616	664416
101155069755392	664416
102254581383168	664416
103354093010944	664416
104453604638720	664416
105553116266496	664416
106652627894272	664416
107752139522048	664416
108851651149824	664416
109951162777600	664416
111050674405376	664416
112150186033152	664416
113249697660928	664416
114349209288704	664416
115448720916480	664416
116548232544256	664416
117647744172032	664416
118747255799808	664416
119846767427584	664416
120946279055360	664416
122045790683136	664416
123145302310912	664416
124244813938688	664416
125344325566464	664416
126443837194240	664416
127543348822016	664416
128642860449792	664416
129742372077568	664416
130841883705344	664416
131941395333120	664416
133040906960896	664416
134140418588672	664416
135239930216448	664416
136339441844224	664416
137438953472000	664416
138538465099776	664416
139637976727552	664416
140737488355328	664416
142936511610880	664416
145135534866432	664416
147334558121984	664416
149533581377536	664416
151732604633088	664416
153931627888640	664416
156130651144192	664416
158329674399744	664416
160528697655296	664416
162727720910848	664416
164926744166400	664416
167125767421952	664416
169324790677504	664416
171523813933056	664416
173722837188608	664416
175921860444160	664416
178120883699712	664416
180319906955264	664416
182518930210816	664416
184717953466368	664416
186916976721920	664416
189115999977472	664416
191315023233024	664416
193514046488576	664416
195713069744128	664416
197912092999680	664416
200111116255232	664416
202310139510784	664416
204509162766336	664416
206708186021888	664416
208907209277440	664416
211106232532992	664416
213305255788544	664416
215504279044096	664416
217703302299648	664416
219902325555200	664416
222101348810752	664416
224300372066304	664416
226499395321856	664416
228698418577408	664416
230897441832960	664416
233096465088512	664416
235295488344064	664416
237494511599616	664416
239693534855168	664416
241892558110720	664416
244091581366272	664416
246290604621824	664416
248489627877376	664416
250688651132928	664416
252887674388480	664416
255086697644032	664416
257285720899584	664416
259484744155136	664416
261683767410688	664416
263882790666240	664416
266081813921792	664416
268280837177344	664416
270479860432896	664416
272678883688448	664416
274877906944000	664416
277076930199552	664416
279275953455104	664416
281474976710656	664416
285873023221760	664416
290271069732864	664416
294669116243968	664416
299067162755072	664416
303465209266176	664416
307863255777280	664416
312261302288384	664416
316659348799488	664416
321057395310592	664416
325455441821696	664416
329853488332800	664416
334251534843904	664416
338649581355008	664416
343047627866112	664416
347445674377216	664416
351843720888320	664416
356241767399424	664416
360639813910528	664416
365037860421632	664416
369435906932736	664416
373833953443840	664416
378231999954944	664416
382630046466048	664416
387028092977152	664416
391426139488256	664416
395824185999360	664416
400222232510464	664416
404620279021568	664416
409018325532672	664416
413416372043776	664416
417814418554880	664416
422212465065984	664416
426610511577088	664416
431008558088192	664416
435406604599296	664416
439804651110400	664416
444202697621504	664416
448600744132608	664416
452998790643712	664416
457396837154816	664416
461794883665920	664416
466192930177024	664416
470590976688128	664416
474989023199232	664416
479387069710336	664416
483785116221440	664416
488183162732544	664416
492581209243648	664416
496979255754752	664416
501377302265856	664416
505775348776960	664416
510173395288064	664416
514571441799168	664416
518969488310272	664416
523367534821376	664416
527765581332480	664416
532163627843584	664416
536561674354688	664416
540959720865792	664416
545357767376896	664416
549755813888000	664416
554153860399104	664416
558551906910208	664416
562949953421312	664416
571746046443520	664416
580542139465728	664416
589338232487936	664416
598134325510144	664416
606930418532352	664416
615726511554560	664416
624522604576768	664416
633318697598976	664416
642114790621184	664416
650910883643392	664416
659706976665600	664416
668503069687808	664416
677299162710016	664416
686095255732224	664416
694891348754432	664416
703687441776640	664416
712483534798848	664416
721279627821056	664416
730075720843264	664416
738871813865472	664416
747667906887680	664416
756463999909888	664416
765260092932096	664416
774056185954304	664416
782852278976512	664416
791648371998720	664416
800444465020928	664416
809240558043136	664416
818036651065344	664416
826832744087552	664416
835628837109760	664416
844424930131968	664416
853221023154176	664416
862017116176384	664416
870813209198592	664416
879609302220800	664416
888405395243008	664416
897201488265216	664416
905997581287424	664416
914793674309632	664416
923589767331840	664416
932385860354048	664416
941181953376256	664416
949978046398464	664416
958774139420672	664416
967570232442880	664416
976366325465088	664416
985162418487296	664416
993958511509504	664416
1002754604531712	664416
1011550697553920	664416
1020346790576128	664416
1029142883598336	664416
1037938976620544	664416
1046735069642752	664416
1055531162664960	664416
1064327255687168	664416
1073123348709376	664416
1081919441731584	664416
1090715534753792	664416
1099511627776000	664416
1108307720798208	664416
1117103813820416	664416
1125899906842624	664416
1143492092887040	664416
1161084278931456	664416
1178676464975872	664416
1196268651020288	664416
1213860837064704	664416
1231453023109120	664416
1249045209153536	664416
1266637395197952	664416
1284229581242368	664416
1301821767286784	664416
1319413953331200	664416
1337006139375616	664416
1354598325420032	664416
1372190511464448	664416
1389782697508864	664416
1407374883553280	664416
1424967069597696	664416
1442559255642112	664416
1460151441686528	664416
1477743627730944	664416
1495335813775360	664416
1512927999819776	664416
1530520185864192	664416
1548112371908608	664416
1565704557953024	664416
1583296743997440	664416
1600888930041856	664416
1618481116086272	664416
1636073302130688	664416
1653665488175104	664416
1671257674219520	664416
1688849860263936	664416
1706442046308352	664416
1724034232352768	664416
1741626418397184	664416
1759218604441600	664416
1776810790486016	664416
1794402976530432	664416
1811995162574848	664416
1829587348619264	664416
1847179534663680	664416
1864771720708096	664416
1882363906752512	664416
1899956092796928	664416
1917548278841344	664416
1935140464885760	664416
1952732650930176	664416
1970324836974592	664416
1987917023019008	664416
2005509209063424	664416
2023101395107840	664416
2040693581152256	664416
2058285767196672	664416
2075877953241088	664416
2093470139285504	664416
2111062325329920	664416
2128654511374336	664416
2146246697418752	664416
2163838883463168	664416
2181431069507584	664416
2199023255552000	664416
2216615441596416	664416
2234207627640832	664416
2251799813685248	664416
2286984185774080	664416
2322168557862912	664416
2357352929951744	664416
2392537302040576	664416
2427721674129408	664416
2462906046218240	664416
2498090418307072	664416
2533274790395904	664416
2568459162484736	664416
2603643534573568	664416
2638827906662400	664416
2674012278751232	664416
2709196650840064	664416
2744381022928896	664416
2779565395017728	664416
2814749767106560	664416
2849934139195392	664416
2885118511284224	664416
2920302883373056	664416
2955487255461888	664416
2990671627550720	664416
3025855999639552	664416
3061040371728384	664416
3096224743817216	664416
3131409115906048	664416
3166593487994880	664416
3201777860083712	664416
3236962232172544	664416
3272146604261376	664416
3307330976350208	664416
3342515348439040	664416
3377699720527872	664416
3412884092616704	664416
3448068464705536	664416
3483252836794368	664416
3518437208883200	664416
3553621580972032	664416
3588805953060864	664416
3623990325149696	664416
3659174697238528	664416
3694359069327360	664416
3729543441416192	664416
3764727813505024	664416
3799912185593856	664416
3835096557682688	664416
3870280929771520	664416
3905465301860352	664416
3940649673949184	664416
3975834046038016	664416
4011018418126848	664416
4046202790215680	664416
4081387162304512	664416
4116571534393344	664416
4151755906482176	664416
4186940278571008	664416
4222124650659840	664416
4257309022748672	664416
4292493394837504	664416
4327677766926336	664416
4362862139015168	664416
4398046511104000	664416
4433230883192832	664416
4468415255281664	664416
4503599627370496	664416
4573968371548160	664416
4644337115725824	664416
4714705859903488	664416
4785074604081152	664416
4855443348258816	664416
4925812092436480	664416
4996180836614144	664416
5066549580791808	664416
5136918324969472	664416
5207287069147136	664416
5277655813324800	664416
5348024557502464	664416
5418393301680128	664416
5488762045857792	664416
5559130790035456	664416
5629499534213120	664416
5699868278390784	664416
5770237022568448	664416
5840605766746112	664416
5910974510923776	664416
5981343255101440	664416
6051711999279104	664416
6122080743456768	664416
6192449487634432	664416
6262818231812096	664416
6333186975989760	664416
6403555720167424	664416
6473924464345088	664416
6544293208522752	664416
6614661952700416	664416
6685030696878080	664416
6755399441055744	664416
6825768185233408	664416
6896136929411072	664416
6966505673588736	664416
7036874417766400	664416
7107243161944064	664416
7177611906121728	664416
7247980650299392	664416
7318349394477056	664416
7388718138654720	664416
7459086882832384	664416
7529455627010048	664416
7599824371187712	664416
7670193115365376	664416
7740561859543040	664416
7810930603720704	664416
7881299347898368	664416
7951668092076032	664416
8022036836253696	664416
8092405580431360	664416
8162774324609024	664416
8233143068786688	664416
8303511812964352	664416
8373880557142016	664416
8444249301319680	664416
8514618045497344	664416
8584986789675008	664416
8655355533852672	664416
8725724278030336	664416
8796093022208000	664416
8866461766385664	664416
8936830510563328	664416
9007199254740992	664416
9147936743096320	664416
9288674231451648	664416
9429411719806976	664416
9570149208162304	664416
9710886696517632	664416
9851624184872960	664416
9992361673228288	664416
10133099161583616	664416
10273836649938944	664416
10414574138294272	664416
10555311626649600	664416
10696049115004928	664416
10836786603360256	664416
10977524091715584	664416
11118261580070912	664416
11258999068426240	664416
11399736556781568	664416
11540474045136896	664416
11681211533492224	664416
11821949021847552	664416
11962686510202880	664416
12103423998558208	664416
12244161486913536	664416
12384898975268864	664416
12525636463624192	664416
12666373951979520	664416
12807111440334848	664416
12947848928690176	664416
13088586417045504	664416
13229323905400832	664416
13370061393756160	664416
13510798882111488	664416
13651536370466816	664416
13792273858822144	664416
13933011347177472	664416
14073748835532800	664416
14214486323888128	664416
14355223812243456	664416
14495961300598784	664416
14636698788954112	664416
14777436277309440	664416
14918173765664768	664416
15058911254020096	664416
15199648742375424	664416
15340386230730752	664416
15481123719086080	664416
15621861207441408	664416
15762598695796736	664416
15903336184152064	664416
16044073672507392	664416
16184811160862720	664416
16325548649218048	664416
16466286137573376	664416
16607023625928704	664416
16747761114284032	664416
16888498602639360	664416
17029236090994688	664416
17169973579350016	664416
17310711067705344	664416
17451448556060672	664416
17592186044416000	664416
17732923532771328	664416
17873661021126656	664416
18014398509481984	664416
18295873486192640	664416
18577348462903296	664416
18858823439613952	664416
19140298416324608	664416
19421773393035264	664416
19703248369745920	664416
19984723346456576	664416
20266198323167232	664416
20547673299877888	664416
20829148276588544	664416
21110623253299200	664416
21392098230009856	664416
21673573206720512	664416
21955048183431168	664416
22236523160141824	664416
22517998136852480	664416
22799473113563136	664416
23080948090273792	664416
23362423066984448	664416
23643898043695104	664416
23925373020405760	664416
24206847997116416	664416
24488322973827072	664416
24769797950537728	664416
25051272927248384	664416
25332747903959040	664416
25614222880669696	664416
25895697857380352	664416
26177172834091008	664416
26458647810801664	664416
26740122787512320	664416
27021597764222976	664416
27303072740933632	664416
27584547717644288	664416
27866022694354944	664416
28147497671065600	664416
28428972647776256	664416
28710447624486912	664416
28991922601197568	664416
29273397577908224	664416
29554872554618880	664416
29836347531329536	664416
30117822508040192	664416
30399297484750848	664416
30680772461461504	664416
30962247438172160	664416
31243722414882816	664416
31525197391593472	664416
31806672368304128	664416
32088147345014784	664416
32369622321725440	664416
32651097298436096	664416
32932572275146752	664416
33214047251857408	664416
33495522228568064	664416
33776997205278720	664416
34058472181989376	664416
34339947158700032	664416
34621422135410688	664416
34902897112121344	664416
35184372088832000	664416
35465847065542656	664416
35747322042253312	664416
36028797018963968	664416
36591746972385280	664416
37154696925806592	664416
37717646879227904	664416
38280596832649216	664416
38843546786070528	664416
39406496739491840	664416
39969446692913152	664416
40532396646334464	664416
41095346599755776	664416
41658296553177088	664416
42221246506598400	664416
42784196460019712	664416
43347146413441024	664416
43910096366862336	664416
44473046320283648	664416
45035996273704960	664416
45598946227126272	664416
46161896180547584	664416
46724846133968896	664416
47287796087390208	664416
47850746040811520	664416
48413695994232832	664416
48976645947654144	664416
49539595901075456	664416
50102545854496768	664416
50665495807918080	664416
51228445761339392	664416
51791395714760704	664416
52354345668182016	664416
52917295621603328	664416
53480245575024640	664416
54043195528445952	664416
54606145481867264	664416
55169095435288576	664416
55732045388709888	664416
56294995342131200	664416
56857945295552512	664416
57420895248973824	664416
57983845202395136	664416
58546795155816448	664416
59109745109237760	664416
59672695062659072	664416
60235645016080384	664416
60798594969501696	664416
61361544922923008	664416
61924494876344320	664416
62487444829765632	664416
63050394783186944	664416
63613344736608256	664416
64176294690029568	664416
64739244643450880	664416
65302194596872192	664416
65865144550293504	664416
66428094503714816	664416
66991044457136128	664416
67553994410557440	664416
68116944363978752	664416
68679894317400064	664416
69242844270821376	664416
69805794224242688	664416
70368744177664000	664416
70931694131085312	664416
71494644084506624	664416
72057594037927936	664416
73183493944770560	664416
74309393851613184	664416
75435293758455808	664416
76561193665298432	664416
77687093572141056	664416
78812993478983680	664416
79938893385826304	664416
81064793292668928	664416
82190693199511552	664416
83316593106354176	664416
84442493013196800	664416
85568392920039424	664416
86694292826882048	664416
87820192733724672	664416
88946092640567296	664416
90071992547409920	664416
91197892454252544	664416
92323792361095168	664416
93449692267937792	664416
94575592174780416	664416
95701492081623040	664416
96827391988465664	664416
97953291895308288	664416
99079191802150912	664416
100205091708993536	664416
101330991615836160	664416
102456891522678784	664416
103582791429521408	664416
104708691336364032	664416
105834591243206656	664416
106960491150049280	664416
108086391056891904	664416
109212290963734528	664416
110338190870577152	664416
111464090777419776	664416
112589990684262400	664416
113715890591105024	664416
114841790497947648	664416
115967690404790272	664416
117093590311632896	664416
118219490218475520	664416
119345390125318144	664416
120471290032160768	664416
121597189939003392	664416
122723089845846016	664416
123848989752688640	664416
124974889659531264	664416
126100789566373888	664416
127226689473216512	664416
128352589380059136	664416
129478489286901760	664416
130604389193744384	664416
131730289100587008	664416
132856189007429632	664416
133982088914272256	664416
135107988821114880	664416
136233888727957504	664416
137359788634800128	664416
138485688541642752	664416
139611588448485376	664416
140737488355328000	664416
141863388262170624	664416
142989288169013248	664416
144115188075855872	664416
146366987889541120	664416
148618787703226368	664416
150870587516911616	664416
153122387330596864	664416
155374187144282112	664416
157625986957967360	664416
159877786771652608	664416
162129586585337856	664416
164381386399023104	664416
166633186212708352	664416
168884986026393600	664416
171136785840078848	664416
173388585653764096	664416
175640385467449344	664416
177892185281134592	664416
180143985094819840	664416
182395784908505088	664416
184647584722190336	664416
186899384535875584	664416
189151184349560832	664416
191402984163246080	664416
193654783976931328	664416
195906583790616576	664416
198158383604301824	664416
200410183417987072	664416
202661983231672320	664416
204913783045357568	664416
207165582859042816	664416
209417382672728064	664416
211669182486413312	664416
213920982300098560	664416
216172782113783808	664416
218424581927469056	664416
220676381741154304	664416
222928181554839552	664416
225179981368524800	664416
227431781182210048	664416
229683580995895296	664416
231935380809580544	664416
234187180623265792	664416
236438980436951040	664416
238690780250636288	664416
240942580064321536	664416
243194379878006784	664416
245446179691692032	664416
247697979505377280	664416
249949779319062528	664416
252201579132747776	664416
254453378946433024	664416
256705178760118272	664416
258956978573803520	664416
261208778387488768	664416
263460578201174016	664416
265712378014859264	664416
267964177828544512	664416
270215977642229760	664416
272467777455915008	664416
274719577269600256	664416
276971377083285504	664416
279223176896970752	664416
281474976710656000	664416
283726776524341248	664416
285978576338026496	664416
288230376151711744	664416
292733975779082240	664416
297237575406452736	664416
301741175033823232	664416
306244774661193728	664416
310748374288564224	664416
315251973915934720	664416
319755573543305216	664416
324259173170675712	664416
328762772798046208	664416
333266372425416704	664416
337769972052787200	664416
342273571680157696	664416
346777171307528192	664416
351280770934898688	664416
355784370562269184	664416
360287970189639680	664416
364791569817010176	664416
369295169444380672	664416
373798769071751168	664416
378302368699121664	664416
382805968326492160	664416
387309567953862656	664416
391813167581233152	664416
396316767208603648	664416
400820366835974144	664416
405323966463344640	664416
409827566090715136	664416
414331165718085632	664416
418834765345456128	664416
423338364972826624	664416
427841964600197120	664416
432345564227567616	664416
436849163854938112	664416
441352763482308608	664416
445856363109679104	664416
450359962737049600	664416
454863562364420096	664416
459367161991790592	664416
463870761619161088	664416
468374361246531584	664416
472877960873902080	664416
477381560501272576	664416
481885160128643072	664416
486388759756013568	664416
490892359383384064	664416
495395959010754560	664416
499899558638125056	664416
504403158265495552	664416
508906757892866048	664416
513410357520236544	664416
517913957147607040	664416
522417556774977536	664416
526921156402348032	664416
531424756029718528	664416
535928355657089024	664416
540431955284459520	664416
544935554911830016	664416
549439154539200512	664416
553942754166571008	664416
558446353793941504	664416
562949953421312000	664416
567453553048682496	664416
571957152676052992	664416
576460752303423488	664416
585467951558164480	664416
594475150812905472	664416
603482350067646464	664416
612489549322387456	664416
621496748577128448	664416
630503947831869440	664416
639511147086610432	664416
648518346341351424	664416
657525545596092416	664416
666532744850833408	664416
675539944105574400	664416
684547143360315392	664416
693554342615056384	664416
702561541869797376	664416
711568741124538368	664416
720575940379279360	664416
729583139634020352	664416
738590338888761344	664416
747597538143502336	664416
756604737398243328	664416
765611936652984320	664416
774619135907725312	664416
783626335162466304	664416
792633534417207296	664416
801640733671948288	664416
810647932926689280	664416
819655132181430272	664416
828662331436171264	664416
837669530690912256	664416
846676729945653248	664416
855683929200394240	664416
864691128455135232	664416
873698327709876224	664416
882705526964617216	664416
891712726219358208	664416
900719925474099200	664416
909727124728840192	664416
918734323983581184	664416
927741523238322176	664416
936748722493063168	664416
945755921747804160	664416
954763121002545152	664416
963770320257286144	664416
972777519512027136	664416
981784718766768128	664416
990791918021509120	664416
999799117276250112	664416
1008806316530991104	664416
1017813515785732096	664416
1026820715040473088	664416
1035827914295214080	664416
1044835113549955072	664416
1053842312804696064	664416
1062849512059437056	664416
1071856711314178048	664416
1080863910568919040	664416
1089871109823660032	664416
1098878309078401024	664416
1107885508333142016	664416
1116892707587883008	664416
1125899906842624000	664416
1134907106097364992	664416
1143914305352105984	664416
1152921504606846976	664416
1170935903116328960	664416
1188950301625810944	664416
1206964700135292928	664416
1224979098644774912	664416
1242993497154256896	664416
1261007895663738880	664416
1279022294173220864	664416
1297036692682702848	664416
1315051091192184832	664416
1333065489701666816	664416
1351079888211148800	664416
1369094286720630784	664416
1387108685230112768	664416
1405123083739594752	664416
1423137482249076736	664416
1441151880758558720	664416
1459166279268040704	664416
1477180677777522688	664416
1495195076287004672	664416
1513209474796486656	664416
1531223873305968640	664416
1549238271815450624	664416
1567252670324932608	664416
1585267068834414592	664416
1603281467343896576	664416
1621295865853378560	664416
1639310264362860544	664416
1657324662872342528	664416
1675339061381824512	664416
1693353459891306496	664416
1711367858400788480	664416
1729382256910270464	664416
1747396655419752448	664416
1765411053929234432	664416
1783425452438716416	664416
1801439850948198400	664416
1819454249457680384	664416
1837468647967162368	664416
1855483046476644352	664416
1873497444986126336	664416
1891511843495608320	664416
1909526242005090304	664416
1927540640514572288	664416
1945555039024054272	664416
1963569437533536256	664416
1981583836043018240	664416
1999598234552500224	664416
2017612633061982208	664416
2035627031571464192	664416
2053641430080946176	664416
2071655828590428160	664416
2089670227099910144	664416
2107684625609392128	664416
2125699024118874112	664416
2143713422628356096	664416
2161727821137838080	664416
2179742219647320064	664416
2197756618156802048	664416
2215771016666284032	664416
2233785415175766016	664416
2251799813685248000	664416
2269814212194729984	664416
2287828610704211968	664416
2305843009213693952	664416
2341871806232657920	664416
2377900603251621888	664416
2413929400270585856	664416
2449958197289549824	664416
2485986994308513792	664416
2522015791327477760	664416
2558044588346441728	664416
2594073385365405696	664416
2630102182384369664	664416
2666130979403333632	664416
2702159776422297600	664416
2738188573441261568	664416
2774217370460225536	664416
2810246167479189504	664416
2846274964498153472	664416
2882303761517117440	664416
2918332558536081408	664416
2954361355555045376	664416
2990390152574009344	664416
3026418949592973312	664416
3062447746611937280	664416
3098476543630901248	664416
3134505340649865216	664416
3170534137668829184	664416
3206562934687793152	664416
3242591731706757120	664416
3278620528725721088	664416
3314649325744685056	664416
3350678122763649024	664416
3386706919782612992	664416
3422735716801576960	664416
3458764513820540928	664416
3494793310839504896	664416
3530822107858468864	664416
3566850904877432832	664416
3602879701896396800	664416
3638908498915360768	664416
3674937295934324736	664416
3710966092953288704	664416
3746994889972252672	664416
3783023686991216640	664416
3819052484010180608	664416
3855081281029144576	664416
3891110078048108544	664416
3927138875067072512	664416
3963167672086036480	664416
3999196469105000448	664416
4035225266123964416	664416
4071254063142928384	664416
4107282860161892352	664416
4143311657180856320	664416
4179340454199820288	664416
4215369251218784256	664416
4251398048237748224	664416
4287426845256712192	664416
4323455642275676160	664416
4359484439294640128	664416
4395513236313604096	664416
4431542033332568064	664416
4467570830351532032	664416
4503599627370496000	664416
4539628424389459968	664416
4575657221408423936	664416
4611686018427387904	664416
4683743612465315840	664416
4755801206503243776	664416
4827858800541171712	664416
4899916394579099648	664416
4971973988617027584	664416
5044031582654955520	664416
5116089176692883456	664416
5188146770730811392	664416
5260204364768739328	664416
5332261958806667264	664416
5404319552844595200	664416
5476377146882523136	664416
5548434740920451072	664416
5620492334958379008	664416
5692549928996306944	664416
5764607523034234880	664416
5836665117072162816	664416
5908722711110090752	664416
5980780305148018688	664416
6052837899185946624	664416
6124895493223874560	664416
6196953087261802496	664416
6269010681299730432	664416
6341068275337658368	664416
6413125869375586304	664416
6485183463413514240	664416
6557241057451442176	664416
6629298651489370112	664416
6701356245527298048	664416
6773413839565225984	664416
6845471433603153920	664416
6917529027641081856	664416
6989586621679009792	664416
7061644215716937728	664416
7133701809754865664	664416
7205759403792793600	664416
7277816997830721536	664416
7349874591868649472	664416
7421932185906577408	664416
7493989779944505344	664416
7566047373982433280	664416
7638104968020361216	664416
7710162562058289152	664416
7782220156096217088	664416
7854277750134145024	664416
7926335344172072960	664416
7998392938210000896	664416
8070450532247928832	664416
8142508126285856768	664416
8214565720323784704	664416
8286623314361712640	664416
8358680908399640576	664416
8430738502437568512	664416
8502796096475496448	664416
8574853690513424384	664416
8646911284551352320	664416
8718968878589280256	664416
8791026472627208192	664416
8863084066665136128	664416
8935141660703064064	664416
9007199254740992000	664416
9079256848778919936	664416
9151314442816847872	664416
9223372036854775808	664416
9367487224930631680	664416
9511602413006487552	664416
9655717601082343424	664416
9799832789158199296	664416
9943947977234055168	664416
10088063165309911040	664416
10232178353385766912	664416
10376293541461622784	664416
10520408729537478656	664416
10664523917613334528	664416
10808639105689190400	664416
10952754293765046272	664416
11096869481840902144	664416
11240984669916758016	664416
11385099857992613888	664416
11529215046068469760	664416
11673330234144325632	664416
11817445422220181504	664416
11961560610296037376	664416
12105675798371893248	664416
12249790986447749120	664416
12393906174523604992	664416
12538021362599460864	664416
12682136550675316736	664416
12826251738751172608	664416
12970366926827028480	664416
13114482114902884352	664416
13258597302978740224	664416
13402712491054596096	664416
13546827679130451968	664416
13690942867206307840	664416
13835058055282163712	664416
13979173243358019584	664416
14123288431433875456	664416
14267403619509731328	664416
14411518807585587200	664416
14555633995661443072	664416
14699749183737298944	664416
14843864371813154816	664416
14987979559889010688	664416
15132094747964866560	664416
15276209936040722432	664416
15420325124116578304	664416
15564440312192434176	664416
15708555500268290048	664416
15852670688344145920	664416
15996785876420001792	664416
16140901064495857664	664416
16285016252571713536	664416
16429131440647569408	664416
16573246628723425280	664416
16717361816799281152	664416
16861477004875137024	664416
17005592192950992896	664416
17149707381026848768	664416
17293822569102704640	664416
17437937757178560512	664416
17582052945254416384	664416
17726168133330272256	664416
17870283321406128128	664416
18014398509481984000	664416
18158513697557839872	664416
18302628885633695744	0
