0	0
1	1
2	1.99844
3	2.99668
4	3.9946
5	4.99242
6	5.98989
7	6.98713
8	7.98421
9	8.98095
10	9.97753
11	10.9739
12	11.9699
13	12.9658
14	13.9615
15	14.9569
16	15.9521
17	16.947
18	17.9417
19	18.9362
20	19.9305
21	20.9245
22	21.9183
23	22.9119
24	23.9053
25	24.8984
26	25.8913
27	26.884
28	27.8764
29	28.8686
30	29.8606
31	30.8524
32	31.8439
33	32.8353
34	33.8264
35	34.8173
36	35.8079
37	36.7984
38	37.7886
39	38.7786
40	39.7684
41	40.7579
42	41.7472
43	42.7363
44	43.7252
45	44.7139
46	45.7023
47	46.6906
48	47.6786
49	48.6664
50	49.654
51	50.6413
52	51.6285
53	52.6154
54	53.6021
55	54.5886
56	55.5748
57	56.5609
58	57.5467
59	58.5324
60	59.5178
61	60.503
62	61.488
63	62.4727
64	63.4573
65	64.4416
66	65.4257
67	66.4097
68	67.3933
69	68.3768
70	69.3601
71	70.3431
72	71.326
73	72.3086
74	73.291
75	74.2732
76	75.2552
77	76.237
78	77.2185
79	78.1999
80	79.181
81	80.1619
82	81.1427
83	82.1232
84	83.1035
85	84.0835
86	85.0634
87	86.0431
88	87.0225
89	88.0018
90	88.9808
91	89.9596
92	90.9382
93	91.9166
94	92.8948
95	93.8728
96	94.8505
97	95.8281
98	96.8054
99	97.7826
100	98.7595
101	99.7362
102	100.713
103	101.689
104	102.665
105	103.641
106	104.617
107	105.592
108	106.567
109	107.542
110	108.517
111	109.492
112	110.466
113	111.441
114	112.415
115	113.389
116	114.362
117	115.336
118	116.309
119	117.282
120	118.255
121	119.227
122	120.2
123	121.172
124	122.144
125	123.116
126	124.087
127	125.059
128	126.03
130	127.972
132	129.913
134	131.853
136	133.792
138	135.731
140	137.669
142	139.606
144	141.542
146	143.477
148	145.412
150	147.346
152	149.279
154	151.211
156	153.142
158	155.073
160	157.003
162	158.932
164	160.86
166	162.787
168	164.714
170	166.64
172	168.565
174	170.49
176	172.413
178	174.336
180	176.258
182	178.179
184	180.1
186	182.019
188	183.938
190	185.857
192	187.774
194	189.691
196	191.607
198	193.522
200	195.436
202	197.35
204	199.263
206	201.175
208	203.087
210	204.997
212	206.907
214	208.816
216	210.725
218	212.632
220	214.539
222	216.445
224	218.351
226	220.256
228	222.16
230	224.063
232	225.965
234	227.867
236	229.768
238	231.669
240	233.568
242	235.467
244	237.365
246	239.263
248	241.159
250	243.055
252	244.95
254	246.845
256	248.739
260	252.524
264	256.307
268	260.086
272	263.863
276	267.637
280	271.408
284	275.177
288	278.942
292	282.705
296	286.464
300	290.221
304	293.975
308	297.727
312	301.475
316	305.221
320	308.964
324	312.704
328	316.442
332	320.176
336	323.908
340	327.638
344	331.364
348	335.088
352	338.81
356	342.528
360	346.244
364	349.957
368	353.668
372	357.376
376	361.082
380	364.784
384	368.484
388	372.182
392	375.877
396	379.569
400	383.259
404	386.946
408	390.631
412	394.313
416	397.992
420	401.669
424	405.344
428	409.015
432	412.685
436	416.352
440	420.016
444	423.678
448	427.337
452	430.994
456	434.648
460	438.3
464	441.95
468	445.597
472	449.241
476	452.884
480	456.523
484	460.161
488	463.795
492	467.428
496	471.058
500	474.685
504	478.311
508	481.933
512	485.554
520	492.788
528	500.012
536	507.227
544	514.432
552	521.629
560	528.816
568	535.994
576	543.162
584	550.322
592	557.473
600	564.615
608	571.748
616	578.871
624	585.985
632	593.091
640	600.187
648	607.275
656	614.354
664	621.424
672	628.486
680	635.54
688	642.585
696	649.621
704	656.65
712	663.67
720	670.682
728	677.685
736	684.681
744	691.668
752	698.647
760	705.618
768	712.581
776	719.537
784	726.484
792	733.424
800	740.355
808	747.279
816	754.196
824	761.104
832	768.005
840	774.898
848	781.784
856	788.662
864	795.533
872	802.396
880	809.251
888	816.099
896	822.94
904	829.773
912	836.599
920	843.418
928	850.229
936	857.033
944	863.83
952	870.62
960	877.403
968	884.178
976	890.947
984	897.709
992	904.463
1000	911.211
1008	917.952
1016	924.686
1024	931.413
1040	944.847
1056	958.254
1072	971.634
1088	984.988
1104	998.316
1120	1011.62
1136	1024.89
1152	1038.15
1168	1051.37
1184	1064.57
1200	1077.75
1216	1090.9
1232	1104.03
1248	1117.13
1264	1130.21
1280	1143.26
1296	1156.29
1312	1169.3
1328	1182.28
1344	1195.25
1360	1208.19
1376	1221.1
1392	1234
1408	1246.87
1424	1259.72
1440	1272.55
1456	1285.36
1472	1298.15
1488	1310.92
1504	1323.66
1520	1336.39
1536	1349.09
1552	1361.77
1568	1374.43
1584	1387.07
1600	1399.7
1616	1412.3
1632	1424.88
1648	1437.44
1664	1449.99
1680	1462.51
1696	1475.01
1712	1487.5
1728	1499.97
1744	1512.42
1760	1524.85
1776	1537.26
1792	1549.66
1808	1562.03
1824	1574.39
1840	1586.73
1856	1599.05
1872	1611.36
1888	1623.65
1904	1635.92
1920	1648.17
1936	1660.41
1952	1672.63
1968	1684.83
1984	1697.02
2000	1709.19
2016	1721.35
2032	1733.48
2048	1745.61
2080	1769.81
2112	1793.94
2144	1818.01
2176	1842.03
2208	1865.98
2240	1889.87
2272	1913.71
2304	1937.48
2336	1961.2
2368	1984.86
2400	2008.47
2432	2032.02
2464	2055.52
2496	2078.96
2528	2102.35
2560	2125.69
2592	2148.98
2624	2172.21
2656	2195.4
2688	2218.53
2720	2241.62
2752	2264.65
2784	2287.64
2816	2310.58
2848	2333.47
2880	2356.32
2912	2379.12
2944	2401.88
2976	2424.59
3008	2447.25
3040	2469.87
3072	2492.45
3104	2514.98
3136	2537.47
3168	2559.92
3200	2582.32
3232	2604.68
3264	2627.01
3296	2649.29
3328	2671.53
3360	2693.73
3392	2715.89
3424	2738.01
3456	2760.09
3488	2782.13
3520	2804.14
3552	2826.11
3584	2848.04
3616	2869.93
3648	2891.79
3680	2913.61
3712	2935.39
3744	2957.14
3776	2978.85
3808	3000.52
3840	3022.16
3872	3043.77
3904	3065.34
3936	3086.87
3968	3108.38
4000	3129.85
4032	3151.29
4064	3172.69
4096	3194.06
4160	3236.7
4224	3279.21
4288	3321.6
4352	3363.86
4416	3406
4480	3448.01
4544	3489.9
4608	3531.68
4672	3573.34
4736	3614.88
4800	3656.31
4864	3697.62
4928	3738.82
4992	3779.92
5056	3820.9
5120	3861.77
5184	3902.54
5248	3943.21
5312	3983.78
5376	4024.24
5440	4064.6
5504	4104.86
5568	4145.03
5632	4185.09
5696	4225.06
5760	4264.93
5824	4304.71
5888	4344.39
5952	4383.99
6016	4423.49
6080	4462.9
6144	4502.22
6208	4541.44
6272	4580.58
6336	4619.63
6400	4658.6
6464	4697.48
6528	4736.27
6592	4774.98
6656	4813.61
6720	4852.16
6784	4890.62
6848	4929
6912	4967.31
6976	5005.53
7040	5043.67
7104	5081.74
7168	5119.72
7232	5157.64
7296	5195.47
7360	5233.23
7424	5270.92
7488	5308.52
7552	5346.06
7616	5383.52
7680	5420.91
7744	5458.22
7808	5495.47
7872	5532.64
7936	5569.74
8000	5606.78
8064	5643.74
8128	5680.64
8192	5717.47
8320	5790.92
8448	5864.11
8576	5937.03
8704	6009.7
8832	6082.11
8960	6154.23
9088	6225.93
9216	6297.24
9344	6368.27
9472	6439.05
9600	6509.59
9728	6579.91
9856	6650
9984	6719.86
10112	6789.5
10240	6858.92
10368	6928.12
10496	6997.1
10624	7065.87
10752	7134.43
10880	7202.77
11008	7270.91
11136	7338.85
11264	7406.57
11392	7474.1
11520	7541.43
11648	7608.57
11776	7675.52
11904	7742.27
12032	7808.84
12160	7875.22
12288	7941.42
12416	8007.42
12544	8073.25
12672	8138.9
12800	8204.37
12928	8269.66
13056	8334.79
13184	8399.74
13312	8464.52
13440	8529.13
13568	8593.58
13696	8657.86
13824	8721.98
13952	8785.93
14080	8849.73
14208	8913.37
14336	8976.86
14464	9040.19
14592	9103.37
14720	9166.41
14848	9229.29
14976	9292.03
15104	9354.62
15232	9417.08
15360	9479.39
15488	9541.56
15616	9603.59
15744	9665.48
15872	9727.23
16000	9788.84
16128	9850.31
16256	9911.65
16384	9972.87
16640	10094.9
16896	10216.5
17152	10337.5
17408	10458.1
17664	10578.2
17920	10697.9
18176	10816.7
18432	10934.8
18688	11052.4
18944	11169.5
19200	11286.3
19456	11402.7
19712	11518.7
19968	11634.3
20224	11749.6
20480	11864.5
20736	11979
20992	12093.2
21248	12207.1
21504	12320.6
21760	12433.8
22016	12546.7
22272	12659.3
22528	12771.5
22784	12883.5
23040	12995.2
23296	13106.6
23552	13217.7
23808	13328.5
24064	13439
24320	13549.3
24576	13659.4
24832	13769.1
25088	13878.6
25344	13987.8
25600	14096.8
25856	14205.5
26112	14314
26368	14422.3
26624	14530.4
26880	14638.2
27136	14745.6
27392	14852.4
27648	14959
27904	15065.3
28160	15171.5
28416	15277.4
28672	15383.2
28928	15488.8
29184	15594.2
29440	15699.4
29696	15804.5
29952	15909.4
30208	16014.2
30464	16118.7
30720	16223.2
30976	16327.5
31232	16431.6
31488	16535.6
31744	16639.4
32000	16743.1
32256	16846.7
32512	16950.1
32768	17053.4
33280	17259.6
33792	17465.3
34304	17670.4
34816	17875
35328	18079.2
35840	18282.9
36352	18485.5
36864	18687.1
37376	18888.3
37888	19089.2
38400	19289.7
38912	19489.9
39424	19689.8
39936	19889.4
40448	20088.7
40960	20287.7
41472	20486.4
41984	20684.9
42496	20883.1
43008	21081
43520	21278.6
44032	21475.8
44544	21672.9
45056	21869.6
45568	22065.3
46080	22260.5
46592	22455.5
47104	22650.3
47616	22845
48128	23039.6
48640	23233.9
49152	23428.2
49664	23622.2
50176	23816.2
50688	24010
51200	24203.7
51712	24397.3
52224	24590.5
52736	24783.5
53248	24976.4
53760	25169.2
54272	25361.5
54784	25553
55296	25744.3
55808	25935.5
56320	26126.7
56832	26317.7
57344	26508.7
57856	26699.5
58368	26890.3
58880	27081.1
59392	27271.7
59904	27462.3
60416	27652.8
60928	27843.2
61440	28033.3
61952	28223.3
62464	28413.2
62976	28603
63488	28792.1
64000	28980.8
64512	29169.4
65024	29357.9
65536	29546.4
66560	29923.3
67584	30300
68608	30676.5
69632	31052.9
70656	31428.5
71680	31803.7
72704	32177.7
73728	32550.7
74752	32923.5
75776	33296.2
76800	33668.8
77824	34041.3
78848	34413.6
79872	34785.1
80896	35156.3
81920	35526.2
82944	35895.4
83968	36264.6
84992	36633.6
86016	37002.6
87040	37371.5
88064	37740.2
89088	38108.1
90112	38475.6
91136	38841.8
92160	39207.7
93184	39573.5
94208	39939.2
95232	40304.9
96256	40670.5
97280	41035.7
98304	41400.2
99328	41764.2
100352	42127.1
101376	42489.8
102400	42852.4
103424	43214.9
104448	43577.5
105472	43939.9
106496	44301.8
107520	44663
108544	45023.7
109568	45383.4
110592	45742.9
111616	46102.5
112640	46462
113664	46821.4
114688	47180.8
115712	47539.4
116736	47897.5
117760	48254.8
118784	48611.5
119808	48968.1
120832	49324.7
121856	49681.2
122880	50037.7
123904	50394.1
124928	50749.5
125952	51104.4
126976	51458.6
128000	51812.3
129024	52165.9
130048	52519.6
131072	52873.2
133120	53580
135168	54284.2
137216	54986.2
139264	55687.9
141312	56389.4
143360	57089
145408	57786.2
147456	58482.3
149504	59178.3
151552	59873.5
153600	60565.9
155648	61256.7
157696	61947.4
159744	62637.8
161792	63325.6
163840	64011.5
165888	64696.8
167936	65382
169984	66065.7
172032	66746.8
174080	67426.9
176128	68106.9
178176	68786.5
180224	69463
182272	70138.1
184320	70813
186368	71487.8
188416	72160.3
190464	72830.7
192512	73500.5
194560	74170.2
196608	74838.9
198656	75504.5
200704	76169.4
202752	76834
204800	77498.5
206848	78160
208896	78820.1
210944	79479.9
212992	80139.6
215040	80797.7
217088	81453.1
219136	82108.2
221184	82763.1
223232	83417.5
225280	84067.9
227328	84715.4
229376	85360.4
231424	86002.7
233472	86640.2
235520	87273.7
237568	87905.7
239616	88536.9
241664	89166.8
243712	89793.7
245760	90420.1
247808	91046.5
249856	91672.4
251904	92295.7
253952	92917.7
256000	93539.6
258048	94161.2
260096	94781.3
262144	95399
266240	96633.9
270336	97864.3
274432	99090.7
278528	100314
282624	101532
286720	102748
290816	103957
294912	105166
299008	106368
303104	107568
307200	108763
311296	109956
315392	111144
319488	112329
323584	113510
327680	114687
331776	115862
335872	117031
339968	118199
344064	119361
348160	120522
352256	121677
356352	122831
360448	123980
364544	125126
368640	126268
372736	127408
376832	128544
380928	129676
385024	130806
389120	131931
393216	133055
397312	134174
401408	135291
405504	136404
409600	137514
413696	138621
417792	139725
421888	140826
425984	141924
430080	143019
434176	144110
438272	145199
442368	146283
446464	147366
450560	148445
454656	149522
458752	150595
462848	151664
466944	152726
471040	153783
475136	154836
479232	155886
483328	156935
487424	157980
491520	159024
495616	160063
499712	161102
503808	162137
507904	163170
512000	164201
516096	165229
520192	166255
524288	167278
532480	169318
540672	171349
548864	173371
557056	175383
565248	177387
573440	179381
581632	181367
589824	183345
598016	185313
606208	187274
614400	189226
622592	191170
630784	193106
638976	195034
647168	196954
655360	198867
663552	200771
671744	202667
679936	204555
688128	206435
696320	208306
704512	210164
712704	212014
720896	213856
729088	215691
737280	217520
745472	219342
753664	221157
761856	222965
770048	224767
778240	226562
786432	228351
794624	230134
802816	231910
811008	233680
819200	235443
827392	237200
835584	238952
843776	240697
851968	242437
860160	244170
868352	245898
876544	247620
884736	249336
892928	251047
901120	252751
909312	254450
917504	256143
925696	257831
933888	259510
942080	261184
950272	262852
958464	264514
966656	266172
974848	267824
983040	269472
991232	271114
999424	272751
1007616	274383
1015808	276010
1024000	277633
1032192	279250
1040384	280864
1048576	282472
1064960	285674
1081344	288859
1097728	292025
1114112	295173
1130496	298304
1146880	301418
1163264	304513
1179648	307589
1196032	310648
1212416	313691
1228800	316718
1245184	319730
1261568	322726
1277952	325707
1294336	328673
1310720	331624
1327104	334561
1343488	337483
1359872	340392
1376256	343286
1392640	346166
1409024	349030
1425408	351881
1441792	354719
1458176	357543
1474560	360355
1490944	363153
1507328	365939
1523712	368712
1540096	371473
1556480	374222
1572864	376958
1589248	379683
1605632	382395
1622016	385095
1638400	387783
1654784	390459
1671168	393124
1687552	395778
1703936	398420
1720320	401052
1736704	403672
1753088	406281
1769472	408879
1785856	411467
1802240	414044
1818624	416610
1835008	419166
1851392	421712
1867776	424247
1884160	426772
1900544	429286
1916928	431791
1933312	434286
1949696	436772
1966080	439247
1982464	441714
1998848	444171
2015232	446618
2031616	449056
2048000	451485
2064384	453905
2080768	456315
2097152	458716
2129920	463490
2162688	468229
2195456	472933
2228224	477602
2260992	482238
2293760	486839
2326528	491407
2359296	495942
2392064	500444
2424832	504914
2457600	509353
2490368	513761
2523136	518138
2555904	522485
2588672	526801
2621440	531088
2654208	535346
2686976	539574
2719744	543773
2752512	547944
2785280	552085
2818048	556197
2850816	560282
2883584	564339
2916352	568369
2949120	572373
2981888	576351
3014656	580302
3047424	584225
3080192	588123
3112960	591995
3145728	595842
3178496	599663
3211264	603460
3244032	607231
3276800	610977
3309568	614698
3342336	618396
3375104	622069
3407872	625719
3440640	629346
3473408	632949
3506176	636528
3538944	640083
3571712	643616
3604480	647127
3637248	650616
3670016	654082
3702784	657526
3735552	660948
3768320	664348
3801088	667727
3833856	671085
3866624	674422
3899392	677737
3932160	681032
3964928	684306
3997696	687560
4030464	690793
4063232	694007
4096000	697200
4128768	700373
4161536	703526
4194304	706659
4259840	712865
4325376	718996
4390912	725053
4456448	731035
4521984	736944
4587520	742781
4653056	748548
4718592	754243
4784128	759871
4849664	765431
4915200	770924
4980736	776351
5046272	781714
5111808	787012
5177344	792248
5242880	797422
5308416	802536
5373952	807589
5439488	812584
5505024	817521
5570560	822401
5636096	827224
5701632	831991
5767168	836702
5832704	841359
5898240	845963
5963776	850515
6029312	855016
6094848	859464
6160384	863862
6225920	868210
6291456	872508
6356992	876756
6422528	880954
6488064	885106
6553600	889210
6619136	893267
6684672	897280
6750208	901247
6815744	905168
6881280	909044
6946816	912877
7012352	916666
7077888	920412
7143424	924117
7208960	927781
7274496	931404
7340032	934988
7405568	938533
7471104	942038
7536640	945504
7602176	948932
7667712	952321
7733248	955673
7798784	958988
7864320	962268
7929856	965512
7995392	968721
8060928	971894
8126464	975031
8192000	978134
8257536	981203
8323072	984241
8388608	987245
8519680	993158
8650752	998945
8781824	1.00461e+06
8912896	1.01015e+06
9043968	1.01557e+06
9175040	1.02087e+06
9306112	1.02606e+06
9437184	1.03115e+06
9568256	1.03612e+06
9699328	1.041e+06
9830400	1.04576e+06
9961472	1.05044e+06
10092544	1.05501e+06
10223616	1.05949e+06
10354688	1.06388e+06
10485760	1.06819e+06
10616832	1.0724e+06
10747904	1.07653e+06
10878976	1.08058e+06
11010048	1.08455e+06
11141120	1.08844e+06
11272192	1.09225e+06
11403264	1.09598e+06
11534336	1.09964e+06
11665408	1.10323e+06
11796480	1.10676e+06
11927552	1.11021e+06
12058624	1.1136e+06
12189696	1.11692e+06
12320768	1.12018e+06
12451840	1.12337e+06
12582912	1.12651e+06
12713984	1.12959e+06
12845056	1.13261e+06
12976128	1.13558e+06
13107200	1.13849e+06
13238272	1.14135e+06
13369344	1.14415e+06
13500416	1.14691e+06
13631488	1.14962e+06
13762560	1.15227e+06
13893632	1.15488e+06
14024704	1.15744e+06
14155776	1.15996e+06
14286848	1.16244e+06
14417920	1.16488e+06
14548992	1.16728e+06
14680064	1.16965e+06
14811136	1.17198e+06
14942208	1.17429e+06
15073280	1.17656e+06
15204352	1.17881e+06
15335424	1.18104e+06
15466496	1.18324e+06
15597568	1.18543e+06
15728640	1.18761e+06
15859712	1.18977e+06
15990784	1.19193e+06
16121856	1.1941e+06
16252928	1.1963e+06
16384000	1.19851e+06
16515072	1.20076e+06
16646144	1.20308e+06
16777216	1.20548e+06
17039360	1.21075e+06
17301504	1.21728e+06
17563648	1.22722e+06
17825792	1.24153e+06
18087936	1.25124e+06
18350080	1.25124e+06
18612224	1.25124e+06
18874368	1.25124e+06
19136512	1.25124e+06
19398656	1.25124e+06
19660800	1.25124e+06
19922944	1.25124e+06
20185088	1.25124e+06
20447232	1.25124e+06
20709376	1.25124e+06
20971520	1.25124e+06
21233664	1.25124e+06
21495808	1.25124e+06
21757952	1.25124e+06
22020096	1.25124e+06
22282240	1.25124e+06
22544384	1.25124e+06
22806528	1.25124e+06
23068672	1.25124e+06
23330816	1.25124e+06
23592960	1.25124e+06
23855104	1.25124e+06
24117248	1.25124e+06
24379392	1.25124e+06
24641536	1.25124e+06
24903680	1.25124e+06
25165824	1.25124e+06
25427968	1.25124e+06
25690112	1.25124e+06
25952256	1.25124e+06
26214400	1.25124e+06
26476544	1.25124e+06
26738688	1.25124e+06
27000832	1.25124e+06
27262976	1.25124e+06
27525120	1.25124e+06
27787264	1.25124e+06
28049408	1.25124e+06
28311552	1.25124e+06
28573696	1.25124e+06
28835840	1.25124e+06
29097984	1.25124e+06
29360128	1.25124e+06
29622272	1.25124e+06
29884416	1.25124e+06
30146560	1.25124e+06
30408704	1.25124e+06
30670848	1.25124e+06
30932992	1.25124e+06
31195136	1.25124e+06
31457280	1.25124e+06
31719424	1.25124e+06
31981568	1.25124e+06
32243712	1.25124e+06
32505856	1.25124e+06
32768000	1.25124e+06
33030144	1.25124e+06
33292288	1.25124e+06
33554432	1.25124e+06
34078720	1.25124e+06
34603008	1.25124e+06
35127296	1.25124e+06
35651584	1.25124e+06
36175872	1.25124e+06
36700160	1.25124e+06
37224448	1.25124e+06
37748736	1.25124e+06
38273024	1.25124e+06
38797312	1.25124e+06
39321600	1.25124e+06
39845888	1.25124e+06
40370176	1.25124e+06
40894464	1.25124e+06
41418752	1.25124e+06
41943040	1.25124e+06
42467328	1.25124e+06
42991616	1.25124e+06
43515904	1.25124e+06
44040192	1.25124e+06
44564480	1.25124e+06
45088768	1.25124e+06
45613056	1.25124e+06
46137344	1.25124e+06
46661632	1.25124e+06
47185920	1.25124e+06
47710208	1.25124e+06
48234496	1.25124e+06
48758784	1.25124e+06
49283072	1.25124e+06
49807360	1.25124e+06
50331648	1.25124e+06
50855936	1.25124e+06
51380224	1.25124e+06
51904512	1.25124e+06
52428800	1.25124e+06
52953088	1.25124e+06
53477376	1.25124e+06
54001664	1.25124e+06
54525952	1.25124e+06
55050240	1.25124e+06
55574528	1.25124e+06
56098816	1.25124e+06
56623104	1.25124e+06
57147392	1.25124e+06
57671680	1.25124e+06
58195968	1.25124e+06
58720256	1.25124e+06
59244544	1.25124e+06
59768832	1.25124e+06
60293120	1.25124e+06
60817408	1.25124e+06
61341696	1.25124e+06
61865984	1.25124e+06
62390272	1.25124e+06
62914560	1.25124e+06
63438848	1.25124e+06
63963136	1.25124e+06
64487424	1.25124e+06
65011712	1.25124e+06
65536000	1.25124e+06
66060288	1.25124e+06
66584576	1.25124e+06
67108864	1.25124e+06
68157440	1.25124e+06
69206016	1.25124e+06
70254592	1.25124e+06
71303168	1.25124e+06
72351744	1.25124e+06
73400320	1.25124e+06
74448896	1.25124e+06
75497472	1.25124e+06
76546048	1.25124e+06
77594624	1.25124e+06
78643200	1.25124e+06
79691776	1.25124e+06
80740352	1.25124e+06
81788928	1.25124e+06
82837504	1.25124e+06
83886080	1.25124e+06
84934656	1.25124e+06
85983232	1.25124e+06
87031808	1.25124e+06
88080384	1.25124e+06
89128960	1.25124e+06
90177536	1.25124e+06
91226112	1.25124e+06
92274688	1.25124e+06
93323264	1.25124e+06
94371840	1.25124e+06
95420416	1.25124e+06
96468992	1.25124e+06
97517568	1.25124e+06
98566144	1.25124e+06
99614720	1.25124e+06
100663296	1.25124e+06
101711872	1.25124e+06
102760448	1.25124e+06
103809024	1.25124e+06
104857600	1.25124e+06
105906176	1.25124e+06
106954752	1.25124e+06
108003328	1.25124e+06
109051904	1.25124e+06
110100480	1.25124e+06
111149056	1.25124e+06
112197632	1.25124e+06
113246208	1.25124e+06
114294784	1.25124e+06
115343360	1.25124e+06
116391936	1.25124e+06
117440512	1.25124e+06
118489088	1.25124e+06
119537664	1.25124e+06
120586240	1.25124e+06
121634816	1.25124e+06
122683392	1.25124e+06
123731968	1.25124e+06
124780544	1.25124e+06
125829120	1.25124e+06
126877696	1.25124e+06
127926272	1.25124e+06
128974848	1.25124e+06
130023424	1.25124e+06
131072000	1.25124e+06
132120576	1.25124e+06
133169152	1.25124e+06
134217728	1.25124e+06
136314880	1.25124e+06
138412032	1.25124e+06
140509184	1.25124e+06
142606336	1.25124e+06
144703488	1.25124e+06
146800640	1.25124e+06
148897792	1.25124e+06
150994944	1.25124e+06
153092096	1.25124e+06
155189248	1.25124e+06
157286400	1.25124e+06
159383552	1.25124e+06
161480704	1.25124e+06
163577856	1.25124e+06
165675008	1.25124e+06
167772160	1.25124e+06
169869312	1.25124e+06
171966464	1.25124e+06
174063616	1.25124e+06
176160768	1.25124e+06
178257920	1.25124e+06
180355072	1.25124e+06
182452224	1.25124e+06
184549376	1.25124e+06
186646528	1.25124e+06
188743680	1.25124e+06
190840832	1.25124e+06
192937984	1.25124e+06
195035136	1.25124e+06
197132288	1.25124e+06
199229440	1.25124e+06
201326592	1.25124e+06
203423744	1.25124e+06
205520896	1.25124e+06
207618048	1.25124e+06
209715200	1.25124e+06
211812352	1.25124e+06
213909504	1.25124e+06
216006656	1.25124e+06
218103808	1.25124e+06
220200960	1.25124e+06
222298112	1.25124e+06
224395264	1.25124e+06
226492416	1.25124e+06
228589568	1.25124e+06
230686720	1.25124e+06
232783872	1.25124e+06
234881024	1.25124e+06
236978176	1.25124e+06
239075328	1.25124e+06
241172480	1.25124e+06
243269632	1.25124e+06
245366784	1.25124e+06
247463936	1.25124e+06
249561088	1.25124e+06
251658240	1.25124e+06
253755392	1.25124e+06
255852544	1.25124e+06
257949696	1.25124e+06
260046848	1.25124e+06
262144000	1.25124e+06
264241152	1.25124e+06
266338304	1.25124e+06
268435456	1.25124e+06
272629760	1.25124e+06
276824064	1.25124e+06
281018368	1.25124e+06
285212672	1.25124e+06
289406976	1.25124e+06
293601280	1.25124e+06
297795584	1.25124e+06
301989888	1.25124e+06
306184192	1.25124e+06
310378496	1.25124e+06
314572800	1.25124e+06
318767104	1.25124e+06
322961408	1.25124e+06
327155712	1.25124e+06
331350016	1.25124e+06
335544320	1.25124e+06
339738624	1.25124e+06
343932928	1.25124e+06
348127232	1.25124e+06
352321536	1.25124e+06
356515840	1.25124e+06
360710144	1.25124e+06
364904448	1.25124e+06
369098752	1.25124e+06
373293056	1.25124e+06
377487360	1.25124e+06
381681664	1.25124e+06
385875968	1.25124e+06
390070272	1.25124e+06
394264576	1.25124e+06
398458880	1.25124e+06
402653184	1.25124e+06
406847488	1.25124e+06
411041792	1.25124e+06
415236096	1.25124e+06
419430400	1.25124e+06
423624704	1.25124e+06
427819008	1.25124e+06
432013312	1.25124e+06
436207616	1.25124e+06
440401920	1.25124e+06
444596224	1.25124e+06
448790528	1.25124e+06
452984832	1.25124e+06
457179136	1.25124e+06
461373440	1.25124e+06
465567744	1.25124e+06
469762048	1.25124e+06
473956352	1.25124e+06
478150656	1.25124e+06
482344960	1.25124e+06
486539264	1.25124e+06
490733568	1.25124e+06
494927872	1.25124e+06
499122176	1.25124e+06
503316480	1.25124e+06
507510784	1.25124e+06
511705088	1.25124e+06
515899392	1.25124e+06
520093696	1.25124e+06
524288000	1.25124e+06
528482304	1.25124e+06
532676608	1.25124e+06
536870912	1.25124e+06
545259520	1.25124e+06
553648128	1.25124e+06
562036736	1.25124e+06
570425344	1.25124e+06
578813952	1.25124e+06
587202560	1.25124e+06
595591168	1.25124e+06
603979776	1.25124e+06
612368384	1.25124e+06
620756992	1.25124e+06
629145600	1.25124e+06
637534208	1.25124e+06
645922816	1.25124e+06
654311424	1.25124e+06
662700032	1.25124e+06
671088640	1.25124e+06
679477248	1.25124e+06
687865856	1.25124e+06
696254464	1.25124e+06
704643072	1.25124e+06
713031680	1.25124e+06
721420288	1.25124e+06
729808896	1.25124e+06
738197504	1.25124e+06
746586112	1.25124e+06
754974720	1.25124e+06
763363328	1.25124e+06
771751936	1.25124e+06
780140544	1.25124e+06
788529152	1.25124e+06
796917760	1.25124e+06
805306368	1.25124e+06
813694976	1.25124e+06
822083584	1.25124e+06
830472192	1.25124e+06
838860800	1.25124e+06
847249408	1.25124e+06
855638016	1.25124e+06
864026624	1.25124e+06
872415232	1.25124e+06
880803840	1.25124e+06
889192448	1.25124e+06
897581056	1.25124e+06
905969664	1.25124e+06
914358272	1.25124e+06
922746880	1.25124e+06
931135488	1.25124e+06
939524096	1.25124e+06
947912704	1.25124e+06
956301312	1.25124e+06
964689920	1.25124e+06
973078528	1.25124e+06
981467136	1.25124e+06
989855744	1.25124e+06
998244352	1.25124e+06
1006632960	1.25124e+06
1015021568	1.25124e+06
1023410176	1.25124e+06
1031798784	1.25124e+06
1040187392	1.25124e+06
1048576000	1.25124e+06
1056964608	1.25124e+06
1065353216	1.25124e+06
1073741824	1.25124e+06
1090519040	1.25124e+06
1107296256	1.25124e+06
1124073472	1.25124e+06
1140850688	1.25124e+06
1157627904	1.25124e+06
1174405120	1.25124e+06
1191182336	1.25124e+06
1207959552	1.25124e+06
1224736768	1.25124e+06
1241513984	1.25124e+06
1258291200	1.25124e+06
1275068416	1.25124e+06
1291845632	1.25124e+06
1308622848	1.25124e+06
1325400064	1.25124e+06
1342177280	1.25124e+06
1358954496	1.25124e+06
1375731712	1.25124e+06
1392508928	1.25124e+06
1409286144	1.25124e+06
1426063360	1.25124e+06
1442840576	1.25124e+06
1459617792	1.25124e+06
1476395008	1.25124e+06
1493172224	1.25124e+06
1509949440	1.25124e+06
1526726656	1.25124e+06
1543503872	1.25124e+06
1560281088	1.25124e+06
1577058304	1.25124e+06
1593835520	1.25124e+06
1610612736	1.25124e+06
1627389952	1.25124e+06
1644167168	1.25124e+06
1660944384	1.25124e+06
1677721600	1.25124e+06
1694498816	1.25124e+06
1711276032	1.25124e+06
1728053248	1.25124e+06
1744830464	1.25124e+06
1761607680	1.25124e+06
1778384896	1.25124e+06
1795162112	1.25124e+06
1811939328	1.25124e+06
1828716544	1.25124e+06
1845493760	1.25124e+06
1862270976	1.25124e+06
1879048192	1.25124e+06
1895825408	1.25124e+06
1912602624	1.25124e+06
1929379840	1.25124e+06
1946157056	1.25124e+06
1962934272	1.25124e+06
1979711488	1.25124e+06
1996488704	1.25124e+06
2013265920	1.25124e+06
2030043136	1.25124e+06
2046820352	1.25124e+06
2063597568	1.25124e+06
2080374784	1.25124e+06
2097152000	1.25124e+06
2113929216	1.25124e+06
2130706432	1.25124e+06
2147483648	1.25124e+06
2181038080	1.25124e+06
2214592512	1.25124e+06
2248146944	1.25124e+06
2281701376	1.25124e+06
2315255808	1.25124e+06
2348810240	1.25124e+06
2382364672	1.25124e+06
2415919104	1.25124e+06
2449473536	1.25124e+06
2483027968	1.25124e+06
2516582400	1.25124e+06
2550136832	1.25124e+06
2583691264	1.25124e+06
2617245696	1.25124e+06
2650800128	1.25124e+06
2684354560	1.25124e+06
2717908992	1.25124e+06
2751463424	1.25124e+06
2785017856	1.25124e+06
2818572288	1.25124e+06
2852126720	1.25124e+06
2885681152	1.25124e+06
2919235584	1.25124e+06
2952790016	1.25124e+06
2986344448	1.25124e+06
3019898880	1.25124e+06
3053453312	1.25124e+06
3087007744	1.25124e+06
3120562176	1.25124e+06
3154116608	1.25124e+06
3187671040	1.25124e+06
3221225472	1.25124e+06
3254779904	1.25124e+06
3288334336	1.25124e+06
3321888768	1.25124e+06
3355443200	1.25124e+06
3388997632	1.25124e+06
3422552064	1.25124e+06
3456106496	1.25124e+06
3489660928	1.25124e+06
3523215360	1.25124e+06
3556769792	1.25124e+06
3590324224	1.25124e+06
3623878656	1.25124e+06
3657433088	1.25124e+06
3690987520	1.25124e+06
3724541952	1.25124e+06
3758096384	1.25124e+06
3791650816	1.25124e+06
3825205248	1.25124e+06
3858759680	1.25124e+06
3892314112	1.25124e+06
3925868544	1.25124e+06
3959422976	1.25124e+06
3992977408	1.25124e+06
4026531840	1.25124e+06
4060086272	1.25124e+06
4093640704	1.25124e+06
4127195136	1.25124e+06
4160749568	1.25124e+06
4194304000	1.25124e+06
4227858432	1.25124e+06
4261412864	1.25124e+06
4294967296	1.25124e+06
4362076160	1.25124e+06
4429185024	1.25124e+06
4496293888	1.25124e+06
4563402752	1.25124e+06
4630511616	1.25124e+06
4697620480	1.25124e+06
4764729344	1.25124e+06
4831838208	1.25124e+06
4898947072	1.25124e+06
4966055936	1.25124e+06
5033164800	1.25124e+06
5100273664	1.25124e+06
5167382528	1.25124e+06
5234491392	1.25124e+06
5301600256	1.25124e+06
5368709120	1.25124e+06
5435817984	1.25124e+06
5502926848	1.25124e+06
5570035712	1.25124e+06
5637144576	1.25124e+06
5704253440	1.25124e+06
5771362304	1.25124e+06
5838471168	1.25124e+06
5905580032	1.25124e+06
5972688896	1.25124e+06
6039797760	1.25124e+06
6106906624	1.25124e+06
6174015488	1.25124e+06
6241124352	1.25124e+06
6308233216	1.25124e+06
6375342080	1.25124e+06
6442450944	1.25124e+06
6509559808	1.25124e+06
6576668672	1.25124e+06
6643777536	1.25124e+06
6710886400	1.25124e+06
6777995264	1.25124e+06
6845104128	1.25124e+06
6912212992	1.25124e+06
6979321856	1.25124e+06
7046430720	1.25124e+06
7113539584	1.25124e+06
7180648448	1.25124e+06
7247757312	1.25124e+06
7314866176	1.25124e+06
7381975040	1.25124e+06
7449083904	1.25124e+06
7516192768	1.25124e+06
7583301632	1.25124e+06
7650410496	1.25124e+06
7717519360	1.25124e+06
7784628224	1.25124e+06
7851737088	1.25124e+06
7918845952	1.25124e+06
7985954816	1.25124e+06
8053063680	1.25124e+06
8120172544	1.25124e+06
8187281408	1.25124e+06
8254390272	1.25124e+06
8321499136	1.25124e+06
8388608000	1.25124e+06
8455716864	1.25124e+06
8522825728	1.25124e+06
8589934592	1.25124e+06
8724152320	1.25124e+06
8858370048	1.25124e+06
8992587776	1.25124e+06
9126805504	1.25124e+06
9261023232	1.25124e+06
9395240960	1.25124e+06
9529458688	1.25124e+06
9663676416	1.25124e+06
9797894144	1.25124e+06
9932111872	1.25124e+06
10066329600	1.25124e+06
10200547328	1.25124e+06
10334765056	1.25124e+06
10468982784	1.25124e+06
10603200512	1.25124e+06
10737418240	1.25124e+06
10871635968	1.25124e+06
11005853696	1.25124e+06
11140071424	1.25124e+06
11274289152	1.25124e+06
11408506880	1.25124e+06
11542724608	1.25124e+06
11676942336	1.25124e+06
11811160064	1.25124e+06
11945377792	1.25124e+06
12079595520	1.25124e+06
12213813248	1.25124e+06
12348030976	1.25124e+06
12482248704	1.25124e+06
12616466432	1.25124e+06
12750684160	1.25124e+06
12884901888	1.25124e+06
13019119616	1.25124e+06
13153337344	1.25124e+06
13287555072	1.25124e+06
13421772800	1.25124e+06
13555990528	1.25124e+06
13690208256	1.25124e+06
13824425984	1.25124e+06
13958643712	1.25124e+06
14092861440	1.25124e+06
14227079168	1.25124e+06
14361296896	1.25124e+06
14495514624	1.25124e+06
14629732352	1.25124e+06
14763950080	1.25124e+06
14898167808	1.25124e+06
15032385536	1.25124e+06
15166603264	1.25124e+06
15300820992	1.25124e+06
15435038720	1.25124e+06
15569256448	1.25124e+06
15703474176	1.25124e+06
15837691904	1.25124e+06
15971909632	1.25124e+06
16106127360	1.25124e+06
16240345088	1.25124e+06
16374562816	1.25124e+06
16508780544	1.25124e+06
16642998272	1.25124e+06
16777216000	1.25124e+06
16911433728	1.25124e+06
17045651456	1.25124e+06
17179869184	1.25124e+06
17448304640	1.25124e+06
17716740096	1.25124e+06
17985175552	1.25124e+06
18253611008	1.25124e+06
18522046464	1.25124e+06
18790481920	1.25124e+06
19058917376	1.25124e+06
19327352832	1.25124e+06
19595788288	1.25124e+06
19864223744	1.25124e+06
20132659200	1.25124e+06
20401094656	1.25124e+06
20669530112	1.25124e+06
20937965568	1.25124e+06
21206401024	1.25124e+06
21474836480	1.25124e+06
21743271936	1.25124e+06
22011707392	1.25124e+06
22280142848	1.25124e+06
22548578304	1.25124e+06
22817013760	1.25124e+06
23085449216	1.25124e+06
23353884672	1.25124e+06
23622320128	1.25124e+06
23890755584	1.25124e+06
24159191040	1.25124e+06
24427626496	1.25124e+06
24696061952	1.25124e+06
24964497408	1.25124e+06
25232932864	1.25124e+06
25501368320	1.25124e+06
25769803776	1.25124e+06
26038239232	1.25124e+06
26306674688	1.25124e+06
26575110144	1.25124e+06
26843545600	1.25124e+06
27111981056	1.25124e+06
27380416512	1.25124e+06
27648851968	1.25124e+06
27917287424	1.25124e+06
28185722880	1.25124e+06
28454158336	1.25124e+06
28722593792	1.25124e+06
28991029248	1.25124e+06
29259464704	1.25124e+06
29527900160	1.25124e+06
29796335616	1.25124e+06
30064771072	1.25124e+06
30333206528	1.25124e+06
30601641984	1.25124e+06
30870077440	1.25124e+06
31138512896	1.25124e+06
31406948352	1.25124e+06
31675383808	1.25124e+06
31943819264	1.25124e+06
32212254720	1.25124e+06
32480690176	1.25124e+06
32749125632	1.25124e+06
33017561088	1.25124e+06
33285996544	1.25124e+06
33554432000	1.25124e+06
33822867456	1.25124e+06
34091302912	1.25124e+06
34359738368	1.25124e+06
34896609280	1.25124e+06
35433480192	1.25124e+06
35970351104	1.25124e+06
36507222016	1.25124e+06
37044092928	1.25124e+06
37580963840	1.25124e+06
38117834752	1.25124e+06
38654705664	1.25124e+06
39191576576	1.25124e+06
39728447488	1.25124e+06
40265318400	1.25124e+06
40802189312	1.25124e+06
41339060224	1.25124e+06
41875931136	1.25124e+06
42412802048	1.25124e+06
42949672960	1.25124e+06
43486543872	1.25124e+06
44023414784	1.25124e+06
44560285696	1.25124e+06
45097156608	1.25124e+06
45634027520	1.25124e+06
46170898432	1.25124e+06
46707769344	1.25124e+06
47244640256	1.25124e+06
47781511168	1.25124e+06
48318382080	1.25124e+06
48855252992	1.25124e+06
49392123904	1.25124e+06
49928994816	1.25124e+06
50465865728	1.25124e+06
51002736640	1.25124e+06
51539607552	1.25124e+06
52076478464	1.25124e+06
52613349376	1.25124e+06
53150220288	1.25124e+06
53687091200	1.25124e+06
54223962112	1.25124e+06
54760833024	1.25124e+06
55297703936	1.25124e+06
55834574848	1.25124e+06
56371445760	1.25124e+06
56908316672	1.25124e+06
57445187584	1.25124e+06
57982058496	1.25124e+06
58518929408	1.25124e+06
59055800320	1.25124e+06
59592671232	1.25124e+06
60129542144	1.25124e+06
60666413056	1.25124e+06
61203283968	1.25124e+06
61740154880	1.25124e+06
62277025792	1.25124e+06
62813896704	1.25124e+06
63350767616	1.25124e+06
63887638528	1.25124e+06
64424509440	1.25124e+06
64961380352	1.25124e+06
65498251264	1.25124e+06
66035122176	1.25124e+06
66571993088	1.25124e+06
67108864000	1.25124e+06
67645734912	1.25124e+06
68182605824	1.25124e+06
68719476736	1.25124e+06
69793218560	1.25124e+06
70866960384	1.25124e+06
71940702208	1.25124e+06
73014444032	1.25124e+06
74088185856	1.25124e+06
75161927680	1.25124e+06
76235669504	1.25124e+06
77309411328	1.25124e+06
78383153152	1.25124e+06
79456894976	1.25124e+06
80530636800	1.25124e+06
81604378624	1.25124e+06
82678120448	1.25124e+06
83751862272	1.25124e+06
84825604096	1.25124e+06
85899345920	1.25124e+06
86973087744	1.25124e+06
88046829568	1.25124e+06
89120571392	1.25124e+06
90194313216	1.25124e+06
91268055040	1.25124e+06
92341796864	1.25124e+06
93415538688	1.25124e+06
94489280512	1.25124e+06
95563022336	1.25124e+06
96636764160	1.25124e+06
97710505984	1.25124e+06
98784247808	1.25124e+06
99857989632	1.25124e+06
100931731456	1.25124e+06
102005473280	1.25124e+06
103079215104	1.25124e+06
104152956928	1.25124e+06
105226698752	1.25124e+06
106300440576	1.25124e+06
107374182400	1.25124e+06
108447924224	1.25124e+06
109521666048	1.25124e+06
110595407872	1.25124e+06
111669149696	1.25124e+06
112742891520	1.25124e+06
113816633344	1.25124e+06
114890375168	1.25124e+06
115964116992	1.25124e+06
117037858816	1.25124e+06
118111600640	1.25124e+06
119185342464	1.25124e+06
120259084288	1.25124e+06
121332826112	1.25124e+06
122406567936	1.25124e+06
123480309760	1.25124e+06
124554051584	1.25124e+06
125627793408	1.25124e+06
126701535232	1.25124e+06
127775277056	1.25124e+06
128849018880	1.25124e+06
129922760704	1.25124e+06
130996502528	1.25124e+06
132070244352	1.25124e+06
133143986176	1.25124e+06
134217728000	1.25124e+06
135291469824	1.25124e+06
136365211648	1.25124e+06
137438953472	1.25124e+06
139586437120	1.25124e+06
141733920768	1.25124e+06
143881404416	1.25124e+06
146028888064	1.25124e+06
148176371712	1.25124e+06
150323855360	1.25124e+06
152471339008	1.25124e+06
154618822656	1.25124e+06
156766306304	1.25124e+06
158913789952	1.25124e+06
161061273600	1.25124e+06
163208757248	1.25124e+06
165356240896	1.25124e+06
167503724544	1.25124e+06
169651208192	1.25124e+06
171798691840	1.25124e+06
173946175488	1.25124e+06
176093659136	1.25124e+06
178241142784	1.25124e+06
180388626432	1.25124e+06
182536110080	1.25124e+06
184683593728	1.25124e+06
186831077376	1.25124e+06
188978561024	1.25124e+06
191126044672	1.25124e+06
193273528320	1.25124e+06
195421011968	1.25124e+06
197568495616	1.25124e+06
199715979264	1.25124e+06
201863462912	1.25124e+06
204010946560	1.25124e+06
206158430208	1.25124e+06
208305913856	1.25124e+06
210453397504	1.25124e+06
212600881152	1.25124e+06
214748364800	1.25124e+06
216895848448	1.25124e+06
219043332096	1.25124e+06
221190815744	1.25124e+06
223338299392	1.25124e+06
225485783040	1.25124e+06
227633266688	1.25124e+06
229780750336	1.25124e+06
231928233984	1.25124e+06
234075717632	1.25124e+06
236223201280	1.25124e+06
238370684928	1.25124e+06
240518168576	1.25124e+06
242665652224	1.25124e+06
244813135872	1.25124e+06
246960619520	1.25124e+06
249108103168	1.25124e+06
251255586816	1.25124e+06
253403070464	1.25124e+06
255550554112	1.25124e+06
257698037760	1.25124e+06
259845521408	1.25124e+06
261993005056	1.25124e+06
264140488704	1.25124e+06
266287972352	1.25124e+06
268435456000	1.25124e+06
270582939648	1.25124e+06
272730423296	1.25124e+06
274877906944	1.25124e+06
279172874240	1.25124e+06
283467841536	1.25124e+06
287762808832	1.25124e+06
292057776128	1.25124e+06
296352743424	1.25124e+06
300647710720	1.25124e+06
304942678016	1.25124e+06
309237645312	1.25124e+06
313532612608	1.25124e+06
317827579904	1.25124e+06
322122547200	1.25124e+06
326417514496	1.25124e+06
330712481792	1.25124e+06
335007449088	1.25124e+06
339302416384	1.25124e+06
343597383680	1.25124e+06
347892350976	1.25124e+06
352187318272	1.25124e+06
356482285568	1.25124e+06
360777252864	1.25124e+06
365072220160	1.25124e+06
369367187456	1.25124e+06
373662154752	1.25124e+06
377957122048	1.25124e+06
382252089344	1.25124e+06
386547056640	1.25124e+06
390842023936	1.25124e+06
395136991232	1.25124e+06
399431958528	1.25124e+06
403726925824	1.25124e+06
408021893120	1.25124e+06
412316860416	1.25124e+06
416611827712	1.25124e+06
420906795008	1.25124e+06
425201762304	1.25124e+06
429496729600	1.25124e+06
433791696896	1.25124e+06
438086664192	1.25124e+06
442381631488	1.25124e+06
446676598784	1.25124e+06
450971566080	1.25124e+06
455266533376	1.25124e+06
459561500672	1.25124e+06
463856467968	1.25124e+06
468151435264	1.25124e+06
472446402560	1.25124e+06
476741369856	1.25124e+06
481036337152	1.25124e+06
485331304448	1.25124e+06
489626271744	1.25124e+06
493921239040	1.25124e+06
498216206336	1.25124e+06
502511173632	1.25124e+06
506806140928	1.25124e+06
511101108224	1.25124e+06
515396075520	1.25124e+06
519691042816	1.25124e+06
523986010112	1.25124e+06
528280977408	1.25124e+06
532575944704	1.25124e+06
536870912000	1.25124e+06
541165879296	1.25124e+06
545460846592	1.25124e+06
549755813888	1.25124e+06
558345748480	1.25124e+06
566935683072	1.25124e+06
575525617664	1.25124e+06
584115552256	1.25124e+06
592705486848	1.25124e+06
601295421440	1.25124e+06
609885356032	1.25124e+06
618475290624	1.25124e+06
627065225216	1.25124e+06
635655159808	1.25124e+06
644245094400	1.25124e+06
652835028992	1.25124e+06
661424963584	1.25124e+06
670014898176	1.25124e+06
678604832768	1.25124e+06
687194767360	1.25124e+06
695784701952	1.25124e+06
704374636544	1.25124e+06
712964571136	1.25124e+06
721554505728	1.25124e+06
730144440320	1.25124e+06
738734374912	1.25124e+06
747324309504	1.25124e+06
755914244096	1.25124e+06
764504178688	1.25124e+06
773094113280	1.25124e+06
781684047872	1.25124e+06
790273982464	1.25124e+06
798863917056	1.25124e+06
807453851648	1.25124e+06
816043786240	1.25124e+06
824633720832	1.25124e+06
833223655424	1.25124e+06
841813590016	1.25124e+06
850403524608	1.25124e+06
858993459200	1.25124e+06
867583393792	1.25124e+06
876173328384	1.25124e+06
884763262976	1.25124e+06
893353197568	1.25124e+06
901943132160	1.25124e+06
910533066752	1.25124e+06
919123001344	1.25124e+06
927712935936	1.25124e+06
936302870528	1.25124e+06
944892805120	1.25124e+06
953482739712	1.25124e+06
962072674304	1.25124e+06
970662608896	1.25124e+06
979252543488	1.25124e+06
987842478080	1.25124e+06
996432412672	1.25124e+06
1005022347264	1.25124e+06
1013612281856	1.25124e+06
1022202216448	1.25124e+06
1030792151040	1.25124e+06
1039382085632	1.25124e+06
1047972020224	1.25124e+06
1056561954816	1.25124e+06
1065151889408	1.25124e+06
1073741824000	1.25124e+06
1082331758592	1.25124e+06
1090921693184	1.25124e+06
1099511627776	1.25124e+06
1116691496960	1.25124e+06
1133871366144	1.25124e+06
1151051235328	1.25124e+06
1168231104512	1.25124e+06
1185410973696	1.25124e+06
1202590842880	1.25124e+06
1219770712064	1.25124e+06
1236950581248	1.25124e+06
1254130450432	1.25124e+06
1271310319616	1.25124e+06
1288490188800	1.25124e+06
1305670057984	1.25124e+06
1322849927168	1.25124e+06
1340029796352	1.25124e+06
1357209665536	1.25124e+06
1374389534720	1.25124e+06
1391569403904	1.25124e+06
1408749273088	1.25124e+06
1425929142272	1.25124e+06
1443109011456	1.25124e+06
1460288880640	1.25124e+06
1477468749824	1.25124e+06
1494648619008	1.25124e+06
1511828488192	1.25124e+06
1529008357376	1.25124e+06
1546188226560	1.25124e+06
1563368095744	1.25124e+06
1580547964928	1.25124e+06
1597727834112	1.25124e+06
1614907703296	1.25124e+06
1632087572480	1.25124e+06
1649267441664	1.25124e+06
1666447310848	1.25124e+06
1683627180032	1.25124e+06
1700807049216	1.25124e+06
1717986918400	1.25124e+06
1735166787584	1.25124e+06
1752346656768	1.25124e+06
1769526525952	1.25124e+06
1786706395136	1.25124e+06
1803886264320	1.25124e+06
1821066133504	1.25124e+06
1838246002688	1.25124e+06
1855425871872	1.25124e+06
1872605741056	1.25124e+06
1889785610240	1.25124e+06
1906965479424	1.25124e+06
1924145348608	1.25124e+06
1941325217792	1.25124e+06
1958505086976	1.25124e+06
1975684956160	1.25124e+06
1992864825344	1.25124e+06
2010044694528	1.25124e+06
2027224563712	1.25124e+06
2044404432896	1.25124e+06
2061584302080	1.25124e+06
2078764171264	1.25124e+06
2095944040448	1.25124e+06
2113123909632	1.25124e+06
2130303778816	1.25124e+06
2147483648000	1.25124e+06
2164663517184	1.25124e+06
2181843386368	1.25124e+06
2199023255552	1.25124e+06
2233382993920	1.25124e+06
2267742732288	1.25124e+06
2302102470656	1.25124e+06
2336462209024	1.25124e+06
2370821947392	1.25124e+06
2405181685760	1.25124e+06
2439541424128	1.25124e+06
2473901162496	1.25124e+06
2508260900864	1.25124e+06
2542620639232	1.25124e+06
2576980377600	1.25124e+06
2611340115968	1.25124e+06
2645699854336	1.25124e+06
2680059592704	1.25124e+06
2714419331072	1.25124e+06
2748779069440	1.25124e+06
2783138807808	1.25124e+06
2817498546176	1.25124e+06
2851858284544	1.25124e+06
2886218022912	1.25124e+06
2920577761280	1.25124e+06
2954937499648	1.25124e+06
2989297238016	1.25124e+06
3023656976384	1.25124e+06
3058016714752	1.25124e+06
3092376453120	1.25124e+06
3126736191488	1.25124e+06
3161095929856	1.25124e+06
3195455668224	1.25124e+06
3229815406592	1.25124e+06
3264175144960	1.25124e+06
3298534883328	1.25124e+06
3332894621696	1.25124e+06
3367254360064	1.25124e+06
3401614098432	1.25124e+06
3435973836800	1.25124e+06
3470333575168	1.25124e+06
3504693313536	1.25124e+06
3539053051904	1.25124e+06
3573412790272	1.25124e+06
3607772528640	1.25124e+06
3642132267008	1.25124e+06
3676492005376	1.25124e+06
3710851743744	1.25124e+06
3745211482112	1.25124e+06
3779571220480	1.25124e+06
3813930958848	1.25124e+06
3848290697216	1.25124e+06
3882650435584	1.25124e+06
3917010173952	1.25124e+06
3951369912320	1.25124e+06
3985729650688	1.25124e+06
4020089389056	1.25124e+06
4054449127424	1.25124e+06
4088808865792	1.25124e+06
4123168604160	1.25124e+06
4157528342528	1.25124e+06
4191888080896	1.25124e+06
4226247819264	1.25124e+06
4260607557632	1.25124e+06
4294967296000	1.25124e+06
4329327034368	1.25124e+06
4363686772736	1.25124e+06
4398046511104	1.25124e+06
4466765987840	1.25124e+06
4535485464576	1.25124e+06
4604204941312	1.25124e+06
4672924418048	1.25124e+06
4741643894784	1.25124e+06
4810363371520	1.25124e+06
4879082848256	1.25124e+06
4947802324992	1.25124e+06
5016521801728	1.25124e+06
5085241278464	1.25124e+06
5153960755200	1.25124e+06
5222680231936	1.25124e+06
5291399708672	1.25124e+06
5360119185408	1.25124e+06
5428838662144	1.25124e+06
5497558138880	1.25124e+06
5566277615616	1.25124e+06
5634997092352	1.25124e+06
5703716569088	1.25124e+06
5772436045824	1.25124e+06
5841155522560	1.25124e+06
5909874999296	1.25124e+06
5978594476032	1.25124e+06
6047313952768	1.25124e+06
6116033429504	1.25124e+06
6184752906240	1.25124e+06
6253472382976	1.25124e+06
6322191859712	1.25124e+06
6390911336448	1.25124e+06
6459630813184	1.25124e+06
6528350289920	1.25124e+06
6597069766656	1.25124e+06
6665789243392	1.25124e+06
6734508720128	1.25124e+06
6803228196864	1.25124e+06
6871947673600	1.25124e+06
6940667150336	1.25124e+06
7009386627072	1.25124e+06
7078106103808	1.25124e+06
7146825580544	1.25124e+06
7215545057280	1.25124e+06
7284264534016	1.25124e+06
7352984010752	1.25124e+06
7421703487488	1.25124e+06
7490422964224	1.25124e+06
7559142440960	1.25124e+06
7627861917696	1.25124e+06
7696581394432	1.25124e+06
7765300871168	1.25124e+06
7834020347904	1.25124e+06
7902739824640	1.25124e+06
7971459301376	1.25124e+06
8040178778112	1.25124e+06
8108898254848	1.25124e+06
8177617731584	1.25124e+06
8246337208320	1.25124e+06
8315056685056	1.25124e+06
8383776161792	1.25124e+06
8452495638528	1.25124e+06
8521215115264	1.25124e+06
8589934592000	1.25124e+06
8658654068736	1.25124e+06
8727373545472	1.25124e+06
8796093022208	1.25124e+06
8933531975680	1.25124e+06
9070970929152	1.25124e+06
9208409882624	1.25124e+06
9345848836096	1.25124e+06
9483287789568	1.25124e+06
9620726743040	1.25124e+06
9758165696512	1.25124e+06
9895604649984	1.25124e+06
10033043603456	1.25124e+06
10170482556928	1.25124e+06
10307921510400	1.25124e+06
10445360463872	1.25124e+06
10582799417344	1.25124e+06
10720238370816	1.25124e+06
10857677324288	1.25124e+06
10995116277760	1.25124e+06
11132555231232	1.25124e+06
11269994184704	1.25124e+06
11407433138176	1.25124e+06
11544872091648	1.25124e+06
11682311045120	1.25124e+06
11819749998592	1.25124e+06
11957188952064	1.25124e+06
12094627905536	1.25124e+06
12232066859008	1.25124e+06
12369505812480	1.25124e+06
12506944765952	1.25124e+06
12644383719424	1.25124e+06
12781822672896	1.25124e+06
12919261626368	1.25124e+06
13056700579840	1.25124e+06
13194139533312	1.25124e+06
13331578486784	1.25124e+06
13469017440256	1.25124e+06
13606456393728	1.25124e+06
13743895347200	1.25124e+06
13881334300672	1.25124e+06
14018773254144	1.25124e+06
14156212207616	1.25124e+06
14293651161088	1.25124e+06
14431090114560	1.25124e+06
14568529068032	1.25124e+06
14705968021504	1.25124e+06
14843406974976	1.25124e+06
14980845928448	1.25124e+06
15118284881920	1.25124e+06
15255723835392	1.25124e+06
15393162788864	1.25124e+06
15530601742336	1.25124e+06
15668040695808	1.25124e+06
15805479649280	1.25124e+06
15942918602752	1.25124e+06
16080357556224	1.25124e+06
16217796509696	1.25124e+06
16355235463168	1.25124e+06
16492674416640	1.25124e+06
16630113370112	1.25124e+06
16767552323584	1.25124e+06
16904991277056	1.25124e+06
17042430230528	1.25124e+06
17179869184000	1.25124e+06
17317308137472	1.25124e+06
17454747090944	1.25124e+06
17592186044416	1.25124e+06
17867063951360	1.25124e+06
18141941858304	1.25124e+06
18416819765248	1.25124e+06
18691697672192	1.25124e+06
18966575579136	1.25124e+06
19241453486080	1.25124e+06
19516331393024	1.25124e+06
19791209299968	1.25124e+06
20066087206912	1.25124e+06
20340965113856	1.25124e+06
20615843020800	1.25124e+06
20890720927744	1.25124e+06
21165598834688	1.25124e+06
21440476741632	1.25124e+06
21715354648576	1.25124e+06
21990232555520	1.25124e+06
22265110462464	1.25124e+06
22539988369408	1.25124e+06
22814866276352	1.25124e+06
23089744183296	1.25124e+06
23364622090240	1.25124e+06
23639499997184	1.25124e+06
23914377904128	1.25124e+06
24189255811072	1.25124e+06
24464133718016	1.25124e+06
24739011624960	1.25124e+06
25013889531904	1.25124e+06
25288767438848	1.25124e+06
25563645345792	1.25124e+06
25838523252736	1.25124e+06
26113401159680	1.25124e+06
26388279066624	1.25124e+06
26663156973568	1.25124e+06
26938034880512	1.25124e+06
27212912787456	1.25124e+06
27487790694400	1.25124e+06
27762668601344	1.25124e+06
28037546508288	1.25124e+06
28312424415232	1.25124e+06
28587302322176	1.25124e+06
28862180229120	1.25124e+06
29137058136064	1.25124e+06
29411936043008	1.25124e+06
29686813949952	1.25124e+06
29961691856896	1.25124e+06
30236569763840	1.25124e+06
30511447670784	1.25124e+06
30786325577728	1.25124e+06
31061203484672	1.25124e+06
31336081391616	1.25124e+06
31610959298560	1.25124e+06
31885837205504	1.25124e+06
32160715112448	1.25124e+06
32435593019392	1.25124e+06
32710470926336	1.25124e+06
32985348833280	1.25124e+06
33260226740224	1.25124e+06
33535104647168	1.25124e+06
33809982554112	1.25124e+06
34084860461056	1.25124e+06
34359738368000	1.25124e+06
34634616274944	1.25124e+06
34909494181888	1.25124e+06
35184372088832	1.25124e+06
35734127902720	1.25124e+06
36283883716608	1.25124e+06
36833639530496	1.25124e+06
37383395344384	1.25124e+06
37933151158272	1.25124e+06
38482906972160	1.25124e+06
39032662786048	1.25124e+06
39582418599936	1.25124e+06
40132174413824	1.25124e+06
40681930227712	1.25124e+06
41231686041600	1.25124e+06
41781441855488	1.25124e+06
42331197669376	1.25124e+06
42880953483264	1.25124e+06
43430709297152	1.25124e+06
43980465111040	1.25124e+06
44530220924928	1.25124e+06
45079976738816	1.25124e+06
45629732552704	1.25124e+06
46179488366592	1.25124e+06
46729244180480	1.25124e+06
47278999994368	1.25124e+06
47828755808256	1.25124e+06
48378511622144	1.25124e+06
48928267436032	1.25124e+06
49478023249920	1.25124e+06
50027779063808	1.25124e+06
50577534877696	1.25124e+06
51127290691584	1.25124e+06
51677046505472	1.25124e+06
52226802319360	1.25124e+06
52776558133248	1.25124e+06
53326313947136	1.25124e+06
53876069761024	1.25124e+06
54425825574912	1.25124e+06
54975581388800	1.25124e+06
55525337202688	1.25124e+06
56075093016576	1.25124e+06
56624848830464	1.25124e+06
57174604644352	1.25124e+06
57724360458240	1.25124e+06
58274116272128	1.25124e+06
58823872086016	1.25124e+06
59373627899904	1.25124e+06
59923383713792	1.25124e+06
60473139527680	1.25124e+06
61022895341568	1.25124e+06
61572651155456	1.25124e+06
62122406969344	1.25124e+06
62672162783232	1.25124e+06
63221918597120	1.25124e+06
63771674411008	1.25124e+06
64321430224896	1.25124e+06
64871186038784	1.25124e+06
65420941852672	1.25124e+06
65970697666560	1.25124e+06
66520453480448	1.25124e+06
67070209294336	1.25124e+06
67619965108224	1.25124e+06
68169720922112	1.25124e+06
68719476736000	1.25124e+06
69269232549888	1.25124e+06
69818988363776	1.25124e+06
70368744177664	1.25124e+06
71468255805440	1.25124e+06
72567767433216	1.25124e+06
73667279060992	1.25124e+06
74766790688768	1.25124e+06
75866302316544	1.25124e+06
76965813944320	1.25124e+06
78065325572096	1.25124e+06
79164837199872	1.25124e+06
80264348827648	1.25124e+06
81363860455424	1.25124e+06
82463372083200	1.25124e+06
83562883710976	1.25124e+06
84662395338752	1.25124e+06
85761906966528	1.25124e+06
86861418594304	1.25124e+06
87960930222080	1.25124e+06
89060441849856	1.25124e+06
90159953477632	1.25124e+06
91259465105408	1.25124e+06
92358976733184	1.25124e+06
93458488360960	1.25124e+06
94557999988736	1.25124e+06
95657511616512	1.25124e+06
96757023244288	1.25124e+06
97856534872064	1.25124e+06
98956046499840	1.25124e+06
100055558127616	1.25124e+06
101155069755392	1.25124e+06
102254581383168	1.25124e+06
103354093010944	1.25124e+06
104453604638720	1.25124e+06
105553116266496	1.25124e+06
106652627894272	1.25124e+06
107752139522048	1.25124e+06
108851651149824	1.25124e+06
109951162777600	1.25124e+06
111050674405376	1.25124e+06
112150186033152	1.25124e+06
113249697660928	1.25124e+06
114349209288704	1.25124e+06
115448720916480	1.25124e+06
116548232544256	1.25124e+06
117647744172032	1.25124e+06
118747255799808	1.25124e+06
119846767427584	1.25124e+06
120946279055360	1.25124e+06
122045790683136	1.25124e+06
123145302310912	1.25124e+06
124244813938688	1.25124e+06
125344325566464	1.25124e+06
126443837194240	1.25124e+06
127543348822016	1.25124e+06
128642860449792	1.25124e+06
129742372077568	1.25124e+06
130841883705344	1.25124e+06
131941395333120	1.25124e+06
133040906960896	1.25124e+06
134140418588672	1.25124e+06
135239930216448	1.25124e+06
136339441844224	1.25124e+06
137438953472000	1.25124e+06
138538465099776	1.25124e+06
139637976727552	1.25124e+06
140737488355328	1.25124e+06
142936511610880	1.25124e+06
145135534866432	1.25124e+06
147334558121984	1.25124e+06
149533581377536	1.25124e+06
151732604633088	1.25124e+06
153931627888640	1.25124e+06
156130651144192	1.25124e+06
158329674399744	1.25124e+06
160528697655296	1.25124e+06
162727720910848	1.25124e+06
164926744166400	1.25124e+06
167125767421952	1.25124e+06
169324790677504	1.25124e+06
171523813933056	1.25124e+06
173722837188608	1.25124e+06
175921860444160	1.25124e+06
178120883699712	1.25124e+06
180319906955264	1.25124e+06
182518930210816	1.25124e+06
184717953466368	1.25124e+06
186916976721920	1.25124e+06
189115999977472	1.25124e+06
191315023233024	1.25124e+06
193514046488576	1.25124e+06
195713069744128	1.25124e+06
197912092999680	1.25124e+06
200111116255232	1.25124e+06
202310139510784	1.25124e+06
204509162766336	1.25124e+06
206708186021888	1.25124e+06
208907209277440	1.25124e+06
211106232532992	1.25124e+06
213305255788544	1.25124e+06
215504279044096	1.25124e+06
217703302299648	1.25124e+06
219902325555200	1.25124e+06
222101348810752	1.25124e+06
224300372066304	1.25124e+06
226499395321856	1.25124e+06
228698418577408	1.25124e+06
230897441832960	1.25124e+06
233096465088512	1.25124e+06
235295488344064	1.25124e+06
237494511599616	1.25124e+06
239693534855168	1.25124e+06
241892558110720	1.25124e+06
244091581366272	1.25124e+06
246290604621824	1.25124e+06
248489627877376	1.25124e+06
250688651132928	1.25124e+06
252887674388480	1.25124e+06
255086697644032	1.25124e+06
257285720899584	1.25124e+06
259484744155136	1.25124e+06
261683767410688	1.25124e+06
263882790666240	1.25124e+06
266081813921792	1.25124e+06
268280837177344	1.25124e+06
270479860432896	1.25124e+06
272678883688448	1.25124e+06
274877906944000	1.25124e+06
277076930199552	1.25124e+06
279275953455104	1.25124e+06
281474976710656	1.25124e+06
285873023221760	1.25124e+06
290271069732864	1.25124e+06
294669116243968	1.25124e+06
299067162755072	1.25124e+06
303465209266176	1.25124e+06
307863255777280	1.25124e+06
312261302288384	1.25124e+06
316659348799488	1.25124e+06
321057395310592	1.25124e+06
325455441821696	1.25124e+06
329853488332800	1.25124e+06
334251534843904	1.25124e+06
338649581355008	1.25124e+06
343047627866112	1.25124e+06
347445674377216	1.25124e+06
351843720888320	1.25124e+06
356241767399424	1.25124e+06
360639813910528	1.25124e+06
365037860421632	1.25124e+06
369435906932736	1.25124e+06
373833953443840	1.25124e+06
378231999954944	1.25124e+06
382630046466048	1.25124e+06
387028092977152	1.25124e+06
391426139488256	1.25124e+06
395824185999360	1.25124e+06
400222232510464	1.25124e+06
404620279021568	1.25124e+06
409018325532672	1.25124e+06
413416372043776	1.25124e+06
417814418554880	1.25124e+06
422212465065984	1.25124e+06
426610511577088	1.25124e+06
431008558088192	1.25124e+06
435406604599296	1.25124e+06
439804651110400	1.25124e+06
444202697621504	1.25124e+06
448600744132608	1.25124e+06
452998790643712	1.25124e+06
457396837154816	1.25124e+06
461794883665920	1.25124e+06
466192930177024	1.25124e+06
470590976688128	1.25124e+06
474989023199232	1.25124e+06
479387069710336	1.25124e+06
483785116221440	1.25124e+06
488183162732544	1.25124e+06
492581209243648	1.25124e+06
496979255754752	1.25124e+06
501377302265856	1.25124e+06
505775348776960	1.25124e+06
510173395288064	1.25124e+06
514571441799168	1.25124e+06
518969488310272	1.25124e+06
523367534821376	1.25124e+06
527765581332480	1.25124e+06
532163627843584	1.25124e+06
536561674354688	1.25124e+06
540959720865792	1.25124e+06
545357767376896	1.25124e+06
549755813888000	1.25124e+06
554153860399104	1.25124e+06
558551906910208	1.25124e+06
562949953421312	1.25124e+06
571746046443520	1.25124e+06
580542139465728	1.25124e+06
589338232487936	1.25124e+06
598134325510144	1.25124e+06
606930418532352	1.25124e+06
615726511554560	1.25124e+06
624522604576768	1.25124e+06
633318697598976	1.25124e+06
642114790621184	1.25124e+06
650910883643392	1.25124e+06
659706976665600	1.25124e+06
668503069687808	1.25124e+06
677299162710016	1.25124e+06
686095255732224	1.25124e+06
694891348754432	1.25124e+06
703687441776640	1.25124e+06
712483534798848	1.25124e+06
721279627821056	1.25124e+06
730075720843264	1.25124e+06
738871813865472	1.25124e+06
747667906887680	1.25124e+06
756463999909888	1.25124e+06
765260092932096	1.25124e+06
774056185954304	1.25124e+06
782852278976512	1.25124e+06
791648371998720	1.25124e+06
800444465020928	1.25124e+06
809240558043136	1.25124e+06
818036651065344	1.25124e+06
826832744087552	1.25124e+06
835628837109760	1.25124e+06
844424930131968	1.25124e+06
853221023154176	1.25124e+06
862017116176384	1.25124e+06
870813209198592	1.25124e+06
879609302220800	1.25124e+06
888405395243008	1.25124e+06
897201488265216	1.25124e+06
905997581287424	1.25124e+06
914793674309632	1.25124e+06
923589767331840	1.25124e+06
932385860354048	1.25124e+06
941181953376256	1.25124e+06
949978046398464	1.25124e+06
958774139420672	1.25124e+06
967570232442880	1.25124e+06
976366325465088	1.25124e+06
985162418487296	1.25124e+06
993958511509504	1.25124e+06
1002754604531712	1.25124e+06
1011550697553920	1.25124e+06
1020346790576128	1.25124e+06
1029142883598336	1.25124e+06
1037938976620544	1.25124e+06
1046735069642752	1.25124e+06
1055531162664960	1.25124e+06
1064327255687168	1.25124e+06
1073123348709376	1.25124e+06
1081919441731584	1.25124e+06
1090715534753792	1.25124e+06
1099511627776000	1.25124e+06
1108307720798208	1.25124e+06
1117103813820416	1.25124e+06
1125899906842624	1.25124e+06
1143492092887040	1.25124e+06
1161084278931456	1.25124e+06
1178676464975872	1.25124e+06
1196268651020288	1.25124e+06
1213860837064704	1.25124e+06
1231453023109120	1.25124e+06
1249045209153536	1.25124e+06
1266637395197952	1.25124e+06
1284229581242368	1.25124e+06
1301821767286784	1.25124e+06
1319413953331200	1.25124e+06
1337006139375616	1.25124e+06
1354598325420032	1.25124e+06
1372190511464448	1.25124e+06
1389782697508864	1.25124e+06
1407374883553280	1.25124e+06
1424967069597696	1.25124e+06
1442559255642112	1.25124e+06
1460151441686528	1.25124e+06
1477743627730944	1.25124e+06
1495335813775360	1.25124e+06
1512927999819776	1.25124e+06
1530520185864192	1.25124e+06
1548112371908608	1.25124e+06
1565704557953024	1.25124e+06
1583296743997440	1.25124e+06
1600888930041856	1.25124e+06
1618481116086272	1.25124e+06
1636073302130688	1.25124e+06
1653665488175104	1.25124e+06
1671257674219520	1.25124e+06
1688849860263936	1.25124e+06
1706442046308352	1.25124e+06
1724034232352768	1.25124e+06
1741626418397184	1.25124e+06
1759218604441600	1.25124e+06
1776810790486016	1.25124e+06
1794402976530432	1.25124e+06
1811995162574848	1.25124e+06
1829587348619264	1.25124e+06
1847179534663680	1.25124e+06
1864771720708096	1.25124e+06
1882363906752512	1.25124e+06
1899956092796928	1.25124e+06
1917548278841344	1.25124e+06
1935140464885760	1.25124e+06
1952732650930176	1.25124e+06
1970324836974592	1.25124e+06
1987917023019008	1.25124e+06
2005509209063424	1.25124e+06
2023101395107840	1.25124e+06
2040693581152256	1.25124e+06
2058285767196672	1.25124e+06
2075877953241088	1.25124e+06
2093470139285504	1.25124e+06
2111062325329920	1.25124e+06
2128654511374336	1.25124e+06
2146246697418752	1.25124e+06
2163838883463168	1.25124e+06
2181431069507584	1.25124e+06
2199023255552000	1.25124e+06
2216615441596416	1.25124e+06
2234207627640832	1.25124e+06
2251799813685248	1.25124e+06
2286984185774080	1.25124e+06
2322168557862912	1.25124e+06
2357352929951744	1.25124e+06
2392537302040576	1.25124e+06
2427721674129408	1.25124e+06
2462906046218240	1.25124e+06
2498090418307072	1.25124e+06
2533274790395904	1.25124e+06
2568459162484736	1.25124e+06
2603643534573568	1.25124e+06
2638827906662400	1.25124e+06
2674012278751232	1.25124e+06
2709196650840064	1.25124e+06
2744381022928896	1.25124e+06
2779565395017728	1.25124e+06
2814749767106560	1.25124e+06
2849934139195392	1.25124e+06
2885118511284224	1.25124e+06
2920302883373056	1.25124e+06
2955487255461888	1.25124e+06
2990671627550720	1.25124e+06
3025855999639552	1.25124e+06
3061040371728384	1.25124e+06
3096224743817216	1.25124e+06
3131409115906048	1.25124e+06
3166593487994880	1.25124e+06
3201777860083712	1.25124e+06
3236962232172544	1.25124e+06
3272146604261376	1.25124e+06
3307330976350208	1.25124e+06
3342515348439040	1.25124e+06
3377699720527872	1.25124e+06
3412884092616704	1.25124e+06
3448068464705536	1.25124e+06
3483252836794368	1.25124e+06
3518437208883200	1.25124e+06
3553621580972032	1.25124e+06
3588805953060864	1.25124e+06
3623990325149696	1.25124e+06
3659174697238528	1.25124e+06
3694359069327360	1.25124e+06
3729543441416192	1.25124e+06
3764727813505024	1.25124e+06
3799912185593856	1.25124e+06
3835096557682688	1.25124e+06
3870280929771520	1.25124e+06
3905465301860352	1.25124e+06
3940649673949184	1.25124e+06
3975834046038016	1.25124e+06
4011018418126848	1.25124e+06
4046202790215680	1.25124e+06
4081387162304512	1.25124e+06
4116571534393344	1.25124e+06
4151755906482176	1.25124e+06
4186940278571008	1.25124e+06
4222124650659840	1.25124e+06
4257309022748672	1.25124e+06
4292493394837504	1.25124e+06
4327677766926336	1.25124e+06
4362862139015168	1.25124e+06
4398046511104000	1.25124e+06
4433230883192832	1.25124e+06
4468415255281664	1.25124e+06
4503599627370496	1.25124e+06
4573968371548160	1.25124e+06
4644337115725824	1.25124e+06
4714705859903488	1.25124e+06
4785074604081152	1.25124e+06
4855443348258816	1.25124e+06
4925812092436480	1.25124e+06
4996180836614144	1.25124e+06
5066549580791808	1.25124e+06
5136918324969472	1.25124e+06
5207287069147136	1.25124e+06
5277655813324800	1.25124e+06
5348024557502464	1.25124e+06
5418393301680128	1.25124e+06
5488762045857792	1.25124e+06
5559130790035456	1.25124e+06
5629499534213120	1.25124e+06
5699868278390784	1.25124e+06
5770237022568448	1.25124e+06
5840605766746112	1.25124e+06
5910974510923776	1.25124e+06
5981343255101440	1.25124e+06
6051711999279104	1.25124e+06
6122080743456768	1.25124e+06
6192449487634432	1.25124e+06
6262818231812096	1.25124e+06
6333186975989760	1.25124e+06
6403555720167424	1.25124e+06
6473924464345088	1.25124e+06
6544293208522752	1.25124e+06
6614661952700416	1.25124e+06
6685030696878080	1.25124e+06
6755399441055744	1.25124e+06
6825768185233408	1.25124e+06
6896136929411072	1.25124e+06
6966505673588736	1.25124e+06
7036874417766400	1.25124e+06
7107243161944064	1.25124e+06
7177611906121728	1.25124e+06
7247980650299392	1.25124e+06
7318349394477056	1.25124e+06
7388718138654720	1.25124e+06
7459086882832384	1.25124e+06
7529455627010048	1.25124e+06
7599824371187712	1.25124e+06
7670193115365376	1.25124e+06
7740561859543040	1.25124e+06
7810930603720704	1.25124e+06
7881299347898368	1.25124e+06
7951668092076032	1.25124e+06
8022036836253696	1.25124e+06
8092405580431360	1.25124e+06
8162774324609024	1.25124e+06
8233143068786688	1.25124e+06
8303511812964352	1.25124e+06
8373880557142016	1.25124e+06
8444249301319680	1.25124e+06
8514618045497344	1.25124e+06
8584986789675008	1.25124e+06
8655355533852672	1.25124e+06
8725724278030336	1.25124e+06
8796093022208000	1.25124e+06
8866461766385664	1.25124e+06
8936830510563328	1.25124e+06
9007199254740992	1.25124e+06
9147936743096320	1.25124e+06
9288674231451648	1.25124e+06
9429411719806976	1.25124e+06
9570149208162304	1.25124e+06
9710886696517632	1.25124e+06
9851624184872960	1.25124e+06
9992361673228288	1.25124e+06
10133099161583616	1.25124e+06
10273836649938944	1.25124e+06
10414574138294272	1.25124e+06
10555311626649600	1.25124e+06
10696049115004928	1.25124e+06
10836786603360256	1.25124e+06
10977524091715584	1.25124e+06
11118261580070912	1.25124e+06
11258999068426240	1.25124e+06
11399736556781568	1.25124e+06
11540474045136896	1.25124e+06
11681211533492224	1.25124e+06
11821949021847552	1.25124e+06
11962686510202880	1.25124e+06
12103423998558208	1.25124e+06
12244161486913536	1.25124e+06
12384898975268864	1.25124e+06
12525636463624192	1.25124e+06
12666373951979520	1.25124e+06
12807111440334848	1.25124e+06
12947848928690176	1.25124e+06
13088586417045504	1.25124e+06
13229323905400832	1.25124e+06
13370061393756160	1.25124e+06
13510798882111488	1.25124e+06
13651536370466816	1.25124e+06
13792273858822144	1.25124e+06
13933011347177472	1.25124e+06
14073748835532800	1.25124e+06
14214486323888128	1.25124e+06
14355223812243456	1.25124e+06
14495961300598784	1.25124e+06
14636698788954112	1.25124e+06
14777436277309440	1.25124e+06
14918173765664768	1.25124e+06
15058911254020096	1.25124e+06
15199648742375424	1.25124e+06
15340386230730752	1.25124e+06
15481123719086080	1.25124e+06
15621861207441408	1.25124e+06
15762598695796736	1.25124e+06
15903336184152064	1.25124e+06
16044073672507392	1.25124e+06
16184811160862720	1.25124e+06
16325548649218048	1.25124e+06
16466286137573376	1.25124e+06
16607023625928704	1.25124e+06
16747761114284032	1.25124e+06
16888498602639360	1.25124e+06
17029236090994688	1.25124e+06
17169973579350016	1.25124e+06
17310711067705344	1.25124e+06
17451448556060672	1.25124e+06
17592186044416000	1.25124e+06
17732923532771328	1.25124e+06
17873661021126656	1.25124e+06
18014398509481984	1.25124e+06
18295873486192640	1.25124e+06
18577348462903296	1.25124e+06
18858823439613952	1.25124e+06
19140298416324608	1.25124e+06
19421773393035264	1.25124e+06
19703248369745920	1.25124e+06
19984723346456576	1.25124e+06
20266198323167232	1.25124e+06
20547673299877888	1.25124e+06
20829148276588544	1.25124e+06
21110623253299200	1.25124e+06
21392098230009856	1.25124e+06
21673573206720512	1.25124e+06
21955048183431168	1.25124e+06
22236523160141824	1.25124e+06
22517998136852480	1.25124e+06
22799473113563136	1.25124e+06
23080948090273792	1.25124e+06
23362423066984448	1.25124e+06
23643898043695104	1.25124e+06
23925373020405760	1.25124e+06
24206847997116416	1.25124e+06
24488322973827072	1.25124e+06
24769797950537728	1.25124e+06
25051272927248384	1.25124e+06
25332747903959040	1.25124e+06
25614222880669696	1.25124e+06
25895697857380352	1.25124e+06
26177172834091008	1.25124e+06
26458647810801664	1.25124e+06
26740122787512320	1.25124e+06
27021597764222976	1.25124e+06
27303072740933632	1.25124e+06
27584547717644288	1.25124e+06
27866022694354944	1.25124e+06
28147497671065600	1.25124e+06
28428972647776256	1.25124e+06
28710447624486912	1.25124e+06
28991922601197568	1.25124e+06
29273397577908224	1.25124e+06
29554872554618880	1.25124e+06
29836347531329536	1.25124e+06
30117822508040192	1.25124e+06
30399297484750848	1.25124e+06
30680772461461504	1.25124e+06
30962247438172160	1.25124e+06
31243722414882816	1.25124e+06
31525197391593472	1.25124e+06
31806672368304128	1.25124e+06
32088147345014784	1.25124e+06
32369622321725440	1.25124e+06
32651097298436096	1.25124e+06
32932572275146752	1.25124e+06
33214047251857408	1.25124e+06
33495522228568064	1.25124e+06
33776997205278720	1.25124e+06
34058472181989376	1.25124e+06
34339947158700032	1.25124e+06
34621422135410688	1.25124e+06
34902897112121344	1.25124e+06
35184372088832000	1.25124e+06
35465847065542656	1.25124e+06
35747322042253312	1.25124e+06
36028797018963968	1.25124e+06
36591746972385280	1.25124e+06
37154696925806592	1.25124e+06
37717646879227904	1.25124e+06
38280596832649216	1.25124e+06
38843546786070528	1.25124e+06
39406496739491840	1.25124e+06
39969446692913152	1.25124e+06
40532396646334464	1.25124e+06
41095346599755776	1.25124e+06
41658296553177088	1.25124e+06
42221246506598400	1.25124e+06
42784196460019712	1.25124e+06
43347146413441024	1.25124e+06
43910096366862336	1.25124e+06
44473046320283648	1.25124e+06
45035996273704960	1.25124e+06
45598946227126272	1.25124e+06
46161896180547584	1.25124e+06
46724846133968896	1.25124e+06
47287796087390208	1.25124e+06
47850746040811520	1.25124e+06
48413695994232832	1.25124e+06
48976645947654144	1.25124e+06
49539595901075456	1.25124e+06
50102545854496768	1.25124e+06
50665495807918080	1.25124e+06
51228445761339392	1.25124e+06
51791395714760704	1.25124e+06
52354345668182016	1.25124e+06
52917295621603328	1.25124e+06
53480245575024640	1.25124e+06
54043195528445952	1.25124e+06
54606145481867264	1.25124e+06
55169095435288576	1.25124e+06
55732045388709888	1.25124e+06
56294995342131200	1.25124e+06
56857945295552512	1.25124e+06
57420895248973824	1.25124e+06
57983845202395136	1.25124e+06
58546795155816448	1.25124e+06
59109745109237760	1.25124e+06
59672695062659072	1.25124e+06
60235645016080384	1.25124e+06
60798594969501696	1.25124e+06
61361544922923008	1.25124e+06
61924494876344320	1.25124e+06
62487444829765632	1.25124e+06
63050394783186944	1.25124e+06
63613344736608256	1.25124e+06
64176294690029568	1.25124e+06
64739244643450880	1.25124e+06
65302194596872192	1.25124e+06
65865144550293504	1.25124e+06
66428094503714816	1.25124e+06
66991044457136128	1.25124e+06
67553994410557440	1.25124e+06
68116944363978752	1.25124e+06
68679894317400064	1.25124e+06
69242844270821376	1.25124e+06
69805794224242688	1.25124e+06
70368744177664000	1.25124e+06
70931694131085312	1.25124e+06
71494644084506624	1.25124e+06
72057594037927936	1.25124e+06
73183493944770560	1.25124e+06
74309393851613184	1.25124e+06
75435293758455808	1.25124e+06
76561193665298432	1.25124e+06
77687093572141056	1.25124e+06
78812993478983680	1.25124e+06
79938893385826304	1.25124e+06
81064793292668928	1.25124e+06
82190693199511552	1.25124e+06
83316593106354176	1.25124e+06
84442493013196800	1.25124e+06
85568392920039424	1.25124e+06
86694292826882048	1.25124e+06
87820192733724672	1.25124e+06
88946092640567296	1.25124e+06
90071992547409920	1.25124e+06
91197892454252544	1.25124e+06
92323792361095168	1.25124e+06
93449692267937792	1.25124e+06
94575592174780416	1.25124e+06
95701492081623040	1.25124e+06
96827391988465664	1.25124e+06
97953291895308288	1.25124e+06
99079191802150912	1.25124e+06
100205091708993536	1.25124e+06
101330991615836160	1.25124e+06
102456891522678784	1.25124e+06
103582791429521408	1.25124e+06
104708691336364032	1.25124e+06
105834591243206656	1.25124e+06
106960491150049280	1.25124e+06
108086391056891904	1.25124e+06
109212290963734528	1.25124e+06
110338190870577152	1.25124e+06
111464090777419776	1.25124e+06
112589990684262400	1.25124e+06
113715890591105024	1.25124e+06
114841790497947648	1.25124e+06
115967690404790272	1.25124e+06
117093590311632896	1.25124e+06
118219490218475520	1.25124e+06
119345390125318144	1.25124e+06
120471290032160768	1.25124e+06
121597189939003392	1.25124e+06
122723089845846016	1.25124e+06
123848989752688640	1.25124e+06
124974889659531264	1.25124e+06
126100789566373888	1.25124e+06
127226689473216512	1.25124e+06
128352589380059136	1.25124e+06
129478489286901760	1.25124e+06
130604389193744384	1.25124e+06
131730289100587008	1.25124e+06
132856189007429632	1.25124e+06
133982088914272256	1.25124e+06
135107988821114880	1.25124e+06
136233888727957504	1.25124e+06
137359788634800128	1.25124e+06
138485688541642752	1.25124e+06
139611588448485376	1.25124e+06
140737488355328000	1.25124e+06
141863388262170624	1.25124e+06
142989288169013248	1.25124e+06
144115188075855872	1.25124e+06
146366987889541120	1.25124e+06
148618787703226368	1.25124e+06
150870587516911616	1.25124e+06
153122387330596864	1.25124e+06
155374187144282112	1.25124e+06
157625986957967360	1.25124e+06
159877786771652608	1.25124e+06
162129586585337856	1.25124e+06
164381386399023104	1.25124e+06
166633186212708352	1.25124e+06
168884986026393600	1.25124e+06
171136785840078848	1.25124e+06
173388585653764096	1.25124e+06
175640385467449344	1.25124e+06
177892185281134592	1.25124e+06
180143985094819840	1.25124e+06
182395784908505088	1.25124e+06
184647584722190336	1.25124e+06
186899384535875584	1.25124e+06
189151184349560832	1.25124e+06
191402984163246080	1.25124e+06
193654783976931328	1.25124e+06
195906583790616576	1.25124e+06
198158383604301824	1.25124e+06
200410183417987072	1.25124e+06
202661983231672320	1.25124e+06
204913783045357568	1.25124e+06
207165582859042816	1.25124e+06
209417382672728064	1.25124e+06
211669182486413312	1.25124e+06
213920982300098560	1.25124e+06
216172782113783808	1.25124e+06
218424581927469056	1.25124e+06
220676381741154304	1.25124e+06
222928181554839552	1.25124e+06
225179981368524800	1.25124e+06
227431781182210048	1.25124e+06
229683580995895296	1.25124e+06
231935380809580544	1.25124e+06
234187180623265792	1.25124e+06
236438980436951040	1.25124e+06
238690780250636288	1.25124e+06
240942580064321536	1.25124e+06
243194379878006784	1.25124e+06
245446179691692032	1.25124e+06
247697979505377280	1.25124e+06
249949779319062528	1.25124e+06
252201579132747776	1.25124e+06
254453378946433024	1.25124e+06
256705178760118272	1.25124e+06
258956978573803520	1.25124e+06
261208778387488768	1.25124e+06
263460578201174016	1.25124e+06
265712378014859264	1.25124e+06
267964177828544512	1.25124e+06
270215977642229760	1.25124e+06
272467777455915008	1.25124e+06
274719577269600256	1.25124e+06
276971377083285504	1.25124e+06
279223176896970752	1.25124e+06
281474976710656000	1.25124e+06
283726776524341248	1.25124e+06
285978576338026496	1.25124e+06
288230376151711744	1.25124e+06
292733975779082240	1.25124e+06
297237575406452736	1.25124e+06
301741175033823232	1.25124e+06
306244774661193728	1.25124e+06
310748374288564224	1.25124e+06
315251973915934720	1.25124e+06
319755573543305216	1.25124e+06
324259173170675712	1.25124e+06
328762772798046208	1.25124e+06
333266372425416704	1.25124e+06
337769972052787200	1.25124e+06
342273571680157696	1.25124e+06
346777171307528192	1.25124e+06
351280770934898688	1.25124e+06
355784370562269184	1.25124e+06
360287970189639680	1.25124e+06
364791569817010176	1.25124e+06
369295169444380672	1.25124e+06
373798769071751168	1.25124e+06
378302368699121664	1.25124e+06
382805968326492160	1.25124e+06
387309567953862656	1.25124e+06
391813167581233152	1.25124e+06
396316767208603648	1.25124e+06
400820366835974144	1.25124e+06
405323966463344640	1.25124e+06
409827566090715136	1.25124e+06
414331165718085632	1.25124e+06
418834765345456128	1.25124e+06
423338364972826624	1.25124e+06
427841964600197120	1.25124e+06
432345564227567616	1.25124e+06
436849163854938112	1.25124e+06
441352763482308608	1.25124e+06
445856363109679104	1.25124e+06
450359962737049600	1.25124e+06
454863562364420096	1.25124e+06
459367161991790592	1.25124e+06
463870761619161088	1.25124e+06
468374361246531584	1.25124e+06
472877960873902080	1.25124e+06
477381560501272576	1.25124e+06
481885160128643072	1.25124e+06
486388759756013568	1.25124e+06
490892359383384064	1.25124e+06
495395959010754560	1.25124e+06
499899558638125056	1.25124e+06
504403158265495552	1.25124e+06
508906757892866048	1.25124e+06
513410357520236544	1.25124e+06
517913957147607040	1.25124e+06
522417556774977536	1.25124e+06
526921156402348032	1.25124e+06
531424756029718528	1.25124e+06
535928355657089024	1.25124e+06
540431955284459520	1.25124e+06
544935554911830016	1.25124e+06
549439154539200512	1.25124e+06
553942754166571008	1.25124e+06
558446353793941504	1.25124e+06
562949953421312000	1.25124e+06
567453553048682496	1.25124e+06
571957152676052992	1.25124e+06
576460752303423488	1.25124e+06
585467951558164480	1.25124e+06
594475150812905472	1.25124e+06
603482350067646464	1.25124e+06
612489549322387456	1.25124e+06
621496748577128448	1.25124e+06
630503947831869440	1.25124e+06
639511147086610432	1.25124e+06
648518346341351424	1.25124e+06
657525545596092416	1.25124e+06
666532744850833408	1.25124e+06
675539944105574400	1.25124e+06
684547143360315392	1.25124e+06
693554342615056384	1.25124e+06
702561541869797376	1.25124e+06
711568741124538368	1.25124e+06
720575940379279360	1.25124e+06
729583139634020352	1.25124e+06
738590338888761344	1.25124e+06
747597538143502336	1.25124e+06
756604737398243328	1.25124e+06
765611936652984320	1.25124e+06
774619135907725312	1.25124e+06
783626335162466304	1.25124e+06
792633534417207296	1.25124e+06
801640733671948288	1.25124e+06
810647932926689280	1.25124e+06
819655132181430272	1.25124e+06
828662331436171264	1.25124e+06
837669530690912256	1.25124e+06
846676729945653248	1.25124e+06
855683929200394240	1.25124e+06
864691128455135232	1.25124e+06
873698327709876224	1.25124e+06
882705526964617216	1.25124e+06
891712726219358208	1.25124e+06
900719925474099200	1.25124e+06
909727124728840192	1.25124e+06
918734323983581184	1.25124e+06
927741523238322176	1.25124e+06
936748722493063168	1.25124e+06
945755921747804160	1.25124e+06
954763121002545152	1.25124e+06
963770320257286144	1.25124e+06
972777519512027136	1.25124e+06
981784718766768128	1.25124e+06
990791918021509120	1.25124e+06
999799117276250112	1.25124e+06
1008806316530991104	1.25124e+06
1017813515785732096	1.25124e+06
1026820715040473088	1.25124e+06
1035827914295214080	1.25124e+06
1044835113549955072	1.25124e+06
1053842312804696064	1.25124e+06
1062849512059437056	1.25124e+06
1071856711314178048	1.25124e+06
1080863910568919040	1.25124e+06
1089871109823660032	1.25124e+06
1098878309078401024	1.25124e+06
1107885508333142016	1.25124e+06
1116892707587883008	1.25124e+06
1125899906842624000	1.25124e+06
1134907106097364992	1.25124e+06
1143914305352105984	1.25124e+06
1152921504606846976	1.25124e+06
1170935903116328960	1.25124e+06
1188950301625810944	1.25124e+06
1206964700135292928	1.25124e+06
1224979098644774912	1.25124e+06
1242993497154256896	1.25124e+06
1261007895663738880	1.25124e+06
1279022294173220864	1.25124e+06
1297036692682702848	1.25124e+06
1315051091192184832	1.25124e+06
1333065489701666816	1.25124e+06
1351079888211148800	1.25124e+06
1369094286720630784	1.25124e+06
1387108685230112768	1.25124e+06
1405123083739594752	1.25124e+06
1423137482249076736	1.25124e+06
1441151880758558720	1.25124e+06
1459166279268040704	1.25124e+06
1477180677777522688	1.25124e+06
1495195076287004672	1.25124e+06
1513209474796486656	1.25124e+06
1531223873305968640	1.25124e+06
1549238271815450624	1.25124e+06
1567252670324932608	1.25124e+06
1585267068834414592	1.25124e+06
1603281467343896576	1.25124e+06
1621295865853378560	1.25124e+06
1639310264362860544	1.25124e+06
1657324662872342528	1.25124e+06
1675339061381824512	1.25124e+06
1693353459891306496	1.25124e+06
1711367858400788480	1.25124e+06
1729382256910270464	1.25124e+06
1747396655419752448	1.25124e+06
1765411053929234432	1.25124e+06
1783425452438716416	1.25124e+06
1801439850948198400	1.25124e+06
1819454249457680384	1.25124e+06
1837468647967162368	1.25124e+06
1855483046476644352	1.25124e+06
1873497444986126336	1.25124e+06
1891511843495608320	1.25124e+06
1909526242005090304	1.25124e+06
1927540640514572288	1.25124e+06
1945555039024054272	1.25124e+06
1963569437533536256	1.25124e+06
1981583836043018240	1.25124e+06
1999598234552500224	1.25124e+06
2017612633061982208	1.25124e+06
2035627031571464192	1.25124e+06
2053641430080946176	1.25124e+06
2071655828590428160	1.25124e+06
2089670227099910144	1.25124e+06
2107684625609392128	1.25124e+06
2125699024118874112	1.25124e+06
2143713422628356096	1.25124e+06
2161727821137838080	1.25124e+06
2179742219647320064	1.25124e+06
2197756618156802048	1.25124e+06
2215771016666284032	1.25124e+06
2233785415175766016	1.25124e+06
2251799813685248000	1.25124e+06
2269814212194729984	1.25124e+06
2287828610704211968	1.25124e+06
2305843009213693952	1.25124e+06
2341871806232657920	1.25124e+06
2377900603251621888	1.25124e+06
2413929400270585856	1.25124e+06
2449958197289549824	1.25124e+06
2485986994308513792	1.25124e+06
2522015791327477760	1.25124e+06
2558044588346441728	1.25124e+06
2594073385365405696	1.25124e+06
2630102182384369664	1.25124e+06
2666130979403333632	1.25124e+06
2702159776422297600	1.25124e+06
2738188573441261568	1.25124e+06
2774217370460225536	1.25124e+06
2810246167479189504	1.25124e+06
2846274964498153472	1.25124e+06
2882303761517117440	1.25124e+06
2918332558536081408	1.25124e+06
2954361355555045376	1.25124e+06
2990390152574009344	1.25124e+06
3026418949592973312	1.25124e+06
3062447746611937280	1.25124e+06
3098476543630901248	1.25124e+06
3134505340649865216	1.25124e+06
3170534137668829184	1.25124e+06
3206562934687793152	1.25124e+06
3242591731706757120	1.25124e+06
3278620528725721088	1.25124e+06
3314649325744685056	1.25124e+06
3350678122763649024	1.25124e+06
3386706919782612992	1.25124e+06
3422735716801576960	1.25124e+06
3458764513820540928	1.25124e+06
3494793310839504896	1.25124e+06
3530822107858468864	1.25124e+06
3566850904877432832	1.25124e+06
3602879701896396800	1.25124e+06
3638908498915360768	1.25124e+06
3674937295934324736	1.25124e+06
3710966092953288704	1.25124e+06
3746994889972252672	1.25124e+06
3783023686991216640	1.25124e+06
3819052484010180608	1.25124e+06
3855081281029144576	1.25124e+06
3891110078048108544	1.25124e+06
3927138875067072512	1.25124e+06
3963167672086036480	1.25124e+06
3999196469105000448	1.25124e+06
4035225266123964416	1.25124e+06
4071254063142928384	1.25124e+06
4107282860161892352	1.25124e+06
4143311657180856320	1.25124e+06
4179340454199820288	1.25124e+06
4215369251218784256	1.25124e+06
4251398048237748224	1.25124e+06
4287426845256712192	1.25124e+06
4323455642275676160	1.25124e+06
4359484439294640128	1.25124e+06
4395513236313604096	1.25124e+06
4431542033332568064	1.25124e+06
4467570830351532032	1.25124e+06
4503599627370496000	1.25124e+06
4539628424389459968	1.25124e+06
4575657221408423936	1.25124e+06
4611686018427387904	1.25124e+06
4683743612465315840	1.25124e+06
4755801206503243776	1.25124e+06
4827858800541171712	1.25124e+06
4899916394579099648	1.25124e+06
4971973988617027584	1.25124e+06
5044031582654955520	1.25124e+06
5116089176692883456	1.25124e+06
5188146770730811392	1.25124e+06
5260204364768739328	1.25124e+06
5332261958806667264	1.25124e+06
5404319552844595200	1.25124e+06
5476377146882523136	1.25124e+06
5548434740920451072	1.25124e+06
5620492334958379008	1.25124e+06
5692549928996306944	1.25124e+06
5764607523034234880	1.25124e+06
5836665117072162816	1.25124e+06
5908722711110090752	1.25124e+06
5980780305148018688	1.25124e+06
6052837899185946624	1.25124e+06
6124895493223874560	1.25124e+06
6196953087261802496	1.25124e+06
6269010681299730432	1.25124e+06
6341068275337658368	1.25124e+06
6413125869375586304	1.25124e+06
6485183463413514240	1.25124e+06
6557241057451442176	1.25124e+06
6629298651489370112	1.25124e+06
6701356245527298048	1.25124e+06
6773413839565225984	1.25124e+06
6845471433603153920	1.25124e+06
6917529027641081856	1.25124e+06
6989586621679009792	1.25124e+06
7061644215716937728	1.25124e+06
7133701809754865664	1.25124e+06
7205759403792793600	1.25124e+06
7277816997830721536	1.25124e+06
7349874591868649472	1.25124e+06
7421932185906577408	1.25124e+06
7493989779944505344	1.25124e+06
7566047373982433280	1.25124e+06
7638104968020361216	1.25124e+06
7710162562058289152	1.25124e+06
7782220156096217088	1.25124e+06
7854277750134145024	1.25124e+06
7926335344172072960	1.25124e+06
7998392938210000896	1.25124e+06
8070450532247928832	1.25124e+06
8142508126285856768	1.25124e+06
8214565720323784704	1.25124e+06
8286623314361712640	1.25124e+06
8358680908399640576	1.25124e+06
8430738502437568512	1.25124e+06
8502796096475496448	1.25124e+06
8574853690513424384	1.25124e+06
8646911284551352320	1.25124e+06
8718968878589280256	1.25124e+06
8791026472627208192	1.25124e+06
8863084066665136128	1.25124e+06
8935141660703064064	1.25124e+06
9007199254740992000	1.25124e+06
9079256848778919936	1.25124e+06
9151314442816847872	1.25124e+06
9223372036854775808	1.25124e+06
9367487224930631680	1.25124e+06
9511602413006487552	1.25124e+06
9655717601082343424	1.25124e+06
9799832789158199296	1.25124e+06
9943947977234055168	1.25124e+06
10088063165309911040	1.25124e+06
10232178353385766912	1.25124e+06
10376293541461622784	1.25124e+06
10520408729537478656	1.25124e+06
10664523917613334528	1.25124e+06
10808639105689190400	1.25124e+06
10952754293765046272	1.25124e+06
11096869481840902144	1.25124e+06
11240984669916758016	1.25124e+06
11385099857992613888	1.25124e+06
11529215046068469760	1.25124e+06
11673330234144325632	1.25124e+06
11817445422220181504	1.25124e+06
11961560610296037376	1.25124e+06
12105675798371893248	1.25124e+06
12249790986447749120	1.25124e+06
12393906174523604992	1.25124e+06
12538021362599460864	1.25124e+06
12682136550675316736	1.25124e+06
12826251738751172608	1.25124e+06
12970366926827028480	1.25124e+06
13114482114902884352	1.25124e+06
13258597302978740224	1.25124e+06
13402712491054596096	1.25124e+06
13546827679130451968	1.25124e+06
13690942867206307840	1.25124e+06
13835058055282163712	1.25124e+06
13979173243358019584	1.25124e+06
14123288431433875456	1.25124e+06
14267403619509731328	1.25124e+06
14411518807585587200	1.25124e+06
14555633995661443072	1.25124e+06
14699749183737298944	1.25124e+06
14843864371813154816	1.25124e+06
14987979559889010688	1.25124e+06
15132094747964866560	1.25124e+06
15276209936040722432	1.25124e+06
15420325124116578304	1.25124e+06
15564440312192434176	1.25124e+06
15708555500268290048	1.25124e+06
15852670688344145920	1.25124e+06
15996785876420001792	1.25124e+06
16140901064495857664	1.25124e+06
16285016252571713536	1.25124e+06
16429131440647569408	1.25124e+06
16573246628723425280	1.25124e+06
16717361816799281152	1.25124e+06
16861477004875137024	1.25124e+06
17005592192950992896	1.25124e+06
17149707381026848768	1.25124e+06
17293822569102704640	1.25124e+06
17437937757178560512	1.25124e+06
17582052945254416384	1.25124e+06
17726168133330272256	1.25124e+06
17870283321406128128	1.25124e+06
18014398509481984000	1.25124e+06
18158513697557839872	1.25124e+06
18302628885633695744	0
