0	0
1	1
2	1.47082
3	1.941
4	2.41066
5	2.87943
6	3.34664
7	3.81218
8	4.27675
9	4.74077
10	5.20425
11	5.66687
12	6.12844
13	6.58913
14	7.04904
15	7.50832
16	7.96695
17	8.42486
18	8.88213
19	9.33883
20	9.79493
21	10.2504
22	10.7052
23	11.1594
24	11.6132
25	12.0666
26	12.5195
27	12.9718
28	13.4236
29	13.8749
30	14.3258
31	14.7764
32	15.2266
33	15.6764
34	16.1257
35	16.5746
36	17.0232
37	17.4715
38	17.9195
39	18.3671
40	18.8143
41	19.2612
42	19.7078
43	20.1542
44	20.6002
45	21.046
46	21.4914
47	21.9366
48	22.3815
49	22.8262
50	23.2706
51	23.7148
52	24.1587
53	24.6024
54	25.0458
55	25.489
56	25.932
57	26.3748
58	26.8174
59	27.2598
60	27.7019
61	28.1439
62	28.5856
63	29.0272
64	29.4686
65	29.9098
66	30.3508
67	30.7916
68	31.2323
69	31.6728
70	32.1131
71	32.5533
72	32.9933
73	33.4331
74	33.8728
75	34.3123
76	34.7516
77	35.1908
78	35.6299
79	36.0688
80	36.5075
81	36.9461
82	37.3846
83	37.8229
84	38.2611
85	38.6992
86	39.1371
87	39.5749
88	40.0126
89	40.4501
90	40.8875
91	41.3248
92	41.7619
93	42.199
94	42.6359
95	43.0726
96	43.5093
97	43.9458
98	44.3822
99	44.8185
100	45.2547
101	45.6908
102	46.1267
103	46.5626
104	46.9983
105	47.4339
106	47.8695
107	48.3049
108	48.7402
109	49.1753
110	49.6104
111	50.0454
112	50.4803
113	50.9151
114	51.3497
115	51.7843
116	52.2188
117	52.6532
118	53.0874
119	53.5216
120	53.9557
121	54.3896
122	54.8235
123	55.2573
124	55.691
125	56.1246
126	56.5581
127	56.9915
128	57.4248
130	58.2912
132	59.1572
134	60.0228
136	60.888
138	61.7528
140	62.6173
142	63.4814
144	64.3451
146	65.2084
148	66.0714
150	66.9341
152	67.7964
154	68.6584
156	69.52
158	70.3813
160	71.2423
162	72.1029
164	72.9632
166	73.8232
168	74.6829
170	75.5422
172	76.4012
174	77.2598
176	78.1181
178	78.9761
180	79.8337
182	80.6909
184	81.5477
186	82.4042
188	83.2603
190	84.1161
192	84.9714
194	85.8264
196	86.6811
198	87.5355
200	88.3894
202	89.2431
204	90.0964
206	90.9493
208	91.8019
210	92.6542
212	93.5062
214	94.3578
216	95.209
218	96.06
220	96.9105
222	97.7607
224	98.6104
226	99.4598
228	100.309
230	101.157
232	102.005
234	102.853
236	103.701
238	104.547
240	105.394
242	106.24
244	107.086
246	107.931
248	108.776
250	109.62
252	110.464
254	111.308
256	112.151
260	113.837
264	115.52
268	117.203
272	118.883
276	120.562
280	122.239
284	123.914
288	125.588
292	127.26
296	128.93
300	130.599
304	132.266
308	133.931
312	135.595
316	137.258
320	138.919
324	140.578
328	142.236
332	143.892
336	145.547
340	147.201
344	148.853
348	150.505
352	152.155
356	153.804
360	155.451
364	157.098
368	158.743
372	160.388
376	162.031
380	163.673
384	165.314
388	166.955
392	168.594
396	170.233
400	171.87
404	173.506
408	175.142
412	176.777
416	178.411
420	180.045
424	181.677
428	183.309
432	184.941
436	186.571
440	188.202
444	189.831
448	191.46
452	193.088
456	194.716
460	196.344
464	197.971
468	199.597
472	201.223
476	202.849
480	204.474
484	206.098
488	207.723
492	209.346
496	210.97
500	212.593
504	214.215
508	215.838
512	217.46
520	220.702
528	223.943
536	227.183
544	230.422
552	233.66
560	236.896
568	240.132
576	243.366
584	246.6
592	249.833
600	253.064
608	256.296
616	259.526
624	262.756
632	265.985
640	269.213
648	272.441
656	275.668
664	278.895
672	282.122
680	285.348
688	288.573
696	291.798
704	295.023
712	298.248
720	301.472
728	304.695
736	307.919
744	311.142
752	314.365
760	317.588
768	320.81
776	324.032
784	327.254
792	330.476
800	333.696
808	336.917
816	340.137
824	343.356
832	346.575
840	349.794
848	353.012
856	356.23
864	359.447
872	362.664
880	365.88
888	369.094
896	372.307
904	375.519
912	378.728
920	381.936
928	385.143
936	388.347
944	391.55
952	394.752
960	397.951
968	401.149
976	404.345
984	407.54
992	410.733
1000	413.924
1008	417.113
1016	420.3
1024	423.485
1040	429.85
1056	436.206
1072	442.555
1088	448.895
1104	455.226
1120	461.548
1136	467.86
1152	474.161
1168	480.451
1184	486.73
1200	492.995
1216	499.246
1232	505.482
1248	511.703
1264	517.91
1280	524.103
1296	530.282
1312	536.447
1328	542.598
1344	548.736
1360	554.859
1376	560.969
1392	567.066
1408	573.149
1424	579.22
1440	585.279
1456	591.324
1472	597.356
1488	603.376
1504	609.381
1520	615.371
1536	621.345
1552	627.297
1568	633.219
1584	639.105
1600	644.945
1616	650.74
1632	656.492
1648	662.208
1664	667.899
1680	673.573
1696	679.234
1712	684.882
1728	690.52
1744	696.148
1760	701.766
1776	707.375
1792	712.975
1808	718.566
1824	724.149
1840	729.723
1856	735.29
1872	740.848
1888	746.399
1904	751.942
1920	757.478
1936	763.007
1952	768.53
1968	774.046
1984	779.557
2000	785.062
2016	790.562
2032	796.056
2048	801.545
2080	812.508
2112	823.457
2144	834.394
2176	845.322
2208	856.242
2240	867.157
2272	878.067
2304	888.974
2336	899.879
2368	910.782
2400	921.684
2432	932.585
2464	943.484
2496	954.38
2528	965.273
2560	976.16
2592	987.042
2624	997.915
2656	1008.78
2688	1019.63
2720	1030.47
2752	1041.3
2784	1052.11
2816	1062.89
2848	1073.66
2880	1084.4
2912	1095.11
2944	1105.79
2976	1116.45
3008	1127.07
3040	1137.67
3072	1148.23
3104	1158.76
3136	1169.24
3168	1179.65
3200	1189.98
3232	1200.22
3264	1210.39
3296	1220.48
3328	1230.54
3360	1240.57
3392	1250.57
3424	1260.55
3456	1270.51
3488	1280.45
3520	1290.37
3552	1300.27
3584	1310.16
3616	1320.04
3648	1329.9
3680	1339.75
3712	1349.58
3744	1359.41
3776	1369.24
3808	1379.05
3840	1388.87
3872	1398.67
3904	1408.48
3936	1418.28
3968	1428.09
4000	1437.89
4032	1447.69
4064	1457.49
4096	1467.28
4160	1486.86
4224	1506.43
4288	1525.97
4352	1545.47
4416	1564.92
4480	1584.32
4544	1603.64
4608	1622.89
4672	1642.04
4736	1661.05
4800	1679.87
4864	1698.46
4928	1716.87
4992	1735.15
5056	1753.37
5120	1771.51
5184	1789.61
5248	1807.66
5312	1825.68
5376	1843.67
5440	1861.63
5504	1879.59
5568	1897.54
5632	1915.48
5696	1933.42
5760	1951.35
5824	1969.26
5888	1987.16
5952	2005.02
6016	2022.85
6080	2040.64
6144	2058.37
6208	2076.02
6272	2093.59
6336	2111.04
6400	2128.33
6464	2145.47
6528	2162.45
6592	2179.31
6656	2196.12
6720	2212.87
6784	2229.58
6848	2246.25
6912	2262.9
6976	2279.52
7040	2296.13
7104	2312.72
7168	2329.31
7232	2345.89
7296	2362.47
7360	2379.03
7424	2395.59
7488	2412.13
7552	2428.64
7616	2445.12
7680	2461.57
7744	2477.97
7808	2494.31
7872	2510.57
7936	2526.72
8000	2542.75
8064	2558.64
8128	2574.41
8192	2590.07
8320	2621.22
8448	2652.23
8576	2683.14
8704	2713.99
8832	2744.81
8960	2775.61
9088	2806.36
9216	2837.03
9344	2867.57
9472	2897.87
9600	2927.81
9728	2957.32
9856	2986.47
9984	3015.45
10112	3044.33
10240	3073.15
10368	3101.92
10496	3130.67
10624	3159.39
10752	3188.06
10880	3216.64
11008	3245.04
11136	3273.2
11264	3300.98
11392	3328.38
11520	3355.56
11648	3382.62
11776	3409.62
11904	3436.56
12032	3463.49
12160	3490.39
12288	3517.26
12416	3544.06
12544	3570.73
12672	3597.23
12800	3623.45
12928	3649.31
13056	3674.89
13184	3700.34
13312	3725.7
13440	3751.01
13568	3776.29
13696	3801.55
13824	3826.79
13952	3851.99
14080	3877.09
14208	3902.06
14336	3926.85
14464	3951.32
14592	3975.47
14720	3999.44
14848	4023.33
14976	4047.15
15104	4070.94
15232	4094.71
15360	4118.46
15488	4142.19
15616	4165.85
15744	4189.4
15872	4212.83
16000	4236.05
16128	4258.94
16256	4281.59
16384	4304.13
16640	4349.05
16896	4393.87
17152	4438.59
17408	4482.99
17664	4526.78
17920	4569.56
18176	4612.01
18432	4654.33
18688	4696.59
18944	4738.6
19200	4780.2
19456	4820.82
19712	4861
19968	4901.05
20224	4941.05
20480	4980.85
20736	5020.34
20992	5059.05
21248	5097.17
21504	5135.13
21760	5173.03
22016	5210.79
22272	5248.3
22528	5285.27
22784	5321.48
23040	5357.53
23296	5393.5
23552	5429.36
23808	5465.02
24064	5500.31
24320	5534.85
24576	5569.14
24832	5603.34
25088	5637.44
25344	5671.39
25600	5705.07
25856	5738.1
26112	5770.76
26368	5803.33
26624	5835.81
26880	5868.16
27136	5900.32
27392	5931.97
27648	5963.15
27904	5994.21
28160	6025.19
28416	6056.06
28672	6086.78
28928	6117.13
29184	6146.95
29440	6176.61
29696	6206.19
29952	6235.67
30208	6265.03
30464	6294.13
30720	6322.71
30976	6351.07
31232	6379.34
31488	6407.52
31744	6435.61
32000	6463.5
32256	6490.95
32512	6518.09
32768	6545.15
33280	6599
33792	6652.14
34304	6704.06
34816	6755.63
35328	6806.66
35840	6856.47
36352	6905.9
36864	6954.92
37376	7002.75
37888	7050.16
38400	7097.26
38912	7143.26
39424	7188.76
39936	7234
40448	7278.27
40960	7321.95
41472	7365.42
41984	7408.07
42496	7450.04
43008	7491.82
43520	7532.94
44032	7573.29
44544	7613.47
45056	7653.15
45568	7691.97
46080	7730.62
46592	7768.89
47104	7806.3
47616	7843.51
48128	7880.44
48640	7916.53
49152	7952.38
49664	7988.01
50176	8022.88
50688	8057.43
51200	8091.82
51712	8125.52
52224	8158.85
52736	8192.05
53248	8224.65
53760	8256.81
54272	8288.86
54784	8320.39
55296	8351.43
55808	8382.37
56320	8412.9
56832	8442.88
57344	8472.77
57856	8502.32
58368	8531.29
58880	8560.16
59392	8588.77
59904	8616.79
60416	8644.67
60928	8672.36
61440	8699.46
61952	8726.39
62464	8753.17
62976	8779.43
63488	8805.46
64000	8831.37
64512	8856.81
65024	8881.97
65536	8907.03
66560	8956.05
67584	9004.25
68608	9051.3
69632	9097.34
70656	9142.61
71680	9186.76
72704	9230.06
73728	9272.59
74752	9314.12
75776	9354.91
76800	9394.92
77824	9434.02
78848	9472.48
79872	9510.11
80896	9546.96
81920	9583.21
82944	9618.63
83968	9653.39
84992	9687.56
86016	9720.96
87040	9753.8
88064	9786.04
89088	9817.6
90112	9848.65
91136	9879.09
92160	9908.93
93184	9938.3
94208	9967.06
95232	9995.31
96256	10023.1
97280	10050.3
98304	10077.1
99328	10103.4
100352	10129.2
101376	10154.6
102400	10179.5
103424	10203.9
104448	10227.9
105472	10251.4
106496	10274.5
107520	10297.3
108544	10319.6
109568	10341.5
110592	10363.1
111616	10384.3
112640	10405.1
113664	10425.6
114688	10445.8
115712	10465.6
116736	10485.1
117760	10504.2
118784	10523.1
119808	10541.6
120832	10559.8
121856	10577.8
122880	10595.4
123904	10612.8
124928	10629.9
125952	10646.7
126976	10663.2
128000	10679.5
129024	10695.5
130048	10711.3
131072	10726.8
133120	10757.1
135168	10786.5
137216	10815
139264	10842.7
141312	10869.5
143360	10895.6
145408	10920.8
147456	10945.4
149504	10969.2
151552	10992.3
153600	11014.8
155648	11036.6
157696	11057.8
159744	11078.4
161792	11098.5
163840	11118.1
165888	11137.1
167936	11155.6
169984	11173.6
172032	11191.2
174080	11208.2
176128	11224.9
178176	11241.1
180224	11257
182272	11272.4
184320	11287.5
186368	11302.2
188416	11316.5
190464	11330.5
192512	11344.2
194560	11357.5
196608	11370.6
198656	11383.3
200704	11395.7
202752	11407.9
204800	11419.8
206848	11431.4
208896	11442.7
210944	11453.8
212992	11464.7
215040	11475.3
217088	11485.7
219136	11495.9
221184	11505.9
223232	11515.6
225280	11525.2
227328	11534.6
229376	11543.8
231424	11552.8
233472	11561.6
235520	11570.2
237568	11578.7
239616	11587.1
241664	11595.2
243712	11603.2
245760	11611.1
247808	11618.8
249856	11626.4
251904	11633.8
253952	11641.1
256000	11648.3
258048	11655.3
260096	11662.2
262144	11669
266240	11682.2
270336	11694.9
274432	11707.2
278528	11719.1
282624	11730.6
286720	11741.7
290816	11752.5
294912	11762.9
299008	11773
303104	11782.8
307200	11792.3
311296	11801.5
315392	11810.4
319488	11819.1
323584	11827.5
327680	11835.6
331776	11843.5
335872	11851.2
339968	11858.7
344064	11866
348160	11873.1
352256	11880
356352	11886.7
360448	11893.2
364544	11899.6
368640	11905.8
372736	11911.8
376832	11917.7
380928	11923.4
385024	11929
389120	11934.4
393216	11939.7
397312	11944.9
401408	11950
405504	11954.9
409600	11959.8
413696	11964.5
417792	11969.1
421888	11973.6
425984	11978
430080	11982.3
434176	11986.5
438272	11990.6
442368	11994.7
446464	11998.6
450560	12002.5
454656	12006.2
458752	12009.9
462848	12013.6
466944	12017.1
471040	12020.6
475136	12024
479232	12027.3
483328	12030.6
487424	12033.8
491520	12037
495616	12040.1
499712	12043.1
503808	12046.1
507904	12049
512000	12051.9
516096	12054.7
520192	12057.4
524288	12060.1
532480	12065.4
540672	12070.5
548864	12075.4
557056	12080.2
565248	12084.8
573440	12089.3
581632	12093.6
589824	12097.8
598016	12101.8
606208	12105.8
614400	12109.6
622592	12113.4
630784	12117
638976	12120.5
647168	12124
655360	12127.4
663552	12130.7
671744	12133.9
679936	12137
688128	12140.1
696320	12143
704512	12146
712704	12148.8
720896	12151.6
729088	12154.4
737280	12157.1
745472	12159.7
753664	12162.3
761856	12164.8
770048	12167.3
778240	12169.7
786432	12172.1
794624	12174.5
802816	12176.8
811008	12179.1
819200	12181.4
827392	12183.6
835584	12185.8
843776	12187.9
851968	12190.1
860160	12192.1
868352	12194.2
876544	12196.2
884736	12198.3
892928	12200.2
901120	12202.2
909312	12204.2
917504	12206.1
925696	12208
933888	12209.9
942080	12211.7
950272	12213.6
958464	12215.4
966656	12217.2
974848	12219
983040	12220.8
991232	12222.6
999424	12224.4
1007616	12226.1
1015808	12227.8
1024000	12229.5
1032192	12231.2
1040384	12232.9
1048576	12234.6
1064960	12237.9
1081344	12241.2
1097728	12244.5
1114112	12247.7
1130496	12250.9
1146880	12254.1
1163264	12257.2
1179648	12260.3
1196032	12263.4
1212416	12266.4
1228800	12269.5
1245184	12272.5
1261568	12275.5
1277952	12278.5
1294336	12281.4
1310720	12284.4
1327104	12287.3
1343488	12290.2
1359872	12293.1
1376256	12296
1392640	12298.9
1409024	12301.8
1425408	12304.6
1441792	12307.5
1458176	12310.4
1474560	12313.2
1490944	12316
1507328	12318.9
1523712	12321.7
1540096	12324.5
1556480	12327.3
1572864	12330
1589248	12332.8
1605632	12335.5
1622016	12338.3
1638400	12341
1654784	12343.8
1671168	12346.5
1687552	12349.2
1703936	12351.9
1720320	12354.6
1736704	12357.4
1753088	12360.1
1769472	12362.8
1785856	12365.5
1802240	12368.2
1818624	12370.9
1835008	12373.6
1851392	12376.3
1867776	12379
1884160	12381.7
1900544	12384.4
1916928	12387.1
1933312	12389.8
1949696	12392.5
1966080	12395.2
1982464	12397.8
1998848	12400.5
2015232	12403.2
2031616	12405.9
2048000	12408.6
2064384	12411.3
2080768	12414
2097152	12416.7
2129920	12422.1
2162688	12427.5
2195456	12432.9
2228224	12438.2
2260992	12443.6
2293760	12449
2326528	12454.4
2359296	12459.8
2392064	12465.2
2424832	12470.6
2457600	12476
2490368	12481.4
2523136	12486.9
2555904	12492.3
2588672	12497.7
2621440	12503.2
2654208	12508.6
2686976	12514.1
2719744	12519.5
2752512	12525
2785280	12530.5
2818048	12536
2850816	12541.5
2883584	12547
2916352	12552.4
2949120	12557.6
2981888	12562.6
3014656	12567.6
3047424	12572.5
3080192	12577.2
3112960	12580.3
3145728	12583
3178496	12585.5
3211264	12588.1
3244032	12590.7
3276800	12593.3
3309568	12595.9
3342336	12598.5
3375104	12601
3407872	12603.6
3440640	12606.2
3473408	12608.8
3506176	12611.4
3538944	12614
3571712	12616.6
3604480	12619.2
3637248	12621.8
3670016	12624.4
3702784	12627
3735552	12629.6
3768320	12632.2
3801088	12634.8
3833856	12637.4
3866624	12640
3899392	12642.6
3932160	12645.2
3964928	12647.8
3997696	12650.5
4030464	12653.1
4063232	12655.7
4096000	12658.3
4128768	12660.9
4161536	12663.6
4194304	12666.2
4259840	12671.5
4325376	12676.8
4390912	12682.1
4456448	12687.2
4521984	12692.3
4587520	12697.4
4653056	12702.4
4718592	12707.5
4784128	12712.6
4849664	12717.7
4915200	12722.8
4980736	12727.9
5046272	12733.1
5111808	12738.2
5177344	12743.4
5242880	12748.6
5308416	12753.7
5373952	12758.9
5439488	12764.1
5505024	12769.2
5570560	12774.4
5636096	12779.6
5701632	12784.7
5767168	12789.7
5832704	12794.8
5898240	12799.9
5963776	12805
6029312	12810.1
6094848	12815.2
6160384	12820.4
6225920	12825.6
6291456	12830.7
6356992	12835.9
6422528	12841.2
6488064	12846.4
6553600	12851.6
6619136	12856.9
6684672	12862.2
6750208	12867.5
6815744	12872.5
6881280	12877.5
6946816	12882.5
7012352	12887.5
7077888	12892.6
7143424	12897.6
7208960	12902.6
7274496	12907.7
7340032	12912.7
7405568	12917.8
7471104	12922.9
7536640	12928.1
7602176	12933.2
7667712	12938.3
7733248	12943.5
7798784	12948.6
7864320	12953.9
7929856	12959.1
7995392	12964.4
8060928	12969.7
8126464	12975
8192000	12980.4
8257536	12985.8
8323072	12991.2
8388608	12996.6
8519680	13007.6
8650752	13018.7
8781824	13029.9
8912896	13040.9
9043968	13049.4
9175040	13057.1
9306112	13064.8
9437184	13072.6
9568256	13080.5
9699328	13088.5
9830400	13096.5
9961472	13104.7
10092544	13112.9
10223616	13121.2
10354688	13129.6
10485760	13138.1
10616832	13146.8
10747904	13155.6
10878976	13164.4
11010048	13173.4
11141120	13182.5
11272192	13191.6
11403264	13200.9
11534336	13210.3
11665408	13219.9
11796480	13229.5
11927552	13239.2
12058624	13248.4
12189696	13257.8
12320768	13267.2
12451840	13276.7
12582912	13286.3
12713984	13295.9
12845056	13305.7
12976128	13315.6
13107200	13325.5
13238272	13335.6
13369344	13345.9
13500416	13353.4
13631488	13358.8
13762560	13364.1
13893632	13369.4
14024704	13374.8
14155776	13380.2
14286848	13385.8
14417920	13390.3
14548992	13394.6
14680064	13398.8
14811136	13403
14942208	13407.2
15073280	13411.4
15204352	13415.6
15335424	13419.8
15466496	13423.9
15597568	13428.2
15728640	13432.4
15859712	13436.8
15990784	13441.2
16121856	13445.6
16252928	13450.1
16384000	13454.6
16515072	13459.1
16646144	13463.7
16777216	13468.3
17039360	13478
17301504	13488
17563648	13498.5
17825792	13509.4
18087936	13520.8
18350080	13532.8
18612224	13545.4
18874368	13558.8
19136512	13573.1
19398656	13588
19660800	13600.7
19922944	13612.9
20185088	13625.2
20447232	13637.8
20709376	13649.2
20971520	13661
21233664	13673.5
21495808	13686.9
21757952	13701.5
22020096	13712.4
22282240	13721.9
22544384	13731.5
22806528	13741.4
23068672	13752.4
23330816	13763.6
23592960	13776.7
23855104	13792.3
24117248	13809.9
24379392	13831.8
24641536	13859.2
24903680	13881.7
25165824	13911.2
25427968	13958.3
25690112	14055.5
25952256	14402.6
26214400	14982
26476544	14982
26738688	14982
27000832	14982
27262976	14982
27525120	14982
27787264	14982
28049408	14982
28311552	14982
28573696	14982
28835840	14982
29097984	14982
29360128	14982
29622272	14982
29884416	14982
30146560	14982
30408704	14982
30670848	14982
30932992	14982
31195136	14982
31457280	14982
31719424	14982
31981568	14982
32243712	14982
32505856	14982
32768000	14982
33030144	14982
33292288	14982
33554432	14982
34078720	14982
34603008	14982
35127296	14982
35651584	14982
36175872	14982
36700160	14982
37224448	14982
37748736	14982
38273024	14982
38797312	14982
39321600	14982
39845888	14982
40370176	14982
40894464	14982
41418752	14982
41943040	14982
42467328	14982
42991616	14982
43515904	14982
44040192	14982
44564480	14982
45088768	14982
45613056	14982
46137344	14982
46661632	14982
47185920	14982
47710208	14982
48234496	14982
48758784	14982
49283072	14982
49807360	14982
50331648	14982
50855936	14982
51380224	14982
51904512	14982
52428800	14982
52953088	14982
53477376	14982
54001664	14982
54525952	14982
55050240	14982
55574528	14982
56098816	14982
56623104	14982
57147392	14982
57671680	14982
58195968	14982
58720256	14982
59244544	14982
59768832	14982
60293120	14982
60817408	14982
61341696	14982
61865984	14982
62390272	14982
62914560	14982
63438848	14982
63963136	14982
64487424	14982
65011712	14982
65536000	14982
66060288	14982
66584576	14982
67108864	14982
68157440	14982
69206016	14982
70254592	14982
71303168	14982
72351744	14982
73400320	14982
74448896	14982
75497472	14982
76546048	14982
77594624	14982
78643200	14982
79691776	14982
80740352	14982
81788928	14982
82837504	14982
83886080	14982
84934656	14982
85983232	14982
87031808	14982
88080384	14982
89128960	14982
90177536	14982
91226112	14982
92274688	14982
93323264	14982
94371840	14982
95420416	14982
96468992	14982
97517568	14982
98566144	14982
99614720	14982
100663296	14982
101711872	14982
102760448	14982
103809024	14982
104857600	14982
105906176	14982
106954752	14982
108003328	14982
109051904	14982
110100480	14982
111149056	14982
112197632	14982
113246208	14982
114294784	14982
115343360	14982
116391936	14982
117440512	14982
118489088	14982
119537664	14982
120586240	14982
121634816	14982
122683392	14982
123731968	14982
124780544	14982
125829120	14982
126877696	14982
127926272	14982
128974848	14982
130023424	14982
131072000	14982
132120576	14982
133169152	14982
134217728	14982
136314880	14982
138412032	14982
140509184	14982
142606336	14982
144703488	14982
146800640	14982
148897792	14982
150994944	14982
153092096	14982
155189248	14982
157286400	14982
159383552	14982
161480704	14982
163577856	14982
165675008	14982
167772160	14982
169869312	14982
171966464	14982
174063616	14982
176160768	14982
178257920	14982
180355072	14982
182452224	14982
184549376	14982
186646528	14982
188743680	14982
190840832	14982
192937984	14982
195035136	14982
197132288	14982
199229440	14982
201326592	14982
203423744	14982
205520896	14982
207618048	14982
209715200	14982
211812352	14982
213909504	14982
216006656	14982
218103808	14982
220200960	14982
222298112	14982
224395264	14982
226492416	14982
228589568	14982
230686720	14982
232783872	14982
234881024	14982
236978176	14982
239075328	14982
241172480	14982
243269632	14982
245366784	14982
247463936	14982
249561088	14982
251658240	14982
253755392	14982
255852544	14982
257949696	14982
260046848	14982
262144000	14982
264241152	14982
266338304	14982
268435456	14982
272629760	14982
276824064	14982
281018368	14982
285212672	14982
289406976	14982
293601280	14982
297795584	14982
301989888	14982
306184192	14982
310378496	14982
314572800	14982
318767104	14982
322961408	14982
327155712	14982
331350016	14982
335544320	14982
339738624	14982
343932928	14982
348127232	14982
352321536	14982
356515840	14982
360710144	14982
364904448	14982
369098752	14982
373293056	14982
377487360	14982
381681664	14982
385875968	14982
390070272	14982
394264576	14982
398458880	14982
402653184	14982
406847488	14982
411041792	14982
415236096	14982
419430400	14982
423624704	14982
427819008	14982
432013312	14982
436207616	14982
440401920	14982
444596224	14982
448790528	14982
452984832	14982
457179136	14982
461373440	14982
465567744	14982
469762048	14982
473956352	14982
478150656	14982
482344960	14982
486539264	14982
490733568	14982
494927872	14982
499122176	14982
503316480	14982
507510784	14982
511705088	14982
515899392	14982
520093696	14982
524288000	14982
528482304	14982
532676608	14982
536870912	14982
545259520	14982
553648128	14982
562036736	14982
570425344	14982
578813952	14982
587202560	14982
595591168	14982
603979776	14982
612368384	14982
620756992	14982
629145600	14982
637534208	14982
645922816	14982
654311424	14982
662700032	14982
671088640	14982
679477248	14982
687865856	14982
696254464	14982
704643072	14982
713031680	14982
721420288	14982
729808896	14982
738197504	14982
746586112	14982
754974720	14982
763363328	14982
771751936	14982
780140544	14982
788529152	14982
796917760	14982
805306368	14982
813694976	14982
822083584	14982
830472192	14982
838860800	14982
847249408	14982
855638016	14982
864026624	14982
872415232	14982
880803840	14982
889192448	14982
897581056	14982
905969664	14982
914358272	14982
922746880	14982
931135488	14982
939524096	14982
947912704	14982
956301312	14982
964689920	14982
973078528	14982
981467136	14982
989855744	14982
998244352	14982
1006632960	14982
1015021568	14982
1023410176	14982
1031798784	14982
1040187392	14982
1048576000	14982
1056964608	14982
1065353216	14982
1073741824	14982
1090519040	14982
1107296256	14982
1124073472	14982
1140850688	14982
1157627904	14982
1174405120	14982
1191182336	14982
1207959552	14982
1224736768	14982
1241513984	14982
1258291200	14982
1275068416	14982
1291845632	14982
1308622848	14982
1325400064	14982
1342177280	14982
1358954496	14982
1375731712	14982
1392508928	14982
1409286144	14982
1426063360	14982
1442840576	14982
1459617792	14982
1476395008	14982
1493172224	14982
1509949440	14982
1526726656	14982
1543503872	14982
1560281088	14982
1577058304	14982
1593835520	14982
1610612736	14982
1627389952	14982
1644167168	14982
1660944384	14982
1677721600	14982
1694498816	14982
1711276032	14982
1728053248	14982
1744830464	14982
1761607680	14982
1778384896	14982
1795162112	14982
1811939328	14982
1828716544	14982
1845493760	14982
1862270976	14982
1879048192	14982
1895825408	14982
1912602624	14982
1929379840	14982
1946157056	14982
1962934272	14982
1979711488	14982
1996488704	14982
2013265920	14982
2030043136	14982
2046820352	14982
2063597568	14982
2080374784	14982
2097152000	14982
2113929216	14982
2130706432	14982
2147483648	14982
2181038080	14982
2214592512	14982
2248146944	14982
2281701376	14982
2315255808	14982
2348810240	14982
2382364672	14982
2415919104	14982
2449473536	14982
2483027968	14982
2516582400	14982
2550136832	14982
2583691264	14982
2617245696	14982
2650800128	14982
2684354560	14982
2717908992	14982
2751463424	14982
2785017856	14982
2818572288	14982
2852126720	14982
2885681152	14982
2919235584	14982
2952790016	14982
2986344448	14982
3019898880	14982
3053453312	14982
3087007744	14982
3120562176	14982
3154116608	14982
3187671040	14982
3221225472	14982
3254779904	14982
3288334336	14982
3321888768	14982
3355443200	14982
3388997632	14982
3422552064	14982
3456106496	14982
3489660928	14982
3523215360	14982
3556769792	14982
3590324224	14982
3623878656	14982
3657433088	14982
3690987520	14982
3724541952	14982
3758096384	14982
3791650816	14982
3825205248	14982
3858759680	14982
3892314112	14982
3925868544	14982
3959422976	14982
3992977408	14982
4026531840	14982
4060086272	14982
4093640704	14982
4127195136	14982
4160749568	14982
4194304000	14982
4227858432	14982
4261412864	14982
4294967296	14982
4362076160	14982
4429185024	14982
4496293888	14982
4563402752	14982
4630511616	14982
4697620480	14982
4764729344	14982
4831838208	14982
4898947072	14982
4966055936	14982
5033164800	14982
5100273664	14982
5167382528	14982
5234491392	14982
5301600256	14982
5368709120	14982
5435817984	14982
5502926848	14982
5570035712	14982
5637144576	14982
5704253440	14982
5771362304	14982
5838471168	14982
5905580032	14982
5972688896	14982
6039797760	14982
6106906624	14982
6174015488	14982
6241124352	14982
6308233216	14982
6375342080	14982
6442450944	14982
6509559808	14982
6576668672	14982
6643777536	14982
6710886400	14982
6777995264	14982
6845104128	14982
6912212992	14982
6979321856	14982
7046430720	14982
7113539584	14982
7180648448	14982
7247757312	14982
7314866176	14982
7381975040	14982
7449083904	14982
7516192768	14982
7583301632	14982
7650410496	14982
7717519360	14982
7784628224	14982
7851737088	14982
7918845952	14982
7985954816	14982
8053063680	14982
8120172544	14982
8187281408	14982
8254390272	14982
8321499136	14982
8388608000	14982
8455716864	14982
8522825728	14982
8589934592	14982
8724152320	14982
8858370048	14982
8992587776	14982
9126805504	14982
9261023232	14982
9395240960	14982
9529458688	14982
9663676416	14982
9797894144	14982
9932111872	14982
10066329600	14982
10200547328	14982
10334765056	14982
10468982784	14982
10603200512	14982
10737418240	14982
10871635968	14982
11005853696	14982
11140071424	14982
11274289152	14982
11408506880	14982
11542724608	14982
11676942336	14982
11811160064	14982
11945377792	14982
12079595520	14982
12213813248	14982
12348030976	14982
12482248704	14982
12616466432	14982
12750684160	14982
12884901888	14982
13019119616	14982
13153337344	14982
13287555072	14982
13421772800	14982
13555990528	14982
13690208256	14982
13824425984	14982
13958643712	14982
14092861440	14982
14227079168	14982
14361296896	14982
14495514624	14982
14629732352	14982
14763950080	14982
14898167808	14982
15032385536	14982
15166603264	14982
15300820992	14982
15435038720	14982
15569256448	14982
15703474176	14982
15837691904	14982
15971909632	14982
16106127360	14982
16240345088	14982
16374562816	14982
16508780544	14982
16642998272	14982
16777216000	14982
16911433728	14982
17045651456	14982
17179869184	14982
17448304640	14982
17716740096	14982
17985175552	14982
18253611008	14982
18522046464	14982
18790481920	14982
19058917376	14982
19327352832	14982
19595788288	14982
19864223744	14982
20132659200	14982
20401094656	14982
20669530112	14982
20937965568	14982
21206401024	14982
21474836480	14982
21743271936	14982
22011707392	14982
22280142848	14982
22548578304	14982
22817013760	14982
23085449216	14982
23353884672	14982
23622320128	14982
23890755584	14982
24159191040	14982
24427626496	14982
24696061952	14982
24964497408	14982
25232932864	14982
25501368320	14982
25769803776	14982
26038239232	14982
26306674688	14982
26575110144	14982
26843545600	14982
27111981056	14982
27380416512	14982
27648851968	14982
27917287424	14982
28185722880	14982
28454158336	14982
28722593792	14982
28991029248	14982
29259464704	14982
29527900160	14982
29796335616	14982
30064771072	14982
30333206528	14982
30601641984	14982
30870077440	14982
31138512896	14982
31406948352	14982
31675383808	14982
31943819264	14982
32212254720	14982
32480690176	14982
32749125632	14982
33017561088	14982
33285996544	14982
33554432000	14982
33822867456	14982
34091302912	14982
34359738368	14982
34896609280	14982
35433480192	14982
35970351104	14982
36507222016	14982
37044092928	14982
37580963840	14982
38117834752	14982
38654705664	14982
39191576576	14982
39728447488	14982
40265318400	14982
40802189312	14982
41339060224	14982
41875931136	14982
42412802048	14982
42949672960	14982
43486543872	14982
44023414784	14982
44560285696	14982
45097156608	14982
45634027520	14982
46170898432	14982
46707769344	14982
47244640256	14982
47781511168	14982
48318382080	14982
48855252992	14982
49392123904	14982
49928994816	14982
50465865728	14982
51002736640	14982
51539607552	14982
52076478464	14982
52613349376	14982
53150220288	14982
53687091200	14982
54223962112	14982
54760833024	14982
55297703936	14982
55834574848	14982
56371445760	14982
56908316672	14982
57445187584	14982
57982058496	14982
58518929408	14982
59055800320	14982
59592671232	14982
60129542144	14982
60666413056	14982
61203283968	14982
61740154880	14982
62277025792	14982
62813896704	14982
63350767616	14982
63887638528	14982
64424509440	14982
64961380352	14982
65498251264	14982
66035122176	14982
66571993088	14982
67108864000	14982
67645734912	14982
68182605824	14982
68719476736	14982
69793218560	14982
70866960384	14982
71940702208	14982
73014444032	14982
74088185856	14982
75161927680	14982
76235669504	14982
77309411328	14982
78383153152	14982
79456894976	14982
80530636800	14982
81604378624	14982
82678120448	14982
83751862272	14982
84825604096	14982
85899345920	14982
86973087744	14982
88046829568	14982
89120571392	14982
90194313216	14982
91268055040	14982
92341796864	14982
93415538688	14982
94489280512	14982
95563022336	14982
96636764160	14982
97710505984	14982
98784247808	14982
99857989632	14982
100931731456	14982
102005473280	14982
103079215104	14982
104152956928	14982
105226698752	14982
106300440576	14982
107374182400	14982
108447924224	14982
109521666048	14982
110595407872	14982
111669149696	14982
112742891520	14982
113816633344	14982
114890375168	14982
115964116992	14982
117037858816	14982
118111600640	14982
119185342464	14982
120259084288	14982
121332826112	14982
122406567936	14982
123480309760	14982
124554051584	14982
125627793408	14982
126701535232	14982
127775277056	14982
128849018880	14982
129922760704	14982
130996502528	14982
132070244352	14982
133143986176	14982
134217728000	14982
135291469824	14982
136365211648	14982
137438953472	14982
139586437120	14982
141733920768	14982
143881404416	14982
146028888064	14982
148176371712	14982
150323855360	14982
152471339008	14982
154618822656	14982
156766306304	14982
158913789952	14982
161061273600	14982
163208757248	14982
165356240896	14982
167503724544	14982
169651208192	14982
171798691840	14982
173946175488	14982
176093659136	14982
178241142784	14982
180388626432	14982
182536110080	14982
184683593728	14982
186831077376	14982
188978561024	14982
191126044672	14982
193273528320	14982
195421011968	14982
197568495616	14982
199715979264	14982
201863462912	14982
204010946560	14982
206158430208	14982
208305913856	14982
210453397504	14982
212600881152	14982
214748364800	14982
216895848448	14982
219043332096	14982
221190815744	14982
223338299392	14982
225485783040	14982
227633266688	14982
229780750336	14982
231928233984	14982
234075717632	14982
236223201280	14982
238370684928	14982
240518168576	14982
242665652224	14982
244813135872	14982
246960619520	14982
249108103168	14982
251255586816	14982
253403070464	14982
255550554112	14982
257698037760	14982
259845521408	14982
261993005056	14982
264140488704	14982
266287972352	14982
268435456000	14982
270582939648	14982
272730423296	14982
274877906944	14982
279172874240	14982
283467841536	14982
287762808832	14982
292057776128	14982
296352743424	14982
300647710720	14982
304942678016	14982
309237645312	14982
313532612608	14982
317827579904	14982
322122547200	14982
326417514496	14982
330712481792	14982
335007449088	14982
339302416384	14982
343597383680	14982
347892350976	14982
352187318272	14982
356482285568	14982
360777252864	14982
365072220160	14982
369367187456	14982
373662154752	14982
377957122048	14982
382252089344	14982
386547056640	14982
390842023936	14982
395136991232	14982
399431958528	14982
403726925824	14982
408021893120	14982
412316860416	14982
416611827712	14982
420906795008	14982
425201762304	14982
429496729600	14982
433791696896	14982
438086664192	14982
442381631488	14982
446676598784	14982
450971566080	14982
455266533376	14982
459561500672	14982
463856467968	14982
468151435264	14982
472446402560	14982
476741369856	14982
481036337152	14982
485331304448	14982
489626271744	14982
493921239040	14982
498216206336	14982
502511173632	14982
506806140928	14982
511101108224	14982
515396075520	14982
519691042816	14982
523986010112	14982
528280977408	14982
532575944704	14982
536870912000	14982
541165879296	14982
545460846592	14982
549755813888	14982
558345748480	14982
566935683072	14982
575525617664	14982
584115552256	14982
592705486848	14982
601295421440	14982
609885356032	14982
618475290624	14982
627065225216	14982
635655159808	14982
644245094400	14982
652835028992	14982
661424963584	14982
670014898176	14982
678604832768	14982
687194767360	14982
695784701952	14982
704374636544	14982
712964571136	14982
721554505728	14982
730144440320	14982
738734374912	14982
747324309504	14982
755914244096	14982
764504178688	14982
773094113280	14982
781684047872	14982
790273982464	14982
798863917056	14982
807453851648	14982
816043786240	14982
824633720832	14982
833223655424	14982
841813590016	14982
850403524608	14982
858993459200	14982
867583393792	14982
876173328384	14982
884763262976	14982
893353197568	14982
901943132160	14982
910533066752	14982
919123001344	14982
927712935936	14982
936302870528	14982
944892805120	14982
953482739712	14982
962072674304	14982
970662608896	14982
979252543488	14982
987842478080	14982
996432412672	14982
1005022347264	14982
1013612281856	14982
1022202216448	14982
1030792151040	14982
1039382085632	14982
1047972020224	14982
1056561954816	14982
1065151889408	14982
1073741824000	14982
1082331758592	14982
1090921693184	14982
1099511627776	14982
1116691496960	14982
1133871366144	14982
1151051235328	14982
1168231104512	14982
1185410973696	14982
1202590842880	14982
1219770712064	14982
1236950581248	14982
1254130450432	14982
1271310319616	14982
1288490188800	14982
1305670057984	14982
1322849927168	14982
1340029796352	14982
1357209665536	14982
1374389534720	14982
1391569403904	14982
1408749273088	14982
1425929142272	14982
1443109011456	14982
1460288880640	14982
1477468749824	14982
1494648619008	14982
1511828488192	14982
1529008357376	14982
1546188226560	14982
1563368095744	14982
1580547964928	14982
1597727834112	14982
1614907703296	14982
1632087572480	14982
1649267441664	14982
1666447310848	14982
1683627180032	14982
1700807049216	14982
1717986918400	14982
1735166787584	14982
1752346656768	14982
1769526525952	14982
1786706395136	14982
1803886264320	14982
1821066133504	14982
1838246002688	14982
1855425871872	14982
1872605741056	14982
1889785610240	14982
1906965479424	14982
1924145348608	14982
1941325217792	14982
1958505086976	14982
1975684956160	14982
1992864825344	14982
2010044694528	14982
2027224563712	14982
2044404432896	14982
2061584302080	14982
2078764171264	14982
2095944040448	14982
2113123909632	14982
2130303778816	14982
2147483648000	14982
2164663517184	14982
2181843386368	14982
2199023255552	14982
2233382993920	14982
2267742732288	14982
2302102470656	14982
2336462209024	14982
2370821947392	14982
2405181685760	14982
2439541424128	14982
2473901162496	14982
2508260900864	14982
2542620639232	14982
2576980377600	14982
2611340115968	14982
2645699854336	14982
2680059592704	14982
2714419331072	14982
2748779069440	14982
2783138807808	14982
2817498546176	14982
2851858284544	14982
2886218022912	14982
2920577761280	14982
2954937499648	14982
2989297238016	14982
3023656976384	14982
3058016714752	14982
3092376453120	14982
3126736191488	14982
3161095929856	14982
3195455668224	14982
3229815406592	14982
3264175144960	14982
3298534883328	14982
3332894621696	14982
3367254360064	14982
3401614098432	14982
3435973836800	14982
3470333575168	14982
3504693313536	14982
3539053051904	14982
3573412790272	14982
3607772528640	14982
3642132267008	14982
3676492005376	14982
3710851743744	14982
3745211482112	14982
3779571220480	14982
3813930958848	14982
3848290697216	14982
3882650435584	14982
3917010173952	14982
3951369912320	14982
3985729650688	14982
4020089389056	14982
4054449127424	14982
4088808865792	14982
4123168604160	14982
4157528342528	14982
4191888080896	14982
4226247819264	14982
4260607557632	14982
4294967296000	14982
4329327034368	14982
4363686772736	14982
4398046511104	14982
4466765987840	14982
4535485464576	14982
4604204941312	14982
4672924418048	14982
4741643894784	14982
4810363371520	14982
4879082848256	14982
4947802324992	14982
5016521801728	14982
5085241278464	14982
5153960755200	14982
5222680231936	14982
5291399708672	14982
5360119185408	14982
5428838662144	14982
5497558138880	14982
5566277615616	14982
5634997092352	14982
5703716569088	14982
5772436045824	14982
5841155522560	14982
5909874999296	14982
5978594476032	14982
6047313952768	14982
6116033429504	14982
6184752906240	14982
6253472382976	14982
6322191859712	14982
6390911336448	14982
6459630813184	14982
6528350289920	14982
6597069766656	14982
6665789243392	14982
6734508720128	14982
6803228196864	14982
6871947673600	14982
6940667150336	14982
7009386627072	14982
7078106103808	14982
7146825580544	14982
7215545057280	14982
7284264534016	14982
7352984010752	14982
7421703487488	14982
7490422964224	14982
7559142440960	14982
7627861917696	14982
7696581394432	14982
7765300871168	14982
7834020347904	14982
7902739824640	14982
7971459301376	14982
8040178778112	14982
8108898254848	14982
8177617731584	14982
8246337208320	14982
8315056685056	14982
8383776161792	14982
8452495638528	14982
8521215115264	14982
8589934592000	14982
8658654068736	14982
8727373545472	14982
8796093022208	14982
8933531975680	14982
9070970929152	14982
9208409882624	14982
9345848836096	14982
9483287789568	14982
9620726743040	14982
9758165696512	14982
9895604649984	14982
10033043603456	14982
10170482556928	14982
10307921510400	14982
10445360463872	14982
10582799417344	14982
10720238370816	14982
10857677324288	14982
10995116277760	14982
11132555231232	14982
11269994184704	14982
11407433138176	14982
11544872091648	14982
11682311045120	14982
11819749998592	14982
11957188952064	14982
12094627905536	14982
12232066859008	14982
12369505812480	14982
12506944765952	14982
12644383719424	14982
12781822672896	14982
12919261626368	14982
13056700579840	14982
13194139533312	14982
13331578486784	14982
13469017440256	14982
13606456393728	14982
13743895347200	14982
13881334300672	14982
14018773254144	14982
14156212207616	14982
14293651161088	14982
14431090114560	14982
14568529068032	14982
14705968021504	14982
14843406974976	14982
14980845928448	14982
15118284881920	14982
15255723835392	14982
15393162788864	14982
15530601742336	14982
15668040695808	14982
15805479649280	14982
15942918602752	14982
16080357556224	14982
16217796509696	14982
16355235463168	14982
16492674416640	14982
16630113370112	14982
16767552323584	14982
16904991277056	14982
17042430230528	14982
17179869184000	14982
17317308137472	14982
17454747090944	14982
17592186044416	14982
17867063951360	14982
18141941858304	14982
18416819765248	14982
18691697672192	14982
18966575579136	14982
19241453486080	14982
19516331393024	14982
19791209299968	14982
20066087206912	14982
20340965113856	14982
20615843020800	14982
20890720927744	14982
21165598834688	14982
21440476741632	14982
21715354648576	14982
21990232555520	14982
22265110462464	14982
22539988369408	14982
22814866276352	14982
23089744183296	14982
23364622090240	14982
23639499997184	14982
23914377904128	14982
24189255811072	14982
24464133718016	14982
24739011624960	14982
25013889531904	14982
25288767438848	14982
25563645345792	14982
25838523252736	14982
26113401159680	14982
26388279066624	14982
26663156973568	14982
26938034880512	14982
27212912787456	14982
27487790694400	14982
27762668601344	14982
28037546508288	14982
28312424415232	14982
28587302322176	14982
28862180229120	14982
29137058136064	14982
29411936043008	14982
29686813949952	14982
29961691856896	14982
30236569763840	14982
30511447670784	14982
30786325577728	14982
31061203484672	14982
31336081391616	14982
31610959298560	14982
31885837205504	14982
32160715112448	14982
32435593019392	14982
32710470926336	14982
32985348833280	14982
33260226740224	14982
33535104647168	14982
33809982554112	14982
34084860461056	14982
34359738368000	14982
34634616274944	14982
34909494181888	14982
35184372088832	14982
35734127902720	14982
36283883716608	14982
36833639530496	14982
37383395344384	14982
37933151158272	14982
38482906972160	14982
39032662786048	14982
39582418599936	14982
40132174413824	14982
40681930227712	14982
41231686041600	14982
41781441855488	14982
42331197669376	14982
42880953483264	14982
43430709297152	14982
43980465111040	14982
44530220924928	14982
45079976738816	14982
45629732552704	14982
46179488366592	14982
46729244180480	14982
47278999994368	14982
47828755808256	14982
48378511622144	14982
48928267436032	14982
49478023249920	14982
50027779063808	14982
50577534877696	14982
51127290691584	14982
51677046505472	14982
52226802319360	14982
52776558133248	14982
53326313947136	14982
53876069761024	14982
54425825574912	14982
54975581388800	14982
55525337202688	14982
56075093016576	14982
56624848830464	14982
57174604644352	14982
57724360458240	14982
58274116272128	14982
58823872086016	14982
59373627899904	14982
59923383713792	14982
60473139527680	14982
61022895341568	14982
61572651155456	14982
62122406969344	14982
62672162783232	14982
63221918597120	14982
63771674411008	14982
64321430224896	14982
64871186038784	14982
65420941852672	14982
65970697666560	14982
66520453480448	14982
67070209294336	14982
67619965108224	14982
68169720922112	14982
68719476736000	14982
69269232549888	14982
69818988363776	14982
70368744177664	14982
71468255805440	14982
72567767433216	14982
73667279060992	14982
74766790688768	14982
75866302316544	14982
76965813944320	14982
78065325572096	14982
79164837199872	14982
80264348827648	14982
81363860455424	14982
82463372083200	14982
83562883710976	14982
84662395338752	14982
85761906966528	14982
86861418594304	14982
87960930222080	14982
89060441849856	14982
90159953477632	14982
91259465105408	14982
92358976733184	14982
93458488360960	14982
94557999988736	14982
95657511616512	14982
96757023244288	14982
97856534872064	14982
98956046499840	14982
100055558127616	14982
101155069755392	14982
102254581383168	14982
103354093010944	14982
104453604638720	14982
105553116266496	14982
106652627894272	14982
107752139522048	14982
108851651149824	14982
109951162777600	14982
111050674405376	14982
112150186033152	14982
113249697660928	14982
114349209288704	14982
115448720916480	14982
116548232544256	14982
117647744172032	14982
118747255799808	14982
119846767427584	14982
120946279055360	14982
122045790683136	14982
123145302310912	14982
124244813938688	14982
125344325566464	14982
126443837194240	14982
127543348822016	14982
128642860449792	14982
129742372077568	14982
130841883705344	14982
131941395333120	14982
133040906960896	14982
134140418588672	14982
135239930216448	14982
136339441844224	14982
137438953472000	14982
138538465099776	14982
139637976727552	14982
140737488355328	14982
142936511610880	14982
145135534866432	14982
147334558121984	14982
149533581377536	14982
151732604633088	14982
153931627888640	14982
156130651144192	14982
158329674399744	14982
160528697655296	14982
162727720910848	14982
164926744166400	14982
167125767421952	14982
169324790677504	14982
171523813933056	14982
173722837188608	14982
175921860444160	14982
178120883699712	14982
180319906955264	14982
182518930210816	14982
184717953466368	14982
186916976721920	14982
189115999977472	14982
191315023233024	14982
193514046488576	14982
195713069744128	14982
197912092999680	14982
200111116255232	14982
202310139510784	14982
204509162766336	14982
206708186021888	14982
208907209277440	14982
211106232532992	14982
213305255788544	14982
215504279044096	14982
217703302299648	14982
219902325555200	14982
222101348810752	14982
224300372066304	14982
226499395321856	14982
228698418577408	14982
230897441832960	14982
233096465088512	14982
235295488344064	14982
237494511599616	14982
239693534855168	14982
241892558110720	14982
244091581366272	14982
246290604621824	14982
248489627877376	14982
250688651132928	14982
252887674388480	14982
255086697644032	14982
257285720899584	14982
259484744155136	14982
261683767410688	14982
263882790666240	14982
266081813921792	14982
268280837177344	14982
270479860432896	14982
272678883688448	14982
274877906944000	14982
277076930199552	14982
279275953455104	14982
281474976710656	14982
285873023221760	14982
290271069732864	14982
294669116243968	14982
299067162755072	14982
303465209266176	14982
307863255777280	14982
312261302288384	14982
316659348799488	14982
321057395310592	14982
325455441821696	14982
329853488332800	14982
334251534843904	14982
338649581355008	14982
343047627866112	14982
347445674377216	14982
351843720888320	14982
356241767399424	14982
360639813910528	14982
365037860421632	14982
369435906932736	14982
373833953443840	14982
378231999954944	14982
382630046466048	14982
387028092977152	14982
391426139488256	14982
395824185999360	14982
400222232510464	14982
404620279021568	14982
409018325532672	14982
413416372043776	14982
417814418554880	14982
422212465065984	14982
426610511577088	14982
431008558088192	14982
435406604599296	14982
439804651110400	14982
444202697621504	14982
448600744132608	14982
452998790643712	14982
457396837154816	14982
461794883665920	14982
466192930177024	14982
470590976688128	14982
474989023199232	14982
479387069710336	14982
483785116221440	14982
488183162732544	14982
492581209243648	14982
496979255754752	14982
501377302265856	14982
505775348776960	14982
510173395288064	14982
514571441799168	14982
518969488310272	14982
523367534821376	14982
527765581332480	14982
532163627843584	14982
536561674354688	14982
540959720865792	14982
545357767376896	14982
549755813888000	14982
554153860399104	14982
558551906910208	14982
562949953421312	14982
571746046443520	14982
580542139465728	14982
589338232487936	14982
598134325510144	14982
606930418532352	14982
615726511554560	14982
624522604576768	14982
633318697598976	14982
642114790621184	14982
650910883643392	14982
659706976665600	14982
668503069687808	14982
677299162710016	14982
686095255732224	14982
694891348754432	14982
703687441776640	14982
712483534798848	14982
721279627821056	14982
730075720843264	14982
738871813865472	14982
747667906887680	14982
756463999909888	14982
765260092932096	14982
774056185954304	14982
782852278976512	14982
791648371998720	14982
800444465020928	14982
809240558043136	14982
818036651065344	14982
826832744087552	14982
835628837109760	14982
844424930131968	14982
853221023154176	14982
862017116176384	14982
870813209198592	14982
879609302220800	14982
888405395243008	14982
897201488265216	14982
905997581287424	14982
914793674309632	14982
923589767331840	14982
932385860354048	14982
941181953376256	14982
949978046398464	14982
958774139420672	14982
967570232442880	14982
976366325465088	14982
985162418487296	14982
993958511509504	14982
1002754604531712	14982
1011550697553920	14982
1020346790576128	14982
1029142883598336	14982
1037938976620544	14982
1046735069642752	14982
1055531162664960	14982
1064327255687168	14982
1073123348709376	14982
1081919441731584	14982
1090715534753792	14982
1099511627776000	14982
1108307720798208	14982
1117103813820416	14982
1125899906842624	14982
1143492092887040	14982
1161084278931456	14982
1178676464975872	14982
1196268651020288	14982
1213860837064704	14982
1231453023109120	14982
1249045209153536	14982
1266637395197952	14982
1284229581242368	14982
1301821767286784	14982
1319413953331200	14982
1337006139375616	14982
1354598325420032	14982
1372190511464448	14982
1389782697508864	14982
1407374883553280	14982
1424967069597696	14982
1442559255642112	14982
1460151441686528	14982
1477743627730944	14982
1495335813775360	14982
1512927999819776	14982
1530520185864192	14982
1548112371908608	14982
1565704557953024	14982
1583296743997440	14982
1600888930041856	14982
1618481116086272	14982
1636073302130688	14982
1653665488175104	14982
1671257674219520	14982
1688849860263936	14982
1706442046308352	14982
1724034232352768	14982
1741626418397184	14982
1759218604441600	14982
1776810790486016	14982
1794402976530432	14982
1811995162574848	14982
1829587348619264	14982
1847179534663680	14982
1864771720708096	14982
1882363906752512	14982
1899956092796928	14982
1917548278841344	14982
1935140464885760	14982
1952732650930176	14982
1970324836974592	14982
1987917023019008	14982
2005509209063424	14982
2023101395107840	14982
2040693581152256	14982
2058285767196672	14982
2075877953241088	14982
2093470139285504	14982
2111062325329920	14982
2128654511374336	14982
2146246697418752	14982
2163838883463168	14982
2181431069507584	14982
2199023255552000	14982
2216615441596416	14982
2234207627640832	14982
2251799813685248	14982
2286984185774080	14982
2322168557862912	14982
2357352929951744	14982
2392537302040576	14982
2427721674129408	14982
2462906046218240	14982
2498090418307072	14982
2533274790395904	14982
2568459162484736	14982
2603643534573568	14982
2638827906662400	14982
2674012278751232	14982
2709196650840064	14982
2744381022928896	14982
2779565395017728	14982
2814749767106560	14982
2849934139195392	14982
2885118511284224	14982
2920302883373056	14982
2955487255461888	14982
2990671627550720	14982
3025855999639552	14982
3061040371728384	14982
3096224743817216	14982
3131409115906048	14982
3166593487994880	14982
3201777860083712	14982
3236962232172544	14982
3272146604261376	14982
3307330976350208	14982
3342515348439040	14982
3377699720527872	14982
3412884092616704	14982
3448068464705536	14982
3483252836794368	14982
3518437208883200	14982
3553621580972032	14982
3588805953060864	14982
3623990325149696	14982
3659174697238528	14982
3694359069327360	14982
3729543441416192	14982
3764727813505024	14982
3799912185593856	14982
3835096557682688	14982
3870280929771520	14982
3905465301860352	14982
3940649673949184	14982
3975834046038016	14982
4011018418126848	14982
4046202790215680	14982
4081387162304512	14982
4116571534393344	14982
4151755906482176	14982
4186940278571008	14982
4222124650659840	14982
4257309022748672	14982
4292493394837504	14982
4327677766926336	14982
4362862139015168	14982
4398046511104000	14982
4433230883192832	14982
4468415255281664	14982
4503599627370496	14982
4573968371548160	14982
4644337115725824	14982
4714705859903488	14982
4785074604081152	14982
4855443348258816	14982
4925812092436480	14982
4996180836614144	14982
5066549580791808	14982
5136918324969472	14982
5207287069147136	14982
5277655813324800	14982
5348024557502464	14982
5418393301680128	14982
5488762045857792	14982
5559130790035456	14982
5629499534213120	14982
5699868278390784	14982
5770237022568448	14982
5840605766746112	14982
5910974510923776	14982
5981343255101440	14982
6051711999279104	14982
6122080743456768	14982
6192449487634432	14982
6262818231812096	14982
6333186975989760	14982
6403555720167424	14982
6473924464345088	14982
6544293208522752	14982
6614661952700416	14982
6685030696878080	14982
6755399441055744	14982
6825768185233408	14982
6896136929411072	14982
6966505673588736	14982
7036874417766400	14982
7107243161944064	14982
7177611906121728	14982
7247980650299392	14982
7318349394477056	14982
7388718138654720	14982
7459086882832384	14982
7529455627010048	14982
7599824371187712	14982
7670193115365376	14982
7740561859543040	14982
7810930603720704	14982
7881299347898368	14982
7951668092076032	14982
8022036836253696	14982
8092405580431360	14982
8162774324609024	14982
8233143068786688	14982
8303511812964352	14982
8373880557142016	14982
8444249301319680	14982
8514618045497344	14982
8584986789675008	14982
8655355533852672	14982
8725724278030336	14982
8796093022208000	14982
8866461766385664	14982
8936830510563328	14982
9007199254740992	14982
9147936743096320	14982
9288674231451648	14982
9429411719806976	14982
9570149208162304	14982
9710886696517632	14982
9851624184872960	14982
9992361673228288	14982
10133099161583616	14982
10273836649938944	14982
10414574138294272	14982
10555311626649600	14982
10696049115004928	14982
10836786603360256	14982
10977524091715584	14982
11118261580070912	14982
11258999068426240	14982
11399736556781568	14982
11540474045136896	14982
11681211533492224	14982
11821949021847552	14982
11962686510202880	14982
12103423998558208	14982
12244161486913536	14982
12384898975268864	14982
12525636463624192	14982
12666373951979520	14982
12807111440334848	14982
12947848928690176	14982
13088586417045504	14982
13229323905400832	14982
13370061393756160	14982
13510798882111488	14982
13651536370466816	14982
13792273858822144	14982
13933011347177472	14982
14073748835532800	14982
14214486323888128	14982
14355223812243456	14982
14495961300598784	14982
14636698788954112	14982
14777436277309440	14982
14918173765664768	14982
15058911254020096	14982
15199648742375424	14982
15340386230730752	14982
15481123719086080	14982
15621861207441408	14982
15762598695796736	14982
15903336184152064	14982
16044073672507392	14982
16184811160862720	14982
16325548649218048	14982
16466286137573376	14982
16607023625928704	14982
16747761114284032	14982
16888498602639360	14982
17029236090994688	14982
17169973579350016	14982
17310711067705344	14982
17451448556060672	14982
17592186044416000	14982
17732923532771328	14982
17873661021126656	14982
18014398509481984	14982
18295873486192640	14982
18577348462903296	14982
18858823439613952	14982
19140298416324608	14982
19421773393035264	14982
19703248369745920	14982
19984723346456576	14982
20266198323167232	14982
20547673299877888	14982
20829148276588544	14982
21110623253299200	14982
21392098230009856	14982
21673573206720512	14982
21955048183431168	14982
22236523160141824	14982
22517998136852480	14982
22799473113563136	14982
23080948090273792	14982
23362423066984448	14982
23643898043695104	14982
23925373020405760	14982
24206847997116416	14982
24488322973827072	14982
24769797950537728	14982
25051272927248384	14982
25332747903959040	14982
25614222880669696	14982
25895697857380352	14982
26177172834091008	14982
26458647810801664	14982
26740122787512320	14982
27021597764222976	14982
27303072740933632	14982
27584547717644288	14982
27866022694354944	14982
28147497671065600	14982
28428972647776256	14982
28710447624486912	14982
28991922601197568	14982
29273397577908224	14982
29554872554618880	14982
29836347531329536	14982
30117822508040192	14982
30399297484750848	14982
30680772461461504	14982
30962247438172160	14982
31243722414882816	14982
31525197391593472	14982
31806672368304128	14982
32088147345014784	14982
32369622321725440	14982
32651097298436096	14982
32932572275146752	14982
33214047251857408	14982
33495522228568064	14982
33776997205278720	14982
34058472181989376	14982
34339947158700032	14982
34621422135410688	14982
34902897112121344	14982
35184372088832000	14982
35465847065542656	14982
35747322042253312	14982
36028797018963968	14982
36591746972385280	14982
37154696925806592	14982
37717646879227904	14982
38280596832649216	14982
38843546786070528	14982
39406496739491840	14982
39969446692913152	14982
40532396646334464	14982
41095346599755776	14982
41658296553177088	14982
42221246506598400	14982
42784196460019712	14982
43347146413441024	14982
43910096366862336	14982
44473046320283648	14982
45035996273704960	14982
45598946227126272	14982
46161896180547584	14982
46724846133968896	14982
47287796087390208	14982
47850746040811520	14982
48413695994232832	14982
48976645947654144	14982
49539595901075456	14982
50102545854496768	14982
50665495807918080	14982
51228445761339392	14982
51791395714760704	14982
52354345668182016	14982
52917295621603328	14982
53480245575024640	14982
54043195528445952	14982
54606145481867264	14982
55169095435288576	14982
55732045388709888	14982
56294995342131200	14982
56857945295552512	14982
57420895248973824	14982
57983845202395136	14982
58546795155816448	14982
59109745109237760	14982
59672695062659072	14982
60235645016080384	14982
60798594969501696	14982
61361544922923008	14982
61924494876344320	14982
62487444829765632	14982
63050394783186944	14982
63613344736608256	14982
64176294690029568	14982
64739244643450880	14982
65302194596872192	14982
65865144550293504	14982
66428094503714816	14982
66991044457136128	14982
67553994410557440	14982
68116944363978752	14982
68679894317400064	14982
69242844270821376	14982
69805794224242688	14982
70368744177664000	14982
70931694131085312	14982
71494644084506624	14982
72057594037927936	14982
73183493944770560	14982
74309393851613184	14982
75435293758455808	14982
76561193665298432	14982
77687093572141056	14982
78812993478983680	14982
79938893385826304	14982
81064793292668928	14982
82190693199511552	14982
83316593106354176	14982
84442493013196800	14982
85568392920039424	14982
86694292826882048	14982
87820192733724672	14982
88946092640567296	14982
90071992547409920	14982
91197892454252544	14982
92323792361095168	14982
93449692267937792	14982
94575592174780416	14982
95701492081623040	14982
96827391988465664	14982
97953291895308288	14982
99079191802150912	14982
100205091708993536	14982
101330991615836160	14982
102456891522678784	14982
103582791429521408	14982
104708691336364032	14982
105834591243206656	14982
106960491150049280	14982
108086391056891904	14982
109212290963734528	14982
110338190870577152	14982
111464090777419776	14982
112589990684262400	14982
113715890591105024	14982
114841790497947648	14982
115967690404790272	14982
117093590311632896	14982
118219490218475520	14982
119345390125318144	14982
120471290032160768	14982
121597189939003392	14982
122723089845846016	14982
123848989752688640	14982
124974889659531264	14982
126100789566373888	14982
127226689473216512	14982
128352589380059136	14982
129478489286901760	14982
130604389193744384	14982
131730289100587008	14982
132856189007429632	14982
133982088914272256	14982
135107988821114880	14982
136233888727957504	14982
137359788634800128	14982
138485688541642752	14982
139611588448485376	14982
140737488355328000	14982
141863388262170624	14982
142989288169013248	14982
144115188075855872	14982
146366987889541120	14982
148618787703226368	14982
150870587516911616	14982
153122387330596864	14982
155374187144282112	14982
157625986957967360	14982
159877786771652608	14982
162129586585337856	14982
164381386399023104	14982
166633186212708352	14982
168884986026393600	14982
171136785840078848	14982
173388585653764096	14982
175640385467449344	14982
177892185281134592	14982
180143985094819840	14982
182395784908505088	14982
184647584722190336	14982
186899384535875584	14982
189151184349560832	14982
191402984163246080	14982
193654783976931328	14982
195906583790616576	14982
198158383604301824	14982
200410183417987072	14982
202661983231672320	14982
204913783045357568	14982
207165582859042816	14982
209417382672728064	14982
211669182486413312	14982
213920982300098560	14982
216172782113783808	14982
218424581927469056	14982
220676381741154304	14982
222928181554839552	14982
225179981368524800	14982
227431781182210048	14982
229683580995895296	14982
231935380809580544	14982
234187180623265792	14982
236438980436951040	14982
238690780250636288	14982
240942580064321536	14982
243194379878006784	14982
245446179691692032	14982
247697979505377280	14982
249949779319062528	14982
252201579132747776	14982
254453378946433024	14982
256705178760118272	14982
258956978573803520	14982
261208778387488768	14982
263460578201174016	14982
265712378014859264	14982
267964177828544512	14982
270215977642229760	14982
272467777455915008	14982
274719577269600256	14982
276971377083285504	14982
279223176896970752	14982
281474976710656000	14982
283726776524341248	14982
285978576338026496	14982
288230376151711744	14982
292733975779082240	14982
297237575406452736	14982
301741175033823232	14982
306244774661193728	14982
310748374288564224	14982
315251973915934720	14982
319755573543305216	14982
324259173170675712	14982
328762772798046208	14982
333266372425416704	14982
337769972052787200	14982
342273571680157696	14982
346777171307528192	14982
351280770934898688	14982
355784370562269184	14982
360287970189639680	14982
364791569817010176	14982
369295169444380672	14982
373798769071751168	14982
378302368699121664	14982
382805968326492160	14982
387309567953862656	14982
391813167581233152	14982
396316767208603648	14982
400820366835974144	14982
405323966463344640	14982
409827566090715136	14982
414331165718085632	14982
418834765345456128	14982
423338364972826624	14982
427841964600197120	14982
432345564227567616	14982
436849163854938112	14982
441352763482308608	14982
445856363109679104	14982
450359962737049600	14982
454863562364420096	14982
459367161991790592	14982
463870761619161088	14982
468374361246531584	14982
472877960873902080	14982
477381560501272576	14982
481885160128643072	14982
486388759756013568	14982
490892359383384064	14982
495395959010754560	14982
499899558638125056	14982
504403158265495552	14982
508906757892866048	14982
513410357520236544	14982
517913957147607040	14982
522417556774977536	14982
526921156402348032	14982
531424756029718528	14982
535928355657089024	14982
540431955284459520	14982
544935554911830016	14982
549439154539200512	14982
553942754166571008	14982
558446353793941504	14982
562949953421312000	14982
567453553048682496	14982
571957152676052992	14982
576460752303423488	14982
585467951558164480	14982
594475150812905472	14982
603482350067646464	14982
612489549322387456	14982
621496748577128448	14982
630503947831869440	14982
639511147086610432	14982
648518346341351424	14982
657525545596092416	14982
666532744850833408	14982
675539944105574400	14982
684547143360315392	14982
693554342615056384	14982
702561541869797376	14982
711568741124538368	14982
720575940379279360	14982
729583139634020352	14982
738590338888761344	14982
747597538143502336	14982
756604737398243328	14982
765611936652984320	14982
774619135907725312	14982
783626335162466304	14982
792633534417207296	14982
801640733671948288	14982
810647932926689280	14982
819655132181430272	14982
828662331436171264	14982
837669530690912256	14982
846676729945653248	14982
855683929200394240	14982
864691128455135232	14982
873698327709876224	14982
882705526964617216	14982
891712726219358208	14982
900719925474099200	14982
909727124728840192	14982
918734323983581184	14982
927741523238322176	14982
936748722493063168	14982
945755921747804160	14982
954763121002545152	14982
963770320257286144	14982
972777519512027136	14982
981784718766768128	14982
990791918021509120	14982
999799117276250112	14982
1008806316530991104	14982
1017813515785732096	14982
1026820715040473088	14982
1035827914295214080	14982
1044835113549955072	14982
1053842312804696064	14982
1062849512059437056	14982
1071856711314178048	14982
1080863910568919040	14982
1089871109823660032	14982
1098878309078401024	14982
1107885508333142016	14982
1116892707587883008	14982
1125899906842624000	14982
1134907106097364992	14982
1143914305352105984	14982
1152921504606846976	14982
1170935903116328960	14982
1188950301625810944	14982
1206964700135292928	14982
1224979098644774912	14982
1242993497154256896	14982
1261007895663738880	14982
1279022294173220864	14982
1297036692682702848	14982
1315051091192184832	14982
1333065489701666816	14982
1351079888211148800	14982
1369094286720630784	14982
1387108685230112768	14982
1405123083739594752	14982
1423137482249076736	14982
1441151880758558720	14982
1459166279268040704	14982
1477180677777522688	14982
1495195076287004672	14982
1513209474796486656	14982
1531223873305968640	14982
1549238271815450624	14982
1567252670324932608	14982
1585267068834414592	14982
1603281467343896576	14982
1621295865853378560	14982
1639310264362860544	14982
1657324662872342528	14982
1675339061381824512	14982
1693353459891306496	14982
1711367858400788480	14982
1729382256910270464	14982
1747396655419752448	14982
1765411053929234432	14982
1783425452438716416	14982
1801439850948198400	14982
1819454249457680384	14982
1837468647967162368	14982
1855483046476644352	14982
1873497444986126336	14982
1891511843495608320	14982
1909526242005090304	14982
1927540640514572288	14982
1945555039024054272	14982
1963569437533536256	14982
1981583836043018240	14982
1999598234552500224	14982
2017612633061982208	14982
2035627031571464192	14982
2053641430080946176	14982
2071655828590428160	14982
2089670227099910144	14982
2107684625609392128	14982
2125699024118874112	14982
2143713422628356096	14982
2161727821137838080	14982
2179742219647320064	14982
2197756618156802048	14982
2215771016666284032	14982
2233785415175766016	14982
2251799813685248000	14982
2269814212194729984	14982
2287828610704211968	14982
2305843009213693952	14982
2341871806232657920	14982
2377900603251621888	14982
2413929400270585856	14982
2449958197289549824	14982
2485986994308513792	14982
2522015791327477760	14982
2558044588346441728	14982
2594073385365405696	14982
2630102182384369664	14982
2666130979403333632	14982
2702159776422297600	14982
2738188573441261568	14982
2774217370460225536	14982
2810246167479189504	14982
2846274964498153472	14982
2882303761517117440	14982
2918332558536081408	14982
2954361355555045376	14982
2990390152574009344	14982
3026418949592973312	14982
3062447746611937280	14982
3098476543630901248	14982
3134505340649865216	14982
3170534137668829184	14982
3206562934687793152	14982
3242591731706757120	14982
3278620528725721088	14982
3314649325744685056	14982
3350678122763649024	14982
3386706919782612992	14982
3422735716801576960	14982
3458764513820540928	14982
3494793310839504896	14982
3530822107858468864	14982
3566850904877432832	14982
3602879701896396800	14982
3638908498915360768	14982
3674937295934324736	14982
3710966092953288704	14982
3746994889972252672	14982
3783023686991216640	14982
3819052484010180608	14982
3855081281029144576	14982
3891110078048108544	14982
3927138875067072512	14982
3963167672086036480	14982
3999196469105000448	14982
4035225266123964416	14982
4071254063142928384	14982
4107282860161892352	14982
4143311657180856320	14982
4179340454199820288	14982
4215369251218784256	14982
4251398048237748224	14982
4287426845256712192	14982
4323455642275676160	14982
4359484439294640128	14982
4395513236313604096	14982
4431542033332568064	14982
4467570830351532032	14982
4503599627370496000	14982
4539628424389459968	14982
4575657221408423936	14982
4611686018427387904	14982
4683743612465315840	14982
4755801206503243776	14982
4827858800541171712	14982
4899916394579099648	14982
4971973988617027584	14982
5044031582654955520	14982
5116089176692883456	14982
5188146770730811392	14982
5260204364768739328	14982
5332261958806667264	14982
5404319552844595200	14982
5476377146882523136	14982
5548434740920451072	14982
5620492334958379008	14982
5692549928996306944	14982
5764607523034234880	14982
5836665117072162816	14982
5908722711110090752	14982
5980780305148018688	14982
6052837899185946624	14982
6124895493223874560	14982
6196953087261802496	14982
6269010681299730432	14982
6341068275337658368	14982
6413125869375586304	14982
6485183463413514240	14982
6557241057451442176	14982
6629298651489370112	14982
6701356245527298048	14982
6773413839565225984	14982
6845471433603153920	14982
6917529027641081856	14982
6989586621679009792	14982
7061644215716937728	14982
7133701809754865664	14982
7205759403792793600	14982
7277816997830721536	14982
7349874591868649472	14982
7421932185906577408	14982
7493989779944505344	14982
7566047373982433280	14982
7638104968020361216	14982
7710162562058289152	14982
7782220156096217088	14982
7854277750134145024	14982
7926335344172072960	14982
7998392938210000896	14982
8070450532247928832	14982
8142508126285856768	14982
8214565720323784704	14982
8286623314361712640	14982
8358680908399640576	14982
8430738502437568512	14982
8502796096475496448	14982
8574853690513424384	14982
8646911284551352320	14982
8718968878589280256	14982
8791026472627208192	14982
8863084066665136128	14982
8935141660703064064	14982
9007199254740992000	14982
9079256848778919936	14982
9151314442816847872	14982
9223372036854775808	14982
9367487224930631680	14982
9511602413006487552	14982
9655717601082343424	14982
9799832789158199296	14982
9943947977234055168	14982
10088063165309911040	14982
10232178353385766912	14982
10376293541461622784	14982
10520408729537478656	14982
10664523917613334528	14982
10808639105689190400	14982
10952754293765046272	14982
11096869481840902144	14982
11240984669916758016	14982
11385099857992613888	14982
11529215046068469760	14982
11673330234144325632	14982
11817445422220181504	14982
11961560610296037376	14982
12105675798371893248	14982
12249790986447749120	14982
12393906174523604992	14982
12538021362599460864	14982
12682136550675316736	14982
12826251738751172608	14982
12970366926827028480	14982
13114482114902884352	14982
13258597302978740224	14982
13402712491054596096	14982
13546827679130451968	14982
13690942867206307840	14982
13835058055282163712	14982
13979173243358019584	14982
14123288431433875456	14982
14267403619509731328	14982
14411518807585587200	14982
14555633995661443072	14982
14699749183737298944	14982
14843864371813154816	14982
14987979559889010688	14982
15132094747964866560	14982
15276209936040722432	14982
15420325124116578304	14982
15564440312192434176	14982
15708555500268290048	14982
15852670688344145920	14982
15996785876420001792	14982
16140901064495857664	14982
16285016252571713536	14982
16429131440647569408	14982
16573246628723425280	14982
16717361816799281152	14982
16861477004875137024	14982
17005592192950992896	14982
17149707381026848768	14982
17293822569102704640	14982
17437937757178560512	14982
17582052945254416384	14982
17726168133330272256	14982
17870283321406128128	14982
18014398509481984000	14982
18158513697557839872	14982
18302628885633695744	0
