0	0
1	1
2	1.95854
3	2.88272
4	3.7772
5	4.64446
6	5.49703
7	6.33577
8	7.16368
9	7.97703
10	8.7775
11	9.56828
12	10.3492
13	11.1195
14	11.8791
15	12.6282
16	13.3721
17	14.1108
18	14.8448
19	15.5701
20	16.2909
21	17.0062
22	17.7183
23	18.427
24	19.1326
25	19.834
26	20.5329
27	21.2278
28	21.9197
29	22.6061
30	23.2895
31	23.9689
32	24.6456
33	25.3203
34	25.9937
35	26.6656
36	27.336
37	28.0049
38	28.6724
39	29.3379
40	30.0014
41	30.6618
42	31.3207
43	31.9775
44	32.6332
45	33.2877
46	33.9415
47	34.5943
48	35.2464
49	35.8971
50	36.5468
51	37.1955
52	37.8434
53	38.4903
54	39.1365
55	39.7815
56	40.4257
57	41.0686
58	41.7111
59	42.3529
60	42.9942
61	43.6346
62	44.2741
63	44.9129
64	45.5513
65	46.1891
66	46.8264
67	47.463
68	48.0989
69	48.7339
70	49.3685
71	50.0025
72	50.636
73	51.2689
74	51.9012
75	52.5324
76	53.163
77	53.7929
78	54.4223
79	55.0509
80	55.6788
81	56.3059
82	56.9326
83	57.5588
84	58.1847
85	58.8102
86	59.4354
87	60.0603
88	60.6849
89	61.3093
90	61.9333
91	62.5569
92	63.1801
93	63.8027
94	64.4249
95	65.0465
96	65.6677
97	66.2886
98	66.9092
99	67.5294
100	68.1493
101	68.769
102	69.3885
103	70.0077
104	70.6264
105	71.2449
106	71.863
107	72.4809
108	73.0985
109	73.7157
110	74.3326
111	74.9491
112	75.5653
113	76.1812
114	76.7969
115	77.4122
116	78.0273
117	78.642
118	79.2565
119	79.8707
120	80.4845
121	81.0981
122	81.7113
123	82.3242
124	82.9367
125	83.549
126	84.1612
127	84.773
128	85.3847
130	86.6073
132	87.8288
134	89.0492
136	90.2686
138	91.4871
140	92.7047
142	93.9213
144	95.1371
146	96.3522
148	97.5663
150	98.7793
152	99.9909
154	101.201
156	102.411
158	103.62
160	104.827
162	106.034
164	107.24
166	108.445
168	109.649
170	110.852
172	112.055
174	113.257
176	114.458
178	115.659
180	116.858
182	118.058
184	119.256
186	120.454
188	121.651
190	122.847
192	124.043
194	125.238
196	126.432
198	127.625
200	128.818
202	130.01
204	131.201
206	132.392
208	133.582
210	134.771
212	135.96
214	137.148
216	138.335
218	139.522
220	140.708
222	141.893
224	143.078
226	144.262
228	145.446
230	146.628
232	147.811
234	148.992
236	150.174
238	151.354
240	152.534
242	153.713
244	154.892
246	156.07
248	157.247
250	158.424
252	159.6
254	160.776
256	161.951
260	164.299
264	166.646
268	168.99
272	171.331
276	173.671
280	176.009
284	178.344
288	180.677
292	183.008
296	185.336
300	187.663
304	189.987
308	192.309
312	194.629
316	196.947
320	199.263
324	201.577
328	203.889
332	206.198
336	208.507
340	210.813
344	213.117
348	215.42
352	217.721
356	220.019
360	222.316
364	224.611
368	226.904
372	229.195
376	231.485
380	233.773
384	236.059
388	238.343
392	240.625
396	242.906
400	245.185
404	247.462
408	249.738
412	252.012
416	254.283
420	256.554
424	258.822
428	261.089
432	263.354
436	265.618
440	267.88
444	270.141
448	272.4
452	274.657
456	276.912
460	279.166
464	281.419
468	283.67
472	285.919
476	288.167
480	290.413
484	292.658
488	294.901
492	297.142
496	299.382
500	301.621
504	303.857
508	306.092
512	308.326
520	312.788
528	317.245
536	321.696
544	326.141
552	330.579
560	335.012
568	339.44
576	343.861
584	348.277
592	352.687
600	357.091
608	361.49
616	365.883
624	370.27
632	374.651
640	379.028
648	383.399
656	387.765
664	392.126
672	396.481
680	400.831
688	405.176
696	409.515
704	413.849
712	418.178
720	422.502
728	426.821
736	431.135
744	435.444
752	439.748
760	444.046
768	448.34
776	452.628
784	456.912
792	461.191
800	465.465
808	469.734
816	473.999
824	478.259
832	482.515
840	486.766
848	491.012
856	495.253
864	499.49
872	503.722
880	507.949
888	512.172
896	516.39
904	520.603
912	524.812
920	529.017
928	533.217
936	537.412
944	541.603
952	545.79
960	549.973
968	554.151
976	558.324
984	562.494
992	566.66
1000	570.821
1008	574.978
1016	579.131
1024	583.28
1040	591.565
1056	599.834
1072	608.086
1088	616.321
1104	624.541
1120	632.745
1136	640.935
1152	649.108
1168	657.268
1184	665.412
1200	673.542
1216	681.656
1232	689.755
1248	697.84
1264	705.911
1280	713.967
1296	722.009
1312	730.037
1328	738.05
1344	746.05
1360	754.036
1376	762.008
1392	769.968
1408	777.914
1424	785.847
1440	793.766
1456	801.672
1472	809.566
1488	817.447
1504	825.314
1520	833.17
1536	841.013
1552	848.845
1568	856.664
1584	864.472
1600	872.267
1616	880.051
1632	887.823
1648	895.582
1664	903.33
1680	911.067
1696	918.792
1712	926.507
1728	934.211
1744	941.904
1760	949.587
1776	957.259
1792	964.921
1808	972.572
1824	980.214
1840	987.845
1856	995.465
1872	1003.08
1888	1010.68
1904	1018.27
1920	1025.85
1936	1033.42
1952	1040.98
1968	1048.53
1984	1056.07
2000	1063.61
2016	1071.13
2032	1078.65
2048	1086.15
2080	1101.14
2112	1116.09
2144	1131
2176	1145.89
2208	1160.73
2240	1175.54
2272	1190.32
2304	1205.07
2336	1219.78
2368	1234.47
2400	1249.12
2432	1263.74
2464	1278.34
2496	1292.9
2528	1307.44
2560	1321.94
2592	1336.42
2624	1350.88
2656	1365.31
2688	1379.71
2720	1394.09
2752	1408.44
2784	1422.76
2816	1437.06
2848	1451.34
2880	1465.59
2912	1479.82
2944	1494.03
2976	1508.22
3008	1522.38
3040	1536.52
3072	1550.64
3104	1564.74
3136	1578.81
3168	1592.87
3200	1606.91
3232	1620.93
3264	1634.93
3296	1648.91
3328	1662.87
3360	1676.81
3392	1690.73
3424	1704.64
3456	1718.53
3488	1732.4
3520	1746.25
3552	1760.09
3584	1773.91
3616	1787.72
3648	1801.51
3680	1815.28
3712	1829.04
3744	1842.78
3776	1856.51
3808	1870.22
3840	1883.92
3872	1897.6
3904	1911.27
3936	1924.92
3968	1938.56
4000	1952.18
4032	1965.79
4064	1979.39
4096	1992.97
4160	2020.1
4224	2047.17
4288	2074.21
4352	2101.2
4416	2128.14
4480	2155.04
4544	2181.91
4608	2208.73
4672	2235.51
4736	2262.26
4800	2288.97
4864	2315.64
4928	2342.27
4992	2368.88
5056	2395.44
5120	2421.98
5184	2448.48
5248	2474.96
5312	2501.4
5376	2527.82
5440	2554.21
5504	2580.57
5568	2606.91
5632	2633.22
5696	2659.51
5760	2685.78
5824	2712.02
5888	2738.24
5952	2764.44
6016	2790.62
6080	2816.77
6144	2842.91
6208	2869.04
6272	2895.14
6336	2921.22
6400	2947.29
6464	2973.34
6528	2999.37
6592	3025.39
6656	3051.39
6720	3077.38
6784	3103.35
6848	3129.31
6912	3155.25
6976	3181.18
7040	3207.1
7104	3233
7168	3258.9
7232	3284.78
7296	3310.65
7360	3336.5
7424	3362.35
7488	3388.19
7552	3414.01
7616	3439.83
7680	3465.63
7744	3491.43
7808	3517.21
7872	3542.99
7936	3568.76
8000	3594.52
8064	3620.27
8128	3646.02
8192	3671.76
8320	3723.21
8448	3774.64
8576	3826.04
8704	3877.43
8832	3928.78
8960	3980.12
9088	4031.44
9216	4082.74
9344	4134.02
9472	4185.28
9600	4236.53
9728	4287.75
9856	4338.96
9984	4390.15
10112	4441.32
10240	4492.47
10368	4543.61
10496	4594.73
10624	4645.84
10752	4696.92
10880	4747.99
11008	4799.04
11136	4850.07
11264	4901.09
11392	4952.09
11520	5003.08
11648	5054.04
11776	5105
11904	5155.93
12032	5206.86
12160	5257.77
12288	5308.66
12416	5359.54
12544	5410.41
12672	5461.27
12800	5512.11
12928	5562.94
13056	5613.76
13184	5664.56
13312	5715.35
13440	5766.13
13568	5816.9
13696	5867.65
13824	5918.4
13952	5969.13
14080	6019.85
14208	6070.55
14336	6121.25
14464	6171.93
14592	6222.6
14720	6273.26
14848	6323.9
14976	6374.53
15104	6425.15
15232	6475.75
15360	6526.34
15488	6576.92
15616	6627.48
15744	6678.04
15872	6728.57
16000	6779.1
16128	6829.62
16256	6880.12
16384	6930.61
16640	7031.55
16896	7132.45
17152	7233.31
17408	7334.11
17664	7434.87
17920	7535.58
18176	7636.25
18432	7736.88
18688	7837.47
18944	7938.01
19200	8038.51
19456	8138.97
19712	8239.39
19968	8339.77
20224	8440.11
20480	8540.42
20736	8640.72
20992	8741.01
21248	8841.28
21504	8941.53
21760	9041.69
22016	9141.71
22272	9241.52
22528	9341.11
22784	9440.43
23040	9539.47
23296	9638.23
23552	9736.69
23808	9834.87
24064	9932.75
24320	10030.3
24576	10127.6
24832	10224.6
25088	10321.3
25344	10417.7
25600	10513.9
25856	10609.8
26112	10705.4
26368	10800.9
26624	10896.1
26880	10991.1
27136	11086
27392	11180.6
27648	11275.1
27904	11369.4
28160	11463.6
28416	11557.6
28672	11651.4
28928	11745.2
29184	11838.8
29440	11932.3
29696	12025.8
29952	12119.1
30208	12212.3
30464	12305.5
30720	12398.6
30976	12491.6
31232	12584.5
31488	12677.4
31744	12770.3
32000	12863.1
32256	12955.9
32512	13048.6
32768	13141.3
33280	13326.3
33792	13510.9
34304	13694.7
34816	13878.4
35328	14062
35840	14245.5
36352	14428.9
36864	14612.3
37376	14795.7
37888	14979.1
38400	15162.5
38912	15345.9
39424	15529.4
39936	15712.9
40448	15896.2
40960	16079.4
41472	16262.5
41984	16445.6
42496	16628.6
43008	16811.6
43520	16994.6
44032	17177.6
44544	17360.6
45056	17543.5
45568	17726.3
46080	17909.1
46592	18091.8
47104	18274.5
47616	18457.1
48128	18639.7
48640	18822.2
49152	19004.7
49664	19187.2
50176	19369.6
50688	19552
51200	19734.3
51712	19916.6
52224	20098.9
52736	20281
53248	20462.9
53760	20644.5
54272	20826
54784	21007.5
55296	21188.9
55808	21370.3
56320	21551.7
56832	21733
57344	21914.2
57856	22095.4
58368	22276.4
58880	22457.4
59392	22638.3
59904	22819.2
60416	22999.9
60928	23180.6
61440	23361.2
61952	23541.8
62464	23722.3
62976	23902.9
63488	24083.5
64000	24264.1
64512	24444.7
65024	24625.4
65536	24806.1
66560	25167.4
67584	25527.9
68608	25886.9
69632	26245.7
70656	26604
71680	26962.1
72704	27319.9
73728	27677.8
74752	28036
75776	28394.5
76800	28753.1
77824	29111.9
78848	29470.5
79872	29828.8
80896	30187
81920	30544.9
82944	30902.7
83968	31260.3
84992	31617.8
86016	31975.2
87040	32332.5
88064	32689.9
89088	33048.1
90112	33407.2
91136	33767
92160	34127.8
93184	34489.4
94208	34851.8
95232	35215.2
96256	35579.3
97280	35944.4
98304	36310.3
99328	36677.1
100352	37044.5
101376	37411.6
102400	37778.1
103424	38145
104448	38512.1
105472	38879.6
106496	39247.4
107520	39615.7
108544	39984.3
109568	40353.4
110592	40722.9
111616	41092.8
112640	41462.8
113664	41832.7
114688	42202.7
115712	42572.6
116736	42942.6
117760	43312.6
118784	43682.5
119808	44052.5
120832	44422.4
121856	44792.7
122880	45163.9
123904	45536.1
124928	45909.2
125952	46283.2
126976	46658.2
128000	47034.1
129024	47411
130048	47788.7
131072	48167.3
133120	48927.4
135168	49689.2
137216	50450.5
139264	51212.9
141312	51975.7
143360	52736.2
145408	53494.2
147456	54248.6
149504	54999
151552	55746.4
153600	56491.5
155648	57234.6
157696	57978.6
159744	58724.2
161792	59469.9
163840	60218.2
165888	60970.4
167936	61726.1
169984	62481.4
172032	63237.7
174080	63995.3
176128	64751.7
178176	65505.6
180224	66256.6
182272	67003.3
184320	67746.1
186368	68486.2
188416	69223.8
190464	69961
192512	70699.9
194560	71440
196608	72180.6
198656	72925.1
200704	73673.7
202752	74424.1
204800	75174.5
206848	75926.2
208896	76678.6
210944	77428.6
212992	78176.1
215040	78919.8
217088	79659.1
219136	80394.9
221184	81128.1
223232	81859.3
225280	82591.6
227328	83325.6
229376	84059.8
231424	84796.9
233472	85538.3
235520	86283.5
237568	87028.3
239616	87774.1
241664	88521.2
243712	89266.9
245760	90009.9
247808	90749.9
249856	91485.4
251904	92216.6
253952	92944.9
256000	93670.6
258048	94395.3
260096	95121.7
262144	95849.5
266240	97311.5
270336	98789.3
274432	100271
278528	101751
282624	103219
286720	104670
290816	106109
294912	107548
299008	108994
303104	110457
307200	111927
311296	113398
315392	114859
319488	116302
323584	117731
327680	119155
331776	120585
335872	122032
339968	123492
344064	124952
348160	126403
352256	127839
356352	129261
360448	130669
364544	132074
368640	133494
372736	134935
376832	136383
380928	137824
385024	139251
389120	140661
393216	142057
397312	143445
401408	144844
405504	146266
409600	147701
413696	149132
417792	150548
421888	151948
425984	153331
430080	154703
434176	156082
438272	157483
442368	158905
446464	160325
450560	161731
454656	163118
458752	164487
462848	165841
466944	167197
471040	168575
475136	169978
479232	171383
483328	172775
487424	174147
491520	175497
495616	176829
499712	178158
503808	179494
507904	180858
512000	182232
516096	183609
520192	184967
524288	186296
532480	188900
540672	191532
548864	194230
557056	196872
565248	199406
573440	201952
581632	204576
589824	207155
598016	209599
606208	212035
614400	214552
622592	217038
630784	219356
638976	221636
647168	224002
655360	226352
663552	228494
671744	230541
679936	232667
688128	234775
696320	236617
704512	238262
712704	239964
720896	241818
729088	243606
737280	245402
745472	247305
753664	249495
761856	251685
770048	253908
778240	255993
786432	257910
794624	259402
802816	260653
811008	261803
819200	263691
827392	265620
835584	267138
843776	267491
851968	267491
860160	267491
868352	267491
876544	267491
884736	267491
892928	267491
901120	267491
909312	267491
917504	267491
925696	267491
933888	267491
942080	267491
950272	267491
958464	267491
966656	267491
974848	267491
983040	267491
991232	267491
999424	267491
1007616	267491
1015808	267491
1024000	267491
1032192	267491
1040384	267491
1048576	267491
1064960	267491
1081344	267491
1097728	267491
1114112	267491
1130496	267491
1146880	267491
1163264	267491
1179648	267491
1196032	267491
1212416	267491
1228800	267491
1245184	267491
1261568	267491
1277952	267491
1294336	267491
1310720	267491
1327104	267491
1343488	267491
1359872	267491
1376256	267491
1392640	267491
1409024	267491
1425408	267491
1441792	267491
1458176	267491
1474560	267491
1490944	267491
1507328	267491
1523712	267491
1540096	267491
1556480	267491
1572864	267491
1589248	267491
1605632	267491
1622016	267491
1638400	267491
1654784	267491
1671168	267491
1687552	267491
1703936	267491
1720320	267491
1736704	267491
1753088	267491
1769472	267491
1785856	267491
1802240	267491
1818624	267491
1835008	267491
1851392	267491
1867776	267491
1884160	267491
1900544	267491
1916928	267491
1933312	267491
1949696	267491
1966080	267491
1982464	267491
1998848	267491
2015232	267491
2031616	267491
2048000	267491
2064384	267491
2080768	267491
2097152	267491
2129920	267491
2162688	267491
2195456	267491
2228224	267491
2260992	267491
2293760	267491
2326528	267491
2359296	267491
2392064	267491
2424832	267491
2457600	267491
2490368	267491
2523136	267491
2555904	267491
2588672	267491
2621440	267491
2654208	267491
2686976	267491
2719744	267491
2752512	267491
2785280	267491
2818048	267491
2850816	267491
2883584	267491
2916352	267491
2949120	267491
2981888	267491
3014656	267491
3047424	267491
3080192	267491
3112960	267491
3145728	267491
3178496	267491
3211264	267491
3244032	267491
3276800	267491
3309568	267491
3342336	267491
3375104	267491
3407872	267491
3440640	267491
3473408	267491
3506176	267491
3538944	267491
3571712	267491
3604480	267491
3637248	267491
3670016	267491
3702784	267491
3735552	267491
3768320	267491
3801088	267491
3833856	267491
3866624	267491
3899392	267491
3932160	267491
3964928	267491
3997696	267491
4030464	267491
4063232	267491
4096000	267491
4128768	267491
4161536	267491
4194304	267491
4259840	267491
4325376	267491
4390912	267491
4456448	267491
4521984	267491
4587520	267491
4653056	267491
4718592	267491
4784128	267491
4849664	267491
4915200	267491
4980736	267491
5046272	267491
5111808	267491
5177344	267491
5242880	267491
5308416	267491
5373952	267491
5439488	267491
5505024	267491
5570560	267491
5636096	267491
5701632	267491
5767168	267491
5832704	267491
5898240	267491
5963776	267491
6029312	267491
6094848	267491
6160384	267491
6225920	267491
6291456	267491
6356992	267491
6422528	267491
6488064	267491
6553600	267491
6619136	267491
6684672	267491
6750208	267491
6815744	267491
6881280	267491
6946816	267491
7012352	267491
7077888	267491
7143424	267491
7208960	267491
7274496	267491
7340032	267491
7405568	267491
7471104	267491
7536640	267491
7602176	267491
7667712	267491
7733248	267491
7798784	267491
7864320	267491
7929856	267491
7995392	267491
8060928	267491
8126464	267491
8192000	267491
8257536	267491
8323072	267491
8388608	267491
8519680	267491
8650752	267491
8781824	267491
8912896	267491
9043968	267491
9175040	267491
9306112	267491
9437184	267491
9568256	267491
9699328	267491
9830400	267491
9961472	267491
10092544	267491
10223616	267491
10354688	267491
10485760	267491
10616832	267491
10747904	267491
10878976	267491
11010048	267491
11141120	267491
11272192	267491
11403264	267491
11534336	267491
11665408	267491
11796480	267491
11927552	267491
12058624	267491
12189696	267491
12320768	267491
12451840	267491
12582912	267491
12713984	267491
12845056	267491
12976128	267491
13107200	267491
13238272	267491
13369344	267491
13500416	267491
13631488	267491
13762560	267491
13893632	267491
14024704	267491
14155776	267491
14286848	267491
14417920	267491
14548992	267491
14680064	267491
14811136	267491
14942208	267491
15073280	267491
15204352	267491
15335424	267491
15466496	267491
15597568	267491
15728640	267491
15859712	267491
15990784	267491
16121856	267491
16252928	267491
16384000	267491
16515072	267491
16646144	267491
16777216	267491
17039360	267491
17301504	267491
17563648	267491
17825792	267491
18087936	267491
18350080	267491
18612224	267491
18874368	267491
19136512	267491
19398656	267491
19660800	267491
19922944	267491
20185088	267491
20447232	267491
20709376	267491
20971520	267491
21233664	267491
21495808	267491
21757952	267491
22020096	267491
22282240	267491
22544384	267491
22806528	267491
23068672	267491
23330816	267491
23592960	267491
23855104	267491
24117248	267491
24379392	267491
24641536	267491
24903680	267491
25165824	267491
25427968	267491
25690112	267491
25952256	267491
26214400	267491
26476544	267491
26738688	267491
27000832	267491
27262976	267491
27525120	267491
27787264	267491
28049408	267491
28311552	267491
28573696	267491
28835840	267491
29097984	267491
29360128	267491
29622272	267491
29884416	267491
30146560	267491
30408704	267491
30670848	267491
30932992	267491
31195136	267491
31457280	267491
31719424	267491
31981568	267491
32243712	267491
32505856	267491
32768000	267491
33030144	267491
33292288	267491
33554432	267491
34078720	267491
34603008	267491
35127296	267491
35651584	267491
36175872	267491
36700160	267491
37224448	267491
37748736	267491
38273024	267491
38797312	267491
39321600	267491
39845888	267491
40370176	267491
40894464	267491
41418752	267491
41943040	267491
42467328	267491
42991616	267491
43515904	267491
44040192	267491
44564480	267491
45088768	267491
45613056	267491
46137344	267491
46661632	267491
47185920	267491
47710208	267491
48234496	267491
48758784	267491
49283072	267491
49807360	267491
50331648	267491
50855936	267491
51380224	267491
51904512	267491
52428800	267491
52953088	267491
53477376	267491
54001664	267491
54525952	267491
55050240	267491
55574528	267491
56098816	267491
56623104	267491
57147392	267491
57671680	267491
58195968	267491
58720256	267491
59244544	267491
59768832	267491
60293120	267491
60817408	267491
61341696	267491
61865984	267491
62390272	267491
62914560	267491
63438848	267491
63963136	267491
64487424	267491
65011712	267491
65536000	267491
66060288	267491
66584576	267491
67108864	267491
68157440	267491
69206016	267491
70254592	267491
71303168	267491
72351744	267491
73400320	267491
74448896	267491
75497472	267491
76546048	267491
77594624	267491
78643200	267491
79691776	267491
80740352	267491
81788928	267491
82837504	267491
83886080	267491
84934656	267491
85983232	267491
87031808	267491
88080384	267491
89128960	267491
90177536	267491
91226112	267491
92274688	267491
93323264	267491
94371840	267491
95420416	267491
96468992	267491
97517568	267491
98566144	267491
99614720	267491
100663296	267491
101711872	267491
102760448	267491
103809024	267491
104857600	267491
105906176	267491
106954752	267491
108003328	267491
109051904	267491
110100480	267491
111149056	267491
112197632	267491
113246208	267491
114294784	267491
115343360	267491
116391936	267491
117440512	267491
118489088	267491
119537664	267491
120586240	267491
121634816	267491
122683392	267491
123731968	267491
124780544	267491
125829120	267491
126877696	267491
127926272	267491
128974848	267491
130023424	267491
131072000	267491
132120576	267491
133169152	267491
134217728	267491
136314880	267491
138412032	267491
140509184	267491
142606336	267491
144703488	267491
146800640	267491
148897792	267491
150994944	267491
153092096	267491
155189248	267491
157286400	267491
159383552	267491
161480704	267491
163577856	267491
165675008	267491
167772160	267491
169869312	267491
171966464	267491
174063616	267491
176160768	267491
178257920	267491
180355072	267491
182452224	267491
184549376	267491
186646528	267491
188743680	267491
190840832	267491
192937984	267491
195035136	267491
197132288	267491
199229440	267491
201326592	267491
203423744	267491
205520896	267491
207618048	267491
209715200	267491
211812352	267491
213909504	267491
216006656	267491
218103808	267491
220200960	267491
222298112	267491
224395264	267491
226492416	267491
228589568	267491
230686720	267491
232783872	267491
234881024	267491
236978176	267491
239075328	267491
241172480	267491
243269632	267491
245366784	267491
247463936	267491
249561088	267491
251658240	267491
253755392	267491
255852544	267491
257949696	267491
260046848	267491
262144000	267491
264241152	267491
266338304	267491
268435456	267491
272629760	267491
276824064	267491
281018368	267491
285212672	267491
289406976	267491
293601280	267491
297795584	267491
301989888	267491
306184192	267491
310378496	267491
314572800	267491
318767104	267491
322961408	267491
327155712	267491
331350016	267491
335544320	267491
339738624	267491
343932928	267491
348127232	267491
352321536	267491
356515840	267491
360710144	267491
364904448	267491
369098752	267491
373293056	267491
377487360	267491
381681664	267491
385875968	267491
390070272	267491
394264576	267491
398458880	267491
402653184	267491
406847488	267491
411041792	267491
415236096	267491
419430400	267491
423624704	267491
427819008	267491
432013312	267491
436207616	267491
440401920	267491
444596224	267491
448790528	267491
452984832	267491
457179136	267491
461373440	267491
465567744	267491
469762048	267491
473956352	267491
478150656	267491
482344960	267491
486539264	267491
490733568	267491
494927872	267491
499122176	267491
503316480	267491
507510784	267491
511705088	267491
515899392	267491
520093696	267491
524288000	267491
528482304	267491
532676608	267491
536870912	267491
545259520	267491
553648128	267491
562036736	267491
570425344	267491
578813952	267491
587202560	267491
595591168	267491
603979776	267491
612368384	267491
620756992	267491
629145600	267491
637534208	267491
645922816	267491
654311424	267491
662700032	267491
671088640	267491
679477248	267491
687865856	267491
696254464	267491
704643072	267491
713031680	267491
721420288	267491
729808896	267491
738197504	267491
746586112	267491
754974720	267491
763363328	267491
771751936	267491
780140544	267491
788529152	267491
796917760	267491
805306368	267491
813694976	267491
822083584	267491
830472192	267491
838860800	267491
847249408	267491
855638016	267491
864026624	267491
872415232	267491
880803840	267491
889192448	267491
897581056	267491
905969664	267491
914358272	267491
922746880	267491
931135488	267491
939524096	267491
947912704	267491
956301312	267491
964689920	267491
973078528	267491
981467136	267491
989855744	267491
998244352	267491
1006632960	267491
1015021568	267491
1023410176	267491
1031798784	267491
1040187392	267491
1048576000	267491
1056964608	267491
1065353216	267491
1073741824	267491
1090519040	267491
1107296256	267491
1124073472	267491
1140850688	267491
1157627904	267491
1174405120	267491
1191182336	267491
1207959552	267491
1224736768	267491
1241513984	267491
1258291200	267491
1275068416	267491
1291845632	267491
1308622848	267491
1325400064	267491
1342177280	267491
1358954496	267491
1375731712	267491
1392508928	267491
1409286144	267491
1426063360	267491
1442840576	267491
1459617792	267491
1476395008	267491
1493172224	267491
1509949440	267491
1526726656	267491
1543503872	267491
1560281088	267491
1577058304	267491
1593835520	267491
1610612736	267491
1627389952	267491
1644167168	267491
1660944384	267491
1677721600	267491
1694498816	267491
1711276032	267491
1728053248	267491
1744830464	267491
1761607680	267491
1778384896	267491
1795162112	267491
1811939328	267491
1828716544	267491
1845493760	267491
1862270976	267491
1879048192	267491
1895825408	267491
1912602624	267491
1929379840	267491
1946157056	267491
1962934272	267491
1979711488	267491
1996488704	267491
2013265920	267491
2030043136	267491
2046820352	267491
2063597568	267491
2080374784	267491
2097152000	267491
2113929216	267491
2130706432	267491
2147483648	267491
2181038080	267491
2214592512	267491
2248146944	267491
2281701376	267491
2315255808	267491
2348810240	267491
2382364672	267491
2415919104	267491
2449473536	267491
2483027968	267491
2516582400	267491
2550136832	267491
2583691264	267491
2617245696	267491
2650800128	267491
2684354560	267491
2717908992	267491
2751463424	267491
2785017856	267491
2818572288	267491
2852126720	267491
2885681152	267491
2919235584	267491
2952790016	267491
2986344448	267491
3019898880	267491
3053453312	267491
3087007744	267491
3120562176	267491
3154116608	267491
3187671040	267491
3221225472	267491
3254779904	267491
3288334336	267491
3321888768	267491
3355443200	267491
3388997632	267491
3422552064	267491
3456106496	267491
3489660928	267491
3523215360	267491
3556769792	267491
3590324224	267491
3623878656	267491
3657433088	267491
3690987520	267491
3724541952	267491
3758096384	267491
3791650816	267491
3825205248	267491
3858759680	267491
3892314112	267491
3925868544	267491
3959422976	267491
3992977408	267491
4026531840	267491
4060086272	267491
4093640704	267491
4127195136	267491
4160749568	267491
4194304000	267491
4227858432	267491
4261412864	267491
4294967296	267491
4362076160	267491
4429185024	267491
4496293888	267491
4563402752	267491
4630511616	267491
4697620480	267491
4764729344	267491
4831838208	267491
4898947072	267491
4966055936	267491
5033164800	267491
5100273664	267491
5167382528	267491
5234491392	267491
5301600256	267491
5368709120	267491
5435817984	267491
5502926848	267491
5570035712	267491
5637144576	267491
5704253440	267491
5771362304	267491
5838471168	267491
5905580032	267491
5972688896	267491
6039797760	267491
6106906624	267491
6174015488	267491
6241124352	267491
6308233216	267491
6375342080	267491
6442450944	267491
6509559808	267491
6576668672	267491
6643777536	267491
6710886400	267491
6777995264	267491
6845104128	267491
6912212992	267491
6979321856	267491
7046430720	267491
7113539584	267491
7180648448	267491
7247757312	267491
7314866176	267491
7381975040	267491
7449083904	267491
7516192768	267491
7583301632	267491
7650410496	267491
7717519360	267491
7784628224	267491
7851737088	267491
7918845952	267491
7985954816	267491
8053063680	267491
8120172544	267491
8187281408	267491
8254390272	267491
8321499136	267491
8388608000	267491
8455716864	267491
8522825728	267491
8589934592	267491
8724152320	267491
8858370048	267491
8992587776	267491
9126805504	267491
9261023232	267491
9395240960	267491
9529458688	267491
9663676416	267491
9797894144	267491
9932111872	267491
10066329600	267491
10200547328	267491
10334765056	267491
10468982784	267491
10603200512	267491
10737418240	267491
10871635968	267491
11005853696	267491
11140071424	267491
11274289152	267491
11408506880	267491
11542724608	267491
11676942336	267491
11811160064	267491
11945377792	267491
12079595520	267491
12213813248	267491
12348030976	267491
12482248704	267491
12616466432	267491
12750684160	267491
12884901888	267491
13019119616	267491
13153337344	267491
13287555072	267491
13421772800	267491
13555990528	267491
13690208256	267491
13824425984	267491
13958643712	267491
14092861440	267491
14227079168	267491
14361296896	267491
14495514624	267491
14629732352	267491
14763950080	267491
14898167808	267491
15032385536	267491
15166603264	267491
15300820992	267491
15435038720	267491
15569256448	267491
15703474176	267491
15837691904	267491
15971909632	267491
16106127360	267491
16240345088	267491
16374562816	267491
16508780544	267491
16642998272	267491
16777216000	267491
16911433728	267491
17045651456	267491
17179869184	267491
17448304640	267491
17716740096	267491
17985175552	267491
18253611008	267491
18522046464	267491
18790481920	267491
19058917376	267491
19327352832	267491
19595788288	267491
19864223744	267491
20132659200	267491
20401094656	267491
20669530112	267491
20937965568	267491
21206401024	267491
21474836480	267491
21743271936	267491
22011707392	267491
22280142848	267491
22548578304	267491
22817013760	267491
23085449216	267491
23353884672	267491
23622320128	267491
23890755584	267491
24159191040	267491
24427626496	267491
24696061952	267491
24964497408	267491
25232932864	267491
25501368320	267491
25769803776	267491
26038239232	267491
26306674688	267491
26575110144	267491
26843545600	267491
27111981056	267491
27380416512	267491
27648851968	267491
27917287424	267491
28185722880	267491
28454158336	267491
28722593792	267491
28991029248	267491
29259464704	267491
29527900160	267491
29796335616	267491
30064771072	267491
30333206528	267491
30601641984	267491
30870077440	267491
31138512896	267491
31406948352	267491
31675383808	267491
31943819264	267491
32212254720	267491
32480690176	267491
32749125632	267491
33017561088	267491
33285996544	267491
33554432000	267491
33822867456	267491
34091302912	267491
34359738368	267491
34896609280	267491
35433480192	267491
35970351104	267491
36507222016	267491
37044092928	267491
37580963840	267491
38117834752	267491
38654705664	267491
39191576576	267491
39728447488	267491
40265318400	267491
40802189312	267491
41339060224	267491
41875931136	267491
42412802048	267491
42949672960	267491
43486543872	267491
44023414784	267491
44560285696	267491
45097156608	267491
45634027520	267491
46170898432	267491
46707769344	267491
47244640256	267491
47781511168	267491
48318382080	267491
48855252992	267491
49392123904	267491
49928994816	267491
50465865728	267491
51002736640	267491
51539607552	267491
52076478464	267491
52613349376	267491
53150220288	267491
53687091200	267491
54223962112	267491
54760833024	267491
55297703936	267491
55834574848	267491
56371445760	267491
56908316672	267491
57445187584	267491
57982058496	267491
58518929408	267491
59055800320	267491
59592671232	267491
60129542144	267491
60666413056	267491
61203283968	267491
61740154880	267491
62277025792	267491
62813896704	267491
63350767616	267491
63887638528	267491
64424509440	267491
64961380352	267491
65498251264	267491
66035122176	267491
66571993088	267491
67108864000	267491
67645734912	267491
68182605824	267491
68719476736	267491
69793218560	267491
70866960384	267491
71940702208	267491
73014444032	267491
74088185856	267491
75161927680	267491
76235669504	267491
77309411328	267491
78383153152	267491
79456894976	267491
80530636800	267491
81604378624	267491
82678120448	267491
83751862272	267491
84825604096	267491
85899345920	267491
86973087744	267491
88046829568	267491
89120571392	267491
90194313216	267491
91268055040	267491
92341796864	267491
93415538688	267491
94489280512	267491
95563022336	267491
96636764160	267491
97710505984	267491
98784247808	267491
99857989632	267491
100931731456	267491
102005473280	267491
103079215104	267491
104152956928	267491
105226698752	267491
106300440576	267491
107374182400	267491
108447924224	267491
109521666048	267491
110595407872	267491
111669149696	267491
112742891520	267491
113816633344	267491
114890375168	267491
115964116992	267491
117037858816	267491
118111600640	267491
119185342464	267491
120259084288	267491
121332826112	267491
122406567936	267491
123480309760	267491
124554051584	267491
125627793408	267491
126701535232	267491
127775277056	267491
128849018880	267491
129922760704	267491
130996502528	267491
132070244352	267491
133143986176	267491
134217728000	267491
135291469824	267491
136365211648	267491
137438953472	267491
139586437120	267491
141733920768	267491
143881404416	267491
146028888064	267491
148176371712	267491
150323855360	267491
152471339008	267491
154618822656	267491
156766306304	267491
158913789952	267491
161061273600	267491
163208757248	267491
165356240896	267491
167503724544	267491
169651208192	267491
171798691840	267491
173946175488	267491
176093659136	267491
178241142784	267491
180388626432	267491
182536110080	267491
184683593728	267491
186831077376	267491
188978561024	267491
191126044672	267491
193273528320	267491
195421011968	267491
197568495616	267491
199715979264	267491
201863462912	267491
204010946560	267491
206158430208	267491
208305913856	267491
210453397504	267491
212600881152	267491
214748364800	267491
216895848448	267491
219043332096	267491
221190815744	267491
223338299392	267491
225485783040	267491
227633266688	267491
229780750336	267491
231928233984	267491
234075717632	267491
236223201280	267491
238370684928	267491
240518168576	267491
242665652224	267491
244813135872	267491
246960619520	267491
249108103168	267491
251255586816	267491
253403070464	267491
255550554112	267491
257698037760	267491
259845521408	267491
261993005056	267491
264140488704	267491
266287972352	267491
268435456000	267491
270582939648	267491
272730423296	267491
274877906944	267491
279172874240	267491
283467841536	267491
287762808832	267491
292057776128	267491
296352743424	267491
300647710720	267491
304942678016	267491
309237645312	267491
313532612608	267491
317827579904	267491
322122547200	267491
326417514496	267491
330712481792	267491
335007449088	267491
339302416384	267491
343597383680	267491
347892350976	267491
352187318272	267491
356482285568	267491
360777252864	267491
365072220160	267491
369367187456	267491
373662154752	267491
377957122048	267491
382252089344	267491
386547056640	267491
390842023936	267491
395136991232	267491
399431958528	267491
403726925824	267491
408021893120	267491
412316860416	267491
416611827712	267491
420906795008	267491
425201762304	267491
429496729600	267491
433791696896	267491
438086664192	267491
442381631488	267491
446676598784	267491
450971566080	267491
455266533376	267491
459561500672	267491
463856467968	267491
468151435264	267491
472446402560	267491
476741369856	267491
481036337152	267491
485331304448	267491
489626271744	267491
493921239040	267491
498216206336	267491
502511173632	267491
506806140928	267491
511101108224	267491
515396075520	267491
519691042816	267491
523986010112	267491
528280977408	267491
532575944704	267491
536870912000	267491
541165879296	267491
545460846592	267491
549755813888	267491
558345748480	267491
566935683072	267491
575525617664	267491
584115552256	267491
592705486848	267491
601295421440	267491
609885356032	267491
618475290624	267491
627065225216	267491
635655159808	267491
644245094400	267491
652835028992	267491
661424963584	267491
670014898176	267491
678604832768	267491
687194767360	267491
695784701952	267491
704374636544	267491
712964571136	267491
721554505728	267491
730144440320	267491
738734374912	267491
747324309504	267491
755914244096	267491
764504178688	267491
773094113280	267491
781684047872	267491
790273982464	267491
798863917056	267491
807453851648	267491
816043786240	267491
824633720832	267491
833223655424	267491
841813590016	267491
850403524608	267491
858993459200	267491
867583393792	267491
876173328384	267491
884763262976	267491
893353197568	267491
901943132160	267491
910533066752	267491
919123001344	267491
927712935936	267491
936302870528	267491
944892805120	267491
953482739712	267491
962072674304	267491
970662608896	267491
979252543488	267491
987842478080	267491
996432412672	267491
1005022347264	267491
1013612281856	267491
1022202216448	267491
1030792151040	267491
1039382085632	267491
1047972020224	267491
1056561954816	267491
1065151889408	267491
1073741824000	267491
1082331758592	267491
1090921693184	267491
1099511627776	267491
1116691496960	267491
1133871366144	267491
1151051235328	267491
1168231104512	267491
1185410973696	267491
1202590842880	267491
1219770712064	267491
1236950581248	267491
1254130450432	267491
1271310319616	267491
1288490188800	267491
1305670057984	267491
1322849927168	267491
1340029796352	267491
1357209665536	267491
1374389534720	267491
1391569403904	267491
1408749273088	267491
1425929142272	267491
1443109011456	267491
1460288880640	267491
1477468749824	267491
1494648619008	267491
1511828488192	267491
1529008357376	267491
1546188226560	267491
1563368095744	267491
1580547964928	267491
1597727834112	267491
1614907703296	267491
1632087572480	267491
1649267441664	267491
1666447310848	267491
1683627180032	267491
1700807049216	267491
1717986918400	267491
1735166787584	267491
1752346656768	267491
1769526525952	267491
1786706395136	267491
1803886264320	267491
1821066133504	267491
1838246002688	267491
1855425871872	267491
1872605741056	267491
1889785610240	267491
1906965479424	267491
1924145348608	267491
1941325217792	267491
1958505086976	267491
1975684956160	267491
1992864825344	267491
2010044694528	267491
2027224563712	267491
2044404432896	267491
2061584302080	267491
2078764171264	267491
2095944040448	267491
2113123909632	267491
2130303778816	267491
2147483648000	267491
2164663517184	267491
2181843386368	267491
2199023255552	267491
2233382993920	267491
2267742732288	267491
2302102470656	267491
2336462209024	267491
2370821947392	267491
2405181685760	267491
2439541424128	267491
2473901162496	267491
2508260900864	267491
2542620639232	267491
2576980377600	267491
2611340115968	267491
2645699854336	267491
2680059592704	267491
2714419331072	267491
2748779069440	267491
2783138807808	267491
2817498546176	267491
2851858284544	267491
2886218022912	267491
2920577761280	267491
2954937499648	267491
2989297238016	267491
3023656976384	267491
3058016714752	267491
3092376453120	267491
3126736191488	267491
3161095929856	267491
3195455668224	267491
3229815406592	267491
3264175144960	267491
3298534883328	267491
3332894621696	267491
3367254360064	267491
3401614098432	267491
3435973836800	267491
3470333575168	267491
3504693313536	267491
3539053051904	267491
3573412790272	267491
3607772528640	267491
3642132267008	267491
3676492005376	267491
3710851743744	267491
3745211482112	267491
3779571220480	267491
3813930958848	267491
3848290697216	267491
3882650435584	267491
3917010173952	267491
3951369912320	267491
3985729650688	267491
4020089389056	267491
4054449127424	267491
4088808865792	267491
4123168604160	267491
4157528342528	267491
4191888080896	267491
4226247819264	267491
4260607557632	267491
4294967296000	267491
4329327034368	267491
4363686772736	267491
4398046511104	267491
4466765987840	267491
4535485464576	267491
4604204941312	267491
4672924418048	267491
4741643894784	267491
4810363371520	267491
4879082848256	267491
4947802324992	267491
5016521801728	267491
5085241278464	267491
5153960755200	267491
5222680231936	267491
5291399708672	267491
5360119185408	267491
5428838662144	267491
5497558138880	267491
5566277615616	267491
5634997092352	267491
5703716569088	267491
5772436045824	267491
5841155522560	267491
5909874999296	267491
5978594476032	267491
6047313952768	267491
6116033429504	267491
6184752906240	267491
6253472382976	267491
6322191859712	267491
6390911336448	267491
6459630813184	267491
6528350289920	267491
6597069766656	267491
6665789243392	267491
6734508720128	267491
6803228196864	267491
6871947673600	267491
6940667150336	267491
7009386627072	267491
7078106103808	267491
7146825580544	267491
7215545057280	267491
7284264534016	267491
7352984010752	267491
7421703487488	267491
7490422964224	267491
7559142440960	267491
7627861917696	267491
7696581394432	267491
7765300871168	267491
7834020347904	267491
7902739824640	267491
7971459301376	267491
8040178778112	267491
8108898254848	267491
8177617731584	267491
8246337208320	267491
8315056685056	267491
8383776161792	267491
8452495638528	267491
8521215115264	267491
8589934592000	267491
8658654068736	267491
8727373545472	267491
8796093022208	267491
8933531975680	267491
9070970929152	267491
9208409882624	267491
9345848836096	267491
9483287789568	267491
9620726743040	267491
9758165696512	267491
9895604649984	267491
10033043603456	267491
10170482556928	267491
10307921510400	267491
10445360463872	267491
10582799417344	267491
10720238370816	267491
10857677324288	267491
10995116277760	267491
11132555231232	267491
11269994184704	267491
11407433138176	267491
11544872091648	267491
11682311045120	267491
11819749998592	267491
11957188952064	267491
12094627905536	267491
12232066859008	267491
12369505812480	267491
12506944765952	267491
12644383719424	267491
12781822672896	267491
12919261626368	267491
13056700579840	267491
13194139533312	267491
13331578486784	267491
13469017440256	267491
13606456393728	267491
13743895347200	267491
13881334300672	267491
14018773254144	267491
14156212207616	267491
14293651161088	267491
14431090114560	267491
14568529068032	267491
14705968021504	267491
14843406974976	267491
14980845928448	267491
15118284881920	267491
15255723835392	267491
15393162788864	267491
15530601742336	267491
15668040695808	267491
15805479649280	267491
15942918602752	267491
16080357556224	267491
16217796509696	267491
16355235463168	267491
16492674416640	267491
16630113370112	267491
16767552323584	267491
16904991277056	267491
17042430230528	267491
17179869184000	267491
17317308137472	267491
17454747090944	267491
17592186044416	267491
17867063951360	267491
18141941858304	267491
18416819765248	267491
18691697672192	267491
18966575579136	267491
19241453486080	267491
19516331393024	267491
19791209299968	267491
20066087206912	267491
20340965113856	267491
20615843020800	267491
20890720927744	267491
21165598834688	267491
21440476741632	267491
21715354648576	267491
21990232555520	267491
22265110462464	267491
22539988369408	267491
22814866276352	267491
23089744183296	267491
23364622090240	267491
23639499997184	267491
23914377904128	267491
24189255811072	267491
24464133718016	267491
24739011624960	267491
25013889531904	267491
25288767438848	267491
25563645345792	267491
25838523252736	267491
26113401159680	267491
26388279066624	267491
26663156973568	267491
26938034880512	267491
27212912787456	267491
27487790694400	267491
27762668601344	267491
28037546508288	267491
28312424415232	267491
28587302322176	267491
28862180229120	267491
29137058136064	267491
29411936043008	267491
29686813949952	267491
29961691856896	267491
30236569763840	267491
30511447670784	267491
30786325577728	267491
31061203484672	267491
31336081391616	267491
31610959298560	267491
31885837205504	267491
32160715112448	267491
32435593019392	267491
32710470926336	267491
32985348833280	267491
33260226740224	267491
33535104647168	267491
33809982554112	267491
34084860461056	267491
34359738368000	267491
34634616274944	267491
34909494181888	267491
35184372088832	267491
35734127902720	267491
36283883716608	267491
36833639530496	267491
37383395344384	267491
37933151158272	267491
38482906972160	267491
39032662786048	267491
39582418599936	267491
40132174413824	267491
40681930227712	267491
41231686041600	267491
41781441855488	267491
42331197669376	267491
42880953483264	267491
43430709297152	267491
43980465111040	267491
44530220924928	267491
45079976738816	267491
45629732552704	267491
46179488366592	267491
46729244180480	267491
47278999994368	267491
47828755808256	267491
48378511622144	267491
48928267436032	267491
49478023249920	267491
50027779063808	267491
50577534877696	267491
51127290691584	267491
51677046505472	267491
52226802319360	267491
52776558133248	267491
53326313947136	267491
53876069761024	267491
54425825574912	267491
54975581388800	267491
55525337202688	267491
56075093016576	267491
56624848830464	267491
57174604644352	267491
57724360458240	267491
58274116272128	267491
58823872086016	267491
59373627899904	267491
59923383713792	267491
60473139527680	267491
61022895341568	267491
61572651155456	267491
62122406969344	267491
62672162783232	267491
63221918597120	267491
63771674411008	267491
64321430224896	267491
64871186038784	267491
65420941852672	267491
65970697666560	267491
66520453480448	267491
67070209294336	267491
67619965108224	267491
68169720922112	267491
68719476736000	267491
69269232549888	267491
69818988363776	267491
70368744177664	267491
71468255805440	267491
72567767433216	267491
73667279060992	267491
74766790688768	267491
75866302316544	267491
76965813944320	267491
78065325572096	267491
79164837199872	267491
80264348827648	267491
81363860455424	267491
82463372083200	267491
83562883710976	267491
84662395338752	267491
85761906966528	267491
86861418594304	267491
87960930222080	267491
89060441849856	267491
90159953477632	267491
91259465105408	267491
92358976733184	267491
93458488360960	267491
94557999988736	267491
95657511616512	267491
96757023244288	267491
97856534872064	267491
98956046499840	267491
100055558127616	267491
101155069755392	267491
102254581383168	267491
103354093010944	267491
104453604638720	267491
105553116266496	267491
106652627894272	267491
107752139522048	267491
108851651149824	267491
109951162777600	267491
111050674405376	267491
112150186033152	267491
113249697660928	267491
114349209288704	267491
115448720916480	267491
116548232544256	267491
117647744172032	267491
118747255799808	267491
119846767427584	267491
120946279055360	267491
122045790683136	267491
123145302310912	267491
124244813938688	267491
125344325566464	267491
126443837194240	267491
127543348822016	267491
128642860449792	267491
129742372077568	267491
130841883705344	267491
131941395333120	267491
133040906960896	267491
134140418588672	267491
135239930216448	267491
136339441844224	267491
137438953472000	267491
138538465099776	267491
139637976727552	267491
140737488355328	267491
142936511610880	267491
145135534866432	267491
147334558121984	267491
149533581377536	267491
151732604633088	267491
153931627888640	267491
156130651144192	267491
158329674399744	267491
160528697655296	267491
162727720910848	267491
164926744166400	267491
167125767421952	267491
169324790677504	267491
171523813933056	267491
173722837188608	267491
175921860444160	267491
178120883699712	267491
180319906955264	267491
182518930210816	267491
184717953466368	267491
186916976721920	267491
189115999977472	267491
191315023233024	267491
193514046488576	267491
195713069744128	267491
197912092999680	267491
200111116255232	267491
202310139510784	267491
204509162766336	267491
206708186021888	267491
208907209277440	267491
211106232532992	267491
213305255788544	267491
215504279044096	267491
217703302299648	267491
219902325555200	267491
222101348810752	267491
224300372066304	267491
226499395321856	267491
228698418577408	267491
230897441832960	267491
233096465088512	267491
235295488344064	267491
237494511599616	267491
239693534855168	267491
241892558110720	267491
244091581366272	267491
246290604621824	267491
248489627877376	267491
250688651132928	267491
252887674388480	267491
255086697644032	267491
257285720899584	267491
259484744155136	267491
261683767410688	267491
263882790666240	267491
266081813921792	267491
268280837177344	267491
270479860432896	267491
272678883688448	267491
274877906944000	267491
277076930199552	267491
279275953455104	267491
281474976710656	267491
285873023221760	267491
290271069732864	267491
294669116243968	267491
299067162755072	267491
303465209266176	267491
307863255777280	267491
312261302288384	267491
316659348799488	267491
321057395310592	267491
325455441821696	267491
329853488332800	267491
334251534843904	267491
338649581355008	267491
343047627866112	267491
347445674377216	267491
351843720888320	267491
356241767399424	267491
360639813910528	267491
365037860421632	267491
369435906932736	267491
373833953443840	267491
378231999954944	267491
382630046466048	267491
387028092977152	267491
391426139488256	267491
395824185999360	267491
400222232510464	267491
404620279021568	267491
409018325532672	267491
413416372043776	267491
417814418554880	267491
422212465065984	267491
426610511577088	267491
431008558088192	267491
435406604599296	267491
439804651110400	267491
444202697621504	267491
448600744132608	267491
452998790643712	267491
457396837154816	267491
461794883665920	267491
466192930177024	267491
470590976688128	267491
474989023199232	267491
479387069710336	267491
483785116221440	267491
488183162732544	267491
492581209243648	267491
496979255754752	267491
501377302265856	267491
505775348776960	267491
510173395288064	267491
514571441799168	267491
518969488310272	267491
523367534821376	267491
527765581332480	267491
532163627843584	267491
536561674354688	267491
540959720865792	267491
545357767376896	267491
549755813888000	267491
554153860399104	267491
558551906910208	267491
562949953421312	267491
571746046443520	267491
580542139465728	267491
589338232487936	267491
598134325510144	267491
606930418532352	267491
615726511554560	267491
624522604576768	267491
633318697598976	267491
642114790621184	267491
650910883643392	267491
659706976665600	267491
668503069687808	267491
677299162710016	267491
686095255732224	267491
694891348754432	267491
703687441776640	267491
712483534798848	267491
721279627821056	267491
730075720843264	267491
738871813865472	267491
747667906887680	267491
756463999909888	267491
765260092932096	267491
774056185954304	267491
782852278976512	267491
791648371998720	267491
800444465020928	267491
809240558043136	267491
818036651065344	267491
826832744087552	267491
835628837109760	267491
844424930131968	267491
853221023154176	267491
862017116176384	267491
870813209198592	267491
879609302220800	267491
888405395243008	267491
897201488265216	267491
905997581287424	267491
914793674309632	267491
923589767331840	267491
932385860354048	267491
941181953376256	267491
949978046398464	267491
958774139420672	267491
967570232442880	267491
976366325465088	267491
985162418487296	267491
993958511509504	267491
1002754604531712	267491
1011550697553920	267491
1020346790576128	267491
1029142883598336	267491
1037938976620544	267491
1046735069642752	267491
1055531162664960	267491
1064327255687168	267491
1073123348709376	267491
1081919441731584	267491
1090715534753792	267491
1099511627776000	267491
1108307720798208	267491
1117103813820416	267491
1125899906842624	267491
1143492092887040	267491
1161084278931456	267491
1178676464975872	267491
1196268651020288	267491
1213860837064704	267491
1231453023109120	267491
1249045209153536	267491
1266637395197952	267491
1284229581242368	267491
1301821767286784	267491
1319413953331200	267491
1337006139375616	267491
1354598325420032	267491
1372190511464448	267491
1389782697508864	267491
1407374883553280	267491
1424967069597696	267491
1442559255642112	267491
1460151441686528	267491
1477743627730944	267491
1495335813775360	267491
1512927999819776	267491
1530520185864192	267491
1548112371908608	267491
1565704557953024	267491
1583296743997440	267491
1600888930041856	267491
1618481116086272	267491
1636073302130688	267491
1653665488175104	267491
1671257674219520	267491
1688849860263936	267491
1706442046308352	267491
1724034232352768	267491
1741626418397184	267491
1759218604441600	267491
1776810790486016	267491
1794402976530432	267491
1811995162574848	267491
1829587348619264	267491
1847179534663680	267491
1864771720708096	267491
1882363906752512	267491
1899956092796928	267491
1917548278841344	267491
1935140464885760	267491
1952732650930176	267491
1970324836974592	267491
1987917023019008	267491
2005509209063424	267491
2023101395107840	267491
2040693581152256	267491
2058285767196672	267491
2075877953241088	267491
2093470139285504	267491
2111062325329920	267491
2128654511374336	267491
2146246697418752	267491
2163838883463168	267491
2181431069507584	267491
2199023255552000	267491
2216615441596416	267491
2234207627640832	267491
2251799813685248	267491
2286984185774080	267491
2322168557862912	267491
2357352929951744	267491
2392537302040576	267491
2427721674129408	267491
2462906046218240	267491
2498090418307072	267491
2533274790395904	267491
2568459162484736	267491
2603643534573568	267491
2638827906662400	267491
2674012278751232	267491
2709196650840064	267491
2744381022928896	267491
2779565395017728	267491
2814749767106560	267491
2849934139195392	267491
2885118511284224	267491
2920302883373056	267491
2955487255461888	267491
2990671627550720	267491
3025855999639552	267491
3061040371728384	267491
3096224743817216	267491
3131409115906048	267491
3166593487994880	267491
3201777860083712	267491
3236962232172544	267491
3272146604261376	267491
3307330976350208	267491
3342515348439040	267491
3377699720527872	267491
3412884092616704	267491
3448068464705536	267491
3483252836794368	267491
3518437208883200	267491
3553621580972032	267491
3588805953060864	267491
3623990325149696	267491
3659174697238528	267491
3694359069327360	267491
3729543441416192	267491
3764727813505024	267491
3799912185593856	267491
3835096557682688	267491
3870280929771520	267491
3905465301860352	267491
3940649673949184	267491
3975834046038016	267491
4011018418126848	267491
4046202790215680	267491
4081387162304512	267491
4116571534393344	267491
4151755906482176	267491
4186940278571008	267491
4222124650659840	267491
4257309022748672	267491
4292493394837504	267491
4327677766926336	267491
4362862139015168	267491
4398046511104000	267491
4433230883192832	267491
4468415255281664	267491
4503599627370496	267491
4573968371548160	267491
4644337115725824	267491
4714705859903488	267491
4785074604081152	267491
4855443348258816	267491
4925812092436480	267491
4996180836614144	267491
5066549580791808	267491
5136918324969472	267491
5207287069147136	267491
5277655813324800	267491
5348024557502464	267491
5418393301680128	267491
5488762045857792	267491
5559130790035456	267491
5629499534213120	267491
5699868278390784	267491
5770237022568448	267491
5840605766746112	267491
5910974510923776	267491
5981343255101440	267491
6051711999279104	267491
6122080743456768	267491
6192449487634432	267491
6262818231812096	267491
6333186975989760	267491
6403555720167424	267491
6473924464345088	267491
6544293208522752	267491
6614661952700416	267491
6685030696878080	267491
6755399441055744	267491
6825768185233408	267491
6896136929411072	267491
6966505673588736	267491
7036874417766400	267491
7107243161944064	267491
7177611906121728	267491
7247980650299392	267491
7318349394477056	267491
7388718138654720	267491
7459086882832384	267491
7529455627010048	267491
7599824371187712	267491
7670193115365376	267491
7740561859543040	267491
7810930603720704	267491
7881299347898368	267491
7951668092076032	267491
8022036836253696	267491
8092405580431360	267491
8162774324609024	267491
8233143068786688	267491
8303511812964352	267491
8373880557142016	267491
8444249301319680	267491
8514618045497344	267491
8584986789675008	267491
8655355533852672	267491
8725724278030336	267491
8796093022208000	267491
8866461766385664	267491
8936830510563328	267491
9007199254740992	267491
9147936743096320	267491
9288674231451648	267491
9429411719806976	267491
9570149208162304	267491
9710886696517632	267491
9851624184872960	267491
9992361673228288	267491
10133099161583616	267491
10273836649938944	267491
10414574138294272	267491
10555311626649600	267491
10696049115004928	267491
10836786603360256	267491
10977524091715584	267491
11118261580070912	267491
11258999068426240	267491
11399736556781568	267491
11540474045136896	267491
11681211533492224	267491
11821949021847552	267491
11962686510202880	267491
12103423998558208	267491
12244161486913536	267491
12384898975268864	267491
12525636463624192	267491
12666373951979520	267491
12807111440334848	267491
12947848928690176	267491
13088586417045504	267491
13229323905400832	267491
13370061393756160	267491
13510798882111488	267491
13651536370466816	267491
13792273858822144	267491
13933011347177472	267491
14073748835532800	267491
14214486323888128	267491
14355223812243456	267491
14495961300598784	267491
14636698788954112	267491
14777436277309440	267491
14918173765664768	267491
15058911254020096	267491
15199648742375424	267491
15340386230730752	267491
15481123719086080	267491
15621861207441408	267491
15762598695796736	267491
15903336184152064	267491
16044073672507392	267491
16184811160862720	267491
16325548649218048	267491
16466286137573376	267491
16607023625928704	267491
16747761114284032	267491
16888498602639360	267491
17029236090994688	267491
17169973579350016	267491
17310711067705344	267491
17451448556060672	267491
17592186044416000	267491
17732923532771328	267491
17873661021126656	267491
18014398509481984	267491
18295873486192640	267491
18577348462903296	267491
18858823439613952	267491
19140298416324608	267491
19421773393035264	267491
19703248369745920	267491
19984723346456576	267491
20266198323167232	267491
20547673299877888	267491
20829148276588544	267491
21110623253299200	267491
21392098230009856	267491
21673573206720512	267491
21955048183431168	267491
22236523160141824	267491
22517998136852480	267491
22799473113563136	267491
23080948090273792	267491
23362423066984448	267491
23643898043695104	267491
23925373020405760	267491
24206847997116416	267491
24488322973827072	267491
24769797950537728	267491
25051272927248384	267491
25332747903959040	267491
25614222880669696	267491
25895697857380352	267491
26177172834091008	267491
26458647810801664	267491
26740122787512320	267491
27021597764222976	267491
27303072740933632	267491
27584547717644288	267491
27866022694354944	267491
28147497671065600	267491
28428972647776256	267491
28710447624486912	267491
28991922601197568	267491
29273397577908224	267491
29554872554618880	267491
29836347531329536	267491
30117822508040192	267491
30399297484750848	267491
30680772461461504	267491
30962247438172160	267491
31243722414882816	267491
31525197391593472	267491
31806672368304128	267491
32088147345014784	267491
32369622321725440	267491
32651097298436096	267491
32932572275146752	267491
33214047251857408	267491
33495522228568064	267491
33776997205278720	267491
34058472181989376	267491
34339947158700032	267491
34621422135410688	267491
34902897112121344	267491
35184372088832000	267491
35465847065542656	267491
35747322042253312	267491
36028797018963968	267491
36591746972385280	267491
37154696925806592	267491
37717646879227904	267491
38280596832649216	267491
38843546786070528	267491
39406496739491840	267491
39969446692913152	267491
40532396646334464	267491
41095346599755776	267491
41658296553177088	267491
42221246506598400	267491
42784196460019712	267491
43347146413441024	267491
43910096366862336	267491
44473046320283648	267491
45035996273704960	267491
45598946227126272	267491
46161896180547584	267491
46724846133968896	267491
47287796087390208	267491
47850746040811520	267491
48413695994232832	267491
48976645947654144	267491
49539595901075456	267491
50102545854496768	267491
50665495807918080	267491
51228445761339392	267491
51791395714760704	267491
52354345668182016	267491
52917295621603328	267491
53480245575024640	267491
54043195528445952	267491
54606145481867264	267491
55169095435288576	267491
55732045388709888	267491
56294995342131200	267491
56857945295552512	267491
57420895248973824	267491
57983845202395136	267491
58546795155816448	267491
59109745109237760	267491
59672695062659072	267491
60235645016080384	267491
60798594969501696	267491
61361544922923008	267491
61924494876344320	267491
62487444829765632	267491
63050394783186944	267491
63613344736608256	267491
64176294690029568	267491
64739244643450880	267491
65302194596872192	267491
65865144550293504	267491
66428094503714816	267491
66991044457136128	267491
67553994410557440	267491
68116944363978752	267491
68679894317400064	267491
69242844270821376	267491
69805794224242688	267491
70368744177664000	267491
70931694131085312	267491
71494644084506624	267491
72057594037927936	267491
73183493944770560	267491
74309393851613184	267491
75435293758455808	267491
76561193665298432	267491
77687093572141056	267491
78812993478983680	267491
79938893385826304	267491
81064793292668928	267491
82190693199511552	267491
83316593106354176	267491
84442493013196800	267491
85568392920039424	267491
86694292826882048	267491
87820192733724672	267491
88946092640567296	267491
90071992547409920	267491
91197892454252544	267491
92323792361095168	267491
93449692267937792	267491
94575592174780416	267491
95701492081623040	267491
96827391988465664	267491
97953291895308288	267491
99079191802150912	267491
100205091708993536	267491
101330991615836160	267491
102456891522678784	267491
103582791429521408	267491
104708691336364032	267491
105834591243206656	267491
106960491150049280	267491
108086391056891904	267491
109212290963734528	267491
110338190870577152	267491
111464090777419776	267491
112589990684262400	267491
113715890591105024	267491
114841790497947648	267491
115967690404790272	267491
117093590311632896	267491
118219490218475520	267491
119345390125318144	267491
120471290032160768	267491
121597189939003392	267491
122723089845846016	267491
123848989752688640	267491
124974889659531264	267491
126100789566373888	267491
127226689473216512	267491
128352589380059136	267491
129478489286901760	267491
130604389193744384	267491
131730289100587008	267491
132856189007429632	267491
133982088914272256	267491
135107988821114880	267491
136233888727957504	267491
137359788634800128	267491
138485688541642752	267491
139611588448485376	267491
140737488355328000	267491
141863388262170624	267491
142989288169013248	267491
144115188075855872	267491
146366987889541120	267491
148618787703226368	267491
150870587516911616	267491
153122387330596864	267491
155374187144282112	267491
157625986957967360	267491
159877786771652608	267491
162129586585337856	267491
164381386399023104	267491
166633186212708352	267491
168884986026393600	267491
171136785840078848	267491
173388585653764096	267491
175640385467449344	267491
177892185281134592	267491
180143985094819840	267491
182395784908505088	267491
184647584722190336	267491
186899384535875584	267491
189151184349560832	267491
191402984163246080	267491
193654783976931328	267491
195906583790616576	267491
198158383604301824	267491
200410183417987072	267491
202661983231672320	267491
204913783045357568	267491
207165582859042816	267491
209417382672728064	267491
211669182486413312	267491
213920982300098560	267491
216172782113783808	267491
218424581927469056	267491
220676381741154304	267491
222928181554839552	267491
225179981368524800	267491
227431781182210048	267491
229683580995895296	267491
231935380809580544	267491
234187180623265792	267491
236438980436951040	267491
238690780250636288	267491
240942580064321536	267491
243194379878006784	267491
245446179691692032	267491
247697979505377280	267491
249949779319062528	267491
252201579132747776	267491
254453378946433024	267491
256705178760118272	267491
258956978573803520	267491
261208778387488768	267491
263460578201174016	267491
265712378014859264	267491
267964177828544512	267491
270215977642229760	267491
272467777455915008	267491
274719577269600256	267491
276971377083285504	267491
279223176896970752	267491
281474976710656000	267491
283726776524341248	267491
285978576338026496	267491
288230376151711744	267491
292733975779082240	267491
297237575406452736	267491
301741175033823232	267491
306244774661193728	267491
310748374288564224	267491
315251973915934720	267491
319755573543305216	267491
324259173170675712	267491
328762772798046208	267491
333266372425416704	267491
337769972052787200	267491
342273571680157696	267491
346777171307528192	267491
351280770934898688	267491
355784370562269184	267491
360287970189639680	267491
364791569817010176	267491
369295169444380672	267491
373798769071751168	267491
378302368699121664	267491
382805968326492160	267491
387309567953862656	267491
391813167581233152	267491
396316767208603648	267491
400820366835974144	267491
405323966463344640	267491
409827566090715136	267491
414331165718085632	267491
418834765345456128	267491
423338364972826624	267491
427841964600197120	267491
432345564227567616	267491
436849163854938112	267491
441352763482308608	267491
445856363109679104	267491
450359962737049600	267491
454863562364420096	267491
459367161991790592	267491
463870761619161088	267491
468374361246531584	267491
472877960873902080	267491
477381560501272576	267491
481885160128643072	267491
486388759756013568	267491
490892359383384064	267491
495395959010754560	267491
499899558638125056	267491
504403158265495552	267491
508906757892866048	267491
513410357520236544	267491
517913957147607040	267491
522417556774977536	267491
526921156402348032	267491
531424756029718528	267491
535928355657089024	267491
540431955284459520	267491
544935554911830016	267491
549439154539200512	267491
553942754166571008	267491
558446353793941504	267491
562949953421312000	267491
567453553048682496	267491
571957152676052992	267491
576460752303423488	267491
585467951558164480	267491
594475150812905472	267491
603482350067646464	267491
612489549322387456	267491
621496748577128448	267491
630503947831869440	267491
639511147086610432	267491
648518346341351424	267491
657525545596092416	267491
666532744850833408	267491
675539944105574400	267491
684547143360315392	267491
693554342615056384	267491
702561541869797376	267491
711568741124538368	267491
720575940379279360	267491
729583139634020352	267491
738590338888761344	267491
747597538143502336	267491
756604737398243328	267491
765611936652984320	267491
774619135907725312	267491
783626335162466304	267491
792633534417207296	267491
801640733671948288	267491
810647932926689280	267491
819655132181430272	267491
828662331436171264	267491
837669530690912256	267491
846676729945653248	267491
855683929200394240	267491
864691128455135232	267491
873698327709876224	267491
882705526964617216	267491
891712726219358208	267491
900719925474099200	267491
909727124728840192	267491
918734323983581184	267491
927741523238322176	267491
936748722493063168	267491
945755921747804160	267491
954763121002545152	267491
963770320257286144	267491
972777519512027136	267491
981784718766768128	267491
990791918021509120	267491
999799117276250112	267491
1008806316530991104	267491
1017813515785732096	267491
1026820715040473088	267491
1035827914295214080	267491
1044835113549955072	267491
1053842312804696064	267491
1062849512059437056	267491
1071856711314178048	267491
1080863910568919040	267491
1089871109823660032	267491
1098878309078401024	267491
1107885508333142016	267491
1116892707587883008	267491
1125899906842624000	267491
1134907106097364992	267491
1143914305352105984	267491
1152921504606846976	267491
1170935903116328960	267491
1188950301625810944	267491
1206964700135292928	267491
1224979098644774912	267491
1242993497154256896	267491
1261007895663738880	267491
1279022294173220864	267491
1297036692682702848	267491
1315051091192184832	267491
1333065489701666816	267491
1351079888211148800	267491
1369094286720630784	267491
1387108685230112768	267491
1405123083739594752	267491
1423137482249076736	267491
1441151880758558720	267491
1459166279268040704	267491
1477180677777522688	267491
1495195076287004672	267491
1513209474796486656	267491
1531223873305968640	267491
1549238271815450624	267491
1567252670324932608	267491
1585267068834414592	267491
1603281467343896576	267491
1621295865853378560	267491
1639310264362860544	267491
1657324662872342528	267491
1675339061381824512	267491
1693353459891306496	267491
1711367858400788480	267491
1729382256910270464	267491
1747396655419752448	267491
1765411053929234432	267491
1783425452438716416	267491
1801439850948198400	267491
1819454249457680384	267491
1837468647967162368	267491
1855483046476644352	267491
1873497444986126336	267491
1891511843495608320	267491
1909526242005090304	267491
1927540640514572288	267491
1945555039024054272	267491
1963569437533536256	267491
1981583836043018240	267491
1999598234552500224	267491
2017612633061982208	267491
2035627031571464192	267491
2053641430080946176	267491
2071655828590428160	267491
2089670227099910144	267491
2107684625609392128	267491
2125699024118874112	267491
2143713422628356096	267491
2161727821137838080	267491
2179742219647320064	267491
2197756618156802048	267491
2215771016666284032	267491
2233785415175766016	267491
2251799813685248000	267491
2269814212194729984	267491
2287828610704211968	267491
2305843009213693952	267491
2341871806232657920	267491
2377900603251621888	267491
2413929400270585856	267491
2449958197289549824	267491
2485986994308513792	267491
2522015791327477760	267491
2558044588346441728	267491
2594073385365405696	267491
2630102182384369664	267491
2666130979403333632	267491
2702159776422297600	267491
2738188573441261568	267491
2774217370460225536	267491
2810246167479189504	267491
2846274964498153472	267491
2882303761517117440	267491
2918332558536081408	267491
2954361355555045376	267491
2990390152574009344	267491
3026418949592973312	267491
3062447746611937280	267491
3098476543630901248	267491
3134505340649865216	267491
3170534137668829184	267491
3206562934687793152	267491
3242591731706757120	267491
3278620528725721088	267491
3314649325744685056	267491
3350678122763649024	267491
3386706919782612992	267491
3422735716801576960	267491
3458764513820540928	267491
3494793310839504896	267491
3530822107858468864	267491
3566850904877432832	267491
3602879701896396800	267491
3638908498915360768	267491
3674937295934324736	267491
3710966092953288704	267491
3746994889972252672	267491
3783023686991216640	267491
3819052484010180608	267491
3855081281029144576	267491
3891110078048108544	267491
3927138875067072512	267491
3963167672086036480	267491
3999196469105000448	267491
4035225266123964416	267491
4071254063142928384	267491
4107282860161892352	267491
4143311657180856320	267491
4179340454199820288	267491
4215369251218784256	267491
4251398048237748224	267491
4287426845256712192	267491
4323455642275676160	267491
4359484439294640128	267491
4395513236313604096	267491
4431542033332568064	267491
4467570830351532032	267491
4503599627370496000	267491
4539628424389459968	267491
4575657221408423936	267491
4611686018427387904	267491
4683743612465315840	267491
4755801206503243776	267491
4827858800541171712	267491
4899916394579099648	267491
4971973988617027584	267491
5044031582654955520	267491
5116089176692883456	267491
5188146770730811392	267491
5260204364768739328	267491
5332261958806667264	267491
5404319552844595200	267491
5476377146882523136	267491
5548434740920451072	267491
5620492334958379008	267491
5692549928996306944	267491
5764607523034234880	267491
5836665117072162816	267491
5908722711110090752	267491
5980780305148018688	267491
6052837899185946624	267491
6124895493223874560	267491
6196953087261802496	267491
6269010681299730432	267491
6341068275337658368	267491
6413125869375586304	267491
6485183463413514240	267491
6557241057451442176	267491
6629298651489370112	267491
6701356245527298048	267491
6773413839565225984	267491
6845471433603153920	267491
6917529027641081856	267491
6989586621679009792	267491
7061644215716937728	267491
7133701809754865664	267491
7205759403792793600	267491
7277816997830721536	267491
7349874591868649472	267491
7421932185906577408	267491
7493989779944505344	267491
7566047373982433280	267491
7638104968020361216	267491
7710162562058289152	267491
7782220156096217088	267491
7854277750134145024	267491
7926335344172072960	267491
7998392938210000896	267491
8070450532247928832	267491
8142508126285856768	267491
8214565720323784704	267491
8286623314361712640	267491
8358680908399640576	267491
8430738502437568512	267491
8502796096475496448	267491
8574853690513424384	267491
8646911284551352320	267491
8718968878589280256	267491
8791026472627208192	267491
8863084066665136128	267491
8935141660703064064	267491
9007199254740992000	267491
9079256848778919936	267491
9151314442816847872	267491
9223372036854775808	267491
9367487224930631680	267491
9511602413006487552	267491
9655717601082343424	267491
9799832789158199296	267491
9943947977234055168	267491
10088063165309911040	267491
10232178353385766912	267491
10376293541461622784	267491
10520408729537478656	267491
10664523917613334528	267491
10808639105689190400	267491
10952754293765046272	267491
11096869481840902144	267491
11240984669916758016	267491
11385099857992613888	267491
11529215046068469760	267491
11673330234144325632	267491
11817445422220181504	267491
11961560610296037376	267491
12105675798371893248	267491
12249790986447749120	267491
12393906174523604992	267491
12538021362599460864	267491
12682136550675316736	267491
12826251738751172608	267491
12970366926827028480	267491
13114482114902884352	267491
13258597302978740224	267491
13402712491054596096	267491
13546827679130451968	267491
13690942867206307840	267491
13835058055282163712	267491
13979173243358019584	267491
14123288431433875456	267491
14267403619509731328	267491
14411518807585587200	267491
14555633995661443072	267491
14699749183737298944	267491
14843864371813154816	267491
14987979559889010688	267491
15132094747964866560	267491
15276209936040722432	267491
15420325124116578304	267491
15564440312192434176	267491
15708555500268290048	267491
15852670688344145920	267491
15996785876420001792	267491
16140901064495857664	267491
16285016252571713536	267491
16429131440647569408	267491
16573246628723425280	267491
16717361816799281152	267491
16861477004875137024	267491
17005592192950992896	267491
17149707381026848768	267491
17293822569102704640	267491
17437937757178560512	267491
17582052945254416384	267491
17726168133330272256	267491
17870283321406128128	267491
18014398509481984000	267491
18158513697557839872	267491
18302628885633695744	0
