0	0
1	1
2	1.96568
3	2.9306
4	3.86691
5	4.78604
6	5.69254
7	6.5782
8	7.44827
9	8.31059
10	9.16795
11	10.0108
12	10.8434
13	11.668
14	12.4804
15	13.2867
16	14.0914
17	14.8911
18	15.6805
19	16.4669
20	17.2511
21	18.0106
22	18.762
23	19.5113
24	20.2474
25	20.9676
26	21.6845
27	22.4002
28	23.1138
29	23.8251
30	24.535
31	25.2439
32	25.9514
33	26.6578
34	27.3625
35	28.0655
36	28.7676
37	29.4684
38	30.168
39	30.8666
40	31.5641
41	32.2567
42	32.9464
43	33.6352
44	34.3231
45	35.0097
46	35.6955
47	36.3796
48	37.0623
49	37.742
50	38.4202
51	39.0979
52	39.7745
53	40.4501
54	41.1252
55	41.7997
56	42.4736
57	43.1472
58	43.8203
59	44.4928
60	45.1644
61	45.834
62	46.502
63	47.169
64	47.8355
65	48.5013
66	49.1666
67	49.8316
68	50.4963
69	51.1604
70	51.8234
71	52.486
72	53.1477
73	53.8079
74	54.4676
75	55.1269
76	55.7854
77	56.4436
78	57.1014
79	57.759
80	58.4156
81	59.0712
82	59.7259
83	60.3798
84	61.0333
85	61.6864
86	62.3391
87	62.9915
88	63.6436
89	64.2955
90	64.9471
91	65.5985
92	66.2498
93	66.9004
94	67.5503
95	68.1998
96	68.8476
97	69.4937
98	70.1395
99	70.7848
100	71.4288
101	72.0719
102	72.7143
103	73.3561
104	73.9974
105	74.6384
106	75.2792
107	75.9198
108	76.5601
109	77.2001
110	77.8399
111	78.4796
112	79.1191
113	79.7584
114	80.3976
115	81.0365
116	81.6752
117	82.3133
118	82.951
119	83.5881
120	84.2224
121	84.8557
122	85.4882
123	86.1202
124	86.7517
125	87.383
126	88.0141
127	88.645
128	89.2757
130	90.5367
132	91.7969
134	93.0565
136	94.3153
138	95.5735
140	96.83
142	98.0837
144	99.3335
146	100.581
148	101.827
150	103.072
152	104.316
154	105.56
156	106.803
158	108.046
160	109.287
162	110.527
164	111.765
166	113.001
168	114.235
170	115.468
172	116.699
174	117.929
176	119.159
178	120.388
180	121.616
182	122.843
184	124.068
186	125.293
188	126.516
190	127.738
192	128.957
194	130.176
196	131.393
198	132.61
200	133.826
202	135.041
204	136.255
206	137.468
208	138.68
210	139.892
212	141.103
214	142.312
216	143.52
218	144.727
220	145.932
222	147.136
224	148.339
226	149.542
228	150.744
230	151.945
232	153.146
234	154.346
236	155.546
238	156.745
240	157.941
242	159.136
244	160.331
246	161.524
248	162.717
250	163.909
252	165.101
254	166.292
256	167.482
260	169.86
264	172.234
268	174.603
272	176.969
276	179.335
280	181.698
284	184.058
288	186.415
292	188.767
296	191.117
300	193.466
304	195.813
308	198.156
312	200.497
316	202.835
320	205.171
324	207.504
328	209.836
332	212.165
336	214.492
340	216.815
344	219.137
348	221.456
352	223.774
356	226.09
360	228.403
364	230.713
368	233.021
372	235.328
376	237.633
380	239.936
384	242.236
388	244.533
392	246.829
396	249.123
400	251.416
404	253.706
408	255.993
412	258.278
416	260.561
420	262.843
424	265.123
428	267.402
432	269.677
436	271.95
440	274.222
444	276.492
448	278.761
452	281.027
456	283.291
460	285.553
464	287.813
468	290.072
472	292.329
476	294.584
480	296.837
484	299.087
488	301.336
492	303.583
496	305.829
500	308.074
504	310.316
508	312.556
512	314.794
520	319.267
528	323.732
536	328.189
544	332.642
552	337.086
560	341.522
568	345.954
576	350.378
584	354.795
592	359.207
600	363.613
608	368.012
616	372.406
624	376.794
632	381.174
640	385.551
648	389.921
656	394.285
664	398.645
672	402.998
680	407.344
688	411.687
696	416.023
704	420.353
712	424.678
720	428.998
728	433.312
736	437.622
744	441.925
752	446.222
760	450.515
768	454.801
776	459.082
784	463.359
792	467.63
800	471.896
808	476.158
816	480.414
824	484.664
832	488.911
840	493.152
848	497.389
856	501.621
864	505.849
872	510.071
880	514.291
888	518.504
896	522.713
904	526.919
912	531.119
920	535.314
928	539.507
936	543.694
944	547.876
952	552.055
960	556.229
968	560.398
976	564.564
984	568.725
992	572.882
1000	577.035
1008	581.183
1016	585.327
1024	589.467
1040	597.734
1056	605.986
1072	614.222
1088	622.441
1104	630.646
1120	638.836
1136	647.01
1152	655.169
1168	663.314
1184	671.444
1200	679.56
1216	687.661
1232	695.747
1248	703.819
1264	711.878
1280	719.922
1296	727.952
1312	735.97
1328	743.973
1344	751.963
1360	759.94
1376	767.904
1392	775.855
1408	783.793
1424	791.718
1440	799.631
1456	807.532
1472	815.42
1488	823.296
1504	831.159
1520	839.01
1536	846.848
1552	854.675
1568	862.49
1584	870.293
1600	878.084
1616	885.864
1632	893.632
1648	901.39
1664	909.136
1680	916.872
1696	924.598
1712	932.311
1728	940.015
1744	947.708
1760	955.39
1776	963.062
1792	970.725
1808	978.377
1824	986.019
1840	993.651
1856	1001.27
1872	1008.89
1888	1016.49
1904	1024.08
1920	1031.67
1936	1039.24
1952	1046.8
1968	1054.36
1984	1061.91
2000	1069.44
2016	1076.97
2032	1084.49
2048	1092
2080	1106.99
2112	1121.95
2144	1136.87
2176	1151.76
2208	1166.61
2240	1181.43
2272	1196.22
2304	1210.97
2336	1225.7
2368	1240.39
2400	1255.05
2432	1269.68
2464	1284.28
2496	1298.85
2528	1313.39
2560	1327.9
2592	1342.38
2624	1356.84
2656	1371.27
2688	1385.66
2720	1400.03
2752	1414.38
2784	1428.7
2816	1442.99
2848	1457.26
2880	1471.5
2912	1485.72
2944	1499.92
2976	1514.09
3008	1528.23
3040	1542.35
3072	1556.44
3104	1570.51
3136	1584.56
3168	1598.58
3200	1612.59
3232	1626.57
3264	1640.52
3296	1654.46
3328	1668.38
3360	1682.27
3392	1696.15
3424	1710
3456	1723.84
3488	1737.66
3520	1751.45
3552	1765.23
3584	1778.98
3616	1792.72
3648	1806.44
3680	1820.14
3712	1833.82
3744	1847.49
3776	1861.13
3808	1874.76
3840	1888.37
3872	1901.96
3904	1915.54
3936	1929.1
3968	1942.64
4000	1956.17
4032	1969.68
4064	1983.17
4096	1996.65
4160	2023.55
4224	2050.4
4288	2077.18
4352	2103.91
4416	2130.57
4480	2157.18
4544	2183.74
4608	2210.23
4672	2236.68
4736	2263.07
4800	2289.4
4864	2315.69
4928	2341.93
4992	2368.12
5056	2394.26
5120	2420.35
5184	2446.39
5248	2472.39
5312	2498.34
5376	2524.24
5440	2550.11
5504	2575.93
5568	2601.71
5632	2627.45
5696	2653.15
5760	2678.81
5824	2704.43
5888	2730.01
5952	2755.55
6016	2781.06
6080	2806.53
6144	2831.97
6208	2857.37
6272	2882.73
6336	2908.07
6400	2933.37
6464	2958.64
6528	2983.87
6592	3009.08
6656	3034.25
6720	3059.4
6784	3084.51
6848	3109.59
6912	3134.64
6976	3159.66
7040	3184.66
7104	3209.62
7168	3234.56
7232	3259.48
7296	3284.36
7360	3309.22
7424	3334.05
7488	3358.86
7552	3383.64
7616	3408.4
7680	3433.13
7744	3457.83
7808	3482.51
7872	3507.17
7936	3531.8
8000	3556.41
8064	3580.99
8128	3605.56
8192	3630.1
8320	3679.11
8448	3728.05
8576	3776.9
8704	3825.67
8832	3874.36
8960	3922.98
9088	3971.52
9216	4019.99
9344	4068.39
9472	4116.72
9600	4164.98
9728	4213.19
9856	4261.33
9984	4309.41
10112	4357.43
10240	4405.39
10368	4453.28
10496	4501.1
10624	4548.87
10752	4596.58
10880	4644.25
11008	4691.86
11136	4739.43
11264	4786.95
11392	4834.43
11520	4881.86
11648	4929.24
11776	4976.59
11904	5023.89
12032	5071.16
12160	5118.38
12288	5165.56
12416	5212.71
12544	5259.82
12672	5306.89
12800	5353.93
12928	5400.93
13056	5447.89
13184	5494.83
13312	5541.73
13440	5588.6
13568	5635.44
13696	5682.25
13824	5729.03
13952	5775.79
14080	5822.52
14208	5869.22
14336	5915.89
14464	5962.54
14592	6009.16
14720	6055.76
14848	6102.34
14976	6148.89
15104	6195.42
15232	6241.92
15360	6288.4
15488	6334.86
15616	6381.3
15744	6427.72
15872	6474.12
16000	6520.5
16128	6566.86
16256	6613.2
16384	6659.52
16640	6752.12
16896	6844.65
17152	6937.12
17408	7029.52
17664	7121.87
17920	7214.16
18176	7306.39
18432	7398.56
18688	7490.68
18944	7582.76
19200	7674.79
19456	7766.77
19712	7858.71
19968	7950.6
20224	8042.45
20480	8134.25
20736	8226
20992	8317.7
21248	8409.35
21504	8500.97
21760	8592.54
22016	8684.09
22272	8775.59
22528	8867.07
22784	8958.51
23040	9049.93
23296	9141.31
23552	9232.66
23808	9323.99
24064	9415.28
24320	9506.54
24576	9597.77
24832	9688.97
25088	9780.15
25344	9871.3
25600	9962.44
25856	10053.5
26112	10144.6
26368	10235.7
26624	10326.8
26880	10417.8
27136	10508.8
27392	10599.8
27648	10690.8
27904	10781.7
28160	10872.6
28416	10963.6
28672	11054.5
28928	11145.3
29184	11236.2
29440	11327.1
29696	11417.9
29952	11508.7
30208	11599.5
30464	11690.3
30720	11781.1
30976	11871.9
31232	11962.6
31488	12053.3
31744	12144
32000	12234.8
32256	12325.4
32512	12416.1
32768	12506.8
33280	12688.1
33792	12869.4
34304	13050.6
34816	13231.8
35328	13412.9
35840	13594
36352	13775.1
36864	13956.2
37376	14137.2
37888	14318.1
38400	14499.1
38912	14680
39424	14860.9
39936	15041.8
40448	15222.6
40960	15403.4
41472	15584.2
41984	15765
42496	15945.7
43008	16126.4
43520	16307.1
44032	16487.8
44544	16668.5
45056	16849.2
45568	17029.8
46080	17210.4
46592	17391
47104	17571.6
47616	17752.2
48128	17932.8
48640	18113.4
49152	18293.9
49664	18474.4
50176	18655
50688	18835.5
51200	19016
51712	19196.5
52224	19377
52736	19557.4
53248	19737.9
53760	19918.3
54272	20098.8
54784	20279.2
55296	20459.7
55808	20640.1
56320	20820.5
56832	21000.9
57344	21181.3
57856	21361.7
58368	21542.1
58880	21722.5
59392	21902.9
59904	22083.3
60416	22263.7
60928	22444.1
61440	22624.5
61952	22804.8
62464	22985.2
62976	23165.6
63488	23345.9
64000	23526.3
64512	23706.6
65024	23887
65536	24067.3
66560	24428
67584	24788.6
68608	25149.3
69632	25509.9
70656	25870.6
71680	26231.1
72704	26591.6
73728	26952
74752	27312.4
75776	27672.8
76800	28033.2
77824	28393.5
78848	28753.8
79872	29114.1
80896	29474.4
81920	29834.7
82944	30195
83968	30555.3
84992	30915.5
86016	31275.6
87040	31635.6
88064	31995.6
89088	32355.5
90112	32715.4
91136	33075.2
92160	33434.9
93184	33794.6
94208	34154.2
95232	34513.8
96256	34873.3
97280	35232.6
98304	35591.7
99328	35950.7
100352	36309.6
101376	36668.4
102400	37027
103424	37385.6
104448	37744
105472	38102.3
106496	38460.5
107520	38818.5
108544	39176.5
109568	39534.3
110592	39892.1
111616	40249.7
112640	40607.2
113664	40964.7
114688	41322
115712	41679.2
116736	42036.4
117760	42393.4
118784	42750.3
119808	43107.2
120832	43463.9
121856	43820.5
122880	44177
123904	44533.4
124928	44889.6
125952	45245.8
126976	45601.9
128000	45957.8
129024	46313.7
130048	46669.5
131072	47025.1
133120	47736.2
135168	48447
137216	49157.4
139264	49867.4
141312	50577.1
143360	51286.5
145408	51995.6
147456	52704.5
149504	53413.1
151552	54121.5
153600	54829.7
155648	55537.6
157696	56245.3
159744	56952.8
161792	57660.1
163840	58367.2
165888	59074.1
167936	59780.8
169984	60486.9
172032	61192.5
174080	61897.5
176128	62602
178176	63305.9
180224	64009.2
182272	64712.3
184320	65415.2
186368	66117.9
188416	66820.5
190464	67522.9
192512	68225.1
194560	68927.2
196608	69629.2
198656	70330.6
200704	71031
202752	71730.3
204800	72428.7
206848	73126.5
208896	73823.8
210944	74520.6
212992	75217.1
215040	75913.2
217088	76608.9
219136	77304.3
221184	77999.4
223232	78694.3
225280	79388.9
227328	80083.3
229376	80777.4
231424	81471.3
233472	82165.1
235520	82858.7
237568	83552.1
239616	84245.3
241664	84938.4
243712	85631.3
245760	86324.2
247808	87016.8
249856	87709.4
251904	88401.8
253952	89094.2
256000	89786.4
258048	90478.5
260096	91170.4
262144	91862.3
266240	93246.1
270336	94629.4
274432	96012.7
278528	97396.7
282624	98779.9
286720	100162
290816	101543
294912	102920
299008	104272
303104	105617
307200	106963
311296	108309
315392	109655
319488	111000
323584	112345
327680	113691
331776	115037
335872	116383
339968	117730
344064	119077
348160	120425
352256	121773
356352	123121
360448	124471
364544	125822
368640	127173
372736	128525
376832	129878
380928	131232
385024	132585
389120	133938
393216	135291
397312	136642
401408	137994
405504	139344
409600	140695
413696	142045
417792	143395
421888	144745
425984	146094
430080	147444
434176	148793
438272	150141
442368	151490
446464	152838
450560	154186
454656	155534
458752	156882
462848	158229
466944	159577
471040	160924
475136	162270
479232	163618
483328	164967
487424	166317
491520	167669
495616	169021
499712	170373
503808	171726
507904	173081
512000	174436
516096	175793
520192	177151
524288	178511
532480	181235
540672	183964
548864	186698
557056	189439
565248	192185
573440	194930
581632	197676
589824	200416
598016	203115
606208	205808
614400	208501
622592	211195
630784	213892
638976	216592
647168	219296
655360	222004
663552	224714
671744	227423
679936	230128
688128	232825
696320	235514
704512	238194
712704	240867
720896	243532
729088	246190
737280	248840
745472	251483
753664	254117
761856	256745
770048	259369
778240	261994
786432	264621
794624	267249
802816	269878
811008	272510
819200	275145
827392	277784
835584	280425
843776	283070
851968	285714
860160	288353
868352	290986
876544	293618
884736	296244
892928	298839
901120	301431
909312	304022
917504	306612
925696	309204
933888	311799
942080	314399
950272	317001
958464	319607
966656	322213
974848	324815
983040	327409
991232	329994
999424	332572
1007616	335143
1015808	337706
1024000	340261
1032192	342809
1040384	345350
1048576	347883
1064960	352931
1081344	357976
1097728	363028
1114112	368090
1130496	373165
1146880	378248
1163264	383316
1179648	388363
1196032	393357
1212416	398347
1228800	403340
1245184	408348
1261568	413364
1277952	418366
1294336	423337
1310720	428278
1327104	433189
1343488	438071
1359872	442927
1376256	447781
1392640	452641
1409024	457513
1425408	462398
1441792	467291
1458176	472169
1474560	477027
1490944	481840
1507328	486647
1523712	491459
1540096	496286
1556480	501122
1572864	505944
1589248	510736
1605632	515499
1622016	520232
1638400	524937
1654784	529616
1671168	534292
1687552	538975
1703936	543669
1720320	548378
1736704	553095
1753088	557799
1769472	562485
1785856	567129
1802240	571768
1818624	576413
1835008	581073
1851392	585744
1867776	590400
1884160	595027
1900544	599626
1916928	604195
1933312	608735
1949696	613251
1966080	617764
1982464	622284
1998848	626817
2015232	631365
2031616	635920
2048000	640462
2064384	644988
2080768	649476
2097152	653959
2129920	662957
2162688	671975
2195456	680891
2228224	689694
2260992	698419
2293760	707173
2326528	715970
2359296	724665
2392064	733313
2424832	741989
2457600	750645
2490368	759185
2523136	767613
2555904	776030
2588672	784492
2621440	792999
2654208	801400
2686976	809758
2719744	818150
2752512	826525
2785280	834784
2818048	842928
2850816	851059
2883584	859239
2916352	867469
2949120	875594
2981888	883666
3014656	891779
3047424	899883
3080192	907869
3112960	915739
3145728	923589
3178496	931497
3211264	939454
3244032	947236
3276800	954908
3309568	962629
3342336	970387
3375104	978050
3407872	985593
3440640	993070
3473408	1.00059e+06
3506176	1.00818e+06
3538944	1.01567e+06
3571712	1.02293e+06
3604480	1.03025e+06
3637248	1.03764e+06
3670016	1.04496e+06
3702784	1.05215e+06
3735552	1.05922e+06
3768320	1.06632e+06
3801088	1.07347e+06
3833856	1.08064e+06
3866624	1.08758e+06
3899392	1.09461e+06
3932160	1.1017e+06
3964928	1.10874e+06
3997696	1.11565e+06
4030464	1.12244e+06
4063232	1.12925e+06
4096000	1.13612e+06
4128768	1.14302e+06
4161536	1.14968e+06
4194304	1.15643e+06
4259840	1.17003e+06
4325376	1.18318e+06
4390912	1.1963e+06
4456448	1.20932e+06
4521984	1.22234e+06
4587520	1.23498e+06
4653056	1.24734e+06
4718592	1.25986e+06
4784128	1.27223e+06
4849664	1.28465e+06
4915200	1.2965e+06
4980736	1.30846e+06
5046272	1.32029e+06
5111808	1.33232e+06
5177344	1.34389e+06
5242880	1.3551e+06
5308416	1.3665e+06
5373952	1.37773e+06
5439488	1.38904e+06
5505024	1.39957e+06
5570560	1.41024e+06
5636096	1.42066e+06
5701632	1.43134e+06
5767168	1.44135e+06
5832704	1.45074e+06
5898240	1.46027e+06
5963776	1.46941e+06
6029312	1.47852e+06
6094848	1.48603e+06
6160384	1.49327e+06
6225920	1.50032e+06
6291456	1.50881e+06
6356992	1.51768e+06
6422528	1.52723e+06
6488064	1.53719e+06
6553600	1.54655e+06
6619136	1.55465e+06
6684672	1.55953e+06
6750208	1.56248e+06
6815744	1.56248e+06
6881280	1.56248e+06
6946816	1.56248e+06
7012352	1.56248e+06
7077888	1.56248e+06
7143424	1.56248e+06
7208960	1.56248e+06
7274496	1.56248e+06
7340032	1.56248e+06
7405568	1.56248e+06
7471104	1.56248e+06
7536640	1.56248e+06
7602176	1.56248e+06
7667712	1.56248e+06
7733248	1.56248e+06
7798784	1.56248e+06
7864320	1.56248e+06
7929856	1.56248e+06
7995392	1.56248e+06
8060928	1.56248e+06
8126464	1.56248e+06
8192000	1.56248e+06
8257536	1.56248e+06
8323072	1.56248e+06
8388608	1.56248e+06
8519680	1.56248e+06
8650752	1.56248e+06
8781824	1.56248e+06
8912896	1.56248e+06
9043968	1.56248e+06
9175040	1.56248e+06
9306112	1.56248e+06
9437184	1.56248e+06
9568256	1.56248e+06
9699328	1.56248e+06
9830400	1.56248e+06
9961472	1.56248e+06
10092544	1.56248e+06
10223616	1.56248e+06
10354688	1.56248e+06
10485760	1.56248e+06
10616832	1.56248e+06
10747904	1.56248e+06
10878976	1.56248e+06
11010048	1.56248e+06
11141120	1.56248e+06
11272192	1.56248e+06
11403264	1.56248e+06
11534336	1.56248e+06
11665408	1.56248e+06
11796480	1.56248e+06
11927552	1.56248e+06
12058624	1.56248e+06
12189696	1.56248e+06
12320768	1.56248e+06
12451840	1.56248e+06
12582912	1.56248e+06
12713984	1.56248e+06
12845056	1.56248e+06
12976128	1.56248e+06
13107200	1.56248e+06
13238272	1.56248e+06
13369344	1.56248e+06
13500416	1.56248e+06
13631488	1.56248e+06
13762560	1.56248e+06
13893632	1.56248e+06
14024704	1.56248e+06
14155776	1.56248e+06
14286848	1.56248e+06
14417920	1.56248e+06
14548992	1.56248e+06
14680064	1.56248e+06
14811136	1.56248e+06
14942208	1.56248e+06
15073280	1.56248e+06
15204352	1.56248e+06
15335424	1.56248e+06
15466496	1.56248e+06
15597568	1.56248e+06
15728640	1.56248e+06
15859712	1.56248e+06
15990784	1.56248e+06
16121856	1.56248e+06
16252928	1.56248e+06
16384000	1.56248e+06
16515072	1.56248e+06
16646144	1.56248e+06
16777216	1.56248e+06
17039360	1.56248e+06
17301504	1.56248e+06
17563648	1.56248e+06
17825792	1.56248e+06
18087936	1.56248e+06
18350080	1.56248e+06
18612224	1.56248e+06
18874368	1.56248e+06
19136512	1.56248e+06
19398656	1.56248e+06
19660800	1.56248e+06
19922944	1.56248e+06
20185088	1.56248e+06
20447232	1.56248e+06
20709376	1.56248e+06
20971520	1.56248e+06
21233664	1.56248e+06
21495808	1.56248e+06
21757952	1.56248e+06
22020096	1.56248e+06
22282240	1.56248e+06
22544384	1.56248e+06
22806528	1.56248e+06
23068672	1.56248e+06
23330816	1.56248e+06
23592960	1.56248e+06
23855104	1.56248e+06
24117248	1.56248e+06
24379392	1.56248e+06
24641536	1.56248e+06
24903680	1.56248e+06
25165824	1.56248e+06
25427968	1.56248e+06
25690112	1.56248e+06
25952256	1.56248e+06
26214400	1.56248e+06
26476544	1.56248e+06
26738688	1.56248e+06
27000832	1.56248e+06
27262976	1.56248e+06
27525120	1.56248e+06
27787264	1.56248e+06
28049408	1.56248e+06
28311552	1.56248e+06
28573696	1.56248e+06
28835840	1.56248e+06
29097984	1.56248e+06
29360128	1.56248e+06
29622272	1.56248e+06
29884416	1.56248e+06
30146560	1.56248e+06
30408704	1.56248e+06
30670848	1.56248e+06
30932992	1.56248e+06
31195136	1.56248e+06
31457280	1.56248e+06
31719424	1.56248e+06
31981568	1.56248e+06
32243712	1.56248e+06
32505856	1.56248e+06
32768000	1.56248e+06
33030144	1.56248e+06
33292288	1.56248e+06
33554432	1.56248e+06
34078720	1.56248e+06
34603008	1.56248e+06
35127296	1.56248e+06
35651584	1.56248e+06
36175872	1.56248e+06
36700160	1.56248e+06
37224448	1.56248e+06
37748736	1.56248e+06
38273024	1.56248e+06
38797312	1.56248e+06
39321600	1.56248e+06
39845888	1.56248e+06
40370176	1.56248e+06
40894464	1.56248e+06
41418752	1.56248e+06
41943040	1.56248e+06
42467328	1.56248e+06
42991616	1.56248e+06
43515904	1.56248e+06
44040192	1.56248e+06
44564480	1.56248e+06
45088768	1.56248e+06
45613056	1.56248e+06
46137344	1.56248e+06
46661632	1.56248e+06
47185920	1.56248e+06
47710208	1.56248e+06
48234496	1.56248e+06
48758784	1.56248e+06
49283072	1.56248e+06
49807360	1.56248e+06
50331648	1.56248e+06
50855936	1.56248e+06
51380224	1.56248e+06
51904512	1.56248e+06
52428800	1.56248e+06
52953088	1.56248e+06
53477376	1.56248e+06
54001664	1.56248e+06
54525952	1.56248e+06
55050240	1.56248e+06
55574528	1.56248e+06
56098816	1.56248e+06
56623104	1.56248e+06
57147392	1.56248e+06
57671680	1.56248e+06
58195968	1.56248e+06
58720256	1.56248e+06
59244544	1.56248e+06
59768832	1.56248e+06
60293120	1.56248e+06
60817408	1.56248e+06
61341696	1.56248e+06
61865984	1.56248e+06
62390272	1.56248e+06
62914560	1.56248e+06
63438848	1.56248e+06
63963136	1.56248e+06
64487424	1.56248e+06
65011712	1.56248e+06
65536000	1.56248e+06
66060288	1.56248e+06
66584576	1.56248e+06
67108864	1.56248e+06
68157440	1.56248e+06
69206016	1.56248e+06
70254592	1.56248e+06
71303168	1.56248e+06
72351744	1.56248e+06
73400320	1.56248e+06
74448896	1.56248e+06
75497472	1.56248e+06
76546048	1.56248e+06
77594624	1.56248e+06
78643200	1.56248e+06
79691776	1.56248e+06
80740352	1.56248e+06
81788928	1.56248e+06
82837504	1.56248e+06
83886080	1.56248e+06
84934656	1.56248e+06
85983232	1.56248e+06
87031808	1.56248e+06
88080384	1.56248e+06
89128960	1.56248e+06
90177536	1.56248e+06
91226112	1.56248e+06
92274688	1.56248e+06
93323264	1.56248e+06
94371840	1.56248e+06
95420416	1.56248e+06
96468992	1.56248e+06
97517568	1.56248e+06
98566144	1.56248e+06
99614720	1.56248e+06
100663296	1.56248e+06
101711872	1.56248e+06
102760448	1.56248e+06
103809024	1.56248e+06
104857600	1.56248e+06
105906176	1.56248e+06
106954752	1.56248e+06
108003328	1.56248e+06
109051904	1.56248e+06
110100480	1.56248e+06
111149056	1.56248e+06
112197632	1.56248e+06
113246208	1.56248e+06
114294784	1.56248e+06
115343360	1.56248e+06
116391936	1.56248e+06
117440512	1.56248e+06
118489088	1.56248e+06
119537664	1.56248e+06
120586240	1.56248e+06
121634816	1.56248e+06
122683392	1.56248e+06
123731968	1.56248e+06
124780544	1.56248e+06
125829120	1.56248e+06
126877696	1.56248e+06
127926272	1.56248e+06
128974848	1.56248e+06
130023424	1.56248e+06
131072000	1.56248e+06
132120576	1.56248e+06
133169152	1.56248e+06
134217728	1.56248e+06
136314880	1.56248e+06
138412032	1.56248e+06
140509184	1.56248e+06
142606336	1.56248e+06
144703488	1.56248e+06
146800640	1.56248e+06
148897792	1.56248e+06
150994944	1.56248e+06
153092096	1.56248e+06
155189248	1.56248e+06
157286400	1.56248e+06
159383552	1.56248e+06
161480704	1.56248e+06
163577856	1.56248e+06
165675008	1.56248e+06
167772160	1.56248e+06
169869312	1.56248e+06
171966464	1.56248e+06
174063616	1.56248e+06
176160768	1.56248e+06
178257920	1.56248e+06
180355072	1.56248e+06
182452224	1.56248e+06
184549376	1.56248e+06
186646528	1.56248e+06
188743680	1.56248e+06
190840832	1.56248e+06
192937984	1.56248e+06
195035136	1.56248e+06
197132288	1.56248e+06
199229440	1.56248e+06
201326592	1.56248e+06
203423744	1.56248e+06
205520896	1.56248e+06
207618048	1.56248e+06
209715200	1.56248e+06
211812352	1.56248e+06
213909504	1.56248e+06
216006656	1.56248e+06
218103808	1.56248e+06
220200960	1.56248e+06
222298112	1.56248e+06
224395264	1.56248e+06
226492416	1.56248e+06
228589568	1.56248e+06
230686720	1.56248e+06
232783872	1.56248e+06
234881024	1.56248e+06
236978176	1.56248e+06
239075328	1.56248e+06
241172480	1.56248e+06
243269632	1.56248e+06
245366784	1.56248e+06
247463936	1.56248e+06
249561088	1.56248e+06
251658240	1.56248e+06
253755392	1.56248e+06
255852544	1.56248e+06
257949696	1.56248e+06
260046848	1.56248e+06
262144000	1.56248e+06
264241152	1.56248e+06
266338304	1.56248e+06
268435456	1.56248e+06
272629760	1.56248e+06
276824064	1.56248e+06
281018368	1.56248e+06
285212672	1.56248e+06
289406976	1.56248e+06
293601280	1.56248e+06
297795584	1.56248e+06
301989888	1.56248e+06
306184192	1.56248e+06
310378496	1.56248e+06
314572800	1.56248e+06
318767104	1.56248e+06
322961408	1.56248e+06
327155712	1.56248e+06
331350016	1.56248e+06
335544320	1.56248e+06
339738624	1.56248e+06
343932928	1.56248e+06
348127232	1.56248e+06
352321536	1.56248e+06
356515840	1.56248e+06
360710144	1.56248e+06
364904448	1.56248e+06
369098752	1.56248e+06
373293056	1.56248e+06
377487360	1.56248e+06
381681664	1.56248e+06
385875968	1.56248e+06
390070272	1.56248e+06
394264576	1.56248e+06
398458880	1.56248e+06
402653184	1.56248e+06
406847488	1.56248e+06
411041792	1.56248e+06
415236096	1.56248e+06
419430400	1.56248e+06
423624704	1.56248e+06
427819008	1.56248e+06
432013312	1.56248e+06
436207616	1.56248e+06
440401920	1.56248e+06
444596224	1.56248e+06
448790528	1.56248e+06
452984832	1.56248e+06
457179136	1.56248e+06
461373440	1.56248e+06
465567744	1.56248e+06
469762048	1.56248e+06
473956352	1.56248e+06
478150656	1.56248e+06
482344960	1.56248e+06
486539264	1.56248e+06
490733568	1.56248e+06
494927872	1.56248e+06
499122176	1.56248e+06
503316480	1.56248e+06
507510784	1.56248e+06
511705088	1.56248e+06
515899392	1.56248e+06
520093696	1.56248e+06
524288000	1.56248e+06
528482304	1.56248e+06
532676608	1.56248e+06
536870912	1.56248e+06
545259520	1.56248e+06
553648128	1.56248e+06
562036736	1.56248e+06
570425344	1.56248e+06
578813952	1.56248e+06
587202560	1.56248e+06
595591168	1.56248e+06
603979776	1.56248e+06
612368384	1.56248e+06
620756992	1.56248e+06
629145600	1.56248e+06
637534208	1.56248e+06
645922816	1.56248e+06
654311424	1.56248e+06
662700032	1.56248e+06
671088640	1.56248e+06
679477248	1.56248e+06
687865856	1.56248e+06
696254464	1.56248e+06
704643072	1.56248e+06
713031680	1.56248e+06
721420288	1.56248e+06
729808896	1.56248e+06
738197504	1.56248e+06
746586112	1.56248e+06
754974720	1.56248e+06
763363328	1.56248e+06
771751936	1.56248e+06
780140544	1.56248e+06
788529152	1.56248e+06
796917760	1.56248e+06
805306368	1.56248e+06
813694976	1.56248e+06
822083584	1.56248e+06
830472192	1.56248e+06
838860800	1.56248e+06
847249408	1.56248e+06
855638016	1.56248e+06
864026624	1.56248e+06
872415232	1.56248e+06
880803840	1.56248e+06
889192448	1.56248e+06
897581056	1.56248e+06
905969664	1.56248e+06
914358272	1.56248e+06
922746880	1.56248e+06
931135488	1.56248e+06
939524096	1.56248e+06
947912704	1.56248e+06
956301312	1.56248e+06
964689920	1.56248e+06
973078528	1.56248e+06
981467136	1.56248e+06
989855744	1.56248e+06
998244352	1.56248e+06
1006632960	1.56248e+06
1015021568	1.56248e+06
1023410176	1.56248e+06
1031798784	1.56248e+06
1040187392	1.56248e+06
1048576000	1.56248e+06
1056964608	1.56248e+06
1065353216	1.56248e+06
1073741824	1.56248e+06
1090519040	1.56248e+06
1107296256	1.56248e+06
1124073472	1.56248e+06
1140850688	1.56248e+06
1157627904	1.56248e+06
1174405120	1.56248e+06
1191182336	1.56248e+06
1207959552	1.56248e+06
1224736768	1.56248e+06
1241513984	1.56248e+06
1258291200	1.56248e+06
1275068416	1.56248e+06
1291845632	1.56248e+06
1308622848	1.56248e+06
1325400064	1.56248e+06
1342177280	1.56248e+06
1358954496	1.56248e+06
1375731712	1.56248e+06
1392508928	1.56248e+06
1409286144	1.56248e+06
1426063360	1.56248e+06
1442840576	1.56248e+06
1459617792	1.56248e+06
1476395008	1.56248e+06
1493172224	1.56248e+06
1509949440	1.56248e+06
1526726656	1.56248e+06
1543503872	1.56248e+06
1560281088	1.56248e+06
1577058304	1.56248e+06
1593835520	1.56248e+06
1610612736	1.56248e+06
1627389952	1.56248e+06
1644167168	1.56248e+06
1660944384	1.56248e+06
1677721600	1.56248e+06
1694498816	1.56248e+06
1711276032	1.56248e+06
1728053248	1.56248e+06
1744830464	1.56248e+06
1761607680	1.56248e+06
1778384896	1.56248e+06
1795162112	1.56248e+06
1811939328	1.56248e+06
1828716544	1.56248e+06
1845493760	1.56248e+06
1862270976	1.56248e+06
1879048192	1.56248e+06
1895825408	1.56248e+06
1912602624	1.56248e+06
1929379840	1.56248e+06
1946157056	1.56248e+06
1962934272	1.56248e+06
1979711488	1.56248e+06
1996488704	1.56248e+06
2013265920	1.56248e+06
2030043136	1.56248e+06
2046820352	1.56248e+06
2063597568	1.56248e+06
2080374784	1.56248e+06
2097152000	1.56248e+06
2113929216	1.56248e+06
2130706432	1.56248e+06
2147483648	1.56248e+06
2181038080	1.56248e+06
2214592512	1.56248e+06
2248146944	1.56248e+06
2281701376	1.56248e+06
2315255808	1.56248e+06
2348810240	1.56248e+06
2382364672	1.56248e+06
2415919104	1.56248e+06
2449473536	1.56248e+06
2483027968	1.56248e+06
2516582400	1.56248e+06
2550136832	1.56248e+06
2583691264	1.56248e+06
2617245696	1.56248e+06
2650800128	1.56248e+06
2684354560	1.56248e+06
2717908992	1.56248e+06
2751463424	1.56248e+06
2785017856	1.56248e+06
2818572288	1.56248e+06
2852126720	1.56248e+06
2885681152	1.56248e+06
2919235584	1.56248e+06
2952790016	1.56248e+06
2986344448	1.56248e+06
3019898880	1.56248e+06
3053453312	1.56248e+06
3087007744	1.56248e+06
3120562176	1.56248e+06
3154116608	1.56248e+06
3187671040	1.56248e+06
3221225472	1.56248e+06
3254779904	1.56248e+06
3288334336	1.56248e+06
3321888768	1.56248e+06
3355443200	1.56248e+06
3388997632	1.56248e+06
3422552064	1.56248e+06
3456106496	1.56248e+06
3489660928	1.56248e+06
3523215360	1.56248e+06
3556769792	1.56248e+06
3590324224	1.56248e+06
3623878656	1.56248e+06
3657433088	1.56248e+06
3690987520	1.56248e+06
3724541952	1.56248e+06
3758096384	1.56248e+06
3791650816	1.56248e+06
3825205248	1.56248e+06
3858759680	1.56248e+06
3892314112	1.56248e+06
3925868544	1.56248e+06
3959422976	1.56248e+06
3992977408	1.56248e+06
4026531840	1.56248e+06
4060086272	1.56248e+06
4093640704	1.56248e+06
4127195136	1.56248e+06
4160749568	1.56248e+06
4194304000	1.56248e+06
4227858432	1.56248e+06
4261412864	1.56248e+06
4294967296	1.56248e+06
4362076160	1.56248e+06
4429185024	1.56248e+06
4496293888	1.56248e+06
4563402752	1.56248e+06
4630511616	1.56248e+06
4697620480	1.56248e+06
4764729344	1.56248e+06
4831838208	1.56248e+06
4898947072	1.56248e+06
4966055936	1.56248e+06
5033164800	1.56248e+06
5100273664	1.56248e+06
5167382528	1.56248e+06
5234491392	1.56248e+06
5301600256	1.56248e+06
5368709120	1.56248e+06
5435817984	1.56248e+06
5502926848	1.56248e+06
5570035712	1.56248e+06
5637144576	1.56248e+06
5704253440	1.56248e+06
5771362304	1.56248e+06
5838471168	1.56248e+06
5905580032	1.56248e+06
5972688896	1.56248e+06
6039797760	1.56248e+06
6106906624	1.56248e+06
6174015488	1.56248e+06
6241124352	1.56248e+06
6308233216	1.56248e+06
6375342080	1.56248e+06
6442450944	1.56248e+06
6509559808	1.56248e+06
6576668672	1.56248e+06
6643777536	1.56248e+06
6710886400	1.56248e+06
6777995264	1.56248e+06
6845104128	1.56248e+06
6912212992	1.56248e+06
6979321856	1.56248e+06
7046430720	1.56248e+06
7113539584	1.56248e+06
7180648448	1.56248e+06
7247757312	1.56248e+06
7314866176	1.56248e+06
7381975040	1.56248e+06
7449083904	1.56248e+06
7516192768	1.56248e+06
7583301632	1.56248e+06
7650410496	1.56248e+06
7717519360	1.56248e+06
7784628224	1.56248e+06
7851737088	1.56248e+06
7918845952	1.56248e+06
7985954816	1.56248e+06
8053063680	1.56248e+06
8120172544	1.56248e+06
8187281408	1.56248e+06
8254390272	1.56248e+06
8321499136	1.56248e+06
8388608000	1.56248e+06
8455716864	1.56248e+06
8522825728	1.56248e+06
8589934592	1.56248e+06
8724152320	1.56248e+06
8858370048	1.56248e+06
8992587776	1.56248e+06
9126805504	1.56248e+06
9261023232	1.56248e+06
9395240960	1.56248e+06
9529458688	1.56248e+06
9663676416	1.56248e+06
9797894144	1.56248e+06
9932111872	1.56248e+06
10066329600	1.56248e+06
10200547328	1.56248e+06
10334765056	1.56248e+06
10468982784	1.56248e+06
10603200512	1.56248e+06
10737418240	1.56248e+06
10871635968	1.56248e+06
11005853696	1.56248e+06
11140071424	1.56248e+06
11274289152	1.56248e+06
11408506880	1.56248e+06
11542724608	1.56248e+06
11676942336	1.56248e+06
11811160064	1.56248e+06
11945377792	1.56248e+06
12079595520	1.56248e+06
12213813248	1.56248e+06
12348030976	1.56248e+06
12482248704	1.56248e+06
12616466432	1.56248e+06
12750684160	1.56248e+06
12884901888	1.56248e+06
13019119616	1.56248e+06
13153337344	1.56248e+06
13287555072	1.56248e+06
13421772800	1.56248e+06
13555990528	1.56248e+06
13690208256	1.56248e+06
13824425984	1.56248e+06
13958643712	1.56248e+06
14092861440	1.56248e+06
14227079168	1.56248e+06
14361296896	1.56248e+06
14495514624	1.56248e+06
14629732352	1.56248e+06
14763950080	1.56248e+06
14898167808	1.56248e+06
15032385536	1.56248e+06
15166603264	1.56248e+06
15300820992	1.56248e+06
15435038720	1.56248e+06
15569256448	1.56248e+06
15703474176	1.56248e+06
15837691904	1.56248e+06
15971909632	1.56248e+06
16106127360	1.56248e+06
16240345088	1.56248e+06
16374562816	1.56248e+06
16508780544	1.56248e+06
16642998272	1.56248e+06
16777216000	1.56248e+06
16911433728	1.56248e+06
17045651456	1.56248e+06
17179869184	1.56248e+06
17448304640	1.56248e+06
17716740096	1.56248e+06
17985175552	1.56248e+06
18253611008	1.56248e+06
18522046464	1.56248e+06
18790481920	1.56248e+06
19058917376	1.56248e+06
19327352832	1.56248e+06
19595788288	1.56248e+06
19864223744	1.56248e+06
20132659200	1.56248e+06
20401094656	1.56248e+06
20669530112	1.56248e+06
20937965568	1.56248e+06
21206401024	1.56248e+06
21474836480	1.56248e+06
21743271936	1.56248e+06
22011707392	1.56248e+06
22280142848	1.56248e+06
22548578304	1.56248e+06
22817013760	1.56248e+06
23085449216	1.56248e+06
23353884672	1.56248e+06
23622320128	1.56248e+06
23890755584	1.56248e+06
24159191040	1.56248e+06
24427626496	1.56248e+06
24696061952	1.56248e+06
24964497408	1.56248e+06
25232932864	1.56248e+06
25501368320	1.56248e+06
25769803776	1.56248e+06
26038239232	1.56248e+06
26306674688	1.56248e+06
26575110144	1.56248e+06
26843545600	1.56248e+06
27111981056	1.56248e+06
27380416512	1.56248e+06
27648851968	1.56248e+06
27917287424	1.56248e+06
28185722880	1.56248e+06
28454158336	1.56248e+06
28722593792	1.56248e+06
28991029248	1.56248e+06
29259464704	1.56248e+06
29527900160	1.56248e+06
29796335616	1.56248e+06
30064771072	1.56248e+06
30333206528	1.56248e+06
30601641984	1.56248e+06
30870077440	1.56248e+06
31138512896	1.56248e+06
31406948352	1.56248e+06
31675383808	1.56248e+06
31943819264	1.56248e+06
32212254720	1.56248e+06
32480690176	1.56248e+06
32749125632	1.56248e+06
33017561088	1.56248e+06
33285996544	1.56248e+06
33554432000	1.56248e+06
33822867456	1.56248e+06
34091302912	1.56248e+06
34359738368	1.56248e+06
34896609280	1.56248e+06
35433480192	1.56248e+06
35970351104	1.56248e+06
36507222016	1.56248e+06
37044092928	1.56248e+06
37580963840	1.56248e+06
38117834752	1.56248e+06
38654705664	1.56248e+06
39191576576	1.56248e+06
39728447488	1.56248e+06
40265318400	1.56248e+06
40802189312	1.56248e+06
41339060224	1.56248e+06
41875931136	1.56248e+06
42412802048	1.56248e+06
42949672960	1.56248e+06
43486543872	1.56248e+06
44023414784	1.56248e+06
44560285696	1.56248e+06
45097156608	1.56248e+06
45634027520	1.56248e+06
46170898432	1.56248e+06
46707769344	1.56248e+06
47244640256	1.56248e+06
47781511168	1.56248e+06
48318382080	1.56248e+06
48855252992	1.56248e+06
49392123904	1.56248e+06
49928994816	1.56248e+06
50465865728	1.56248e+06
51002736640	1.56248e+06
51539607552	1.56248e+06
52076478464	1.56248e+06
52613349376	1.56248e+06
53150220288	1.56248e+06
53687091200	1.56248e+06
54223962112	1.56248e+06
54760833024	1.56248e+06
55297703936	1.56248e+06
55834574848	1.56248e+06
56371445760	1.56248e+06
56908316672	1.56248e+06
57445187584	1.56248e+06
57982058496	1.56248e+06
58518929408	1.56248e+06
59055800320	1.56248e+06
59592671232	1.56248e+06
60129542144	1.56248e+06
60666413056	1.56248e+06
61203283968	1.56248e+06
61740154880	1.56248e+06
62277025792	1.56248e+06
62813896704	1.56248e+06
63350767616	1.56248e+06
63887638528	1.56248e+06
64424509440	1.56248e+06
64961380352	1.56248e+06
65498251264	1.56248e+06
66035122176	1.56248e+06
66571993088	1.56248e+06
67108864000	1.56248e+06
67645734912	1.56248e+06
68182605824	1.56248e+06
68719476736	1.56248e+06
69793218560	1.56248e+06
70866960384	1.56248e+06
71940702208	1.56248e+06
73014444032	1.56248e+06
74088185856	1.56248e+06
75161927680	1.56248e+06
76235669504	1.56248e+06
77309411328	1.56248e+06
78383153152	1.56248e+06
79456894976	1.56248e+06
80530636800	1.56248e+06
81604378624	1.56248e+06
82678120448	1.56248e+06
83751862272	1.56248e+06
84825604096	1.56248e+06
85899345920	1.56248e+06
86973087744	1.56248e+06
88046829568	1.56248e+06
89120571392	1.56248e+06
90194313216	1.56248e+06
91268055040	1.56248e+06
92341796864	1.56248e+06
93415538688	1.56248e+06
94489280512	1.56248e+06
95563022336	1.56248e+06
96636764160	1.56248e+06
97710505984	1.56248e+06
98784247808	1.56248e+06
99857989632	1.56248e+06
100931731456	1.56248e+06
102005473280	1.56248e+06
103079215104	1.56248e+06
104152956928	1.56248e+06
105226698752	1.56248e+06
106300440576	1.56248e+06
107374182400	1.56248e+06
108447924224	1.56248e+06
109521666048	1.56248e+06
110595407872	1.56248e+06
111669149696	1.56248e+06
112742891520	1.56248e+06
113816633344	1.56248e+06
114890375168	1.56248e+06
115964116992	1.56248e+06
117037858816	1.56248e+06
118111600640	1.56248e+06
119185342464	1.56248e+06
120259084288	1.56248e+06
121332826112	1.56248e+06
122406567936	1.56248e+06
123480309760	1.56248e+06
124554051584	1.56248e+06
125627793408	1.56248e+06
126701535232	1.56248e+06
127775277056	1.56248e+06
128849018880	1.56248e+06
129922760704	1.56248e+06
130996502528	1.56248e+06
132070244352	1.56248e+06
133143986176	1.56248e+06
134217728000	1.56248e+06
135291469824	1.56248e+06
136365211648	1.56248e+06
137438953472	1.56248e+06
139586437120	1.56248e+06
141733920768	1.56248e+06
143881404416	1.56248e+06
146028888064	1.56248e+06
148176371712	1.56248e+06
150323855360	1.56248e+06
152471339008	1.56248e+06
154618822656	1.56248e+06
156766306304	1.56248e+06
158913789952	1.56248e+06
161061273600	1.56248e+06
163208757248	1.56248e+06
165356240896	1.56248e+06
167503724544	1.56248e+06
169651208192	1.56248e+06
171798691840	1.56248e+06
173946175488	1.56248e+06
176093659136	1.56248e+06
178241142784	1.56248e+06
180388626432	1.56248e+06
182536110080	1.56248e+06
184683593728	1.56248e+06
186831077376	1.56248e+06
188978561024	1.56248e+06
191126044672	1.56248e+06
193273528320	1.56248e+06
195421011968	1.56248e+06
197568495616	1.56248e+06
199715979264	1.56248e+06
201863462912	1.56248e+06
204010946560	1.56248e+06
206158430208	1.56248e+06
208305913856	1.56248e+06
210453397504	1.56248e+06
212600881152	1.56248e+06
214748364800	1.56248e+06
216895848448	1.56248e+06
219043332096	1.56248e+06
221190815744	1.56248e+06
223338299392	1.56248e+06
225485783040	1.56248e+06
227633266688	1.56248e+06
229780750336	1.56248e+06
231928233984	1.56248e+06
234075717632	1.56248e+06
236223201280	1.56248e+06
238370684928	1.56248e+06
240518168576	1.56248e+06
242665652224	1.56248e+06
244813135872	1.56248e+06
246960619520	1.56248e+06
249108103168	1.56248e+06
251255586816	1.56248e+06
253403070464	1.56248e+06
255550554112	1.56248e+06
257698037760	1.56248e+06
259845521408	1.56248e+06
261993005056	1.56248e+06
264140488704	1.56248e+06
266287972352	1.56248e+06
268435456000	1.56248e+06
270582939648	1.56248e+06
272730423296	1.56248e+06
274877906944	1.56248e+06
279172874240	1.56248e+06
283467841536	1.56248e+06
287762808832	1.56248e+06
292057776128	1.56248e+06
296352743424	1.56248e+06
300647710720	1.56248e+06
304942678016	1.56248e+06
309237645312	1.56248e+06
313532612608	1.56248e+06
317827579904	1.56248e+06
322122547200	1.56248e+06
326417514496	1.56248e+06
330712481792	1.56248e+06
335007449088	1.56248e+06
339302416384	1.56248e+06
343597383680	1.56248e+06
347892350976	1.56248e+06
352187318272	1.56248e+06
356482285568	1.56248e+06
360777252864	1.56248e+06
365072220160	1.56248e+06
369367187456	1.56248e+06
373662154752	1.56248e+06
377957122048	1.56248e+06
382252089344	1.56248e+06
386547056640	1.56248e+06
390842023936	1.56248e+06
395136991232	1.56248e+06
399431958528	1.56248e+06
403726925824	1.56248e+06
408021893120	1.56248e+06
412316860416	1.56248e+06
416611827712	1.56248e+06
420906795008	1.56248e+06
425201762304	1.56248e+06
429496729600	1.56248e+06
433791696896	1.56248e+06
438086664192	1.56248e+06
442381631488	1.56248e+06
446676598784	1.56248e+06
450971566080	1.56248e+06
455266533376	1.56248e+06
459561500672	1.56248e+06
463856467968	1.56248e+06
468151435264	1.56248e+06
472446402560	1.56248e+06
476741369856	1.56248e+06
481036337152	1.56248e+06
485331304448	1.56248e+06
489626271744	1.56248e+06
493921239040	1.56248e+06
498216206336	1.56248e+06
502511173632	1.56248e+06
506806140928	1.56248e+06
511101108224	1.56248e+06
515396075520	1.56248e+06
519691042816	1.56248e+06
523986010112	1.56248e+06
528280977408	1.56248e+06
532575944704	1.56248e+06
536870912000	1.56248e+06
541165879296	1.56248e+06
545460846592	1.56248e+06
549755813888	1.56248e+06
558345748480	1.56248e+06
566935683072	1.56248e+06
575525617664	1.56248e+06
584115552256	1.56248e+06
592705486848	1.56248e+06
601295421440	1.56248e+06
609885356032	1.56248e+06
618475290624	1.56248e+06
627065225216	1.56248e+06
635655159808	1.56248e+06
644245094400	1.56248e+06
652835028992	1.56248e+06
661424963584	1.56248e+06
670014898176	1.56248e+06
678604832768	1.56248e+06
687194767360	1.56248e+06
695784701952	1.56248e+06
704374636544	1.56248e+06
712964571136	1.56248e+06
721554505728	1.56248e+06
730144440320	1.56248e+06
738734374912	1.56248e+06
747324309504	1.56248e+06
755914244096	1.56248e+06
764504178688	1.56248e+06
773094113280	1.56248e+06
781684047872	1.56248e+06
790273982464	1.56248e+06
798863917056	1.56248e+06
807453851648	1.56248e+06
816043786240	1.56248e+06
824633720832	1.56248e+06
833223655424	1.56248e+06
841813590016	1.56248e+06
850403524608	1.56248e+06
858993459200	1.56248e+06
867583393792	1.56248e+06
876173328384	1.56248e+06
884763262976	1.56248e+06
893353197568	1.56248e+06
901943132160	1.56248e+06
910533066752	1.56248e+06
919123001344	1.56248e+06
927712935936	1.56248e+06
936302870528	1.56248e+06
944892805120	1.56248e+06
953482739712	1.56248e+06
962072674304	1.56248e+06
970662608896	1.56248e+06
979252543488	1.56248e+06
987842478080	1.56248e+06
996432412672	1.56248e+06
1005022347264	1.56248e+06
1013612281856	1.56248e+06
1022202216448	1.56248e+06
1030792151040	1.56248e+06
1039382085632	1.56248e+06
1047972020224	1.56248e+06
1056561954816	1.56248e+06
1065151889408	1.56248e+06
1073741824000	1.56248e+06
1082331758592	1.56248e+06
1090921693184	1.56248e+06
1099511627776	1.56248e+06
1116691496960	1.56248e+06
1133871366144	1.56248e+06
1151051235328	1.56248e+06
1168231104512	1.56248e+06
1185410973696	1.56248e+06
1202590842880	1.56248e+06
1219770712064	1.56248e+06
1236950581248	1.56248e+06
1254130450432	1.56248e+06
1271310319616	1.56248e+06
1288490188800	1.56248e+06
1305670057984	1.56248e+06
1322849927168	1.56248e+06
1340029796352	1.56248e+06
1357209665536	1.56248e+06
1374389534720	1.56248e+06
1391569403904	1.56248e+06
1408749273088	1.56248e+06
1425929142272	1.56248e+06
1443109011456	1.56248e+06
1460288880640	1.56248e+06
1477468749824	1.56248e+06
1494648619008	1.56248e+06
1511828488192	1.56248e+06
1529008357376	1.56248e+06
1546188226560	1.56248e+06
1563368095744	1.56248e+06
1580547964928	1.56248e+06
1597727834112	1.56248e+06
1614907703296	1.56248e+06
1632087572480	1.56248e+06
1649267441664	1.56248e+06
1666447310848	1.56248e+06
1683627180032	1.56248e+06
1700807049216	1.56248e+06
1717986918400	1.56248e+06
1735166787584	1.56248e+06
1752346656768	1.56248e+06
1769526525952	1.56248e+06
1786706395136	1.56248e+06
1803886264320	1.56248e+06
1821066133504	1.56248e+06
1838246002688	1.56248e+06
1855425871872	1.56248e+06
1872605741056	1.56248e+06
1889785610240	1.56248e+06
1906965479424	1.56248e+06
1924145348608	1.56248e+06
1941325217792	1.56248e+06
1958505086976	1.56248e+06
1975684956160	1.56248e+06
1992864825344	1.56248e+06
2010044694528	1.56248e+06
2027224563712	1.56248e+06
2044404432896	1.56248e+06
2061584302080	1.56248e+06
2078764171264	1.56248e+06
2095944040448	1.56248e+06
2113123909632	1.56248e+06
2130303778816	1.56248e+06
2147483648000	1.56248e+06
2164663517184	1.56248e+06
2181843386368	1.56248e+06
2199023255552	1.56248e+06
2233382993920	1.56248e+06
2267742732288	1.56248e+06
2302102470656	1.56248e+06
2336462209024	1.56248e+06
2370821947392	1.56248e+06
2405181685760	1.56248e+06
2439541424128	1.56248e+06
2473901162496	1.56248e+06
2508260900864	1.56248e+06
2542620639232	1.56248e+06
2576980377600	1.56248e+06
2611340115968	1.56248e+06
2645699854336	1.56248e+06
2680059592704	1.56248e+06
2714419331072	1.56248e+06
2748779069440	1.56248e+06
2783138807808	1.56248e+06
2817498546176	1.56248e+06
2851858284544	1.56248e+06
2886218022912	1.56248e+06
2920577761280	1.56248e+06
2954937499648	1.56248e+06
2989297238016	1.56248e+06
3023656976384	1.56248e+06
3058016714752	1.56248e+06
3092376453120	1.56248e+06
3126736191488	1.56248e+06
3161095929856	1.56248e+06
3195455668224	1.56248e+06
3229815406592	1.56248e+06
3264175144960	1.56248e+06
3298534883328	1.56248e+06
3332894621696	1.56248e+06
3367254360064	1.56248e+06
3401614098432	1.56248e+06
3435973836800	1.56248e+06
3470333575168	1.56248e+06
3504693313536	1.56248e+06
3539053051904	1.56248e+06
3573412790272	1.56248e+06
3607772528640	1.56248e+06
3642132267008	1.56248e+06
3676492005376	1.56248e+06
3710851743744	1.56248e+06
3745211482112	1.56248e+06
3779571220480	1.56248e+06
3813930958848	1.56248e+06
3848290697216	1.56248e+06
3882650435584	1.56248e+06
3917010173952	1.56248e+06
3951369912320	1.56248e+06
3985729650688	1.56248e+06
4020089389056	1.56248e+06
4054449127424	1.56248e+06
4088808865792	1.56248e+06
4123168604160	1.56248e+06
4157528342528	1.56248e+06
4191888080896	1.56248e+06
4226247819264	1.56248e+06
4260607557632	1.56248e+06
4294967296000	1.56248e+06
4329327034368	1.56248e+06
4363686772736	1.56248e+06
4398046511104	1.56248e+06
4466765987840	1.56248e+06
4535485464576	1.56248e+06
4604204941312	1.56248e+06
4672924418048	1.56248e+06
4741643894784	1.56248e+06
4810363371520	1.56248e+06
4879082848256	1.56248e+06
4947802324992	1.56248e+06
5016521801728	1.56248e+06
5085241278464	1.56248e+06
5153960755200	1.56248e+06
5222680231936	1.56248e+06
5291399708672	1.56248e+06
5360119185408	1.56248e+06
5428838662144	1.56248e+06
5497558138880	1.56248e+06
5566277615616	1.56248e+06
5634997092352	1.56248e+06
5703716569088	1.56248e+06
5772436045824	1.56248e+06
5841155522560	1.56248e+06
5909874999296	1.56248e+06
5978594476032	1.56248e+06
6047313952768	1.56248e+06
6116033429504	1.56248e+06
6184752906240	1.56248e+06
6253472382976	1.56248e+06
6322191859712	1.56248e+06
6390911336448	1.56248e+06
6459630813184	1.56248e+06
6528350289920	1.56248e+06
6597069766656	1.56248e+06
6665789243392	1.56248e+06
6734508720128	1.56248e+06
6803228196864	1.56248e+06
6871947673600	1.56248e+06
6940667150336	1.56248e+06
7009386627072	1.56248e+06
7078106103808	1.56248e+06
7146825580544	1.56248e+06
7215545057280	1.56248e+06
7284264534016	1.56248e+06
7352984010752	1.56248e+06
7421703487488	1.56248e+06
7490422964224	1.56248e+06
7559142440960	1.56248e+06
7627861917696	1.56248e+06
7696581394432	1.56248e+06
7765300871168	1.56248e+06
7834020347904	1.56248e+06
7902739824640	1.56248e+06
7971459301376	1.56248e+06
8040178778112	1.56248e+06
8108898254848	1.56248e+06
8177617731584	1.56248e+06
8246337208320	1.56248e+06
8315056685056	1.56248e+06
8383776161792	1.56248e+06
8452495638528	1.56248e+06
8521215115264	1.56248e+06
8589934592000	1.56248e+06
8658654068736	1.56248e+06
8727373545472	1.56248e+06
8796093022208	1.56248e+06
8933531975680	1.56248e+06
9070970929152	1.56248e+06
9208409882624	1.56248e+06
9345848836096	1.56248e+06
9483287789568	1.56248e+06
9620726743040	1.56248e+06
9758165696512	1.56248e+06
9895604649984	1.56248e+06
10033043603456	1.56248e+06
10170482556928	1.56248e+06
10307921510400	1.56248e+06
10445360463872	1.56248e+06
10582799417344	1.56248e+06
10720238370816	1.56248e+06
10857677324288	1.56248e+06
10995116277760	1.56248e+06
11132555231232	1.56248e+06
11269994184704	1.56248e+06
11407433138176	1.56248e+06
11544872091648	1.56248e+06
11682311045120	1.56248e+06
11819749998592	1.56248e+06
11957188952064	1.56248e+06
12094627905536	1.56248e+06
12232066859008	1.56248e+06
12369505812480	1.56248e+06
12506944765952	1.56248e+06
12644383719424	1.56248e+06
12781822672896	1.56248e+06
12919261626368	1.56248e+06
13056700579840	1.56248e+06
13194139533312	1.56248e+06
13331578486784	1.56248e+06
13469017440256	1.56248e+06
13606456393728	1.56248e+06
13743895347200	1.56248e+06
13881334300672	1.56248e+06
14018773254144	1.56248e+06
14156212207616	1.56248e+06
14293651161088	1.56248e+06
14431090114560	1.56248e+06
14568529068032	1.56248e+06
14705968021504	1.56248e+06
14843406974976	1.56248e+06
14980845928448	1.56248e+06
15118284881920	1.56248e+06
15255723835392	1.56248e+06
15393162788864	1.56248e+06
15530601742336	1.56248e+06
15668040695808	1.56248e+06
15805479649280	1.56248e+06
15942918602752	1.56248e+06
16080357556224	1.56248e+06
16217796509696	1.56248e+06
16355235463168	1.56248e+06
16492674416640	1.56248e+06
16630113370112	1.56248e+06
16767552323584	1.56248e+06
16904991277056	1.56248e+06
17042430230528	1.56248e+06
17179869184000	1.56248e+06
17317308137472	1.56248e+06
17454747090944	1.56248e+06
17592186044416	1.56248e+06
17867063951360	1.56248e+06
18141941858304	1.56248e+06
18416819765248	1.56248e+06
18691697672192	1.56248e+06
18966575579136	1.56248e+06
19241453486080	1.56248e+06
19516331393024	1.56248e+06
19791209299968	1.56248e+06
20066087206912	1.56248e+06
20340965113856	1.56248e+06
20615843020800	1.56248e+06
20890720927744	1.56248e+06
21165598834688	1.56248e+06
21440476741632	1.56248e+06
21715354648576	1.56248e+06
21990232555520	1.56248e+06
22265110462464	1.56248e+06
22539988369408	1.56248e+06
22814866276352	1.56248e+06
23089744183296	1.56248e+06
23364622090240	1.56248e+06
23639499997184	1.56248e+06
23914377904128	1.56248e+06
24189255811072	1.56248e+06
24464133718016	1.56248e+06
24739011624960	1.56248e+06
25013889531904	1.56248e+06
25288767438848	1.56248e+06
25563645345792	1.56248e+06
25838523252736	1.56248e+06
26113401159680	1.56248e+06
26388279066624	1.56248e+06
26663156973568	1.56248e+06
26938034880512	1.56248e+06
27212912787456	1.56248e+06
27487790694400	1.56248e+06
27762668601344	1.56248e+06
28037546508288	1.56248e+06
28312424415232	1.56248e+06
28587302322176	1.56248e+06
28862180229120	1.56248e+06
29137058136064	1.56248e+06
29411936043008	1.56248e+06
29686813949952	1.56248e+06
29961691856896	1.56248e+06
30236569763840	1.56248e+06
30511447670784	1.56248e+06
30786325577728	1.56248e+06
31061203484672	1.56248e+06
31336081391616	1.56248e+06
31610959298560	1.56248e+06
31885837205504	1.56248e+06
32160715112448	1.56248e+06
32435593019392	1.56248e+06
32710470926336	1.56248e+06
32985348833280	1.56248e+06
33260226740224	1.56248e+06
33535104647168	1.56248e+06
33809982554112	1.56248e+06
34084860461056	1.56248e+06
34359738368000	1.56248e+06
34634616274944	1.56248e+06
34909494181888	1.56248e+06
35184372088832	1.56248e+06
35734127902720	1.56248e+06
36283883716608	1.56248e+06
36833639530496	1.56248e+06
37383395344384	1.56248e+06
37933151158272	1.56248e+06
38482906972160	1.56248e+06
39032662786048	1.56248e+06
39582418599936	1.56248e+06
40132174413824	1.56248e+06
40681930227712	1.56248e+06
41231686041600	1.56248e+06
41781441855488	1.56248e+06
42331197669376	1.56248e+06
42880953483264	1.56248e+06
43430709297152	1.56248e+06
43980465111040	1.56248e+06
44530220924928	1.56248e+06
45079976738816	1.56248e+06
45629732552704	1.56248e+06
46179488366592	1.56248e+06
46729244180480	1.56248e+06
47278999994368	1.56248e+06
47828755808256	1.56248e+06
48378511622144	1.56248e+06
48928267436032	1.56248e+06
49478023249920	1.56248e+06
50027779063808	1.56248e+06
50577534877696	1.56248e+06
51127290691584	1.56248e+06
51677046505472	1.56248e+06
52226802319360	1.56248e+06
52776558133248	1.56248e+06
53326313947136	1.56248e+06
53876069761024	1.56248e+06
54425825574912	1.56248e+06
54975581388800	1.56248e+06
55525337202688	1.56248e+06
56075093016576	1.56248e+06
56624848830464	1.56248e+06
57174604644352	1.56248e+06
57724360458240	1.56248e+06
58274116272128	1.56248e+06
58823872086016	1.56248e+06
59373627899904	1.56248e+06
59923383713792	1.56248e+06
60473139527680	1.56248e+06
61022895341568	1.56248e+06
61572651155456	1.56248e+06
62122406969344	1.56248e+06
62672162783232	1.56248e+06
63221918597120	1.56248e+06
63771674411008	1.56248e+06
64321430224896	1.56248e+06
64871186038784	1.56248e+06
65420941852672	1.56248e+06
65970697666560	1.56248e+06
66520453480448	1.56248e+06
67070209294336	1.56248e+06
67619965108224	1.56248e+06
68169720922112	1.56248e+06
68719476736000	1.56248e+06
69269232549888	1.56248e+06
69818988363776	1.56248e+06
70368744177664	1.56248e+06
71468255805440	1.56248e+06
72567767433216	1.56248e+06
73667279060992	1.56248e+06
74766790688768	1.56248e+06
75866302316544	1.56248e+06
76965813944320	1.56248e+06
78065325572096	1.56248e+06
79164837199872	1.56248e+06
80264348827648	1.56248e+06
81363860455424	1.56248e+06
82463372083200	1.56248e+06
83562883710976	1.56248e+06
84662395338752	1.56248e+06
85761906966528	1.56248e+06
86861418594304	1.56248e+06
87960930222080	1.56248e+06
89060441849856	1.56248e+06
90159953477632	1.56248e+06
91259465105408	1.56248e+06
92358976733184	1.56248e+06
93458488360960	1.56248e+06
94557999988736	1.56248e+06
95657511616512	1.56248e+06
96757023244288	1.56248e+06
97856534872064	1.56248e+06
98956046499840	1.56248e+06
100055558127616	1.56248e+06
101155069755392	1.56248e+06
102254581383168	1.56248e+06
103354093010944	1.56248e+06
104453604638720	1.56248e+06
105553116266496	1.56248e+06
106652627894272	1.56248e+06
107752139522048	1.56248e+06
108851651149824	1.56248e+06
109951162777600	1.56248e+06
111050674405376	1.56248e+06
112150186033152	1.56248e+06
113249697660928	1.56248e+06
114349209288704	1.56248e+06
115448720916480	1.56248e+06
116548232544256	1.56248e+06
117647744172032	1.56248e+06
118747255799808	1.56248e+06
119846767427584	1.56248e+06
120946279055360	1.56248e+06
122045790683136	1.56248e+06
123145302310912	1.56248e+06
124244813938688	1.56248e+06
125344325566464	1.56248e+06
126443837194240	1.56248e+06
127543348822016	1.56248e+06
128642860449792	1.56248e+06
129742372077568	1.56248e+06
130841883705344	1.56248e+06
131941395333120	1.56248e+06
133040906960896	1.56248e+06
134140418588672	1.56248e+06
135239930216448	1.56248e+06
136339441844224	1.56248e+06
137438953472000	1.56248e+06
138538465099776	1.56248e+06
139637976727552	1.56248e+06
140737488355328	1.56248e+06
142936511610880	1.56248e+06
145135534866432	1.56248e+06
147334558121984	1.56248e+06
149533581377536	1.56248e+06
151732604633088	1.56248e+06
153931627888640	1.56248e+06
156130651144192	1.56248e+06
158329674399744	1.56248e+06
160528697655296	1.56248e+06
162727720910848	1.56248e+06
164926744166400	1.56248e+06
167125767421952	1.56248e+06
169324790677504	1.56248e+06
171523813933056	1.56248e+06
173722837188608	1.56248e+06
175921860444160	1.56248e+06
178120883699712	1.56248e+06
180319906955264	1.56248e+06
182518930210816	1.56248e+06
184717953466368	1.56248e+06
186916976721920	1.56248e+06
189115999977472	1.56248e+06
191315023233024	1.56248e+06
193514046488576	1.56248e+06
195713069744128	1.56248e+06
197912092999680	1.56248e+06
200111116255232	1.56248e+06
202310139510784	1.56248e+06
204509162766336	1.56248e+06
206708186021888	1.56248e+06
208907209277440	1.56248e+06
211106232532992	1.56248e+06
213305255788544	1.56248e+06
215504279044096	1.56248e+06
217703302299648	1.56248e+06
219902325555200	1.56248e+06
222101348810752	1.56248e+06
224300372066304	1.56248e+06
226499395321856	1.56248e+06
228698418577408	1.56248e+06
230897441832960	1.56248e+06
233096465088512	1.56248e+06
235295488344064	1.56248e+06
237494511599616	1.56248e+06
239693534855168	1.56248e+06
241892558110720	1.56248e+06
244091581366272	1.56248e+06
246290604621824	1.56248e+06
248489627877376	1.56248e+06
250688651132928	1.56248e+06
252887674388480	1.56248e+06
255086697644032	1.56248e+06
257285720899584	1.56248e+06
259484744155136	1.56248e+06
261683767410688	1.56248e+06
263882790666240	1.56248e+06
266081813921792	1.56248e+06
268280837177344	1.56248e+06
270479860432896	1.56248e+06
272678883688448	1.56248e+06
274877906944000	1.56248e+06
277076930199552	1.56248e+06
279275953455104	1.56248e+06
281474976710656	1.56248e+06
285873023221760	1.56248e+06
290271069732864	1.56248e+06
294669116243968	1.56248e+06
299067162755072	1.56248e+06
303465209266176	1.56248e+06
307863255777280	1.56248e+06
312261302288384	1.56248e+06
316659348799488	1.56248e+06
321057395310592	1.56248e+06
325455441821696	1.56248e+06
329853488332800	1.56248e+06
334251534843904	1.56248e+06
338649581355008	1.56248e+06
343047627866112	1.56248e+06
347445674377216	1.56248e+06
351843720888320	1.56248e+06
356241767399424	1.56248e+06
360639813910528	1.56248e+06
365037860421632	1.56248e+06
369435906932736	1.56248e+06
373833953443840	1.56248e+06
378231999954944	1.56248e+06
382630046466048	1.56248e+06
387028092977152	1.56248e+06
391426139488256	1.56248e+06
395824185999360	1.56248e+06
400222232510464	1.56248e+06
404620279021568	1.56248e+06
409018325532672	1.56248e+06
413416372043776	1.56248e+06
417814418554880	1.56248e+06
422212465065984	1.56248e+06
426610511577088	1.56248e+06
431008558088192	1.56248e+06
435406604599296	1.56248e+06
439804651110400	1.56248e+06
444202697621504	1.56248e+06
448600744132608	1.56248e+06
452998790643712	1.56248e+06
457396837154816	1.56248e+06
461794883665920	1.56248e+06
466192930177024	1.56248e+06
470590976688128	1.56248e+06
474989023199232	1.56248e+06
479387069710336	1.56248e+06
483785116221440	1.56248e+06
488183162732544	1.56248e+06
492581209243648	1.56248e+06
496979255754752	1.56248e+06
501377302265856	1.56248e+06
505775348776960	1.56248e+06
510173395288064	1.56248e+06
514571441799168	1.56248e+06
518969488310272	1.56248e+06
523367534821376	1.56248e+06
527765581332480	1.56248e+06
532163627843584	1.56248e+06
536561674354688	1.56248e+06
540959720865792	1.56248e+06
545357767376896	1.56248e+06
549755813888000	1.56248e+06
554153860399104	1.56248e+06
558551906910208	1.56248e+06
562949953421312	1.56248e+06
571746046443520	1.56248e+06
580542139465728	1.56248e+06
589338232487936	1.56248e+06
598134325510144	1.56248e+06
606930418532352	1.56248e+06
615726511554560	1.56248e+06
624522604576768	1.56248e+06
633318697598976	1.56248e+06
642114790621184	1.56248e+06
650910883643392	1.56248e+06
659706976665600	1.56248e+06
668503069687808	1.56248e+06
677299162710016	1.56248e+06
686095255732224	1.56248e+06
694891348754432	1.56248e+06
703687441776640	1.56248e+06
712483534798848	1.56248e+06
721279627821056	1.56248e+06
730075720843264	1.56248e+06
738871813865472	1.56248e+06
747667906887680	1.56248e+06
756463999909888	1.56248e+06
765260092932096	1.56248e+06
774056185954304	1.56248e+06
782852278976512	1.56248e+06
791648371998720	1.56248e+06
800444465020928	1.56248e+06
809240558043136	1.56248e+06
818036651065344	1.56248e+06
826832744087552	1.56248e+06
835628837109760	1.56248e+06
844424930131968	1.56248e+06
853221023154176	1.56248e+06
862017116176384	1.56248e+06
870813209198592	1.56248e+06
879609302220800	1.56248e+06
888405395243008	1.56248e+06
897201488265216	1.56248e+06
905997581287424	1.56248e+06
914793674309632	1.56248e+06
923589767331840	1.56248e+06
932385860354048	1.56248e+06
941181953376256	1.56248e+06
949978046398464	1.56248e+06
958774139420672	1.56248e+06
967570232442880	1.56248e+06
976366325465088	1.56248e+06
985162418487296	1.56248e+06
993958511509504	1.56248e+06
1002754604531712	1.56248e+06
1011550697553920	1.56248e+06
1020346790576128	1.56248e+06
1029142883598336	1.56248e+06
1037938976620544	1.56248e+06
1046735069642752	1.56248e+06
1055531162664960	1.56248e+06
1064327255687168	1.56248e+06
1073123348709376	1.56248e+06
1081919441731584	1.56248e+06
1090715534753792	1.56248e+06
1099511627776000	1.56248e+06
1108307720798208	1.56248e+06
1117103813820416	1.56248e+06
1125899906842624	1.56248e+06
1143492092887040	1.56248e+06
1161084278931456	1.56248e+06
1178676464975872	1.56248e+06
1196268651020288	1.56248e+06
1213860837064704	1.56248e+06
1231453023109120	1.56248e+06
1249045209153536	1.56248e+06
1266637395197952	1.56248e+06
1284229581242368	1.56248e+06
1301821767286784	1.56248e+06
1319413953331200	1.56248e+06
1337006139375616	1.56248e+06
1354598325420032	1.56248e+06
1372190511464448	1.56248e+06
1389782697508864	1.56248e+06
1407374883553280	1.56248e+06
1424967069597696	1.56248e+06
1442559255642112	1.56248e+06
1460151441686528	1.56248e+06
1477743627730944	1.56248e+06
1495335813775360	1.56248e+06
1512927999819776	1.56248e+06
1530520185864192	1.56248e+06
1548112371908608	1.56248e+06
1565704557953024	1.56248e+06
1583296743997440	1.56248e+06
1600888930041856	1.56248e+06
1618481116086272	1.56248e+06
1636073302130688	1.56248e+06
1653665488175104	1.56248e+06
1671257674219520	1.56248e+06
1688849860263936	1.56248e+06
1706442046308352	1.56248e+06
1724034232352768	1.56248e+06
1741626418397184	1.56248e+06
1759218604441600	1.56248e+06
1776810790486016	1.56248e+06
1794402976530432	1.56248e+06
1811995162574848	1.56248e+06
1829587348619264	1.56248e+06
1847179534663680	1.56248e+06
1864771720708096	1.56248e+06
1882363906752512	1.56248e+06
1899956092796928	1.56248e+06
1917548278841344	1.56248e+06
1935140464885760	1.56248e+06
1952732650930176	1.56248e+06
1970324836974592	1.56248e+06
1987917023019008	1.56248e+06
2005509209063424	1.56248e+06
2023101395107840	1.56248e+06
2040693581152256	1.56248e+06
2058285767196672	1.56248e+06
2075877953241088	1.56248e+06
2093470139285504	1.56248e+06
2111062325329920	1.56248e+06
2128654511374336	1.56248e+06
2146246697418752	1.56248e+06
2163838883463168	1.56248e+06
2181431069507584	1.56248e+06
2199023255552000	1.56248e+06
2216615441596416	1.56248e+06
2234207627640832	1.56248e+06
2251799813685248	1.56248e+06
2286984185774080	1.56248e+06
2322168557862912	1.56248e+06
2357352929951744	1.56248e+06
2392537302040576	1.56248e+06
2427721674129408	1.56248e+06
2462906046218240	1.56248e+06
2498090418307072	1.56248e+06
2533274790395904	1.56248e+06
2568459162484736	1.56248e+06
2603643534573568	1.56248e+06
2638827906662400	1.56248e+06
2674012278751232	1.56248e+06
2709196650840064	1.56248e+06
2744381022928896	1.56248e+06
2779565395017728	1.56248e+06
2814749767106560	1.56248e+06
2849934139195392	1.56248e+06
2885118511284224	1.56248e+06
2920302883373056	1.56248e+06
2955487255461888	1.56248e+06
2990671627550720	1.56248e+06
3025855999639552	1.56248e+06
3061040371728384	1.56248e+06
3096224743817216	1.56248e+06
3131409115906048	1.56248e+06
3166593487994880	1.56248e+06
3201777860083712	1.56248e+06
3236962232172544	1.56248e+06
3272146604261376	1.56248e+06
3307330976350208	1.56248e+06
3342515348439040	1.56248e+06
3377699720527872	1.56248e+06
3412884092616704	1.56248e+06
3448068464705536	1.56248e+06
3483252836794368	1.56248e+06
3518437208883200	1.56248e+06
3553621580972032	1.56248e+06
3588805953060864	1.56248e+06
3623990325149696	1.56248e+06
3659174697238528	1.56248e+06
3694359069327360	1.56248e+06
3729543441416192	1.56248e+06
3764727813505024	1.56248e+06
3799912185593856	1.56248e+06
3835096557682688	1.56248e+06
3870280929771520	1.56248e+06
3905465301860352	1.56248e+06
3940649673949184	1.56248e+06
3975834046038016	1.56248e+06
4011018418126848	1.56248e+06
4046202790215680	1.56248e+06
4081387162304512	1.56248e+06
4116571534393344	1.56248e+06
4151755906482176	1.56248e+06
4186940278571008	1.56248e+06
4222124650659840	1.56248e+06
4257309022748672	1.56248e+06
4292493394837504	1.56248e+06
4327677766926336	1.56248e+06
4362862139015168	1.56248e+06
4398046511104000	1.56248e+06
4433230883192832	1.56248e+06
4468415255281664	1.56248e+06
4503599627370496	1.56248e+06
4573968371548160	1.56248e+06
4644337115725824	1.56248e+06
4714705859903488	1.56248e+06
4785074604081152	1.56248e+06
4855443348258816	1.56248e+06
4925812092436480	1.56248e+06
4996180836614144	1.56248e+06
5066549580791808	1.56248e+06
5136918324969472	1.56248e+06
5207287069147136	1.56248e+06
5277655813324800	1.56248e+06
5348024557502464	1.56248e+06
5418393301680128	1.56248e+06
5488762045857792	1.56248e+06
5559130790035456	1.56248e+06
5629499534213120	1.56248e+06
5699868278390784	1.56248e+06
5770237022568448	1.56248e+06
5840605766746112	1.56248e+06
5910974510923776	1.56248e+06
5981343255101440	1.56248e+06
6051711999279104	1.56248e+06
6122080743456768	1.56248e+06
6192449487634432	1.56248e+06
6262818231812096	1.56248e+06
6333186975989760	1.56248e+06
6403555720167424	1.56248e+06
6473924464345088	1.56248e+06
6544293208522752	1.56248e+06
6614661952700416	1.56248e+06
6685030696878080	1.56248e+06
6755399441055744	1.56248e+06
6825768185233408	1.56248e+06
6896136929411072	1.56248e+06
6966505673588736	1.56248e+06
7036874417766400	1.56248e+06
7107243161944064	1.56248e+06
7177611906121728	1.56248e+06
7247980650299392	1.56248e+06
7318349394477056	1.56248e+06
7388718138654720	1.56248e+06
7459086882832384	1.56248e+06
7529455627010048	1.56248e+06
7599824371187712	1.56248e+06
7670193115365376	1.56248e+06
7740561859543040	1.56248e+06
7810930603720704	1.56248e+06
7881299347898368	1.56248e+06
7951668092076032	1.56248e+06
8022036836253696	1.56248e+06
8092405580431360	1.56248e+06
8162774324609024	1.56248e+06
8233143068786688	1.56248e+06
8303511812964352	1.56248e+06
8373880557142016	1.56248e+06
8444249301319680	1.56248e+06
8514618045497344	1.56248e+06
8584986789675008	1.56248e+06
8655355533852672	1.56248e+06
8725724278030336	1.56248e+06
8796093022208000	1.56248e+06
8866461766385664	1.56248e+06
8936830510563328	1.56248e+06
9007199254740992	1.56248e+06
9147936743096320	1.56248e+06
9288674231451648	1.56248e+06
9429411719806976	1.56248e+06
9570149208162304	1.56248e+06
9710886696517632	1.56248e+06
9851624184872960	1.56248e+06
9992361673228288	1.56248e+06
10133099161583616	1.56248e+06
10273836649938944	1.56248e+06
10414574138294272	1.56248e+06
10555311626649600	1.56248e+06
10696049115004928	1.56248e+06
10836786603360256	1.56248e+06
10977524091715584	1.56248e+06
11118261580070912	1.56248e+06
11258999068426240	1.56248e+06
11399736556781568	1.56248e+06
11540474045136896	1.56248e+06
11681211533492224	1.56248e+06
11821949021847552	1.56248e+06
11962686510202880	1.56248e+06
12103423998558208	1.56248e+06
12244161486913536	1.56248e+06
12384898975268864	1.56248e+06
12525636463624192	1.56248e+06
12666373951979520	1.56248e+06
12807111440334848	1.56248e+06
12947848928690176	1.56248e+06
13088586417045504	1.56248e+06
13229323905400832	1.56248e+06
13370061393756160	1.56248e+06
13510798882111488	1.56248e+06
13651536370466816	1.56248e+06
13792273858822144	1.56248e+06
13933011347177472	1.56248e+06
14073748835532800	1.56248e+06
14214486323888128	1.56248e+06
14355223812243456	1.56248e+06
14495961300598784	1.56248e+06
14636698788954112	1.56248e+06
14777436277309440	1.56248e+06
14918173765664768	1.56248e+06
15058911254020096	1.56248e+06
15199648742375424	1.56248e+06
15340386230730752	1.56248e+06
15481123719086080	1.56248e+06
15621861207441408	1.56248e+06
15762598695796736	1.56248e+06
15903336184152064	1.56248e+06
16044073672507392	1.56248e+06
16184811160862720	1.56248e+06
16325548649218048	1.56248e+06
16466286137573376	1.56248e+06
16607023625928704	1.56248e+06
16747761114284032	1.56248e+06
16888498602639360	1.56248e+06
17029236090994688	1.56248e+06
17169973579350016	1.56248e+06
17310711067705344	1.56248e+06
17451448556060672	1.56248e+06
17592186044416000	1.56248e+06
17732923532771328	1.56248e+06
17873661021126656	1.56248e+06
18014398509481984	1.56248e+06
18295873486192640	1.56248e+06
18577348462903296	1.56248e+06
18858823439613952	1.56248e+06
19140298416324608	1.56248e+06
19421773393035264	1.56248e+06
19703248369745920	1.56248e+06
19984723346456576	1.56248e+06
20266198323167232	1.56248e+06
20547673299877888	1.56248e+06
20829148276588544	1.56248e+06
21110623253299200	1.56248e+06
21392098230009856	1.56248e+06
21673573206720512	1.56248e+06
21955048183431168	1.56248e+06
22236523160141824	1.56248e+06
22517998136852480	1.56248e+06
22799473113563136	1.56248e+06
23080948090273792	1.56248e+06
23362423066984448	1.56248e+06
23643898043695104	1.56248e+06
23925373020405760	1.56248e+06
24206847997116416	1.56248e+06
24488322973827072	1.56248e+06
24769797950537728	1.56248e+06
25051272927248384	1.56248e+06
25332747903959040	1.56248e+06
25614222880669696	1.56248e+06
25895697857380352	1.56248e+06
26177172834091008	1.56248e+06
26458647810801664	1.56248e+06
26740122787512320	1.56248e+06
27021597764222976	1.56248e+06
27303072740933632	1.56248e+06
27584547717644288	1.56248e+06
27866022694354944	1.56248e+06
28147497671065600	1.56248e+06
28428972647776256	1.56248e+06
28710447624486912	1.56248e+06
28991922601197568	1.56248e+06
29273397577908224	1.56248e+06
29554872554618880	1.56248e+06
29836347531329536	1.56248e+06
30117822508040192	1.56248e+06
30399297484750848	1.56248e+06
30680772461461504	1.56248e+06
30962247438172160	1.56248e+06
31243722414882816	1.56248e+06
31525197391593472	1.56248e+06
31806672368304128	1.56248e+06
32088147345014784	1.56248e+06
32369622321725440	1.56248e+06
32651097298436096	1.56248e+06
32932572275146752	1.56248e+06
33214047251857408	1.56248e+06
33495522228568064	1.56248e+06
33776997205278720	1.56248e+06
34058472181989376	1.56248e+06
34339947158700032	1.56248e+06
34621422135410688	1.56248e+06
34902897112121344	1.56248e+06
35184372088832000	1.56248e+06
35465847065542656	1.56248e+06
35747322042253312	1.56248e+06
36028797018963968	1.56248e+06
36591746972385280	1.56248e+06
37154696925806592	1.56248e+06
37717646879227904	1.56248e+06
38280596832649216	1.56248e+06
38843546786070528	1.56248e+06
39406496739491840	1.56248e+06
39969446692913152	1.56248e+06
40532396646334464	1.56248e+06
41095346599755776	1.56248e+06
41658296553177088	1.56248e+06
42221246506598400	1.56248e+06
42784196460019712	1.56248e+06
43347146413441024	1.56248e+06
43910096366862336	1.56248e+06
44473046320283648	1.56248e+06
45035996273704960	1.56248e+06
45598946227126272	1.56248e+06
46161896180547584	1.56248e+06
46724846133968896	1.56248e+06
47287796087390208	1.56248e+06
47850746040811520	1.56248e+06
48413695994232832	1.56248e+06
48976645947654144	1.56248e+06
49539595901075456	1.56248e+06
50102545854496768	1.56248e+06
50665495807918080	1.56248e+06
51228445761339392	1.56248e+06
51791395714760704	1.56248e+06
52354345668182016	1.56248e+06
52917295621603328	1.56248e+06
53480245575024640	1.56248e+06
54043195528445952	1.56248e+06
54606145481867264	1.56248e+06
55169095435288576	1.56248e+06
55732045388709888	1.56248e+06
56294995342131200	1.56248e+06
56857945295552512	1.56248e+06
57420895248973824	1.56248e+06
57983845202395136	1.56248e+06
58546795155816448	1.56248e+06
59109745109237760	1.56248e+06
59672695062659072	1.56248e+06
60235645016080384	1.56248e+06
60798594969501696	1.56248e+06
61361544922923008	1.56248e+06
61924494876344320	1.56248e+06
62487444829765632	1.56248e+06
63050394783186944	1.56248e+06
63613344736608256	1.56248e+06
64176294690029568	1.56248e+06
64739244643450880	1.56248e+06
65302194596872192	1.56248e+06
65865144550293504	1.56248e+06
66428094503714816	1.56248e+06
66991044457136128	1.56248e+06
67553994410557440	1.56248e+06
68116944363978752	1.56248e+06
68679894317400064	1.56248e+06
69242844270821376	1.56248e+06
69805794224242688	1.56248e+06
70368744177664000	1.56248e+06
70931694131085312	1.56248e+06
71494644084506624	1.56248e+06
72057594037927936	1.56248e+06
73183493944770560	1.56248e+06
74309393851613184	1.56248e+06
75435293758455808	1.56248e+06
76561193665298432	1.56248e+06
77687093572141056	1.56248e+06
78812993478983680	1.56248e+06
79938893385826304	1.56248e+06
81064793292668928	1.56248e+06
82190693199511552	1.56248e+06
83316593106354176	1.56248e+06
84442493013196800	1.56248e+06
85568392920039424	1.56248e+06
86694292826882048	1.56248e+06
87820192733724672	1.56248e+06
88946092640567296	1.56248e+06
90071992547409920	1.56248e+06
91197892454252544	1.56248e+06
92323792361095168	1.56248e+06
93449692267937792	1.56248e+06
94575592174780416	1.56248e+06
95701492081623040	1.56248e+06
96827391988465664	1.56248e+06
97953291895308288	1.56248e+06
99079191802150912	1.56248e+06
100205091708993536	1.56248e+06
101330991615836160	1.56248e+06
102456891522678784	1.56248e+06
103582791429521408	1.56248e+06
104708691336364032	1.56248e+06
105834591243206656	1.56248e+06
106960491150049280	1.56248e+06
108086391056891904	1.56248e+06
109212290963734528	1.56248e+06
110338190870577152	1.56248e+06
111464090777419776	1.56248e+06
112589990684262400	1.56248e+06
113715890591105024	1.56248e+06
114841790497947648	1.56248e+06
115967690404790272	1.56248e+06
117093590311632896	1.56248e+06
118219490218475520	1.56248e+06
119345390125318144	1.56248e+06
120471290032160768	1.56248e+06
121597189939003392	1.56248e+06
122723089845846016	1.56248e+06
123848989752688640	1.56248e+06
124974889659531264	1.56248e+06
126100789566373888	1.56248e+06
127226689473216512	1.56248e+06
128352589380059136	1.56248e+06
129478489286901760	1.56248e+06
130604389193744384	1.56248e+06
131730289100587008	1.56248e+06
132856189007429632	1.56248e+06
133982088914272256	1.56248e+06
135107988821114880	1.56248e+06
136233888727957504	1.56248e+06
137359788634800128	1.56248e+06
138485688541642752	1.56248e+06
139611588448485376	1.56248e+06
140737488355328000	1.56248e+06
141863388262170624	1.56248e+06
142989288169013248	1.56248e+06
144115188075855872	1.56248e+06
146366987889541120	1.56248e+06
148618787703226368	1.56248e+06
150870587516911616	1.56248e+06
153122387330596864	1.56248e+06
155374187144282112	1.56248e+06
157625986957967360	1.56248e+06
159877786771652608	1.56248e+06
162129586585337856	1.56248e+06
164381386399023104	1.56248e+06
166633186212708352	1.56248e+06
168884986026393600	1.56248e+06
171136785840078848	1.56248e+06
173388585653764096	1.56248e+06
175640385467449344	1.56248e+06
177892185281134592	1.56248e+06
180143985094819840	1.56248e+06
182395784908505088	1.56248e+06
184647584722190336	1.56248e+06
186899384535875584	1.56248e+06
189151184349560832	1.56248e+06
191402984163246080	1.56248e+06
193654783976931328	1.56248e+06
195906583790616576	1.56248e+06
198158383604301824	1.56248e+06
200410183417987072	1.56248e+06
202661983231672320	1.56248e+06
204913783045357568	1.56248e+06
207165582859042816	1.56248e+06
209417382672728064	1.56248e+06
211669182486413312	1.56248e+06
213920982300098560	1.56248e+06
216172782113783808	1.56248e+06
218424581927469056	1.56248e+06
220676381741154304	1.56248e+06
222928181554839552	1.56248e+06
225179981368524800	1.56248e+06
227431781182210048	1.56248e+06
229683580995895296	1.56248e+06
231935380809580544	1.56248e+06
234187180623265792	1.56248e+06
236438980436951040	1.56248e+06
238690780250636288	1.56248e+06
240942580064321536	1.56248e+06
243194379878006784	1.56248e+06
245446179691692032	1.56248e+06
247697979505377280	1.56248e+06
249949779319062528	1.56248e+06
252201579132747776	1.56248e+06
254453378946433024	1.56248e+06
256705178760118272	1.56248e+06
258956978573803520	1.56248e+06
261208778387488768	1.56248e+06
263460578201174016	1.56248e+06
265712378014859264	1.56248e+06
267964177828544512	1.56248e+06
270215977642229760	1.56248e+06
272467777455915008	1.56248e+06
274719577269600256	1.56248e+06
276971377083285504	1.56248e+06
279223176896970752	1.56248e+06
281474976710656000	1.56248e+06
283726776524341248	1.56248e+06
285978576338026496	1.56248e+06
288230376151711744	1.56248e+06
292733975779082240	1.56248e+06
297237575406452736	1.56248e+06
301741175033823232	1.56248e+06
306244774661193728	1.56248e+06
310748374288564224	1.56248e+06
315251973915934720	1.56248e+06
319755573543305216	1.56248e+06
324259173170675712	1.56248e+06
328762772798046208	1.56248e+06
333266372425416704	1.56248e+06
337769972052787200	1.56248e+06
342273571680157696	1.56248e+06
346777171307528192	1.56248e+06
351280770934898688	1.56248e+06
355784370562269184	1.56248e+06
360287970189639680	1.56248e+06
364791569817010176	1.56248e+06
369295169444380672	1.56248e+06
373798769071751168	1.56248e+06
378302368699121664	1.56248e+06
382805968326492160	1.56248e+06
387309567953862656	1.56248e+06
391813167581233152	1.56248e+06
396316767208603648	1.56248e+06
400820366835974144	1.56248e+06
405323966463344640	1.56248e+06
409827566090715136	1.56248e+06
414331165718085632	1.56248e+06
418834765345456128	1.56248e+06
423338364972826624	1.56248e+06
427841964600197120	1.56248e+06
432345564227567616	1.56248e+06
436849163854938112	1.56248e+06
441352763482308608	1.56248e+06
445856363109679104	1.56248e+06
450359962737049600	1.56248e+06
454863562364420096	1.56248e+06
459367161991790592	1.56248e+06
463870761619161088	1.56248e+06
468374361246531584	1.56248e+06
472877960873902080	1.56248e+06
477381560501272576	1.56248e+06
481885160128643072	1.56248e+06
486388759756013568	1.56248e+06
490892359383384064	1.56248e+06
495395959010754560	1.56248e+06
499899558638125056	1.56248e+06
504403158265495552	1.56248e+06
508906757892866048	1.56248e+06
513410357520236544	1.56248e+06
517913957147607040	1.56248e+06
522417556774977536	1.56248e+06
526921156402348032	1.56248e+06
531424756029718528	1.56248e+06
535928355657089024	1.56248e+06
540431955284459520	1.56248e+06
544935554911830016	1.56248e+06
549439154539200512	1.56248e+06
553942754166571008	1.56248e+06
558446353793941504	1.56248e+06
562949953421312000	1.56248e+06
567453553048682496	1.56248e+06
571957152676052992	1.56248e+06
576460752303423488	1.56248e+06
585467951558164480	1.56248e+06
594475150812905472	1.56248e+06
603482350067646464	1.56248e+06
612489549322387456	1.56248e+06
621496748577128448	1.56248e+06
630503947831869440	1.56248e+06
639511147086610432	1.56248e+06
648518346341351424	1.56248e+06
657525545596092416	1.56248e+06
666532744850833408	1.56248e+06
675539944105574400	1.56248e+06
684547143360315392	1.56248e+06
693554342615056384	1.56248e+06
702561541869797376	1.56248e+06
711568741124538368	1.56248e+06
720575940379279360	1.56248e+06
729583139634020352	1.56248e+06
738590338888761344	1.56248e+06
747597538143502336	1.56248e+06
756604737398243328	1.56248e+06
765611936652984320	1.56248e+06
774619135907725312	1.56248e+06
783626335162466304	1.56248e+06
792633534417207296	1.56248e+06
801640733671948288	1.56248e+06
810647932926689280	1.56248e+06
819655132181430272	1.56248e+06
828662331436171264	1.56248e+06
837669530690912256	1.56248e+06
846676729945653248	1.56248e+06
855683929200394240	1.56248e+06
864691128455135232	1.56248e+06
873698327709876224	1.56248e+06
882705526964617216	1.56248e+06
891712726219358208	1.56248e+06
900719925474099200	1.56248e+06
909727124728840192	1.56248e+06
918734323983581184	1.56248e+06
927741523238322176	1.56248e+06
936748722493063168	1.56248e+06
945755921747804160	1.56248e+06
954763121002545152	1.56248e+06
963770320257286144	1.56248e+06
972777519512027136	1.56248e+06
981784718766768128	1.56248e+06
990791918021509120	1.56248e+06
999799117276250112	1.56248e+06
1008806316530991104	1.56248e+06
1017813515785732096	1.56248e+06
1026820715040473088	1.56248e+06
1035827914295214080	1.56248e+06
1044835113549955072	1.56248e+06
1053842312804696064	1.56248e+06
1062849512059437056	1.56248e+06
1071856711314178048	1.56248e+06
1080863910568919040	1.56248e+06
1089871109823660032	1.56248e+06
1098878309078401024	1.56248e+06
1107885508333142016	1.56248e+06
1116892707587883008	1.56248e+06
1125899906842624000	1.56248e+06
1134907106097364992	1.56248e+06
1143914305352105984	1.56248e+06
1152921504606846976	1.56248e+06
1170935903116328960	1.56248e+06
1188950301625810944	1.56248e+06
1206964700135292928	1.56248e+06
1224979098644774912	1.56248e+06
1242993497154256896	1.56248e+06
1261007895663738880	1.56248e+06
1279022294173220864	1.56248e+06
1297036692682702848	1.56248e+06
1315051091192184832	1.56248e+06
1333065489701666816	1.56248e+06
1351079888211148800	1.56248e+06
1369094286720630784	1.56248e+06
1387108685230112768	1.56248e+06
1405123083739594752	1.56248e+06
1423137482249076736	1.56248e+06
1441151880758558720	1.56248e+06
1459166279268040704	1.56248e+06
1477180677777522688	1.56248e+06
1495195076287004672	1.56248e+06
1513209474796486656	1.56248e+06
1531223873305968640	1.56248e+06
1549238271815450624	1.56248e+06
1567252670324932608	1.56248e+06
1585267068834414592	1.56248e+06
1603281467343896576	1.56248e+06
1621295865853378560	1.56248e+06
1639310264362860544	1.56248e+06
1657324662872342528	1.56248e+06
1675339061381824512	1.56248e+06
1693353459891306496	1.56248e+06
1711367858400788480	1.56248e+06
1729382256910270464	1.56248e+06
1747396655419752448	1.56248e+06
1765411053929234432	1.56248e+06
1783425452438716416	1.56248e+06
1801439850948198400	1.56248e+06
1819454249457680384	1.56248e+06
1837468647967162368	1.56248e+06
1855483046476644352	1.56248e+06
1873497444986126336	1.56248e+06
1891511843495608320	1.56248e+06
1909526242005090304	1.56248e+06
1927540640514572288	1.56248e+06
1945555039024054272	1.56248e+06
1963569437533536256	1.56248e+06
1981583836043018240	1.56248e+06
1999598234552500224	1.56248e+06
2017612633061982208	1.56248e+06
2035627031571464192	1.56248e+06
2053641430080946176	1.56248e+06
2071655828590428160	1.56248e+06
2089670227099910144	1.56248e+06
2107684625609392128	1.56248e+06
2125699024118874112	1.56248e+06
2143713422628356096	1.56248e+06
2161727821137838080	1.56248e+06
2179742219647320064	1.56248e+06
2197756618156802048	1.56248e+06
2215771016666284032	1.56248e+06
2233785415175766016	1.56248e+06
2251799813685248000	1.56248e+06
2269814212194729984	1.56248e+06
2287828610704211968	1.56248e+06
2305843009213693952	1.56248e+06
2341871806232657920	1.56248e+06
2377900603251621888	1.56248e+06
2413929400270585856	1.56248e+06
2449958197289549824	1.56248e+06
2485986994308513792	1.56248e+06
2522015791327477760	1.56248e+06
2558044588346441728	1.56248e+06
2594073385365405696	1.56248e+06
2630102182384369664	1.56248e+06
2666130979403333632	1.56248e+06
2702159776422297600	1.56248e+06
2738188573441261568	1.56248e+06
2774217370460225536	1.56248e+06
2810246167479189504	1.56248e+06
2846274964498153472	1.56248e+06
2882303761517117440	1.56248e+06
2918332558536081408	1.56248e+06
2954361355555045376	1.56248e+06
2990390152574009344	1.56248e+06
3026418949592973312	1.56248e+06
3062447746611937280	1.56248e+06
3098476543630901248	1.56248e+06
3134505340649865216	1.56248e+06
3170534137668829184	1.56248e+06
3206562934687793152	1.56248e+06
3242591731706757120	1.56248e+06
3278620528725721088	1.56248e+06
3314649325744685056	1.56248e+06
3350678122763649024	1.56248e+06
3386706919782612992	1.56248e+06
3422735716801576960	1.56248e+06
3458764513820540928	1.56248e+06
3494793310839504896	1.56248e+06
3530822107858468864	1.56248e+06
3566850904877432832	1.56248e+06
3602879701896396800	1.56248e+06
3638908498915360768	1.56248e+06
3674937295934324736	1.56248e+06
3710966092953288704	1.56248e+06
3746994889972252672	1.56248e+06
3783023686991216640	1.56248e+06
3819052484010180608	1.56248e+06
3855081281029144576	1.56248e+06
3891110078048108544	1.56248e+06
3927138875067072512	1.56248e+06
3963167672086036480	1.56248e+06
3999196469105000448	1.56248e+06
4035225266123964416	1.56248e+06
4071254063142928384	1.56248e+06
4107282860161892352	1.56248e+06
4143311657180856320	1.56248e+06
4179340454199820288	1.56248e+06
4215369251218784256	1.56248e+06
4251398048237748224	1.56248e+06
4287426845256712192	1.56248e+06
4323455642275676160	1.56248e+06
4359484439294640128	1.56248e+06
4395513236313604096	1.56248e+06
4431542033332568064	1.56248e+06
4467570830351532032	1.56248e+06
4503599627370496000	1.56248e+06
4539628424389459968	1.56248e+06
4575657221408423936	1.56248e+06
4611686018427387904	1.56248e+06
4683743612465315840	1.56248e+06
4755801206503243776	1.56248e+06
4827858800541171712	1.56248e+06
4899916394579099648	1.56248e+06
4971973988617027584	1.56248e+06
5044031582654955520	1.56248e+06
5116089176692883456	1.56248e+06
5188146770730811392	1.56248e+06
5260204364768739328	1.56248e+06
5332261958806667264	1.56248e+06
5404319552844595200	1.56248e+06
5476377146882523136	1.56248e+06
5548434740920451072	1.56248e+06
5620492334958379008	1.56248e+06
5692549928996306944	1.56248e+06
5764607523034234880	1.56248e+06
5836665117072162816	1.56248e+06
5908722711110090752	1.56248e+06
5980780305148018688	1.56248e+06
6052837899185946624	1.56248e+06
6124895493223874560	1.56248e+06
6196953087261802496	1.56248e+06
6269010681299730432	1.56248e+06
6341068275337658368	1.56248e+06
6413125869375586304	1.56248e+06
6485183463413514240	1.56248e+06
6557241057451442176	1.56248e+06
6629298651489370112	1.56248e+06
6701356245527298048	1.56248e+06
6773413839565225984	1.56248e+06
6845471433603153920	1.56248e+06
6917529027641081856	1.56248e+06
6989586621679009792	1.56248e+06
7061644215716937728	1.56248e+06
7133701809754865664	1.56248e+06
7205759403792793600	1.56248e+06
7277816997830721536	1.56248e+06
7349874591868649472	1.56248e+06
7421932185906577408	1.56248e+06
7493989779944505344	1.56248e+06
7566047373982433280	1.56248e+06
7638104968020361216	1.56248e+06
7710162562058289152	1.56248e+06
7782220156096217088	1.56248e+06
7854277750134145024	1.56248e+06
7926335344172072960	1.56248e+06
7998392938210000896	1.56248e+06
8070450532247928832	1.56248e+06
8142508126285856768	1.56248e+06
8214565720323784704	1.56248e+06
8286623314361712640	1.56248e+06
8358680908399640576	1.56248e+06
8430738502437568512	1.56248e+06
8502796096475496448	1.56248e+06
8574853690513424384	1.56248e+06
8646911284551352320	1.56248e+06
8718968878589280256	1.56248e+06
8791026472627208192	1.56248e+06
8863084066665136128	1.56248e+06
8935141660703064064	1.56248e+06
9007199254740992000	1.56248e+06
9079256848778919936	1.56248e+06
9151314442816847872	1.56248e+06
9223372036854775808	1.56248e+06
9367487224930631680	1.56248e+06
9511602413006487552	1.56248e+06
9655717601082343424	1.56248e+06
9799832789158199296	1.56248e+06
9943947977234055168	1.56248e+06
10088063165309911040	1.56248e+06
10232178353385766912	1.56248e+06
10376293541461622784	1.56248e+06
10520408729537478656	1.56248e+06
10664523917613334528	1.56248e+06
10808639105689190400	1.56248e+06
10952754293765046272	1.56248e+06
11096869481840902144	1.56248e+06
11240984669916758016	1.56248e+06
11385099857992613888	1.56248e+06
11529215046068469760	1.56248e+06
11673330234144325632	1.56248e+06
11817445422220181504	1.56248e+06
11961560610296037376	1.56248e+06
12105675798371893248	1.56248e+06
12249790986447749120	1.56248e+06
12393906174523604992	1.56248e+06
12538021362599460864	1.56248e+06
12682136550675316736	1.56248e+06
12826251738751172608	1.56248e+06
12970366926827028480	1.56248e+06
13114482114902884352	1.56248e+06
13258597302978740224	1.56248e+06
13402712491054596096	1.56248e+06
13546827679130451968	1.56248e+06
13690942867206307840	1.56248e+06
13835058055282163712	1.56248e+06
13979173243358019584	1.56248e+06
14123288431433875456	1.56248e+06
14267403619509731328	1.56248e+06
14411518807585587200	1.56248e+06
14555633995661443072	1.56248e+06
14699749183737298944	1.56248e+06
14843864371813154816	1.56248e+06
14987979559889010688	1.56248e+06
15132094747964866560	1.56248e+06
15276209936040722432	1.56248e+06
15420325124116578304	1.56248e+06
15564440312192434176	1.56248e+06
15708555500268290048	1.56248e+06
15852670688344145920	1.56248e+06
15996785876420001792	1.56248e+06
16140901064495857664	1.56248e+06
16285016252571713536	1.56248e+06
16429131440647569408	1.56248e+06
16573246628723425280	1.56248e+06
16717361816799281152	1.56248e+06
16861477004875137024	1.56248e+06
17005592192950992896	1.56248e+06
17149707381026848768	1.56248e+06
17293822569102704640	1.56248e+06
17437937757178560512	1.56248e+06
17582052945254416384	1.56248e+06
17726168133330272256	1.56248e+06
17870283321406128128	1.56248e+06
18014398509481984000	1.56248e+06
18158513697557839872	1.56248e+06
18302628885633695744	0
