0	0
1	1
2	1.99647
3	2.98124
4	3.95384
5	4.90663
6	5.84841
7	6.77185
8	7.68958
9	8.5838
10	9.47284
11	10.3508
12	11.2244
13	12.0822
14	12.9358
15	13.771
16	14.6033
17	15.4222
18	16.2384
19	17.0452
20	17.8496
21	18.6458
22	19.4393
23	20.227
24	21.0128
25	21.7927
26	22.5703
27	23.3243
28	24.0769
29	24.8254
30	25.5729
31	26.3162
32	27.0584
33	27.7954
34	28.5313
35	29.2601
36	29.9878
37	30.7126
38	31.4362
39	32.1555
40	32.8738
41	33.5867
42	34.2989
43	35.0061
44	35.7123
45	36.4147
46	37.1165
47	37.8161
48	38.5151
49	39.2124
50	39.909
51	40.6018
52	41.2938
53	41.9821
54	42.67
55	43.356
56	44.0414
57	44.725
58	45.4081
59	46.0887
60	46.7689
61	47.4471
62	48.1249
63	48.8013
64	49.4769
65	50.151
66	50.8247
67	51.4957
68	52.1664
69	52.8355
70	53.5042
71	54.1719
72	54.839
73	55.5051
74	56.1708
75	56.8351
76	57.4992
77	58.1621
78	58.8246
79	59.4857
80	60.1465
81	60.8058
82	61.4648
83	62.123
84	62.7807
85	63.4376
86	64.0942
87	64.75
88	65.4055
89	66.0602
90	66.7146
91	67.3684
92	68.0217
93	68.674
94	69.326
95	69.9771
96	70.6278
97	71.2779
98	71.9276
99	72.5766
100	73.2253
101	73.8735
102	74.5215
103	75.1691
104	75.8164
105	76.4631
106	77.1094
107	77.7549
108	78.4002
109	79.0449
110	79.6895
111	80.3334
112	80.9772
113	81.6205
114	82.2636
115	82.9063
116	83.5486
117	84.1902
118	84.8315
119	85.472
120	86.1123
121	86.7521
122	87.3917
123	88.031
124	88.67
125	89.3085
126	89.9467
127	90.5846
128	91.2222
130	92.4961
132	93.7683
134	95.0392
136	96.3089
138	97.5774
140	98.8449
142	100.111
144	101.376
146	102.64
148	103.903
150	105.165
152	106.426
154	107.685
156	108.944
158	110.202
160	111.46
162	112.716
164	113.972
166	115.227
168	116.481
170	117.734
172	118.986
174	120.237
176	121.488
178	122.738
180	123.987
182	125.236
184	126.483
186	127.73
188	128.976
190	130.222
192	131.466
194	132.71
196	133.954
198	135.197
200	136.439
202	137.68
204	138.921
206	140.162
208	141.401
210	142.641
212	143.879
214	145.117
216	146.354
218	147.59
220	148.826
222	150.061
224	151.295
226	152.529
228	153.763
230	154.995
232	156.228
234	157.459
236	158.69
238	159.92
240	161.15
242	162.379
244	163.607
246	164.834
248	166.061
250	167.288
252	168.514
254	169.74
256	170.965
260	173.413
264	175.86
268	178.304
272	180.747
276	183.188
280	185.627
284	188.063
288	190.498
292	192.932
296	195.363
300	197.792
304	200.219
308	202.644
312	205.068
316	207.489
320	209.909
324	212.327
328	214.743
332	217.157
336	219.57
340	221.981
344	224.391
348	226.8
352	229.206
356	231.611
360	234.013
364	236.414
368	238.813
372	241.211
376	243.607
380	246.002
384	248.395
388	250.787
392	253.177
396	255.566
400	257.954
404	260.34
408	262.724
412	265.107
416	267.488
420	269.868
424	272.247
428	274.625
432	277.001
436	279.376
440	281.75
444	284.122
448	286.493
452	288.863
456	291.232
460	293.599
464	295.965
468	298.33
472	300.694
476	303.056
480	305.417
484	307.778
488	310.137
492	312.495
496	314.851
500	317.207
504	319.562
508	321.915
512	324.267
520	328.968
528	333.664
536	338.355
544	343.042
552	347.725
560	352.404
568	357.079
576	361.75
584	366.416
592	371.079
600	375.737
608	380.392
616	385.044
624	389.694
632	394.34
640	398.981
648	403.619
656	408.253
664	412.884
672	417.511
680	422.135
688	426.757
696	431.375
704	435.99
712	440.602
720	445.212
728	449.818
736	454.42
744	459.02
752	463.618
760	468.212
768	472.803
776	477.39
784	481.976
792	486.559
800	491.139
808	495.717
816	500.292
824	504.865
832	509.435
840	514.002
848	518.568
856	523.131
864	527.693
872	532.252
880	536.81
888	541.365
896	545.919
904	550.47
912	555.021
920	559.569
928	564.115
936	568.659
944	573.201
952	577.741
960	582.28
968	586.815
976	591.349
984	595.881
992	600.412
1000	604.942
1008	609.47
1016	613.996
1024	618.521
1040	627.567
1056	636.608
1072	645.644
1088	654.675
1104	663.703
1120	672.727
1136	681.747
1152	690.763
1168	699.775
1184	708.784
1200	717.789
1216	726.792
1232	735.79
1248	744.785
1264	753.778
1280	762.767
1296	771.755
1312	780.739
1328	789.72
1344	798.7
1360	807.68
1376	816.659
1392	825.637
1408	834.614
1424	843.59
1440	852.564
1456	861.537
1472	870.509
1488	879.48
1504	888.451
1520	897.421
1536	906.39
1552	915.358
1568	924.325
1584	933.289
1600	942.252
1616	951.215
1632	960.176
1648	969.136
1664	978.095
1680	987.053
1696	996.01
1712	1004.97
1728	1013.92
1744	1022.88
1760	1031.83
1776	1040.79
1792	1049.74
1808	1058.69
1824	1067.65
1840	1076.6
1856	1085.55
1872	1094.5
1888	1103.45
1904	1112.4
1920	1121.35
1936	1130.3
1952	1139.24
1968	1148.19
1984	1157.14
2000	1166.09
2016	1175.03
2032	1183.97
2048	1192.92
2080	1210.81
2112	1228.69
2144	1246.57
2176	1264.45
2208	1282.33
2240	1300.21
2272	1318.08
2304	1335.93
2336	1353.76
2368	1371.59
2400	1389.4
2432	1407.21
2464	1425.01
2496	1442.79
2528	1460.54
2560	1478.24
2592	1495.93
2624	1513.58
2656	1531.21
2688	1548.8
2720	1566.37
2752	1583.89
2784	1601.38
2816	1618.83
2848	1636.24
2880	1653.62
2912	1670.96
2944	1688.27
2976	1705.54
3008	1722.76
3040	1739.95
3072	1757.1
3104	1774.2
3136	1791.26
3168	1808.28
3200	1825.26
3232	1842.19
3264	1859.07
3296	1875.91
3328	1892.71
3360	1909.47
3392	1926.17
3424	1942.83
3456	1959.44
3488	1976
3520	1992.52
3552	2008.98
3584	2025.38
3616	2041.73
3648	2058.02
3680	2074.27
3712	2090.46
3744	2106.62
3776	2122.73
3808	2138.79
3840	2154.81
3872	2170.79
3904	2186.73
3936	2202.63
3968	2218.5
4000	2234.33
4032	2250.13
4064	2265.9
4096	2281.65
4160	2313.06
4224	2344.36
4288	2375.58
4352	2406.73
4416	2437.82
4480	2468.86
4544	2499.85
4608	2530.8
4672	2561.71
4736	2592.61
4800	2623.47
4864	2654.29
4928	2685.07
4992	2715.81
5056	2746.51
5120	2777.18
5184	2807.83
5248	2838.44
5312	2869.03
5376	2899.58
5440	2930.11
5504	2960.61
5568	2991.08
5632	3021.53
5696	3051.97
5760	3082.39
5824	3112.8
5888	3143.21
5952	3173.61
6016	3203.98
6080	3234.34
6144	3264.67
6208	3294.96
6272	3325.19
6336	3355.37
6400	3385.49
6464	3415.53
6528	3445.48
6592	3475.35
6656	3505.13
6720	3534.83
6784	3564.44
6848	3593.94
6912	3623.35
6976	3652.63
7040	3681.79
7104	3710.84
7168	3739.78
7232	3768.57
7296	3797.22
7360	3825.74
7424	3854.13
7488	3882.41
7552	3910.57
7616	3938.65
7680	3966.63
7744	3994.54
7808	4022.37
7872	4050.12
7936	4077.82
8000	4105.45
8064	4133.03
8128	4160.57
8192	4188.06
8320	4242.93
8448	4297.7
8576	4352.42
8704	4407.09
8832	4461.73
8960	4516.34
9088	4570.91
9216	4625.46
9344	4679.98
9472	4734.55
9600	4789.16
9728	4843.81
9856	4898.47
9984	4953.09
10112	5007.65
10240	5062.17
10368	5116.63
10496	5171.01
10624	5225.31
10752	5279.51
10880	5333.47
11008	5387.18
11136	5440.72
11264	5494.12
11392	5547.41
11520	5600.61
11648	5653.76
11776	5706.88
11904	5759.99
12032	5813.11
12160	5866.23
12288	5919.34
12416	5972.46
12544	6025.58
12672	6078.71
12800	6131.86
12928	6185
13056	6238.18
13184	6291.46
13312	6344.83
13440	6398.28
13568	6451.8
13696	6505.39
13824	6559.01
13952	6612.69
14080	6666.4
14208	6720.14
14336	6773.91
14464	6827.62
14592	6881.18
14720	6934.65
14848	6988.05
14976	7041.32
15104	7094.51
15232	7147.62
15360	7200.66
15488	7253.66
15616	7306.61
15744	7359.54
15872	7412.42
16000	7465.23
16128	7518.01
16256	7570.72
16384	7623.3
16640	7728.03
16896	7832.56
17152	7936.97
17408	8041.37
17664	8145.73
17920	8249.99
18176	8353.98
18432	8457.32
18688	8560.21
18944	8662.96
19200	8765.65
19456	8868.33
19712	8970.88
19968	9073.26
20224	9175.05
20480	9276.56
20736	9377.97
20992	9479.4
21248	9580.9
21504	9682.47
21760	9784
22016	9884.94
22272	9985.45
22528	10085.9
22784	10186.5
23040	10287.1
23296	10387.7
23552	10488.2
23808	10588.2
24064	10687.7
24320	10787.1
24576	10886.6
24832	10986.2
25088	11085.9
25344	11185.8
25600	11285
25856	11383.8
26112	11482.6
26368	11581.6
26624	11680.7
26880	11779.9
27136	11879.1
27392	11977.8
27648	12076
27904	12174
28160	12272.1
28416	12370.4
28672	12468.8
28928	12567.4
29184	12665.5
29440	12763.2
29696	12861
29952	12958.9
30208	13057.1
30464	13155.4
30720	13253.7
30976	13351.5
31232	13448.8
31488	13545.9
31744	13643
32000	13740.3
32256	13837.9
32512	13935.7
32768	14033.3
33280	14227.3
33792	14421.9
34304	14617
34816	14810.6
35328	15002.9
35840	15196.1
36352	15390.1
36864	15582.6
37376	15775.7
37888	15969.9
38400	16163
38912	16353.3
39424	16543.8
39936	16735.2
40448	16926.7
40960	17118.4
41472	17311.3
41984	17503.1
42496	17691.5
43008	17879.9
43520	18069.4
44032	18259.1
44544	18449.2
45056	18640.5
45568	18831
46080	19017.7
46592	19204
47104	19391.6
47616	19579.4
48128	19767.6
48640	19957.1
49152	20145.9
49664	20330.5
50176	20514.4
50688	20699.6
51200	20885
51712	21070.7
52224	21257.6
52736	21444.3
53248	21626.8
53760	21808.3
54272	21991.3
54784	22174.9
55296	22356.5
55808	22539.5
56320	22723.5
56832	22904.6
57344	23083.6
57856	23263.6
58368	23444.3
58880	23622.3
59392	23801.4
59904	23981.4
60416	24158.9
60928	24333.6
61440	24509.3
61952	24685.9
62464	24859.2
62976	25033.1
63488	25207.9
64000	25379.9
64512	25548.5
65024	25717.7
65536	25888.2
66560	26221.8
67584	26554.5
68608	26874.2
69632	27191.5
70656	27503.8
71680	27803.5
72704	28094.2
73728	28371.9
74752	28644.6
75776	28889.1
76800	29126.8
77824	29376.7
78848	29649.1
79872	29915.1
80896	30185.6
81920	30493.6
82944	30814.9
83968	31106.3
84992	31341.5
86016	31574.5
87040	31764.3
88064	31919.1
89088	32154.3
90112	32435.3
91136	32667
92160	32667
93184	32667
94208	32667
95232	32667
96256	32667
97280	32667
98304	32667
99328	32667
100352	32667
101376	32667
102400	32667
103424	32667
104448	32667
105472	32667
106496	32667
107520	32667
108544	32667
109568	32667
110592	32667
111616	32667
112640	32667
113664	32667
114688	32667
115712	32667
116736	32667
117760	32667
118784	32667
119808	32667
120832	32667
121856	32667
122880	32667
123904	32667
124928	32667
125952	32667
126976	32667
128000	32667
129024	32667
130048	32667
131072	32667
133120	32667
135168	32667
137216	32667
139264	32667
141312	32667
143360	32667
145408	32667
147456	32667
149504	32667
151552	32667
153600	32667
155648	32667
157696	32667
159744	32667
161792	32667
163840	32667
165888	32667
167936	32667
169984	32667
172032	32667
174080	32667
176128	32667
178176	32667
180224	32667
182272	32667
184320	32667
186368	32667
188416	32667
190464	32667
192512	32667
194560	32667
196608	32667
198656	32667
200704	32667
202752	32667
204800	32667
206848	32667
208896	32667
210944	32667
212992	32667
215040	32667
217088	32667
219136	32667
221184	32667
223232	32667
225280	32667
227328	32667
229376	32667
231424	32667
233472	32667
235520	32667
237568	32667
239616	32667
241664	32667
243712	32667
245760	32667
247808	32667
249856	32667
251904	32667
253952	32667
256000	32667
258048	32667
260096	32667
262144	32667
266240	32667
270336	32667
274432	32667
278528	32667
282624	32667
286720	32667
290816	32667
294912	32667
299008	32667
303104	32667
307200	32667
311296	32667
315392	32667
319488	32667
323584	32667
327680	32667
331776	32667
335872	32667
339968	32667
344064	32667
348160	32667
352256	32667
356352	32667
360448	32667
364544	32667
368640	32667
372736	32667
376832	32667
380928	32667
385024	32667
389120	32667
393216	32667
397312	32667
401408	32667
405504	32667
409600	32667
413696	32667
417792	32667
421888	32667
425984	32667
430080	32667
434176	32667
438272	32667
442368	32667
446464	32667
450560	32667
454656	32667
458752	32667
462848	32667
466944	32667
471040	32667
475136	32667
479232	32667
483328	32667
487424	32667
491520	32667
495616	32667
499712	32667
503808	32667
507904	32667
512000	32667
516096	32667
520192	32667
524288	32667
532480	32667
540672	32667
548864	32667
557056	32667
565248	32667
573440	32667
581632	32667
589824	32667
598016	32667
606208	32667
614400	32667
622592	32667
630784	32667
638976	32667
647168	32667
655360	32667
663552	32667
671744	32667
679936	32667
688128	32667
696320	32667
704512	32667
712704	32667
720896	32667
729088	32667
737280	32667
745472	32667
753664	32667
761856	32667
770048	32667
778240	32667
786432	32667
794624	32667
802816	32667
811008	32667
819200	32667
827392	32667
835584	32667
843776	32667
851968	32667
860160	32667
868352	32667
876544	32667
884736	32667
892928	32667
901120	32667
909312	32667
917504	32667
925696	32667
933888	32667
942080	32667
950272	32667
958464	32667
966656	32667
974848	32667
983040	32667
991232	32667
999424	32667
1007616	32667
1015808	32667
1024000	32667
1032192	32667
1040384	32667
1048576	32667
1064960	32667
1081344	32667
1097728	32667
1114112	32667
1130496	32667
1146880	32667
1163264	32667
1179648	32667
1196032	32667
1212416	32667
1228800	32667
1245184	32667
1261568	32667
1277952	32667
1294336	32667
1310720	32667
1327104	32667
1343488	32667
1359872	32667
1376256	32667
1392640	32667
1409024	32667
1425408	32667
1441792	32667
1458176	32667
1474560	32667
1490944	32667
1507328	32667
1523712	32667
1540096	32667
1556480	32667
1572864	32667
1589248	32667
1605632	32667
1622016	32667
1638400	32667
1654784	32667
1671168	32667
1687552	32667
1703936	32667
1720320	32667
1736704	32667
1753088	32667
1769472	32667
1785856	32667
1802240	32667
1818624	32667
1835008	32667
1851392	32667
1867776	32667
1884160	32667
1900544	32667
1916928	32667
1933312	32667
1949696	32667
1966080	32667
1982464	32667
1998848	32667
2015232	32667
2031616	32667
2048000	32667
2064384	32667
2080768	32667
2097152	32667
2129920	32667
2162688	32667
2195456	32667
2228224	32667
2260992	32667
2293760	32667
2326528	32667
2359296	32667
2392064	32667
2424832	32667
2457600	32667
2490368	32667
2523136	32667
2555904	32667
2588672	32667
2621440	32667
2654208	32667
2686976	32667
2719744	32667
2752512	32667
2785280	32667
2818048	32667
2850816	32667
2883584	32667
2916352	32667
2949120	32667
2981888	32667
3014656	32667
3047424	32667
3080192	32667
3112960	32667
3145728	32667
3178496	32667
3211264	32667
3244032	32667
3276800	32667
3309568	32667
3342336	32667
3375104	32667
3407872	32667
3440640	32667
3473408	32667
3506176	32667
3538944	32667
3571712	32667
3604480	32667
3637248	32667
3670016	32667
3702784	32667
3735552	32667
3768320	32667
3801088	32667
3833856	32667
3866624	32667
3899392	32667
3932160	32667
3964928	32667
3997696	32667
4030464	32667
4063232	32667
4096000	32667
4128768	32667
4161536	32667
4194304	32667
4259840	32667
4325376	32667
4390912	32667
4456448	32667
4521984	32667
4587520	32667
4653056	32667
4718592	32667
4784128	32667
4849664	32667
4915200	32667
4980736	32667
5046272	32667
5111808	32667
5177344	32667
5242880	32667
5308416	32667
5373952	32667
5439488	32667
5505024	32667
5570560	32667
5636096	32667
5701632	32667
5767168	32667
5832704	32667
5898240	32667
5963776	32667
6029312	32667
6094848	32667
6160384	32667
6225920	32667
6291456	32667
6356992	32667
6422528	32667
6488064	32667
6553600	32667
6619136	32667
6684672	32667
6750208	32667
6815744	32667
6881280	32667
6946816	32667
7012352	32667
7077888	32667
7143424	32667
7208960	32667
7274496	32667
7340032	32667
7405568	32667
7471104	32667
7536640	32667
7602176	32667
7667712	32667
7733248	32667
7798784	32667
7864320	32667
7929856	32667
7995392	32667
8060928	32667
8126464	32667
8192000	32667
8257536	32667
8323072	32667
8388608	32667
8519680	32667
8650752	32667
8781824	32667
8912896	32667
9043968	32667
9175040	32667
9306112	32667
9437184	32667
9568256	32667
9699328	32667
9830400	32667
9961472	32667
10092544	32667
10223616	32667
10354688	32667
10485760	32667
10616832	32667
10747904	32667
10878976	32667
11010048	32667
11141120	32667
11272192	32667
11403264	32667
11534336	32667
11665408	32667
11796480	32667
11927552	32667
12058624	32667
12189696	32667
12320768	32667
12451840	32667
12582912	32667
12713984	32667
12845056	32667
12976128	32667
13107200	32667
13238272	32667
13369344	32667
13500416	32667
13631488	32667
13762560	32667
13893632	32667
14024704	32667
14155776	32667
14286848	32667
14417920	32667
14548992	32667
14680064	32667
14811136	32667
14942208	32667
15073280	32667
15204352	32667
15335424	32667
15466496	32667
15597568	32667
15728640	32667
15859712	32667
15990784	32667
16121856	32667
16252928	32667
16384000	32667
16515072	32667
16646144	32667
16777216	32667
17039360	32667
17301504	32667
17563648	32667
17825792	32667
18087936	32667
18350080	32667
18612224	32667
18874368	32667
19136512	32667
19398656	32667
19660800	32667
19922944	32667
20185088	32667
20447232	32667
20709376	32667
20971520	32667
21233664	32667
21495808	32667
21757952	32667
22020096	32667
22282240	32667
22544384	32667
22806528	32667
23068672	32667
23330816	32667
23592960	32667
23855104	32667
24117248	32667
24379392	32667
24641536	32667
24903680	32667
25165824	32667
25427968	32667
25690112	32667
25952256	32667
26214400	32667
26476544	32667
26738688	32667
27000832	32667
27262976	32667
27525120	32667
27787264	32667
28049408	32667
28311552	32667
28573696	32667
28835840	32667
29097984	32667
29360128	32667
29622272	32667
29884416	32667
30146560	32667
30408704	32667
30670848	32667
30932992	32667
31195136	32667
31457280	32667
31719424	32667
31981568	32667
32243712	32667
32505856	32667
32768000	32667
33030144	32667
33292288	32667
33554432	32667
34078720	32667
34603008	32667
35127296	32667
35651584	32667
36175872	32667
36700160	32667
37224448	32667
37748736	32667
38273024	32667
38797312	32667
39321600	32667
39845888	32667
40370176	32667
40894464	32667
41418752	32667
41943040	32667
42467328	32667
42991616	32667
43515904	32667
44040192	32667
44564480	32667
45088768	32667
45613056	32667
46137344	32667
46661632	32667
47185920	32667
47710208	32667
48234496	32667
48758784	32667
49283072	32667
49807360	32667
50331648	32667
50855936	32667
51380224	32667
51904512	32667
52428800	32667
52953088	32667
53477376	32667
54001664	32667
54525952	32667
55050240	32667
55574528	32667
56098816	32667
56623104	32667
57147392	32667
57671680	32667
58195968	32667
58720256	32667
59244544	32667
59768832	32667
60293120	32667
60817408	32667
61341696	32667
61865984	32667
62390272	32667
62914560	32667
63438848	32667
63963136	32667
64487424	32667
65011712	32667
65536000	32667
66060288	32667
66584576	32667
67108864	32667
68157440	32667
69206016	32667
70254592	32667
71303168	32667
72351744	32667
73400320	32667
74448896	32667
75497472	32667
76546048	32667
77594624	32667
78643200	32667
79691776	32667
80740352	32667
81788928	32667
82837504	32667
83886080	32667
84934656	32667
85983232	32667
87031808	32667
88080384	32667
89128960	32667
90177536	32667
91226112	32667
92274688	32667
93323264	32667
94371840	32667
95420416	32667
96468992	32667
97517568	32667
98566144	32667
99614720	32667
100663296	32667
101711872	32667
102760448	32667
103809024	32667
104857600	32667
105906176	32667
106954752	32667
108003328	32667
109051904	32667
110100480	32667
111149056	32667
112197632	32667
113246208	32667
114294784	32667
115343360	32667
116391936	32667
117440512	32667
118489088	32667
119537664	32667
120586240	32667
121634816	32667
122683392	32667
123731968	32667
124780544	32667
125829120	32667
126877696	32667
127926272	32667
128974848	32667
130023424	32667
131072000	32667
132120576	32667
133169152	32667
134217728	32667
136314880	32667
138412032	32667
140509184	32667
142606336	32667
144703488	32667
146800640	32667
148897792	32667
150994944	32667
153092096	32667
155189248	32667
157286400	32667
159383552	32667
161480704	32667
163577856	32667
165675008	32667
167772160	32667
169869312	32667
171966464	32667
174063616	32667
176160768	32667
178257920	32667
180355072	32667
182452224	32667
184549376	32667
186646528	32667
188743680	32667
190840832	32667
192937984	32667
195035136	32667
197132288	32667
199229440	32667
201326592	32667
203423744	32667
205520896	32667
207618048	32667
209715200	32667
211812352	32667
213909504	32667
216006656	32667
218103808	32667
220200960	32667
222298112	32667
224395264	32667
226492416	32667
228589568	32667
230686720	32667
232783872	32667
234881024	32667
236978176	32667
239075328	32667
241172480	32667
243269632	32667
245366784	32667
247463936	32667
249561088	32667
251658240	32667
253755392	32667
255852544	32667
257949696	32667
260046848	32667
262144000	32667
264241152	32667
266338304	32667
268435456	32667
272629760	32667
276824064	32667
281018368	32667
285212672	32667
289406976	32667
293601280	32667
297795584	32667
301989888	32667
306184192	32667
310378496	32667
314572800	32667
318767104	32667
322961408	32667
327155712	32667
331350016	32667
335544320	32667
339738624	32667
343932928	32667
348127232	32667
352321536	32667
356515840	32667
360710144	32667
364904448	32667
369098752	32667
373293056	32667
377487360	32667
381681664	32667
385875968	32667
390070272	32667
394264576	32667
398458880	32667
402653184	32667
406847488	32667
411041792	32667
415236096	32667
419430400	32667
423624704	32667
427819008	32667
432013312	32667
436207616	32667
440401920	32667
444596224	32667
448790528	32667
452984832	32667
457179136	32667
461373440	32667
465567744	32667
469762048	32667
473956352	32667
478150656	32667
482344960	32667
486539264	32667
490733568	32667
494927872	32667
499122176	32667
503316480	32667
507510784	32667
511705088	32667
515899392	32667
520093696	32667
524288000	32667
528482304	32667
532676608	32667
536870912	32667
545259520	32667
553648128	32667
562036736	32667
570425344	32667
578813952	32667
587202560	32667
595591168	32667
603979776	32667
612368384	32667
620756992	32667
629145600	32667
637534208	32667
645922816	32667
654311424	32667
662700032	32667
671088640	32667
679477248	32667
687865856	32667
696254464	32667
704643072	32667
713031680	32667
721420288	32667
729808896	32667
738197504	32667
746586112	32667
754974720	32667
763363328	32667
771751936	32667
780140544	32667
788529152	32667
796917760	32667
805306368	32667
813694976	32667
822083584	32667
830472192	32667
838860800	32667
847249408	32667
855638016	32667
864026624	32667
872415232	32667
880803840	32667
889192448	32667
897581056	32667
905969664	32667
914358272	32667
922746880	32667
931135488	32667
939524096	32667
947912704	32667
956301312	32667
964689920	32667
973078528	32667
981467136	32667
989855744	32667
998244352	32667
1006632960	32667
1015021568	32667
1023410176	32667
1031798784	32667
1040187392	32667
1048576000	32667
1056964608	32667
1065353216	32667
1073741824	32667
1090519040	32667
1107296256	32667
1124073472	32667
1140850688	32667
1157627904	32667
1174405120	32667
1191182336	32667
1207959552	32667
1224736768	32667
1241513984	32667
1258291200	32667
1275068416	32667
1291845632	32667
1308622848	32667
1325400064	32667
1342177280	32667
1358954496	32667
1375731712	32667
1392508928	32667
1409286144	32667
1426063360	32667
1442840576	32667
1459617792	32667
1476395008	32667
1493172224	32667
1509949440	32667
1526726656	32667
1543503872	32667
1560281088	32667
1577058304	32667
1593835520	32667
1610612736	32667
1627389952	32667
1644167168	32667
1660944384	32667
1677721600	32667
1694498816	32667
1711276032	32667
1728053248	32667
1744830464	32667
1761607680	32667
1778384896	32667
1795162112	32667
1811939328	32667
1828716544	32667
1845493760	32667
1862270976	32667
1879048192	32667
1895825408	32667
1912602624	32667
1929379840	32667
1946157056	32667
1962934272	32667
1979711488	32667
1996488704	32667
2013265920	32667
2030043136	32667
2046820352	32667
2063597568	32667
2080374784	32667
2097152000	32667
2113929216	32667
2130706432	32667
2147483648	32667
2181038080	32667
2214592512	32667
2248146944	32667
2281701376	32667
2315255808	32667
2348810240	32667
2382364672	32667
2415919104	32667
2449473536	32667
2483027968	32667
2516582400	32667
2550136832	32667
2583691264	32667
2617245696	32667
2650800128	32667
2684354560	32667
2717908992	32667
2751463424	32667
2785017856	32667
2818572288	32667
2852126720	32667
2885681152	32667
2919235584	32667
2952790016	32667
2986344448	32667
3019898880	32667
3053453312	32667
3087007744	32667
3120562176	32667
3154116608	32667
3187671040	32667
3221225472	32667
3254779904	32667
3288334336	32667
3321888768	32667
3355443200	32667
3388997632	32667
3422552064	32667
3456106496	32667
3489660928	32667
3523215360	32667
3556769792	32667
3590324224	32667
3623878656	32667
3657433088	32667
3690987520	32667
3724541952	32667
3758096384	32667
3791650816	32667
3825205248	32667
3858759680	32667
3892314112	32667
3925868544	32667
3959422976	32667
3992977408	32667
4026531840	32667
4060086272	32667
4093640704	32667
4127195136	32667
4160749568	32667
4194304000	32667
4227858432	32667
4261412864	32667
4294967296	32667
4362076160	32667
4429185024	32667
4496293888	32667
4563402752	32667
4630511616	32667
4697620480	32667
4764729344	32667
4831838208	32667
4898947072	32667
4966055936	32667
5033164800	32667
5100273664	32667
5167382528	32667
5234491392	32667
5301600256	32667
5368709120	32667
5435817984	32667
5502926848	32667
5570035712	32667
5637144576	32667
5704253440	32667
5771362304	32667
5838471168	32667
5905580032	32667
5972688896	32667
6039797760	32667
6106906624	32667
6174015488	32667
6241124352	32667
6308233216	32667
6375342080	32667
6442450944	32667
6509559808	32667
6576668672	32667
6643777536	32667
6710886400	32667
6777995264	32667
6845104128	32667
6912212992	32667
6979321856	32667
7046430720	32667
7113539584	32667
7180648448	32667
7247757312	32667
7314866176	32667
7381975040	32667
7449083904	32667
7516192768	32667
7583301632	32667
7650410496	32667
7717519360	32667
7784628224	32667
7851737088	32667
7918845952	32667
7985954816	32667
8053063680	32667
8120172544	32667
8187281408	32667
8254390272	32667
8321499136	32667
8388608000	32667
8455716864	32667
8522825728	32667
8589934592	32667
8724152320	32667
8858370048	32667
8992587776	32667
9126805504	32667
9261023232	32667
9395240960	32667
9529458688	32667
9663676416	32667
9797894144	32667
9932111872	32667
10066329600	32667
10200547328	32667
10334765056	32667
10468982784	32667
10603200512	32667
10737418240	32667
10871635968	32667
11005853696	32667
11140071424	32667
11274289152	32667
11408506880	32667
11542724608	32667
11676942336	32667
11811160064	32667
11945377792	32667
12079595520	32667
12213813248	32667
12348030976	32667
12482248704	32667
12616466432	32667
12750684160	32667
12884901888	32667
13019119616	32667
13153337344	32667
13287555072	32667
13421772800	32667
13555990528	32667
13690208256	32667
13824425984	32667
13958643712	32667
14092861440	32667
14227079168	32667
14361296896	32667
14495514624	32667
14629732352	32667
14763950080	32667
14898167808	32667
15032385536	32667
15166603264	32667
15300820992	32667
15435038720	32667
15569256448	32667
15703474176	32667
15837691904	32667
15971909632	32667
16106127360	32667
16240345088	32667
16374562816	32667
16508780544	32667
16642998272	32667
16777216000	32667
16911433728	32667
17045651456	32667
17179869184	32667
17448304640	32667
17716740096	32667
17985175552	32667
18253611008	32667
18522046464	32667
18790481920	32667
19058917376	32667
19327352832	32667
19595788288	32667
19864223744	32667
20132659200	32667
20401094656	32667
20669530112	32667
20937965568	32667
21206401024	32667
21474836480	32667
21743271936	32667
22011707392	32667
22280142848	32667
22548578304	32667
22817013760	32667
23085449216	32667
23353884672	32667
23622320128	32667
23890755584	32667
24159191040	32667
24427626496	32667
24696061952	32667
24964497408	32667
25232932864	32667
25501368320	32667
25769803776	32667
26038239232	32667
26306674688	32667
26575110144	32667
26843545600	32667
27111981056	32667
27380416512	32667
27648851968	32667
27917287424	32667
28185722880	32667
28454158336	32667
28722593792	32667
28991029248	32667
29259464704	32667
29527900160	32667
29796335616	32667
30064771072	32667
30333206528	32667
30601641984	32667
30870077440	32667
31138512896	32667
31406948352	32667
31675383808	32667
31943819264	32667
32212254720	32667
32480690176	32667
32749125632	32667
33017561088	32667
33285996544	32667
33554432000	32667
33822867456	32667
34091302912	32667
34359738368	32667
34896609280	32667
35433480192	32667
35970351104	32667
36507222016	32667
37044092928	32667
37580963840	32667
38117834752	32667
38654705664	32667
39191576576	32667
39728447488	32667
40265318400	32667
40802189312	32667
41339060224	32667
41875931136	32667
42412802048	32667
42949672960	32667
43486543872	32667
44023414784	32667
44560285696	32667
45097156608	32667
45634027520	32667
46170898432	32667
46707769344	32667
47244640256	32667
47781511168	32667
48318382080	32667
48855252992	32667
49392123904	32667
49928994816	32667
50465865728	32667
51002736640	32667
51539607552	32667
52076478464	32667
52613349376	32667
53150220288	32667
53687091200	32667
54223962112	32667
54760833024	32667
55297703936	32667
55834574848	32667
56371445760	32667
56908316672	32667
57445187584	32667
57982058496	32667
58518929408	32667
59055800320	32667
59592671232	32667
60129542144	32667
60666413056	32667
61203283968	32667
61740154880	32667
62277025792	32667
62813896704	32667
63350767616	32667
63887638528	32667
64424509440	32667
64961380352	32667
65498251264	32667
66035122176	32667
66571993088	32667
67108864000	32667
67645734912	32667
68182605824	32667
68719476736	32667
69793218560	32667
70866960384	32667
71940702208	32667
73014444032	32667
74088185856	32667
75161927680	32667
76235669504	32667
77309411328	32667
78383153152	32667
79456894976	32667
80530636800	32667
81604378624	32667
82678120448	32667
83751862272	32667
84825604096	32667
85899345920	32667
86973087744	32667
88046829568	32667
89120571392	32667
90194313216	32667
91268055040	32667
92341796864	32667
93415538688	32667
94489280512	32667
95563022336	32667
96636764160	32667
97710505984	32667
98784247808	32667
99857989632	32667
100931731456	32667
102005473280	32667
103079215104	32667
104152956928	32667
105226698752	32667
106300440576	32667
107374182400	32667
108447924224	32667
109521666048	32667
110595407872	32667
111669149696	32667
112742891520	32667
113816633344	32667
114890375168	32667
115964116992	32667
117037858816	32667
118111600640	32667
119185342464	32667
120259084288	32667
121332826112	32667
122406567936	32667
123480309760	32667
124554051584	32667
125627793408	32667
126701535232	32667
127775277056	32667
128849018880	32667
129922760704	32667
130996502528	32667
132070244352	32667
133143986176	32667
134217728000	32667
135291469824	32667
136365211648	32667
137438953472	32667
139586437120	32667
141733920768	32667
143881404416	32667
146028888064	32667
148176371712	32667
150323855360	32667
152471339008	32667
154618822656	32667
156766306304	32667
158913789952	32667
161061273600	32667
163208757248	32667
165356240896	32667
167503724544	32667
169651208192	32667
171798691840	32667
173946175488	32667
176093659136	32667
178241142784	32667
180388626432	32667
182536110080	32667
184683593728	32667
186831077376	32667
188978561024	32667
191126044672	32667
193273528320	32667
195421011968	32667
197568495616	32667
199715979264	32667
201863462912	32667
204010946560	32667
206158430208	32667
208305913856	32667
210453397504	32667
212600881152	32667
214748364800	32667
216895848448	32667
219043332096	32667
221190815744	32667
223338299392	32667
225485783040	32667
227633266688	32667
229780750336	32667
231928233984	32667
234075717632	32667
236223201280	32667
238370684928	32667
240518168576	32667
242665652224	32667
244813135872	32667
246960619520	32667
249108103168	32667
251255586816	32667
253403070464	32667
255550554112	32667
257698037760	32667
259845521408	32667
261993005056	32667
264140488704	32667
266287972352	32667
268435456000	32667
270582939648	32667
272730423296	32667
274877906944	32667
279172874240	32667
283467841536	32667
287762808832	32667
292057776128	32667
296352743424	32667
300647710720	32667
304942678016	32667
309237645312	32667
313532612608	32667
317827579904	32667
322122547200	32667
326417514496	32667
330712481792	32667
335007449088	32667
339302416384	32667
343597383680	32667
347892350976	32667
352187318272	32667
356482285568	32667
360777252864	32667
365072220160	32667
369367187456	32667
373662154752	32667
377957122048	32667
382252089344	32667
386547056640	32667
390842023936	32667
395136991232	32667
399431958528	32667
403726925824	32667
408021893120	32667
412316860416	32667
416611827712	32667
420906795008	32667
425201762304	32667
429496729600	32667
433791696896	32667
438086664192	32667
442381631488	32667
446676598784	32667
450971566080	32667
455266533376	32667
459561500672	32667
463856467968	32667
468151435264	32667
472446402560	32667
476741369856	32667
481036337152	32667
485331304448	32667
489626271744	32667
493921239040	32667
498216206336	32667
502511173632	32667
506806140928	32667
511101108224	32667
515396075520	32667
519691042816	32667
523986010112	32667
528280977408	32667
532575944704	32667
536870912000	32667
541165879296	32667
545460846592	32667
549755813888	32667
558345748480	32667
566935683072	32667
575525617664	32667
584115552256	32667
592705486848	32667
601295421440	32667
609885356032	32667
618475290624	32667
627065225216	32667
635655159808	32667
644245094400	32667
652835028992	32667
661424963584	32667
670014898176	32667
678604832768	32667
687194767360	32667
695784701952	32667
704374636544	32667
712964571136	32667
721554505728	32667
730144440320	32667
738734374912	32667
747324309504	32667
755914244096	32667
764504178688	32667
773094113280	32667
781684047872	32667
790273982464	32667
798863917056	32667
807453851648	32667
816043786240	32667
824633720832	32667
833223655424	32667
841813590016	32667
850403524608	32667
858993459200	32667
867583393792	32667
876173328384	32667
884763262976	32667
893353197568	32667
901943132160	32667
910533066752	32667
919123001344	32667
927712935936	32667
936302870528	32667
944892805120	32667
953482739712	32667
962072674304	32667
970662608896	32667
979252543488	32667
987842478080	32667
996432412672	32667
1005022347264	32667
1013612281856	32667
1022202216448	32667
1030792151040	32667
1039382085632	32667
1047972020224	32667
1056561954816	32667
1065151889408	32667
1073741824000	32667
1082331758592	32667
1090921693184	32667
1099511627776	32667
1116691496960	32667
1133871366144	32667
1151051235328	32667
1168231104512	32667
1185410973696	32667
1202590842880	32667
1219770712064	32667
1236950581248	32667
1254130450432	32667
1271310319616	32667
1288490188800	32667
1305670057984	32667
1322849927168	32667
1340029796352	32667
1357209665536	32667
1374389534720	32667
1391569403904	32667
1408749273088	32667
1425929142272	32667
1443109011456	32667
1460288880640	32667
1477468749824	32667
1494648619008	32667
1511828488192	32667
1529008357376	32667
1546188226560	32667
1563368095744	32667
1580547964928	32667
1597727834112	32667
1614907703296	32667
1632087572480	32667
1649267441664	32667
1666447310848	32667
1683627180032	32667
1700807049216	32667
1717986918400	32667
1735166787584	32667
1752346656768	32667
1769526525952	32667
1786706395136	32667
1803886264320	32667
1821066133504	32667
1838246002688	32667
1855425871872	32667
1872605741056	32667
1889785610240	32667
1906965479424	32667
1924145348608	32667
1941325217792	32667
1958505086976	32667
1975684956160	32667
1992864825344	32667
2010044694528	32667
2027224563712	32667
2044404432896	32667
2061584302080	32667
2078764171264	32667
2095944040448	32667
2113123909632	32667
2130303778816	32667
2147483648000	32667
2164663517184	32667
2181843386368	32667
2199023255552	32667
2233382993920	32667
2267742732288	32667
2302102470656	32667
2336462209024	32667
2370821947392	32667
2405181685760	32667
2439541424128	32667
2473901162496	32667
2508260900864	32667
2542620639232	32667
2576980377600	32667
2611340115968	32667
2645699854336	32667
2680059592704	32667
2714419331072	32667
2748779069440	32667
2783138807808	32667
2817498546176	32667
2851858284544	32667
2886218022912	32667
2920577761280	32667
2954937499648	32667
2989297238016	32667
3023656976384	32667
3058016714752	32667
3092376453120	32667
3126736191488	32667
3161095929856	32667
3195455668224	32667
3229815406592	32667
3264175144960	32667
3298534883328	32667
3332894621696	32667
3367254360064	32667
3401614098432	32667
3435973836800	32667
3470333575168	32667
3504693313536	32667
3539053051904	32667
3573412790272	32667
3607772528640	32667
3642132267008	32667
3676492005376	32667
3710851743744	32667
3745211482112	32667
3779571220480	32667
3813930958848	32667
3848290697216	32667
3882650435584	32667
3917010173952	32667
3951369912320	32667
3985729650688	32667
4020089389056	32667
4054449127424	32667
4088808865792	32667
4123168604160	32667
4157528342528	32667
4191888080896	32667
4226247819264	32667
4260607557632	32667
4294967296000	32667
4329327034368	32667
4363686772736	32667
4398046511104	32667
4466765987840	32667
4535485464576	32667
4604204941312	32667
4672924418048	32667
4741643894784	32667
4810363371520	32667
4879082848256	32667
4947802324992	32667
5016521801728	32667
5085241278464	32667
5153960755200	32667
5222680231936	32667
5291399708672	32667
5360119185408	32667
5428838662144	32667
5497558138880	32667
5566277615616	32667
5634997092352	32667
5703716569088	32667
5772436045824	32667
5841155522560	32667
5909874999296	32667
5978594476032	32667
6047313952768	32667
6116033429504	32667
6184752906240	32667
6253472382976	32667
6322191859712	32667
6390911336448	32667
6459630813184	32667
6528350289920	32667
6597069766656	32667
6665789243392	32667
6734508720128	32667
6803228196864	32667
6871947673600	32667
6940667150336	32667
7009386627072	32667
7078106103808	32667
7146825580544	32667
7215545057280	32667
7284264534016	32667
7352984010752	32667
7421703487488	32667
7490422964224	32667
7559142440960	32667
7627861917696	32667
7696581394432	32667
7765300871168	32667
7834020347904	32667
7902739824640	32667
7971459301376	32667
8040178778112	32667
8108898254848	32667
8177617731584	32667
8246337208320	32667
8315056685056	32667
8383776161792	32667
8452495638528	32667
8521215115264	32667
8589934592000	32667
8658654068736	32667
8727373545472	32667
8796093022208	32667
8933531975680	32667
9070970929152	32667
9208409882624	32667
9345848836096	32667
9483287789568	32667
9620726743040	32667
9758165696512	32667
9895604649984	32667
10033043603456	32667
10170482556928	32667
10307921510400	32667
10445360463872	32667
10582799417344	32667
10720238370816	32667
10857677324288	32667
10995116277760	32667
11132555231232	32667
11269994184704	32667
11407433138176	32667
11544872091648	32667
11682311045120	32667
11819749998592	32667
11957188952064	32667
12094627905536	32667
12232066859008	32667
12369505812480	32667
12506944765952	32667
12644383719424	32667
12781822672896	32667
12919261626368	32667
13056700579840	32667
13194139533312	32667
13331578486784	32667
13469017440256	32667
13606456393728	32667
13743895347200	32667
13881334300672	32667
14018773254144	32667
14156212207616	32667
14293651161088	32667
14431090114560	32667
14568529068032	32667
14705968021504	32667
14843406974976	32667
14980845928448	32667
15118284881920	32667
15255723835392	32667
15393162788864	32667
15530601742336	32667
15668040695808	32667
15805479649280	32667
15942918602752	32667
16080357556224	32667
16217796509696	32667
16355235463168	32667
16492674416640	32667
16630113370112	32667
16767552323584	32667
16904991277056	32667
17042430230528	32667
17179869184000	32667
17317308137472	32667
17454747090944	32667
17592186044416	32667
17867063951360	32667
18141941858304	32667
18416819765248	32667
18691697672192	32667
18966575579136	32667
19241453486080	32667
19516331393024	32667
19791209299968	32667
20066087206912	32667
20340965113856	32667
20615843020800	32667
20890720927744	32667
21165598834688	32667
21440476741632	32667
21715354648576	32667
21990232555520	32667
22265110462464	32667
22539988369408	32667
22814866276352	32667
23089744183296	32667
23364622090240	32667
23639499997184	32667
23914377904128	32667
24189255811072	32667
24464133718016	32667
24739011624960	32667
25013889531904	32667
25288767438848	32667
25563645345792	32667
25838523252736	32667
26113401159680	32667
26388279066624	32667
26663156973568	32667
26938034880512	32667
27212912787456	32667
27487790694400	32667
27762668601344	32667
28037546508288	32667
28312424415232	32667
28587302322176	32667
28862180229120	32667
29137058136064	32667
29411936043008	32667
29686813949952	32667
29961691856896	32667
30236569763840	32667
30511447670784	32667
30786325577728	32667
31061203484672	32667
31336081391616	32667
31610959298560	32667
31885837205504	32667
32160715112448	32667
32435593019392	32667
32710470926336	32667
32985348833280	32667
33260226740224	32667
33535104647168	32667
33809982554112	32667
34084860461056	32667
34359738368000	32667
34634616274944	32667
34909494181888	32667
35184372088832	32667
35734127902720	32667
36283883716608	32667
36833639530496	32667
37383395344384	32667
37933151158272	32667
38482906972160	32667
39032662786048	32667
39582418599936	32667
40132174413824	32667
40681930227712	32667
41231686041600	32667
41781441855488	32667
42331197669376	32667
42880953483264	32667
43430709297152	32667
43980465111040	32667
44530220924928	32667
45079976738816	32667
45629732552704	32667
46179488366592	32667
46729244180480	32667
47278999994368	32667
47828755808256	32667
48378511622144	32667
48928267436032	32667
49478023249920	32667
50027779063808	32667
50577534877696	32667
51127290691584	32667
51677046505472	32667
52226802319360	32667
52776558133248	32667
53326313947136	32667
53876069761024	32667
54425825574912	32667
54975581388800	32667
55525337202688	32667
56075093016576	32667
56624848830464	32667
57174604644352	32667
57724360458240	32667
58274116272128	32667
58823872086016	32667
59373627899904	32667
59923383713792	32667
60473139527680	32667
61022895341568	32667
61572651155456	32667
62122406969344	32667
62672162783232	32667
63221918597120	32667
63771674411008	32667
64321430224896	32667
64871186038784	32667
65420941852672	32667
65970697666560	32667
66520453480448	32667
67070209294336	32667
67619965108224	32667
68169720922112	32667
68719476736000	32667
69269232549888	32667
69818988363776	32667
70368744177664	32667
71468255805440	32667
72567767433216	32667
73667279060992	32667
74766790688768	32667
75866302316544	32667
76965813944320	32667
78065325572096	32667
79164837199872	32667
80264348827648	32667
81363860455424	32667
82463372083200	32667
83562883710976	32667
84662395338752	32667
85761906966528	32667
86861418594304	32667
87960930222080	32667
89060441849856	32667
90159953477632	32667
91259465105408	32667
92358976733184	32667
93458488360960	32667
94557999988736	32667
95657511616512	32667
96757023244288	32667
97856534872064	32667
98956046499840	32667
100055558127616	32667
101155069755392	32667
102254581383168	32667
103354093010944	32667
104453604638720	32667
105553116266496	32667
106652627894272	32667
107752139522048	32667
108851651149824	32667
109951162777600	32667
111050674405376	32667
112150186033152	32667
113249697660928	32667
114349209288704	32667
115448720916480	32667
116548232544256	32667
117647744172032	32667
118747255799808	32667
119846767427584	32667
120946279055360	32667
122045790683136	32667
123145302310912	32667
124244813938688	32667
125344325566464	32667
126443837194240	32667
127543348822016	32667
128642860449792	32667
129742372077568	32667
130841883705344	32667
131941395333120	32667
133040906960896	32667
134140418588672	32667
135239930216448	32667
136339441844224	32667
137438953472000	32667
138538465099776	32667
139637976727552	32667
140737488355328	32667
142936511610880	32667
145135534866432	32667
147334558121984	32667
149533581377536	32667
151732604633088	32667
153931627888640	32667
156130651144192	32667
158329674399744	32667
160528697655296	32667
162727720910848	32667
164926744166400	32667
167125767421952	32667
169324790677504	32667
171523813933056	32667
173722837188608	32667
175921860444160	32667
178120883699712	32667
180319906955264	32667
182518930210816	32667
184717953466368	32667
186916976721920	32667
189115999977472	32667
191315023233024	32667
193514046488576	32667
195713069744128	32667
197912092999680	32667
200111116255232	32667
202310139510784	32667
204509162766336	32667
206708186021888	32667
208907209277440	32667
211106232532992	32667
213305255788544	32667
215504279044096	32667
217703302299648	32667
219902325555200	32667
222101348810752	32667
224300372066304	32667
226499395321856	32667
228698418577408	32667
230897441832960	32667
233096465088512	32667
235295488344064	32667
237494511599616	32667
239693534855168	32667
241892558110720	32667
244091581366272	32667
246290604621824	32667
248489627877376	32667
250688651132928	32667
252887674388480	32667
255086697644032	32667
257285720899584	32667
259484744155136	32667
261683767410688	32667
263882790666240	32667
266081813921792	32667
268280837177344	32667
270479860432896	32667
272678883688448	32667
274877906944000	32667
277076930199552	32667
279275953455104	32667
281474976710656	32667
285873023221760	32667
290271069732864	32667
294669116243968	32667
299067162755072	32667
303465209266176	32667
307863255777280	32667
312261302288384	32667
316659348799488	32667
321057395310592	32667
325455441821696	32667
329853488332800	32667
334251534843904	32667
338649581355008	32667
343047627866112	32667
347445674377216	32667
351843720888320	32667
356241767399424	32667
360639813910528	32667
365037860421632	32667
369435906932736	32667
373833953443840	32667
378231999954944	32667
382630046466048	32667
387028092977152	32667
391426139488256	32667
395824185999360	32667
400222232510464	32667
404620279021568	32667
409018325532672	32667
413416372043776	32667
417814418554880	32667
422212465065984	32667
426610511577088	32667
431008558088192	32667
435406604599296	32667
439804651110400	32667
444202697621504	32667
448600744132608	32667
452998790643712	32667
457396837154816	32667
461794883665920	32667
466192930177024	32667
470590976688128	32667
474989023199232	32667
479387069710336	32667
483785116221440	32667
488183162732544	32667
492581209243648	32667
496979255754752	32667
501377302265856	32667
505775348776960	32667
510173395288064	32667
514571441799168	32667
518969488310272	32667
523367534821376	32667
527765581332480	32667
532163627843584	32667
536561674354688	32667
540959720865792	32667
545357767376896	32667
549755813888000	32667
554153860399104	32667
558551906910208	32667
562949953421312	32667
571746046443520	32667
580542139465728	32667
589338232487936	32667
598134325510144	32667
606930418532352	32667
615726511554560	32667
624522604576768	32667
633318697598976	32667
642114790621184	32667
650910883643392	32667
659706976665600	32667
668503069687808	32667
677299162710016	32667
686095255732224	32667
694891348754432	32667
703687441776640	32667
712483534798848	32667
721279627821056	32667
730075720843264	32667
738871813865472	32667
747667906887680	32667
756463999909888	32667
765260092932096	32667
774056185954304	32667
782852278976512	32667
791648371998720	32667
800444465020928	32667
809240558043136	32667
818036651065344	32667
826832744087552	32667
835628837109760	32667
844424930131968	32667
853221023154176	32667
862017116176384	32667
870813209198592	32667
879609302220800	32667
888405395243008	32667
897201488265216	32667
905997581287424	32667
914793674309632	32667
923589767331840	32667
932385860354048	32667
941181953376256	32667
949978046398464	32667
958774139420672	32667
967570232442880	32667
976366325465088	32667
985162418487296	32667
993958511509504	32667
1002754604531712	32667
1011550697553920	32667
1020346790576128	32667
1029142883598336	32667
1037938976620544	32667
1046735069642752	32667
1055531162664960	32667
1064327255687168	32667
1073123348709376	32667
1081919441731584	32667
1090715534753792	32667
1099511627776000	32667
1108307720798208	32667
1117103813820416	32667
1125899906842624	32667
1143492092887040	32667
1161084278931456	32667
1178676464975872	32667
1196268651020288	32667
1213860837064704	32667
1231453023109120	32667
1249045209153536	32667
1266637395197952	32667
1284229581242368	32667
1301821767286784	32667
1319413953331200	32667
1337006139375616	32667
1354598325420032	32667
1372190511464448	32667
1389782697508864	32667
1407374883553280	32667
1424967069597696	32667
1442559255642112	32667
1460151441686528	32667
1477743627730944	32667
1495335813775360	32667
1512927999819776	32667
1530520185864192	32667
1548112371908608	32667
1565704557953024	32667
1583296743997440	32667
1600888930041856	32667
1618481116086272	32667
1636073302130688	32667
1653665488175104	32667
1671257674219520	32667
1688849860263936	32667
1706442046308352	32667
1724034232352768	32667
1741626418397184	32667
1759218604441600	32667
1776810790486016	32667
1794402976530432	32667
1811995162574848	32667
1829587348619264	32667
1847179534663680	32667
1864771720708096	32667
1882363906752512	32667
1899956092796928	32667
1917548278841344	32667
1935140464885760	32667
1952732650930176	32667
1970324836974592	32667
1987917023019008	32667
2005509209063424	32667
2023101395107840	32667
2040693581152256	32667
2058285767196672	32667
2075877953241088	32667
2093470139285504	32667
2111062325329920	32667
2128654511374336	32667
2146246697418752	32667
2163838883463168	32667
2181431069507584	32667
2199023255552000	32667
2216615441596416	32667
2234207627640832	32667
2251799813685248	32667
2286984185774080	32667
2322168557862912	32667
2357352929951744	32667
2392537302040576	32667
2427721674129408	32667
2462906046218240	32667
2498090418307072	32667
2533274790395904	32667
2568459162484736	32667
2603643534573568	32667
2638827906662400	32667
2674012278751232	32667
2709196650840064	32667
2744381022928896	32667
2779565395017728	32667
2814749767106560	32667
2849934139195392	32667
2885118511284224	32667
2920302883373056	32667
2955487255461888	32667
2990671627550720	32667
3025855999639552	32667
3061040371728384	32667
3096224743817216	32667
3131409115906048	32667
3166593487994880	32667
3201777860083712	32667
3236962232172544	32667
3272146604261376	32667
3307330976350208	32667
3342515348439040	32667
3377699720527872	32667
3412884092616704	32667
3448068464705536	32667
3483252836794368	32667
3518437208883200	32667
3553621580972032	32667
3588805953060864	32667
3623990325149696	32667
3659174697238528	32667
3694359069327360	32667
3729543441416192	32667
3764727813505024	32667
3799912185593856	32667
3835096557682688	32667
3870280929771520	32667
3905465301860352	32667
3940649673949184	32667
3975834046038016	32667
4011018418126848	32667
4046202790215680	32667
4081387162304512	32667
4116571534393344	32667
4151755906482176	32667
4186940278571008	32667
4222124650659840	32667
4257309022748672	32667
4292493394837504	32667
4327677766926336	32667
4362862139015168	32667
4398046511104000	32667
4433230883192832	32667
4468415255281664	32667
4503599627370496	32667
4573968371548160	32667
4644337115725824	32667
4714705859903488	32667
4785074604081152	32667
4855443348258816	32667
4925812092436480	32667
4996180836614144	32667
5066549580791808	32667
5136918324969472	32667
5207287069147136	32667
5277655813324800	32667
5348024557502464	32667
5418393301680128	32667
5488762045857792	32667
5559130790035456	32667
5629499534213120	32667
5699868278390784	32667
5770237022568448	32667
5840605766746112	32667
5910974510923776	32667
5981343255101440	32667
6051711999279104	32667
6122080743456768	32667
6192449487634432	32667
6262818231812096	32667
6333186975989760	32667
6403555720167424	32667
6473924464345088	32667
6544293208522752	32667
6614661952700416	32667
6685030696878080	32667
6755399441055744	32667
6825768185233408	32667
6896136929411072	32667
6966505673588736	32667
7036874417766400	32667
7107243161944064	32667
7177611906121728	32667
7247980650299392	32667
7318349394477056	32667
7388718138654720	32667
7459086882832384	32667
7529455627010048	32667
7599824371187712	32667
7670193115365376	32667
7740561859543040	32667
7810930603720704	32667
7881299347898368	32667
7951668092076032	32667
8022036836253696	32667
8092405580431360	32667
8162774324609024	32667
8233143068786688	32667
8303511812964352	32667
8373880557142016	32667
8444249301319680	32667
8514618045497344	32667
8584986789675008	32667
8655355533852672	32667
8725724278030336	32667
8796093022208000	32667
8866461766385664	32667
8936830510563328	32667
9007199254740992	32667
9147936743096320	32667
9288674231451648	32667
9429411719806976	32667
9570149208162304	32667
9710886696517632	32667
9851624184872960	32667
9992361673228288	32667
10133099161583616	32667
10273836649938944	32667
10414574138294272	32667
10555311626649600	32667
10696049115004928	32667
10836786603360256	32667
10977524091715584	32667
11118261580070912	32667
11258999068426240	32667
11399736556781568	32667
11540474045136896	32667
11681211533492224	32667
11821949021847552	32667
11962686510202880	32667
12103423998558208	32667
12244161486913536	32667
12384898975268864	32667
12525636463624192	32667
12666373951979520	32667
12807111440334848	32667
12947848928690176	32667
13088586417045504	32667
13229323905400832	32667
13370061393756160	32667
13510798882111488	32667
13651536370466816	32667
13792273858822144	32667
13933011347177472	32667
14073748835532800	32667
14214486323888128	32667
14355223812243456	32667
14495961300598784	32667
14636698788954112	32667
14777436277309440	32667
14918173765664768	32667
15058911254020096	32667
15199648742375424	32667
15340386230730752	32667
15481123719086080	32667
15621861207441408	32667
15762598695796736	32667
15903336184152064	32667
16044073672507392	32667
16184811160862720	32667
16325548649218048	32667
16466286137573376	32667
16607023625928704	32667
16747761114284032	32667
16888498602639360	32667
17029236090994688	32667
17169973579350016	32667
17310711067705344	32667
17451448556060672	32667
17592186044416000	32667
17732923532771328	32667
17873661021126656	32667
18014398509481984	32667
18295873486192640	32667
18577348462903296	32667
18858823439613952	32667
19140298416324608	32667
19421773393035264	32667
19703248369745920	32667
19984723346456576	32667
20266198323167232	32667
20547673299877888	32667
20829148276588544	32667
21110623253299200	32667
21392098230009856	32667
21673573206720512	32667
21955048183431168	32667
22236523160141824	32667
22517998136852480	32667
22799473113563136	32667
23080948090273792	32667
23362423066984448	32667
23643898043695104	32667
23925373020405760	32667
24206847997116416	32667
24488322973827072	32667
24769797950537728	32667
25051272927248384	32667
25332747903959040	32667
25614222880669696	32667
25895697857380352	32667
26177172834091008	32667
26458647810801664	32667
26740122787512320	32667
27021597764222976	32667
27303072740933632	32667
27584547717644288	32667
27866022694354944	32667
28147497671065600	32667
28428972647776256	32667
28710447624486912	32667
28991922601197568	32667
29273397577908224	32667
29554872554618880	32667
29836347531329536	32667
30117822508040192	32667
30399297484750848	32667
30680772461461504	32667
30962247438172160	32667
31243722414882816	32667
31525197391593472	32667
31806672368304128	32667
32088147345014784	32667
32369622321725440	32667
32651097298436096	32667
32932572275146752	32667
33214047251857408	32667
33495522228568064	32667
33776997205278720	32667
34058472181989376	32667
34339947158700032	32667
34621422135410688	32667
34902897112121344	32667
35184372088832000	32667
35465847065542656	32667
35747322042253312	32667
36028797018963968	32667
36591746972385280	32667
37154696925806592	32667
37717646879227904	32667
38280596832649216	32667
38843546786070528	32667
39406496739491840	32667
39969446692913152	32667
40532396646334464	32667
41095346599755776	32667
41658296553177088	32667
42221246506598400	32667
42784196460019712	32667
43347146413441024	32667
43910096366862336	32667
44473046320283648	32667
45035996273704960	32667
45598946227126272	32667
46161896180547584	32667
46724846133968896	32667
47287796087390208	32667
47850746040811520	32667
48413695994232832	32667
48976645947654144	32667
49539595901075456	32667
50102545854496768	32667
50665495807918080	32667
51228445761339392	32667
51791395714760704	32667
52354345668182016	32667
52917295621603328	32667
53480245575024640	32667
54043195528445952	32667
54606145481867264	32667
55169095435288576	32667
55732045388709888	32667
56294995342131200	32667
56857945295552512	32667
57420895248973824	32667
57983845202395136	32667
58546795155816448	32667
59109745109237760	32667
59672695062659072	32667
60235645016080384	32667
60798594969501696	32667
61361544922923008	32667
61924494876344320	32667
62487444829765632	32667
63050394783186944	32667
63613344736608256	32667
64176294690029568	32667
64739244643450880	32667
65302194596872192	32667
65865144550293504	32667
66428094503714816	32667
66991044457136128	32667
67553994410557440	32667
68116944363978752	32667
68679894317400064	32667
69242844270821376	32667
69805794224242688	32667
70368744177664000	32667
70931694131085312	32667
71494644084506624	32667
72057594037927936	32667
73183493944770560	32667
74309393851613184	32667
75435293758455808	32667
76561193665298432	32667
77687093572141056	32667
78812993478983680	32667
79938893385826304	32667
81064793292668928	32667
82190693199511552	32667
83316593106354176	32667
84442493013196800	32667
85568392920039424	32667
86694292826882048	32667
87820192733724672	32667
88946092640567296	32667
90071992547409920	32667
91197892454252544	32667
92323792361095168	32667
93449692267937792	32667
94575592174780416	32667
95701492081623040	32667
96827391988465664	32667
97953291895308288	32667
99079191802150912	32667
100205091708993536	32667
101330991615836160	32667
102456891522678784	32667
103582791429521408	32667
104708691336364032	32667
105834591243206656	32667
106960491150049280	32667
108086391056891904	32667
109212290963734528	32667
110338190870577152	32667
111464090777419776	32667
112589990684262400	32667
113715890591105024	32667
114841790497947648	32667
115967690404790272	32667
117093590311632896	32667
118219490218475520	32667
119345390125318144	32667
120471290032160768	32667
121597189939003392	32667
122723089845846016	32667
123848989752688640	32667
124974889659531264	32667
126100789566373888	32667
127226689473216512	32667
128352589380059136	32667
129478489286901760	32667
130604389193744384	32667
131730289100587008	32667
132856189007429632	32667
133982088914272256	32667
135107988821114880	32667
136233888727957504	32667
137359788634800128	32667
138485688541642752	32667
139611588448485376	32667
140737488355328000	32667
141863388262170624	32667
142989288169013248	32667
144115188075855872	32667
146366987889541120	32667
148618787703226368	32667
150870587516911616	32667
153122387330596864	32667
155374187144282112	32667
157625986957967360	32667
159877786771652608	32667
162129586585337856	32667
164381386399023104	32667
166633186212708352	32667
168884986026393600	32667
171136785840078848	32667
173388585653764096	32667
175640385467449344	32667
177892185281134592	32667
180143985094819840	32667
182395784908505088	32667
184647584722190336	32667
186899384535875584	32667
189151184349560832	32667
191402984163246080	32667
193654783976931328	32667
195906583790616576	32667
198158383604301824	32667
200410183417987072	32667
202661983231672320	32667
204913783045357568	32667
207165582859042816	32667
209417382672728064	32667
211669182486413312	32667
213920982300098560	32667
216172782113783808	32667
218424581927469056	32667
220676381741154304	32667
222928181554839552	32667
225179981368524800	32667
227431781182210048	32667
229683580995895296	32667
231935380809580544	32667
234187180623265792	32667
236438980436951040	32667
238690780250636288	32667
240942580064321536	32667
243194379878006784	32667
245446179691692032	32667
247697979505377280	32667
249949779319062528	32667
252201579132747776	32667
254453378946433024	32667
256705178760118272	32667
258956978573803520	32667
261208778387488768	32667
263460578201174016	32667
265712378014859264	32667
267964177828544512	32667
270215977642229760	32667
272467777455915008	32667
274719577269600256	32667
276971377083285504	32667
279223176896970752	32667
281474976710656000	32667
283726776524341248	32667
285978576338026496	32667
288230376151711744	32667
292733975779082240	32667
297237575406452736	32667
301741175033823232	32667
306244774661193728	32667
310748374288564224	32667
315251973915934720	32667
319755573543305216	32667
324259173170675712	32667
328762772798046208	32667
333266372425416704	32667
337769972052787200	32667
342273571680157696	32667
346777171307528192	32667
351280770934898688	32667
355784370562269184	32667
360287970189639680	32667
364791569817010176	32667
369295169444380672	32667
373798769071751168	32667
378302368699121664	32667
382805968326492160	32667
387309567953862656	32667
391813167581233152	32667
396316767208603648	32667
400820366835974144	32667
405323966463344640	32667
409827566090715136	32667
414331165718085632	32667
418834765345456128	32667
423338364972826624	32667
427841964600197120	32667
432345564227567616	32667
436849163854938112	32667
441352763482308608	32667
445856363109679104	32667
450359962737049600	32667
454863562364420096	32667
459367161991790592	32667
463870761619161088	32667
468374361246531584	32667
472877960873902080	32667
477381560501272576	32667
481885160128643072	32667
486388759756013568	32667
490892359383384064	32667
495395959010754560	32667
499899558638125056	32667
504403158265495552	32667
508906757892866048	32667
513410357520236544	32667
517913957147607040	32667
522417556774977536	32667
526921156402348032	32667
531424756029718528	32667
535928355657089024	32667
540431955284459520	32667
544935554911830016	32667
549439154539200512	32667
553942754166571008	32667
558446353793941504	32667
562949953421312000	32667
567453553048682496	32667
571957152676052992	32667
576460752303423488	32667
585467951558164480	32667
594475150812905472	32667
603482350067646464	32667
612489549322387456	32667
621496748577128448	32667
630503947831869440	32667
639511147086610432	32667
648518346341351424	32667
657525545596092416	32667
666532744850833408	32667
675539944105574400	32667
684547143360315392	32667
693554342615056384	32667
702561541869797376	32667
711568741124538368	32667
720575940379279360	32667
729583139634020352	32667
738590338888761344	32667
747597538143502336	32667
756604737398243328	32667
765611936652984320	32667
774619135907725312	32667
783626335162466304	32667
792633534417207296	32667
801640733671948288	32667
810647932926689280	32667
819655132181430272	32667
828662331436171264	32667
837669530690912256	32667
846676729945653248	32667
855683929200394240	32667
864691128455135232	32667
873698327709876224	32667
882705526964617216	32667
891712726219358208	32667
900719925474099200	32667
909727124728840192	32667
918734323983581184	32667
927741523238322176	32667
936748722493063168	32667
945755921747804160	32667
954763121002545152	32667
963770320257286144	32667
972777519512027136	32667
981784718766768128	32667
990791918021509120	32667
999799117276250112	32667
1008806316530991104	32667
1017813515785732096	32667
1026820715040473088	32667
1035827914295214080	32667
1044835113549955072	32667
1053842312804696064	32667
1062849512059437056	32667
1071856711314178048	32667
1080863910568919040	32667
1089871109823660032	32667
1098878309078401024	32667
1107885508333142016	32667
1116892707587883008	32667
1125899906842624000	32667
1134907106097364992	32667
1143914305352105984	32667
1152921504606846976	32667
1170935903116328960	32667
1188950301625810944	32667
1206964700135292928	32667
1224979098644774912	32667
1242993497154256896	32667
1261007895663738880	32667
1279022294173220864	32667
1297036692682702848	32667
1315051091192184832	32667
1333065489701666816	32667
1351079888211148800	32667
1369094286720630784	32667
1387108685230112768	32667
1405123083739594752	32667
1423137482249076736	32667
1441151880758558720	32667
1459166279268040704	32667
1477180677777522688	32667
1495195076287004672	32667
1513209474796486656	32667
1531223873305968640	32667
1549238271815450624	32667
1567252670324932608	32667
1585267068834414592	32667
1603281467343896576	32667
1621295865853378560	32667
1639310264362860544	32667
1657324662872342528	32667
1675339061381824512	32667
1693353459891306496	32667
1711367858400788480	32667
1729382256910270464	32667
1747396655419752448	32667
1765411053929234432	32667
1783425452438716416	32667
1801439850948198400	32667
1819454249457680384	32667
1837468647967162368	32667
1855483046476644352	32667
1873497444986126336	32667
1891511843495608320	32667
1909526242005090304	32667
1927540640514572288	32667
1945555039024054272	32667
1963569437533536256	32667
1981583836043018240	32667
1999598234552500224	32667
2017612633061982208	32667
2035627031571464192	32667
2053641430080946176	32667
2071655828590428160	32667
2089670227099910144	32667
2107684625609392128	32667
2125699024118874112	32667
2143713422628356096	32667
2161727821137838080	32667
2179742219647320064	32667
2197756618156802048	32667
2215771016666284032	32667
2233785415175766016	32667
2251799813685248000	32667
2269814212194729984	32667
2287828610704211968	32667
2305843009213693952	32667
2341871806232657920	32667
2377900603251621888	32667
2413929400270585856	32667
2449958197289549824	32667
2485986994308513792	32667
2522015791327477760	32667
2558044588346441728	32667
2594073385365405696	32667
2630102182384369664	32667
2666130979403333632	32667
2702159776422297600	32667
2738188573441261568	32667
2774217370460225536	32667
2810246167479189504	32667
2846274964498153472	32667
2882303761517117440	32667
2918332558536081408	32667
2954361355555045376	32667
2990390152574009344	32667
3026418949592973312	32667
3062447746611937280	32667
3098476543630901248	32667
3134505340649865216	32667
3170534137668829184	32667
3206562934687793152	32667
3242591731706757120	32667
3278620528725721088	32667
3314649325744685056	32667
3350678122763649024	32667
3386706919782612992	32667
3422735716801576960	32667
3458764513820540928	32667
3494793310839504896	32667
3530822107858468864	32667
3566850904877432832	32667
3602879701896396800	32667
3638908498915360768	32667
3674937295934324736	32667
3710966092953288704	32667
3746994889972252672	32667
3783023686991216640	32667
3819052484010180608	32667
3855081281029144576	32667
3891110078048108544	32667
3927138875067072512	32667
3963167672086036480	32667
3999196469105000448	32667
4035225266123964416	32667
4071254063142928384	32667
4107282860161892352	32667
4143311657180856320	32667
4179340454199820288	32667
4215369251218784256	32667
4251398048237748224	32667
4287426845256712192	32667
4323455642275676160	32667
4359484439294640128	32667
4395513236313604096	32667
4431542033332568064	32667
4467570830351532032	32667
4503599627370496000	32667
4539628424389459968	32667
4575657221408423936	32667
4611686018427387904	32667
4683743612465315840	32667
4755801206503243776	32667
4827858800541171712	32667
4899916394579099648	32667
4971973988617027584	32667
5044031582654955520	32667
5116089176692883456	32667
5188146770730811392	32667
5260204364768739328	32667
5332261958806667264	32667
5404319552844595200	32667
5476377146882523136	32667
5548434740920451072	32667
5620492334958379008	32667
5692549928996306944	32667
5764607523034234880	32667
5836665117072162816	32667
5908722711110090752	32667
5980780305148018688	32667
6052837899185946624	32667
6124895493223874560	32667
6196953087261802496	32667
6269010681299730432	32667
6341068275337658368	32667
6413125869375586304	32667
6485183463413514240	32667
6557241057451442176	32667
6629298651489370112	32667
6701356245527298048	32667
6773413839565225984	32667
6845471433603153920	32667
6917529027641081856	32667
6989586621679009792	32667
7061644215716937728	32667
7133701809754865664	32667
7205759403792793600	32667
7277816997830721536	32667
7349874591868649472	32667
7421932185906577408	32667
7493989779944505344	32667
7566047373982433280	32667
7638104968020361216	32667
7710162562058289152	32667
7782220156096217088	32667
7854277750134145024	32667
7926335344172072960	32667
7998392938210000896	32667
8070450532247928832	32667
8142508126285856768	32667
8214565720323784704	32667
8286623314361712640	32667
8358680908399640576	32667
8430738502437568512	32667
8502796096475496448	32667
8574853690513424384	32667
8646911284551352320	32667
8718968878589280256	32667
8791026472627208192	32667
8863084066665136128	32667
8935141660703064064	32667
9007199254740992000	32667
9079256848778919936	32667
9151314442816847872	32667
9223372036854775808	32667
9367487224930631680	32667
9511602413006487552	32667
9655717601082343424	32667
9799832789158199296	32667
9943947977234055168	32667
10088063165309911040	32667
10232178353385766912	32667
10376293541461622784	32667
10520408729537478656	32667
10664523917613334528	32667
10808639105689190400	32667
10952754293765046272	32667
11096869481840902144	32667
11240984669916758016	32667
11385099857992613888	32667
11529215046068469760	32667
11673330234144325632	32667
11817445422220181504	32667
11961560610296037376	32667
12105675798371893248	32667
12249790986447749120	32667
12393906174523604992	32667
12538021362599460864	32667
12682136550675316736	32667
12826251738751172608	32667
12970366926827028480	32667
13114482114902884352	32667
13258597302978740224	32667
13402712491054596096	32667
13546827679130451968	32667
13690942867206307840	32667
13835058055282163712	32667
13979173243358019584	32667
14123288431433875456	32667
14267403619509731328	32667
14411518807585587200	32667
14555633995661443072	32667
14699749183737298944	32667
14843864371813154816	32667
14987979559889010688	32667
15132094747964866560	32667
15276209936040722432	32667
15420325124116578304	32667
15564440312192434176	32667
15708555500268290048	32667
15852670688344145920	32667
15996785876420001792	32667
16140901064495857664	32667
16285016252571713536	32667
16429131440647569408	32667
16573246628723425280	32667
16717361816799281152	32667
16861477004875137024	32667
17005592192950992896	32667
17149707381026848768	32667
17293822569102704640	32667
17437937757178560512	32667
17582052945254416384	32667
17726168133330272256	32667
17870283321406128128	32667
18014398509481984000	32667
18158513697557839872	32667
18302628885633695744	0
