0	0
1	1
2	1.99278
3	2.98403
4	3.97436
5	4.96274
6	5.94813
7	6.92888
8	7.90683
9	8.88274
10	9.85619
11	10.8262
12	11.7939
13	12.7599
14	13.7237
15	14.6853
16	15.6445
17	16.6012
18	17.556
19	18.5094
20	19.4616
21	20.4126
22	21.3623
23	22.3109
24	23.2584
25	24.2049
26	25.1504
27	26.0948
28	27.0381
29	27.9804
30	28.9218
31	29.8622
32	30.8016
33	31.7399
34	32.6773
35	33.6138
36	34.5496
37	35.4848
38	36.4194
39	37.3534
40	38.2869
41	39.2198
42	40.1522
43	41.0841
44	42.0156
45	42.9466
46	43.8771
47	44.8072
48	45.737
49	46.6664
50	47.5954
51	48.524
52	49.4524
53	50.3804
54	51.3081
55	52.2356
56	53.1628
57	54.0897
58	55.0163
59	55.9427
60	56.8689
61	57.7948
62	58.7204
63	59.6458
64	60.5709
65	61.4958
66	62.4204
67	63.3449
68	64.2691
69	65.1932
70	66.1171
71	67.0408
72	67.9643
73	68.8877
74	69.8109
75	70.734
76	71.6569
77	72.5797
78	73.5023
79	74.4248
80	75.3471
81	76.2694
82	77.1914
83	78.1134
84	79.0352
85	79.9569
86	80.8785
87	81.8
88	82.7214
89	83.6426
90	84.5637
91	85.4848
92	86.4057
93	87.3265
94	88.2471
95	89.1677
96	90.0881
97	91.0085
98	91.9287
99	92.8488
100	93.7688
101	94.6887
102	95.6085
103	96.5282
104	97.4478
105	98.3673
106	99.2866
107	100.206
108	101.125
109	102.044
110	102.963
111	103.882
112	104.8
113	105.719
114	106.637
115	107.556
116	108.474
117	109.392
118	110.31
119	111.228
120	112.145
121	113.063
122	113.98
123	114.898
124	115.815
125	116.732
126	117.649
127	118.565
128	119.482
130	121.315
132	123.148
134	124.98
136	126.811
138	128.642
140	130.473
142	132.303
144	134.133
146	135.962
148	137.791
150	139.619
152	141.447
154	143.275
156	145.102
158	146.929
160	148.755
162	150.581
164	152.407
166	154.232
168	156.057
170	157.881
172	159.705
174	161.529
176	163.352
178	165.175
180	166.998
182	168.82
184	170.642
186	172.464
188	174.285
190	176.106
192	177.927
194	179.747
196	181.567
198	183.387
200	185.206
202	187.025
204	188.843
206	190.661
208	192.479
210	194.296
212	196.113
214	197.929
216	199.745
218	201.561
220	203.375
222	205.189
224	207.003
226	208.816
228	210.628
230	212.439
232	214.25
234	216.06
236	217.869
238	219.678
240	221.485
242	223.292
244	225.097
246	226.902
248	228.705
250	230.508
252	232.309
254	234.109
256	235.909
260	239.503
264	243.092
268	246.676
272	250.256
276	253.835
280	257.411
284	260.987
288	264.562
292	268.135
296	271.708
300	275.281
304	278.852
308	282.423
312	285.993
316	289.559
320	293.12
324	296.674
328	300.227
332	303.779
336	307.331
340	310.882
344	314.433
348	317.983
352	321.534
356	325.084
360	328.633
364	332.183
368	335.732
372	339.281
376	342.83
380	346.378
384	349.927
388	353.475
392	357.022
396	360.57
400	364.118
404	367.665
408	371.212
412	374.758
416	378.305
420	381.851
424	385.397
428	388.942
432	392.487
436	396.032
440	399.576
444	403.12
448	406.663
452	410.206
456	413.748
460	417.29
464	420.832
468	424.374
472	427.916
476	431.457
480	434.997
484	438.538
488	442.077
492	445.617
496	449.155
500	452.693
504	456.231
508	459.768
512	463.304
520	470.372
528	477.436
536	484.496
544	491.553
552	498.61
560	505.666
568	512.721
576	519.775
584	526.829
592	533.882
600	540.934
608	547.985
616	555.035
624	562.084
632	569.128
640	576.164
648	583.194
656	590.223
664	597.251
672	604.279
680	611.306
688	618.333
696	625.359
704	632.385
712	639.41
720	646.434
728	653.457
736	660.479
744	667.5
752	674.519
760	681.536
768	688.552
776	695.565
784	702.575
792	709.582
800	716.587
808	723.59
816	730.592
824	737.594
832	744.595
840	751.597
848	758.598
856	765.598
864	772.598
872	779.598
880	786.597
888	793.596
896	800.594
904	807.591
912	814.588
920	821.585
928	828.581
936	835.577
944	842.572
952	849.561
960	856.543
968	863.521
976	870.498
984	877.474
992	884.448
1000	891.421
1008	898.393
1016	905.364
1024	912.333
1040	926.267
1056	940.191
1072	954.109
1088	968.024
1104	981.939
1120	995.852
1136	1009.77
1152	1023.68
1168	1037.59
1184	1051.5
1200	1065.41
1216	1079.31
1232	1093.22
1248	1107.12
1264	1121.01
1280	1134.87
1296	1148.73
1312	1162.57
1328	1176.41
1344	1190.24
1360	1204.07
1376	1217.91
1392	1231.74
1408	1245.57
1424	1259.4
1440	1273.23
1456	1287.05
1472	1300.88
1488	1314.7
1504	1328.52
1520	1342.34
1536	1356.15
1552	1369.96
1568	1383.77
1584	1397.56
1600	1411.33
1616	1425.09
1632	1438.86
1648	1452.62
1664	1466.38
1680	1480.13
1696	1493.89
1712	1507.65
1728	1521.4
1744	1535.15
1760	1548.9
1776	1562.65
1792	1576.39
1808	1590.13
1824	1603.86
1840	1617.6
1856	1631.32
1872	1645.04
1888	1658.77
1904	1672.48
1920	1686.17
1936	1699.86
1952	1713.55
1968	1727.24
1984	1740.92
2000	1754.61
2016	1768.29
2032	1781.96
2048	1795.64
2080	1822.98
2112	1850.31
2144	1877.63
2176	1904.94
2208	1932.25
2240	1959.52
2272	1986.75
2304	2013.98
2336	2041.2
2368	2068.4
2400	2095.6
2432	2122.79
2464	2149.98
2496	2177.16
2528	2204.32
2560	2231.44
2592	2258.54
2624	2285.63
2656	2312.7
2688	2339.78
2720	2366.84
2752	2393.9
2784	2420.96
2816	2448
2848	2475.04
2880	2502.03
2912	2529
2944	2555.96
2976	2582.92
3008	2609.87
3040	2636.82
3072	2663.75
3104	2690.68
3136	2717.6
3168	2744.51
3200	2771.37
3232	2798.21
3264	2825.06
3296	2851.89
3328	2878.72
3360	2905.54
3392	2932.36
3424	2959.17
3456	2985.98
3488	3012.77
3520	3039.52
3552	3066.26
3584	3092.98
3616	3119.71
3648	3146.43
3680	3173.14
3712	3199.85
3744	3226.54
3776	3253.24
3808	3279.91
3840	3306.55
3872	3333.17
3904	3359.79
3936	3386.41
3968	3413.02
4000	3439.62
4032	3466.22
4064	3492.81
4096	3519.4
4160	3572.49
4224	3625.54
4288	3678.56
4352	3731.55
4416	3784.52
4480	3837.41
4544	3890.25
4608	3943.06
4672	3995.86
4736	4048.65
4800	4101.35
4864	4154
4928	4206.63
4992	4259.24
5056	4311.84
5120	4364.34
5184	4416.81
5248	4469.27
5312	4521.7
5376	4574.12
5440	4626.45
5504	4678.75
5568	4731.03
5632	4783.29
5696	4835.54
5760	4887.7
5824	4939.82
5888	4991.93
5952	5044.03
6016	5096.12
6080	5148.12
6144	5200.08
6208	5252.04
6272	5303.98
6336	5355.89
6400	5407.73
6464	5459.55
6528	5511.35
6592	5563.14
6656	5614.91
6720	5666.59
6784	5718.26
6848	5769.91
6912	5821.55
6976	5873.17
7040	5924.71
7104	5976.23
7168	6027.74
7232	6079.24
7296	6130.71
7360	6182.12
7424	6233.5
7488	6284.87
7552	6336.23
7616	6387.56
7680	6438.83
7744	6490.08
7808	6541.32
7872	6592.55
7936	6643.76
8000	6694.89
8064	6746.02
8128	6797.13
8192	6848.23
8320	6950.32
8448	7052.31
8576	7154.25
8704	7256.02
8832	7357.76
8960	7459.37
9088	7560.9
9216	7662.36
9344	7763.68
9472	7864.97
9600	7966.12
9728	8067.21
9856	8168.23
9984	8269.11
10112	8369.97
10240	8470.69
10368	8571.37
10496	8671.97
10624	8772.45
10752	8872.9
10880	8973.24
11008	9073.52
11136	9173.73
11264	9273.83
11392	9373.91
11520	9473.86
11648	9573.78
11776	9673.62
11904	9773.37
12032	9873.09
12160	9972.69
12288	10072.3
12416	10171.8
12544	10271.2
12672	10370.6
12800	10469.8
12928	10569.1
13056	10668.2
13184	10767.3
13312	10866.4
13440	10965.4
13568	11064.3
13696	11163.2
13824	11262
13952	11360.8
14080	11459.4
14208	11558.1
14336	11656.7
14464	11755.2
14592	11853.7
14720	11952.1
14848	12050.5
14976	12148.8
15104	12247.1
15232	12345.3
15360	12443.4
15488	12541.6
15616	12639.6
15744	12737.6
15872	12835.6
16000	12933.5
16128	13031.4
16256	13129.2
16384	13226.9
16640	13422.3
16896	13617.6
17152	13812.6
17408	14007.4
17664	14202.1
17920	14396.6
18176	14590.9
18432	14785.1
18688	14979.1
18944	15172.9
19200	15366.6
19456	15560.1
19712	15753.4
19968	15946.6
20224	16139.6
20480	16332.5
20736	16525.3
20992	16717.8
21248	16910.3
21504	17102.6
21760	17294.7
22016	17486.7
22272	17678.6
22528	17870.4
22784	18062
23040	18253.5
23296	18444.9
23552	18636.1
23808	18827.2
24064	19018.3
24320	19209.1
24576	19399.9
24832	19590.5
25088	19781.1
25344	19971.5
25600	20161.8
25856	20352
26112	20542.1
26368	20732.1
26624	20922
26880	21111.8
27136	21301.6
27392	21491.2
27648	21680.7
27904	21870.1
28160	22059.4
28416	22248.7
28672	22437.8
28928	22626.9
29184	22815.8
29440	23004.7
29696	23193.5
29952	23382.3
30208	23570.9
30464	23759.5
30720	23948
30976	24136.4
31232	24324.8
31488	24513
31744	24701.2
32000	24889.4
32256	25077.4
32512	25265.4
32768	25453.3
33280	25828.9
33792	26204.3
34304	26579.3
34816	26954.1
35328	27328.7
35840	27702.9
36352	28076.9
36864	28450.7
37376	28824.2
37888	29197.4
38400	29570.4
38912	29943.1
39424	30315.6
39936	30687.8
40448	31059.8
40960	31431.6
41472	31803.1
41984	32174.4
42496	32545.4
43008	32916.1
43520	33286.6
44032	33656.9
44544	34026.8
45056	34396.6
45568	34766
46080	35135.1
46592	35503.9
47104	35872.3
47616	36240.4
48128	36608
48640	36975.2
49152	37342
49664	37708.3
50176	38074.2
50688	38439.6
51200	38804.5
51712	39168.8
52224	39532.5
52736	39895.6
53248	40258
53760	40619.7
54272	40980.8
54784	41341.1
55296	41700.6
55808	42059.4
56320	42417.4
56832	42774.7
57344	43131.2
57856	43487
58368	43842
58880	44196.2
59392	44549.7
59904	44902.4
60416	45254.3
60928	45605.5
61440	45955.8
61952	46305.4
62464	46654.2
62976	47002.2
63488	47349.5
64000	47695.9
64512	48041.6
65024	48386.5
65536	48730.6
66560	49416.4
67584	50099
68608	50778.6
69632	51455
70656	52128.2
71680	52798.3
72704	53465.4
73728	54129.5
74752	54790.6
75776	55448.5
76800	56082.9
77824	56708.8
78848	57332.1
79872	57952.9
80896	58571.4
81920	59187.7
82944	59801.8
83968	60413.8
84992	61024
86016	61632.3
87040	62238.9
88064	62843.8
89088	63447.2
90112	64049.1
91136	64649.7
92160	65248.9
93184	65847
94208	66443.8
95232	67039.4
96256	67633.8
97280	68227.1
98304	68819.2
99328	69410.3
100352	70000.3
101376	70589.4
102400	71177.5
103424	71764.8
104448	72351.2
105472	72936.7
106496	73521.5
107520	74105.6
108544	74689
109568	75271.7
110592	75853.7
111616	76435
112640	77015.8
113664	77595.9
114688	78175.4
115712	78754.3
116736	79332.6
117760	79910.3
118784	80487.2
119808	81063.6
120832	81639.3
121856	82214.3
122880	82788.5
123904	83361.9
124928	83934.3
125952	84505.8
126976	85076.3
128000	85645.7
129024	86214
130048	86781.2
131072	87347.2
133120	88475.4
135168	89598.8
137216	90717.4
139264	91830.7
141312	92936.8
143360	94037.7
145408	95133.4
147456	96223.9
149504	97309.1
151552	98389.3
153600	99432.3
155648	100462
157696	101487
159744	102508
161792	103525
163840	104538
165888	105548
167936	106555
169984	107560
172032	108561
174080	109559
176128	110555
178176	111548
180224	112539
182272	113527
184320	114513
186368	115498
188416	116480
190464	117461
192512	118441
194560	119418
196608	120393
198656	121367
200704	122338
202752	123307
204800	124273
206848	125237
208896	126197
210944	127154
212992	128109
215040	129061
217088	130010
219136	130956
221184	131900
223232	132840
225280	133777
227328	134711
229376	135620
231424	136515
233472	137408
235520	138298
237568	139185
239616	140070
241664	140953
243712	141833
245760	142711
247808	143587
249856	144462
251904	145334
253952	146204
256000	147072
258048	147938
260096	148803
262144	149667
266240	151389
270336	153106
274432	154818
278528	156523
282624	158218
286720	159904
290816	161584
294912	163256
299008	164920
303104	166578
307200	168185
311296	169775
315392	171357
319488	172934
323584	174504
327680	176068
331776	177626
335872	179178
339968	180725
344064	182267
348160	183805
352256	185338
356352	186864
360448	188384
364544	189896
368640	191403
372736	192904
376832	194398
380928	195876
385024	197314
389120	198746
393216	200173
397312	201595
401408	203011
405504	204423
409600	205830
413696	207233
417792	208631
421888	210025
425984	211416
430080	212801
434176	214182
438272	215557
442368	216927
446464	218293
450560	219654
454656	221011
458752	222337
462848	223647
466944	224952
471040	226253
475136	227549
479232	228840
483328	230127
487424	231411
491520	232690
495616	233967
499712	235240
503808	236510
507904	237775
512000	239036
516096	240291
520192	241543
524288	242792
532480	245272
540672	247679
548864	250070
557056	252446
565248	254810
573440	257162
581632	259504
589824	261831
598016	264145
606208	266445
614400	268689
622592	270907
630784	273112
638976	275305
647168	277488
655360	279661
663552	281822
671744	283970
679936	286107
688128	288209
696320	290278
704512	292336
712704	294384
720896	296423
729088	298455
737280	300478
745472	302488
753664	304488
761856	306467
770048	308405
778240	310332
786432	312250
794624	314159
802816	316062
811008	317957
819200	319842
827392	321718
835584	323586
843776	325412
851968	327228
860160	329035
868352	330836
876544	332631
884736	334420
892928	336198
901120	337967
909312	339727
917504	341459
925696	343172
933888	344877
942080	346576
950272	348269
958464	349958
966656	351639
974848	353312
983040	354979
991232	356629
999424	358255
1007616	359874
1015808	361487
1024000	363095
1032192	364697
1040384	366292
1048576	367879
1064960	371030
1081344	374110
1097728	377169
1114112	380211
1130496	383226
1146880	386199
1163264	389123
1179648	392029
1196032	394920
1212416	397785
1228800	400598
1245184	403382
1261568	406152
1277952	408904
1294336	411628
1310720	414302
1327104	416960
1343488	419607
1359872	422232
1376256	424821
1392640	427377
1409024	429921
1425408	432451
1441792	434961
1458176	437429
1474560	439877
1490944	442317
1507328	444740
1523712	447139
1540096	449501
1556480	451852
1572864	454193
1589248	456517
1605632	458811
1622016	461080
1638400	463340
1654784	465590
1671168	467822
1687552	470018
1703936	472202
1720320	474378
1736704	476540
1753088	478681
1769472	480795
1785856	482899
1802240	484996
1818624	487077
1835008	489132
1851392	491170
1867776	493200
1884160	495221
1900544	497226
1916928	499203
1933312	501169
1949696	503131
1966080	505078
1982464	507007
1998848	508915
2015232	510816
2031616	512710
2048000	514590
2064384	516448
2080768	518293
2097152	520132
2129920	523778
2162688	527356
2195456	530905
2228224	534391
2260992	537844
2293760	541245
2326528	544602
2359296	547924
2392064	551191
2424832	554432
2457600	557619
2490368	560778
2523136	563891
2555904	566968
2588672	570011
2621440	573009
2654208	575983
2686976	578908
2719744	581810
2752512	584671
2785280	587501
2818048	590300
2850816	593060
2883584	595796
2916352	598490
2949120	601166
2981888	603801
3014656	606416
3047424	608996
3080192	611546
3112960	614074
3145728	616565
3178496	619040
3211264	621477
3244032	623897
3276800	626285
3309568	628649
3342336	630992
3375104	633302
3407872	635597
3440640	637858
3473408	640104
3506176	642322
3538944	644519
3571712	646694
3604480	648843
3637248	650975
3670016	653080
3702784	655169
3735552	657231
3768320	659276
3801088	661300
3833856	663301
3866624	665286
3899392	667246
3932160	669192
3964928	671114
3997696	673021
4030464	674908
4063232	676775
4096000	678627
4128768	680457
4161536	682275
4194304	684070
4259840	687617
4325376	691096
4390912	694510
4456448	697860
4521984	701148
4587520	704375
4653056	707545
4718592	710659
4784128	713718
4849664	716721
4915200	719671
4980736	722567
5046272	725412
5111808	728207
5177344	730956
5242880	733658
5308416	736313
5373952	738923
5439488	741488
5505024	744011
5570560	746493
5636096	748934
5701632	751336
5767168	753698
5832704	756022
5898240	758307
5963776	760556
6029312	762768
6094848	764945
6160384	767088
6225920	769197
6291456	771274
6356992	773318
6422528	775330
6488064	777312
6553600	779264
6619136	781186
6684672	783080
6750208	784946
6815744	786784
6881280	788594
6946816	790378
7012352	792135
7077888	793868
7143424	795575
7208960	797259
7274496	798919
7340032	800556
7405568	802169
7471104	803761
7536640	805331
7602176	806881
7667712	808409
7733248	809917
7798784	811405
7864320	812872
7929856	814320
7995392	815748
8060928	817158
8126464	818550
8192000	819923
8257536	821277
8323072	822613
8388608	823932
8519680	826518
8650752	829042
8781824	831503
8912896	833904
9043968	836249
9175040	838536
9306112	840767
9437184	842946
9568256	845076
9699328	847157
9830400	849190
9961472	851178
10092544	853123
10223616	855022
10354688	856880
10485760	858700
10616832	860482
10747904	862225
10878976	863933
11010048	865608
11141120	867251
11272192	868861
11403264	870438
11534336	871985
11665408	873501
11796480	874989
11927552	876449
12058624	877884
12189696	879292
12320768	880674
12451840	882031
12582912	883365
12713984	884676
12845056	885966
12976128	887237
13107200	888486
13238272	889713
13369344	890923
13500416	892115
13631488	893288
13762560	894445
13893632	895587
14024704	896713
14155776	897822
14286848	898916
14417920	899995
14548992	901059
14680064	902106
14811136	903142
14942208	904167
15073280	905180
15204352	906182
15335424	907174
15466496	908156
15597568	909126
15728640	910087
15859712	911040
15990784	911981
16121856	912912
16252928	913826
16384000	914730
16515072	915623
16646144	916507
16777216	917385
17039360	919102
17301504	920783
17563648	922429
17825792	924049
18087936	925650
18350080	927232
18612224	928824
18874368	930451
19136512	932249
19398656	934934
19660800	940831
19922944	940831
20185088	940831
20447232	940831
20709376	940831
20971520	940831
21233664	940831
21495808	940831
21757952	940831
22020096	940831
22282240	940831
22544384	940831
22806528	940831
23068672	940831
23330816	940831
23592960	940831
23855104	940831
24117248	940831
24379392	940831
24641536	940831
24903680	940831
25165824	940831
25427968	940831
25690112	940831
25952256	940831
26214400	940831
26476544	940831
26738688	940831
27000832	940831
27262976	940831
27525120	940831
27787264	940831
28049408	940831
28311552	940831
28573696	940831
28835840	940831
29097984	940831
29360128	940831
29622272	940831
29884416	940831
30146560	940831
30408704	940831
30670848	940831
30932992	940831
31195136	940831
31457280	940831
31719424	940831
31981568	940831
32243712	940831
32505856	940831
32768000	940831
33030144	940831
33292288	940831
33554432	940831
34078720	940831
34603008	940831
35127296	940831
35651584	940831
36175872	940831
36700160	940831
37224448	940831
37748736	940831
38273024	940831
38797312	940831
39321600	940831
39845888	940831
40370176	940831
40894464	940831
41418752	940831
41943040	940831
42467328	940831
42991616	940831
43515904	940831
44040192	940831
44564480	940831
45088768	940831
45613056	940831
46137344	940831
46661632	940831
47185920	940831
47710208	940831
48234496	940831
48758784	940831
49283072	940831
49807360	940831
50331648	940831
50855936	940831
51380224	940831
51904512	940831
52428800	940831
52953088	940831
53477376	940831
54001664	940831
54525952	940831
55050240	940831
55574528	940831
56098816	940831
56623104	940831
57147392	940831
57671680	940831
58195968	940831
58720256	940831
59244544	940831
59768832	940831
60293120	940831
60817408	940831
61341696	940831
61865984	940831
62390272	940831
62914560	940831
63438848	940831
63963136	940831
64487424	940831
65011712	940831
65536000	940831
66060288	940831
66584576	940831
67108864	940831
68157440	940831
69206016	940831
70254592	940831
71303168	940831
72351744	940831
73400320	940831
74448896	940831
75497472	940831
76546048	940831
77594624	940831
78643200	940831
79691776	940831
80740352	940831
81788928	940831
82837504	940831
83886080	940831
84934656	940831
85983232	940831
87031808	940831
88080384	940831
89128960	940831
90177536	940831
91226112	940831
92274688	940831
93323264	940831
94371840	940831
95420416	940831
96468992	940831
97517568	940831
98566144	940831
99614720	940831
100663296	940831
101711872	940831
102760448	940831
103809024	940831
104857600	940831
105906176	940831
106954752	940831
108003328	940831
109051904	940831
110100480	940831
111149056	940831
112197632	940831
113246208	940831
114294784	940831
115343360	940831
116391936	940831
117440512	940831
118489088	940831
119537664	940831
120586240	940831
121634816	940831
122683392	940831
123731968	940831
124780544	940831
125829120	940831
126877696	940831
127926272	940831
128974848	940831
130023424	940831
131072000	940831
132120576	940831
133169152	940831
134217728	940831
136314880	940831
138412032	940831
140509184	940831
142606336	940831
144703488	940831
146800640	940831
148897792	940831
150994944	940831
153092096	940831
155189248	940831
157286400	940831
159383552	940831
161480704	940831
163577856	940831
165675008	940831
167772160	940831
169869312	940831
171966464	940831
174063616	940831
176160768	940831
178257920	940831
180355072	940831
182452224	940831
184549376	940831
186646528	940831
188743680	940831
190840832	940831
192937984	940831
195035136	940831
197132288	940831
199229440	940831
201326592	940831
203423744	940831
205520896	940831
207618048	940831
209715200	940831
211812352	940831
213909504	940831
216006656	940831
218103808	940831
220200960	940831
222298112	940831
224395264	940831
226492416	940831
228589568	940831
230686720	940831
232783872	940831
234881024	940831
236978176	940831
239075328	940831
241172480	940831
243269632	940831
245366784	940831
247463936	940831
249561088	940831
251658240	940831
253755392	940831
255852544	940831
257949696	940831
260046848	940831
262144000	940831
264241152	940831
266338304	940831
268435456	940831
272629760	940831
276824064	940831
281018368	940831
285212672	940831
289406976	940831
293601280	940831
297795584	940831
301989888	940831
306184192	940831
310378496	940831
314572800	940831
318767104	940831
322961408	940831
327155712	940831
331350016	940831
335544320	940831
339738624	940831
343932928	940831
348127232	940831
352321536	940831
356515840	940831
360710144	940831
364904448	940831
369098752	940831
373293056	940831
377487360	940831
381681664	940831
385875968	940831
390070272	940831
394264576	940831
398458880	940831
402653184	940831
406847488	940831
411041792	940831
415236096	940831
419430400	940831
423624704	940831
427819008	940831
432013312	940831
436207616	940831
440401920	940831
444596224	940831
448790528	940831
452984832	940831
457179136	940831
461373440	940831
465567744	940831
469762048	940831
473956352	940831
478150656	940831
482344960	940831
486539264	940831
490733568	940831
494927872	940831
499122176	940831
503316480	940831
507510784	940831
511705088	940831
515899392	940831
520093696	940831
524288000	940831
528482304	940831
532676608	940831
536870912	940831
545259520	940831
553648128	940831
562036736	940831
570425344	940831
578813952	940831
587202560	940831
595591168	940831
603979776	940831
612368384	940831
620756992	940831
629145600	940831
637534208	940831
645922816	940831
654311424	940831
662700032	940831
671088640	940831
679477248	940831
687865856	940831
696254464	940831
704643072	940831
713031680	940831
721420288	940831
729808896	940831
738197504	940831
746586112	940831
754974720	940831
763363328	940831
771751936	940831
780140544	940831
788529152	940831
796917760	940831
805306368	940831
813694976	940831
822083584	940831
830472192	940831
838860800	940831
847249408	940831
855638016	940831
864026624	940831
872415232	940831
880803840	940831
889192448	940831
897581056	940831
905969664	940831
914358272	940831
922746880	940831
931135488	940831
939524096	940831
947912704	940831
956301312	940831
964689920	940831
973078528	940831
981467136	940831
989855744	940831
998244352	940831
1006632960	940831
1015021568	940831
1023410176	940831
1031798784	940831
1040187392	940831
1048576000	940831
1056964608	940831
1065353216	940831
1073741824	940831
1090519040	940831
1107296256	940831
1124073472	940831
1140850688	940831
1157627904	940831
1174405120	940831
1191182336	940831
1207959552	940831
1224736768	940831
1241513984	940831
1258291200	940831
1275068416	940831
1291845632	940831
1308622848	940831
1325400064	940831
1342177280	940831
1358954496	940831
1375731712	940831
1392508928	940831
1409286144	940831
1426063360	940831
1442840576	940831
1459617792	940831
1476395008	940831
1493172224	940831
1509949440	940831
1526726656	940831
1543503872	940831
1560281088	940831
1577058304	940831
1593835520	940831
1610612736	940831
1627389952	940831
1644167168	940831
1660944384	940831
1677721600	940831
1694498816	940831
1711276032	940831
1728053248	940831
1744830464	940831
1761607680	940831
1778384896	940831
1795162112	940831
1811939328	940831
1828716544	940831
1845493760	940831
1862270976	940831
1879048192	940831
1895825408	940831
1912602624	940831
1929379840	940831
1946157056	940831
1962934272	940831
1979711488	940831
1996488704	940831
2013265920	940831
2030043136	940831
2046820352	940831
2063597568	940831
2080374784	940831
2097152000	940831
2113929216	940831
2130706432	940831
2147483648	940831
2181038080	940831
2214592512	940831
2248146944	940831
2281701376	940831
2315255808	940831
2348810240	940831
2382364672	940831
2415919104	940831
2449473536	940831
2483027968	940831
2516582400	940831
2550136832	940831
2583691264	940831
2617245696	940831
2650800128	940831
2684354560	940831
2717908992	940831
2751463424	940831
2785017856	940831
2818572288	940831
2852126720	940831
2885681152	940831
2919235584	940831
2952790016	940831
2986344448	940831
3019898880	940831
3053453312	940831
3087007744	940831
3120562176	940831
3154116608	940831
3187671040	940831
3221225472	940831
3254779904	940831
3288334336	940831
3321888768	940831
3355443200	940831
3388997632	940831
3422552064	940831
3456106496	940831
3489660928	940831
3523215360	940831
3556769792	940831
3590324224	940831
3623878656	940831
3657433088	940831
3690987520	940831
3724541952	940831
3758096384	940831
3791650816	940831
3825205248	940831
3858759680	940831
3892314112	940831
3925868544	940831
3959422976	940831
3992977408	940831
4026531840	940831
4060086272	940831
4093640704	940831
4127195136	940831
4160749568	940831
4194304000	940831
4227858432	940831
4261412864	940831
4294967296	940831
4362076160	940831
4429185024	940831
4496293888	940831
4563402752	940831
4630511616	940831
4697620480	940831
4764729344	940831
4831838208	940831
4898947072	940831
4966055936	940831
5033164800	940831
5100273664	940831
5167382528	940831
5234491392	940831
5301600256	940831
5368709120	940831
5435817984	940831
5502926848	940831
5570035712	940831
5637144576	940831
5704253440	940831
5771362304	940831
5838471168	940831
5905580032	940831
5972688896	940831
6039797760	940831
6106906624	940831
6174015488	940831
6241124352	940831
6308233216	940831
6375342080	940831
6442450944	940831
6509559808	940831
6576668672	940831
6643777536	940831
6710886400	940831
6777995264	940831
6845104128	940831
6912212992	940831
6979321856	940831
7046430720	940831
7113539584	940831
7180648448	940831
7247757312	940831
7314866176	940831
7381975040	940831
7449083904	940831
7516192768	940831
7583301632	940831
7650410496	940831
7717519360	940831
7784628224	940831
7851737088	940831
7918845952	940831
7985954816	940831
8053063680	940831
8120172544	940831
8187281408	940831
8254390272	940831
8321499136	940831
8388608000	940831
8455716864	940831
8522825728	940831
8589934592	940831
8724152320	940831
8858370048	940831
8992587776	940831
9126805504	940831
9261023232	940831
9395240960	940831
9529458688	940831
9663676416	940831
9797894144	940831
9932111872	940831
10066329600	940831
10200547328	940831
10334765056	940831
10468982784	940831
10603200512	940831
10737418240	940831
10871635968	940831
11005853696	940831
11140071424	940831
11274289152	940831
11408506880	940831
11542724608	940831
11676942336	940831
11811160064	940831
11945377792	940831
12079595520	940831
12213813248	940831
12348030976	940831
12482248704	940831
12616466432	940831
12750684160	940831
12884901888	940831
13019119616	940831
13153337344	940831
13287555072	940831
13421772800	940831
13555990528	940831
13690208256	940831
13824425984	940831
13958643712	940831
14092861440	940831
14227079168	940831
14361296896	940831
14495514624	940831
14629732352	940831
14763950080	940831
14898167808	940831
15032385536	940831
15166603264	940831
15300820992	940831
15435038720	940831
15569256448	940831
15703474176	940831
15837691904	940831
15971909632	940831
16106127360	940831
16240345088	940831
16374562816	940831
16508780544	940831
16642998272	940831
16777216000	940831
16911433728	940831
17045651456	940831
17179869184	940831
17448304640	940831
17716740096	940831
17985175552	940831
18253611008	940831
18522046464	940831
18790481920	940831
19058917376	940831
19327352832	940831
19595788288	940831
19864223744	940831
20132659200	940831
20401094656	940831
20669530112	940831
20937965568	940831
21206401024	940831
21474836480	940831
21743271936	940831
22011707392	940831
22280142848	940831
22548578304	940831
22817013760	940831
23085449216	940831
23353884672	940831
23622320128	940831
23890755584	940831
24159191040	940831
24427626496	940831
24696061952	940831
24964497408	940831
25232932864	940831
25501368320	940831
25769803776	940831
26038239232	940831
26306674688	940831
26575110144	940831
26843545600	940831
27111981056	940831
27380416512	940831
27648851968	940831
27917287424	940831
28185722880	940831
28454158336	940831
28722593792	940831
28991029248	940831
29259464704	940831
29527900160	940831
29796335616	940831
30064771072	940831
30333206528	940831
30601641984	940831
30870077440	940831
31138512896	940831
31406948352	940831
31675383808	940831
31943819264	940831
32212254720	940831
32480690176	940831
32749125632	940831
33017561088	940831
33285996544	940831
33554432000	940831
33822867456	940831
34091302912	940831
34359738368	940831
34896609280	940831
35433480192	940831
35970351104	940831
36507222016	940831
37044092928	940831
37580963840	940831
38117834752	940831
38654705664	940831
39191576576	940831
39728447488	940831
40265318400	940831
40802189312	940831
41339060224	940831
41875931136	940831
42412802048	940831
42949672960	940831
43486543872	940831
44023414784	940831
44560285696	940831
45097156608	940831
45634027520	940831
46170898432	940831
46707769344	940831
47244640256	940831
47781511168	940831
48318382080	940831
48855252992	940831
49392123904	940831
49928994816	940831
50465865728	940831
51002736640	940831
51539607552	940831
52076478464	940831
52613349376	940831
53150220288	940831
53687091200	940831
54223962112	940831
54760833024	940831
55297703936	940831
55834574848	940831
56371445760	940831
56908316672	940831
57445187584	940831
57982058496	940831
58518929408	940831
59055800320	940831
59592671232	940831
60129542144	940831
60666413056	940831
61203283968	940831
61740154880	940831
62277025792	940831
62813896704	940831
63350767616	940831
63887638528	940831
64424509440	940831
64961380352	940831
65498251264	940831
66035122176	940831
66571993088	940831
67108864000	940831
67645734912	940831
68182605824	940831
68719476736	940831
69793218560	940831
70866960384	940831
71940702208	940831
73014444032	940831
74088185856	940831
75161927680	940831
76235669504	940831
77309411328	940831
78383153152	940831
79456894976	940831
80530636800	940831
81604378624	940831
82678120448	940831
83751862272	940831
84825604096	940831
85899345920	940831
86973087744	940831
88046829568	940831
89120571392	940831
90194313216	940831
91268055040	940831
92341796864	940831
93415538688	940831
94489280512	940831
95563022336	940831
96636764160	940831
97710505984	940831
98784247808	940831
99857989632	940831
100931731456	940831
102005473280	940831
103079215104	940831
104152956928	940831
105226698752	940831
106300440576	940831
107374182400	940831
108447924224	940831
109521666048	940831
110595407872	940831
111669149696	940831
112742891520	940831
113816633344	940831
114890375168	940831
115964116992	940831
117037858816	940831
118111600640	940831
119185342464	940831
120259084288	940831
121332826112	940831
122406567936	940831
123480309760	940831
124554051584	940831
125627793408	940831
126701535232	940831
127775277056	940831
128849018880	940831
129922760704	940831
130996502528	940831
132070244352	940831
133143986176	940831
134217728000	940831
135291469824	940831
136365211648	940831
137438953472	940831
139586437120	940831
141733920768	940831
143881404416	940831
146028888064	940831
148176371712	940831
150323855360	940831
152471339008	940831
154618822656	940831
156766306304	940831
158913789952	940831
161061273600	940831
163208757248	940831
165356240896	940831
167503724544	940831
169651208192	940831
171798691840	940831
173946175488	940831
176093659136	940831
178241142784	940831
180388626432	940831
182536110080	940831
184683593728	940831
186831077376	940831
188978561024	940831
191126044672	940831
193273528320	940831
195421011968	940831
197568495616	940831
199715979264	940831
201863462912	940831
204010946560	940831
206158430208	940831
208305913856	940831
210453397504	940831
212600881152	940831
214748364800	940831
216895848448	940831
219043332096	940831
221190815744	940831
223338299392	940831
225485783040	940831
227633266688	940831
229780750336	940831
231928233984	940831
234075717632	940831
236223201280	940831
238370684928	940831
240518168576	940831
242665652224	940831
244813135872	940831
246960619520	940831
249108103168	940831
251255586816	940831
253403070464	940831
255550554112	940831
257698037760	940831
259845521408	940831
261993005056	940831
264140488704	940831
266287972352	940831
268435456000	940831
270582939648	940831
272730423296	940831
274877906944	940831
279172874240	940831
283467841536	940831
287762808832	940831
292057776128	940831
296352743424	940831
300647710720	940831
304942678016	940831
309237645312	940831
313532612608	940831
317827579904	940831
322122547200	940831
326417514496	940831
330712481792	940831
335007449088	940831
339302416384	940831
343597383680	940831
347892350976	940831
352187318272	940831
356482285568	940831
360777252864	940831
365072220160	940831
369367187456	940831
373662154752	940831
377957122048	940831
382252089344	940831
386547056640	940831
390842023936	940831
395136991232	940831
399431958528	940831
403726925824	940831
408021893120	940831
412316860416	940831
416611827712	940831
420906795008	940831
425201762304	940831
429496729600	940831
433791696896	940831
438086664192	940831
442381631488	940831
446676598784	940831
450971566080	940831
455266533376	940831
459561500672	940831
463856467968	940831
468151435264	940831
472446402560	940831
476741369856	940831
481036337152	940831
485331304448	940831
489626271744	940831
493921239040	940831
498216206336	940831
502511173632	940831
506806140928	940831
511101108224	940831
515396075520	940831
519691042816	940831
523986010112	940831
528280977408	940831
532575944704	940831
536870912000	940831
541165879296	940831
545460846592	940831
549755813888	940831
558345748480	940831
566935683072	940831
575525617664	940831
584115552256	940831
592705486848	940831
601295421440	940831
609885356032	940831
618475290624	940831
627065225216	940831
635655159808	940831
644245094400	940831
652835028992	940831
661424963584	940831
670014898176	940831
678604832768	940831
687194767360	940831
695784701952	940831
704374636544	940831
712964571136	940831
721554505728	940831
730144440320	940831
738734374912	940831
747324309504	940831
755914244096	940831
764504178688	940831
773094113280	940831
781684047872	940831
790273982464	940831
798863917056	940831
807453851648	940831
816043786240	940831
824633720832	940831
833223655424	940831
841813590016	940831
850403524608	940831
858993459200	940831
867583393792	940831
876173328384	940831
884763262976	940831
893353197568	940831
901943132160	940831
910533066752	940831
919123001344	940831
927712935936	940831
936302870528	940831
944892805120	940831
953482739712	940831
962072674304	940831
970662608896	940831
979252543488	940831
987842478080	940831
996432412672	940831
1005022347264	940831
1013612281856	940831
1022202216448	940831
1030792151040	940831
1039382085632	940831
1047972020224	940831
1056561954816	940831
1065151889408	940831
1073741824000	940831
1082331758592	940831
1090921693184	940831
1099511627776	940831
1116691496960	940831
1133871366144	940831
1151051235328	940831
1168231104512	940831
1185410973696	940831
1202590842880	940831
1219770712064	940831
1236950581248	940831
1254130450432	940831
1271310319616	940831
1288490188800	940831
1305670057984	940831
1322849927168	940831
1340029796352	940831
1357209665536	940831
1374389534720	940831
1391569403904	940831
1408749273088	940831
1425929142272	940831
1443109011456	940831
1460288880640	940831
1477468749824	940831
1494648619008	940831
1511828488192	940831
1529008357376	940831
1546188226560	940831
1563368095744	940831
1580547964928	940831
1597727834112	940831
1614907703296	940831
1632087572480	940831
1649267441664	940831
1666447310848	940831
1683627180032	940831
1700807049216	940831
1717986918400	940831
1735166787584	940831
1752346656768	940831
1769526525952	940831
1786706395136	940831
1803886264320	940831
1821066133504	940831
1838246002688	940831
1855425871872	940831
1872605741056	940831
1889785610240	940831
1906965479424	940831
1924145348608	940831
1941325217792	940831
1958505086976	940831
1975684956160	940831
1992864825344	940831
2010044694528	940831
2027224563712	940831
2044404432896	940831
2061584302080	940831
2078764171264	940831
2095944040448	940831
2113123909632	940831
2130303778816	940831
2147483648000	940831
2164663517184	940831
2181843386368	940831
2199023255552	940831
2233382993920	940831
2267742732288	940831
2302102470656	940831
2336462209024	940831
2370821947392	940831
2405181685760	940831
2439541424128	940831
2473901162496	940831
2508260900864	940831
2542620639232	940831
2576980377600	940831
2611340115968	940831
2645699854336	940831
2680059592704	940831
2714419331072	940831
2748779069440	940831
2783138807808	940831
2817498546176	940831
2851858284544	940831
2886218022912	940831
2920577761280	940831
2954937499648	940831
2989297238016	940831
3023656976384	940831
3058016714752	940831
3092376453120	940831
3126736191488	940831
3161095929856	940831
3195455668224	940831
3229815406592	940831
3264175144960	940831
3298534883328	940831
3332894621696	940831
3367254360064	940831
3401614098432	940831
3435973836800	940831
3470333575168	940831
3504693313536	940831
3539053051904	940831
3573412790272	940831
3607772528640	940831
3642132267008	940831
3676492005376	940831
3710851743744	940831
3745211482112	940831
3779571220480	940831
3813930958848	940831
3848290697216	940831
3882650435584	940831
3917010173952	940831
3951369912320	940831
3985729650688	940831
4020089389056	940831
4054449127424	940831
4088808865792	940831
4123168604160	940831
4157528342528	940831
4191888080896	940831
4226247819264	940831
4260607557632	940831
4294967296000	940831
4329327034368	940831
4363686772736	940831
4398046511104	940831
4466765987840	940831
4535485464576	940831
4604204941312	940831
4672924418048	940831
4741643894784	940831
4810363371520	940831
4879082848256	940831
4947802324992	940831
5016521801728	940831
5085241278464	940831
5153960755200	940831
5222680231936	940831
5291399708672	940831
5360119185408	940831
5428838662144	940831
5497558138880	940831
5566277615616	940831
5634997092352	940831
5703716569088	940831
5772436045824	940831
5841155522560	940831
5909874999296	940831
5978594476032	940831
6047313952768	940831
6116033429504	940831
6184752906240	940831
6253472382976	940831
6322191859712	940831
6390911336448	940831
6459630813184	940831
6528350289920	940831
6597069766656	940831
6665789243392	940831
6734508720128	940831
6803228196864	940831
6871947673600	940831
6940667150336	940831
7009386627072	940831
7078106103808	940831
7146825580544	940831
7215545057280	940831
7284264534016	940831
7352984010752	940831
7421703487488	940831
7490422964224	940831
7559142440960	940831
7627861917696	940831
7696581394432	940831
7765300871168	940831
7834020347904	940831
7902739824640	940831
7971459301376	940831
8040178778112	940831
8108898254848	940831
8177617731584	940831
8246337208320	940831
8315056685056	940831
8383776161792	940831
8452495638528	940831
8521215115264	940831
8589934592000	940831
8658654068736	940831
8727373545472	940831
8796093022208	940831
8933531975680	940831
9070970929152	940831
9208409882624	940831
9345848836096	940831
9483287789568	940831
9620726743040	940831
9758165696512	940831
9895604649984	940831
10033043603456	940831
10170482556928	940831
10307921510400	940831
10445360463872	940831
10582799417344	940831
10720238370816	940831
10857677324288	940831
10995116277760	940831
11132555231232	940831
11269994184704	940831
11407433138176	940831
11544872091648	940831
11682311045120	940831
11819749998592	940831
11957188952064	940831
12094627905536	940831
12232066859008	940831
12369505812480	940831
12506944765952	940831
12644383719424	940831
12781822672896	940831
12919261626368	940831
13056700579840	940831
13194139533312	940831
13331578486784	940831
13469017440256	940831
13606456393728	940831
13743895347200	940831
13881334300672	940831
14018773254144	940831
14156212207616	940831
14293651161088	940831
14431090114560	940831
14568529068032	940831
14705968021504	940831
14843406974976	940831
14980845928448	940831
15118284881920	940831
15255723835392	940831
15393162788864	940831
15530601742336	940831
15668040695808	940831
15805479649280	940831
15942918602752	940831
16080357556224	940831
16217796509696	940831
16355235463168	940831
16492674416640	940831
16630113370112	940831
16767552323584	940831
16904991277056	940831
17042430230528	940831
17179869184000	940831
17317308137472	940831
17454747090944	940831
17592186044416	940831
17867063951360	940831
18141941858304	940831
18416819765248	940831
18691697672192	940831
18966575579136	940831
19241453486080	940831
19516331393024	940831
19791209299968	940831
20066087206912	940831
20340965113856	940831
20615843020800	940831
20890720927744	940831
21165598834688	940831
21440476741632	940831
21715354648576	940831
21990232555520	940831
22265110462464	940831
22539988369408	940831
22814866276352	940831
23089744183296	940831
23364622090240	940831
23639499997184	940831
23914377904128	940831
24189255811072	940831
24464133718016	940831
24739011624960	940831
25013889531904	940831
25288767438848	940831
25563645345792	940831
25838523252736	940831
26113401159680	940831
26388279066624	940831
26663156973568	940831
26938034880512	940831
27212912787456	940831
27487790694400	940831
27762668601344	940831
28037546508288	940831
28312424415232	940831
28587302322176	940831
28862180229120	940831
29137058136064	940831
29411936043008	940831
29686813949952	940831
29961691856896	940831
30236569763840	940831
30511447670784	940831
30786325577728	940831
31061203484672	940831
31336081391616	940831
31610959298560	940831
31885837205504	940831
32160715112448	940831
32435593019392	940831
32710470926336	940831
32985348833280	940831
33260226740224	940831
33535104647168	940831
33809982554112	940831
34084860461056	940831
34359738368000	940831
34634616274944	940831
34909494181888	940831
35184372088832	940831
35734127902720	940831
36283883716608	940831
36833639530496	940831
37383395344384	940831
37933151158272	940831
38482906972160	940831
39032662786048	940831
39582418599936	940831
40132174413824	940831
40681930227712	940831
41231686041600	940831
41781441855488	940831
42331197669376	940831
42880953483264	940831
43430709297152	940831
43980465111040	940831
44530220924928	940831
45079976738816	940831
45629732552704	940831
46179488366592	940831
46729244180480	940831
47278999994368	940831
47828755808256	940831
48378511622144	940831
48928267436032	940831
49478023249920	940831
50027779063808	940831
50577534877696	940831
51127290691584	940831
51677046505472	940831
52226802319360	940831
52776558133248	940831
53326313947136	940831
53876069761024	940831
54425825574912	940831
54975581388800	940831
55525337202688	940831
56075093016576	940831
56624848830464	940831
57174604644352	940831
57724360458240	940831
58274116272128	940831
58823872086016	940831
59373627899904	940831
59923383713792	940831
60473139527680	940831
61022895341568	940831
61572651155456	940831
62122406969344	940831
62672162783232	940831
63221918597120	940831
63771674411008	940831
64321430224896	940831
64871186038784	940831
65420941852672	940831
65970697666560	940831
66520453480448	940831
67070209294336	940831
67619965108224	940831
68169720922112	940831
68719476736000	940831
69269232549888	940831
69818988363776	940831
70368744177664	940831
71468255805440	940831
72567767433216	940831
73667279060992	940831
74766790688768	940831
75866302316544	940831
76965813944320	940831
78065325572096	940831
79164837199872	940831
80264348827648	940831
81363860455424	940831
82463372083200	940831
83562883710976	940831
84662395338752	940831
85761906966528	940831
86861418594304	940831
87960930222080	940831
89060441849856	940831
90159953477632	940831
91259465105408	940831
92358976733184	940831
93458488360960	940831
94557999988736	940831
95657511616512	940831
96757023244288	940831
97856534872064	940831
98956046499840	940831
100055558127616	940831
101155069755392	940831
102254581383168	940831
103354093010944	940831
104453604638720	940831
105553116266496	940831
106652627894272	940831
107752139522048	940831
108851651149824	940831
109951162777600	940831
111050674405376	940831
112150186033152	940831
113249697660928	940831
114349209288704	940831
115448720916480	940831
116548232544256	940831
117647744172032	940831
118747255799808	940831
119846767427584	940831
120946279055360	940831
122045790683136	940831
123145302310912	940831
124244813938688	940831
125344325566464	940831
126443837194240	940831
127543348822016	940831
128642860449792	940831
129742372077568	940831
130841883705344	940831
131941395333120	940831
133040906960896	940831
134140418588672	940831
135239930216448	940831
136339441844224	940831
137438953472000	940831
138538465099776	940831
139637976727552	940831
140737488355328	940831
142936511610880	940831
145135534866432	940831
147334558121984	940831
149533581377536	940831
151732604633088	940831
153931627888640	940831
156130651144192	940831
158329674399744	940831
160528697655296	940831
162727720910848	940831
164926744166400	940831
167125767421952	940831
169324790677504	940831
171523813933056	940831
173722837188608	940831
175921860444160	940831
178120883699712	940831
180319906955264	940831
182518930210816	940831
184717953466368	940831
186916976721920	940831
189115999977472	940831
191315023233024	940831
193514046488576	940831
195713069744128	940831
197912092999680	940831
200111116255232	940831
202310139510784	940831
204509162766336	940831
206708186021888	940831
208907209277440	940831
211106232532992	940831
213305255788544	940831
215504279044096	940831
217703302299648	940831
219902325555200	940831
222101348810752	940831
224300372066304	940831
226499395321856	940831
228698418577408	940831
230897441832960	940831
233096465088512	940831
235295488344064	940831
237494511599616	940831
239693534855168	940831
241892558110720	940831
244091581366272	940831
246290604621824	940831
248489627877376	940831
250688651132928	940831
252887674388480	940831
255086697644032	940831
257285720899584	940831
259484744155136	940831
261683767410688	940831
263882790666240	940831
266081813921792	940831
268280837177344	940831
270479860432896	940831
272678883688448	940831
274877906944000	940831
277076930199552	940831
279275953455104	940831
281474976710656	940831
285873023221760	940831
290271069732864	940831
294669116243968	940831
299067162755072	940831
303465209266176	940831
307863255777280	940831
312261302288384	940831
316659348799488	940831
321057395310592	940831
325455441821696	940831
329853488332800	940831
334251534843904	940831
338649581355008	940831
343047627866112	940831
347445674377216	940831
351843720888320	940831
356241767399424	940831
360639813910528	940831
365037860421632	940831
369435906932736	940831
373833953443840	940831
378231999954944	940831
382630046466048	940831
387028092977152	940831
391426139488256	940831
395824185999360	940831
400222232510464	940831
404620279021568	940831
409018325532672	940831
413416372043776	940831
417814418554880	940831
422212465065984	940831
426610511577088	940831
431008558088192	940831
435406604599296	940831
439804651110400	940831
444202697621504	940831
448600744132608	940831
452998790643712	940831
457396837154816	940831
461794883665920	940831
466192930177024	940831
470590976688128	940831
474989023199232	940831
479387069710336	940831
483785116221440	940831
488183162732544	940831
492581209243648	940831
496979255754752	940831
501377302265856	940831
505775348776960	940831
510173395288064	940831
514571441799168	940831
518969488310272	940831
523367534821376	940831
527765581332480	940831
532163627843584	940831
536561674354688	940831
540959720865792	940831
545357767376896	940831
549755813888000	940831
554153860399104	940831
558551906910208	940831
562949953421312	940831
571746046443520	940831
580542139465728	940831
589338232487936	940831
598134325510144	940831
606930418532352	940831
615726511554560	940831
624522604576768	940831
633318697598976	940831
642114790621184	940831
650910883643392	940831
659706976665600	940831
668503069687808	940831
677299162710016	940831
686095255732224	940831
694891348754432	940831
703687441776640	940831
712483534798848	940831
721279627821056	940831
730075720843264	940831
738871813865472	940831
747667906887680	940831
756463999909888	940831
765260092932096	940831
774056185954304	940831
782852278976512	940831
791648371998720	940831
800444465020928	940831
809240558043136	940831
818036651065344	940831
826832744087552	940831
835628837109760	940831
844424930131968	940831
853221023154176	940831
862017116176384	940831
870813209198592	940831
879609302220800	940831
888405395243008	940831
897201488265216	940831
905997581287424	940831
914793674309632	940831
923589767331840	940831
932385860354048	940831
941181953376256	940831
949978046398464	940831
958774139420672	940831
967570232442880	940831
976366325465088	940831
985162418487296	940831
993958511509504	940831
1002754604531712	940831
1011550697553920	940831
1020346790576128	940831
1029142883598336	940831
1037938976620544	940831
1046735069642752	940831
1055531162664960	940831
1064327255687168	940831
1073123348709376	940831
1081919441731584	940831
1090715534753792	940831
1099511627776000	940831
1108307720798208	940831
1117103813820416	940831
1125899906842624	940831
1143492092887040	940831
1161084278931456	940831
1178676464975872	940831
1196268651020288	940831
1213860837064704	940831
1231453023109120	940831
1249045209153536	940831
1266637395197952	940831
1284229581242368	940831
1301821767286784	940831
1319413953331200	940831
1337006139375616	940831
1354598325420032	940831
1372190511464448	940831
1389782697508864	940831
1407374883553280	940831
1424967069597696	940831
1442559255642112	940831
1460151441686528	940831
1477743627730944	940831
1495335813775360	940831
1512927999819776	940831
1530520185864192	940831
1548112371908608	940831
1565704557953024	940831
1583296743997440	940831
1600888930041856	940831
1618481116086272	940831
1636073302130688	940831
1653665488175104	940831
1671257674219520	940831
1688849860263936	940831
1706442046308352	940831
1724034232352768	940831
1741626418397184	940831
1759218604441600	940831
1776810790486016	940831
1794402976530432	940831
1811995162574848	940831
1829587348619264	940831
1847179534663680	940831
1864771720708096	940831
1882363906752512	940831
1899956092796928	940831
1917548278841344	940831
1935140464885760	940831
1952732650930176	940831
1970324836974592	940831
1987917023019008	940831
2005509209063424	940831
2023101395107840	940831
2040693581152256	940831
2058285767196672	940831
2075877953241088	940831
2093470139285504	940831
2111062325329920	940831
2128654511374336	940831
2146246697418752	940831
2163838883463168	940831
2181431069507584	940831
2199023255552000	940831
2216615441596416	940831
2234207627640832	940831
2251799813685248	940831
2286984185774080	940831
2322168557862912	940831
2357352929951744	940831
2392537302040576	940831
2427721674129408	940831
2462906046218240	940831
2498090418307072	940831
2533274790395904	940831
2568459162484736	940831
2603643534573568	940831
2638827906662400	940831
2674012278751232	940831
2709196650840064	940831
2744381022928896	940831
2779565395017728	940831
2814749767106560	940831
2849934139195392	940831
2885118511284224	940831
2920302883373056	940831
2955487255461888	940831
2990671627550720	940831
3025855999639552	940831
3061040371728384	940831
3096224743817216	940831
3131409115906048	940831
3166593487994880	940831
3201777860083712	940831
3236962232172544	940831
3272146604261376	940831
3307330976350208	940831
3342515348439040	940831
3377699720527872	940831
3412884092616704	940831
3448068464705536	940831
3483252836794368	940831
3518437208883200	940831
3553621580972032	940831
3588805953060864	940831
3623990325149696	940831
3659174697238528	940831
3694359069327360	940831
3729543441416192	940831
3764727813505024	940831
3799912185593856	940831
3835096557682688	940831
3870280929771520	940831
3905465301860352	940831
3940649673949184	940831
3975834046038016	940831
4011018418126848	940831
4046202790215680	940831
4081387162304512	940831
4116571534393344	940831
4151755906482176	940831
4186940278571008	940831
4222124650659840	940831
4257309022748672	940831
4292493394837504	940831
4327677766926336	940831
4362862139015168	940831
4398046511104000	940831
4433230883192832	940831
4468415255281664	940831
4503599627370496	940831
4573968371548160	940831
4644337115725824	940831
4714705859903488	940831
4785074604081152	940831
4855443348258816	940831
4925812092436480	940831
4996180836614144	940831
5066549580791808	940831
5136918324969472	940831
5207287069147136	940831
5277655813324800	940831
5348024557502464	940831
5418393301680128	940831
5488762045857792	940831
5559130790035456	940831
5629499534213120	940831
5699868278390784	940831
5770237022568448	940831
5840605766746112	940831
5910974510923776	940831
5981343255101440	940831
6051711999279104	940831
6122080743456768	940831
6192449487634432	940831
6262818231812096	940831
6333186975989760	940831
6403555720167424	940831
6473924464345088	940831
6544293208522752	940831
6614661952700416	940831
6685030696878080	940831
6755399441055744	940831
6825768185233408	940831
6896136929411072	940831
6966505673588736	940831
7036874417766400	940831
7107243161944064	940831
7177611906121728	940831
7247980650299392	940831
7318349394477056	940831
7388718138654720	940831
7459086882832384	940831
7529455627010048	940831
7599824371187712	940831
7670193115365376	940831
7740561859543040	940831
7810930603720704	940831
7881299347898368	940831
7951668092076032	940831
8022036836253696	940831
8092405580431360	940831
8162774324609024	940831
8233143068786688	940831
8303511812964352	940831
8373880557142016	940831
8444249301319680	940831
8514618045497344	940831
8584986789675008	940831
8655355533852672	940831
8725724278030336	940831
8796093022208000	940831
8866461766385664	940831
8936830510563328	940831
9007199254740992	940831
9147936743096320	940831
9288674231451648	940831
9429411719806976	940831
9570149208162304	940831
9710886696517632	940831
9851624184872960	940831
9992361673228288	940831
10133099161583616	940831
10273836649938944	940831
10414574138294272	940831
10555311626649600	940831
10696049115004928	940831
10836786603360256	940831
10977524091715584	940831
11118261580070912	940831
11258999068426240	940831
11399736556781568	940831
11540474045136896	940831
11681211533492224	940831
11821949021847552	940831
11962686510202880	940831
12103423998558208	940831
12244161486913536	940831
12384898975268864	940831
12525636463624192	940831
12666373951979520	940831
12807111440334848	940831
12947848928690176	940831
13088586417045504	940831
13229323905400832	940831
13370061393756160	940831
13510798882111488	940831
13651536370466816	940831
13792273858822144	940831
13933011347177472	940831
14073748835532800	940831
14214486323888128	940831
14355223812243456	940831
14495961300598784	940831
14636698788954112	940831
14777436277309440	940831
14918173765664768	940831
15058911254020096	940831
15199648742375424	940831
15340386230730752	940831
15481123719086080	940831
15621861207441408	940831
15762598695796736	940831
15903336184152064	940831
16044073672507392	940831
16184811160862720	940831
16325548649218048	940831
16466286137573376	940831
16607023625928704	940831
16747761114284032	940831
16888498602639360	940831
17029236090994688	940831
17169973579350016	940831
17310711067705344	940831
17451448556060672	940831
17592186044416000	940831
17732923532771328	940831
17873661021126656	940831
18014398509481984	940831
18295873486192640	940831
18577348462903296	940831
18858823439613952	940831
19140298416324608	940831
19421773393035264	940831
19703248369745920	940831
19984723346456576	940831
20266198323167232	940831
20547673299877888	940831
20829148276588544	940831
21110623253299200	940831
21392098230009856	940831
21673573206720512	940831
21955048183431168	940831
22236523160141824	940831
22517998136852480	940831
22799473113563136	940831
23080948090273792	940831
23362423066984448	940831
23643898043695104	940831
23925373020405760	940831
24206847997116416	940831
24488322973827072	940831
24769797950537728	940831
25051272927248384	940831
25332747903959040	940831
25614222880669696	940831
25895697857380352	940831
26177172834091008	940831
26458647810801664	940831
26740122787512320	940831
27021597764222976	940831
27303072740933632	940831
27584547717644288	940831
27866022694354944	940831
28147497671065600	940831
28428972647776256	940831
28710447624486912	940831
28991922601197568	940831
29273397577908224	940831
29554872554618880	940831
29836347531329536	940831
30117822508040192	940831
30399297484750848	940831
30680772461461504	940831
30962247438172160	940831
31243722414882816	940831
31525197391593472	940831
31806672368304128	940831
32088147345014784	940831
32369622321725440	940831
32651097298436096	940831
32932572275146752	940831
33214047251857408	940831
33495522228568064	940831
33776997205278720	940831
34058472181989376	940831
34339947158700032	940831
34621422135410688	940831
34902897112121344	940831
35184372088832000	940831
35465847065542656	940831
35747322042253312	940831
36028797018963968	940831
36591746972385280	940831
37154696925806592	940831
37717646879227904	940831
38280596832649216	940831
38843546786070528	940831
39406496739491840	940831
39969446692913152	940831
40532396646334464	940831
41095346599755776	940831
41658296553177088	940831
42221246506598400	940831
42784196460019712	940831
43347146413441024	940831
43910096366862336	940831
44473046320283648	940831
45035996273704960	940831
45598946227126272	940831
46161896180547584	940831
46724846133968896	940831
47287796087390208	940831
47850746040811520	940831
48413695994232832	940831
48976645947654144	940831
49539595901075456	940831
50102545854496768	940831
50665495807918080	940831
51228445761339392	940831
51791395714760704	940831
52354345668182016	940831
52917295621603328	940831
53480245575024640	940831
54043195528445952	940831
54606145481867264	940831
55169095435288576	940831
55732045388709888	940831
56294995342131200	940831
56857945295552512	940831
57420895248973824	940831
57983845202395136	940831
58546795155816448	940831
59109745109237760	940831
59672695062659072	940831
60235645016080384	940831
60798594969501696	940831
61361544922923008	940831
61924494876344320	940831
62487444829765632	940831
63050394783186944	940831
63613344736608256	940831
64176294690029568	940831
64739244643450880	940831
65302194596872192	940831
65865144550293504	940831
66428094503714816	940831
66991044457136128	940831
67553994410557440	940831
68116944363978752	940831
68679894317400064	940831
69242844270821376	940831
69805794224242688	940831
70368744177664000	940831
70931694131085312	940831
71494644084506624	940831
72057594037927936	940831
73183493944770560	940831
74309393851613184	940831
75435293758455808	940831
76561193665298432	940831
77687093572141056	940831
78812993478983680	940831
79938893385826304	940831
81064793292668928	940831
82190693199511552	940831
83316593106354176	940831
84442493013196800	940831
85568392920039424	940831
86694292826882048	940831
87820192733724672	940831
88946092640567296	940831
90071992547409920	940831
91197892454252544	940831
92323792361095168	940831
93449692267937792	940831
94575592174780416	940831
95701492081623040	940831
96827391988465664	940831
97953291895308288	940831
99079191802150912	940831
100205091708993536	940831
101330991615836160	940831
102456891522678784	940831
103582791429521408	940831
104708691336364032	940831
105834591243206656	940831
106960491150049280	940831
108086391056891904	940831
109212290963734528	940831
110338190870577152	940831
111464090777419776	940831
112589990684262400	940831
113715890591105024	940831
114841790497947648	940831
115967690404790272	940831
117093590311632896	940831
118219490218475520	940831
119345390125318144	940831
120471290032160768	940831
121597189939003392	940831
122723089845846016	940831
123848989752688640	940831
124974889659531264	940831
126100789566373888	940831
127226689473216512	940831
128352589380059136	940831
129478489286901760	940831
130604389193744384	940831
131730289100587008	940831
132856189007429632	940831
133982088914272256	940831
135107988821114880	940831
136233888727957504	940831
137359788634800128	940831
138485688541642752	940831
139611588448485376	940831
140737488355328000	940831
141863388262170624	940831
142989288169013248	940831
144115188075855872	940831
146366987889541120	940831
148618787703226368	940831
150870587516911616	940831
153122387330596864	940831
155374187144282112	940831
157625986957967360	940831
159877786771652608	940831
162129586585337856	940831
164381386399023104	940831
166633186212708352	940831
168884986026393600	940831
171136785840078848	940831
173388585653764096	940831
175640385467449344	940831
177892185281134592	940831
180143985094819840	940831
182395784908505088	940831
184647584722190336	940831
186899384535875584	940831
189151184349560832	940831
191402984163246080	940831
193654783976931328	940831
195906583790616576	940831
198158383604301824	940831
200410183417987072	940831
202661983231672320	940831
204913783045357568	940831
207165582859042816	940831
209417382672728064	940831
211669182486413312	940831
213920982300098560	940831
216172782113783808	940831
218424581927469056	940831
220676381741154304	940831
222928181554839552	940831
225179981368524800	940831
227431781182210048	940831
229683580995895296	940831
231935380809580544	940831
234187180623265792	940831
236438980436951040	940831
238690780250636288	940831
240942580064321536	940831
243194379878006784	940831
245446179691692032	940831
247697979505377280	940831
249949779319062528	940831
252201579132747776	940831
254453378946433024	940831
256705178760118272	940831
258956978573803520	940831
261208778387488768	940831
263460578201174016	940831
265712378014859264	940831
267964177828544512	940831
270215977642229760	940831
272467777455915008	940831
274719577269600256	940831
276971377083285504	940831
279223176896970752	940831
281474976710656000	940831
283726776524341248	940831
285978576338026496	940831
288230376151711744	940831
292733975779082240	940831
297237575406452736	940831
301741175033823232	940831
306244774661193728	940831
310748374288564224	940831
315251973915934720	940831
319755573543305216	940831
324259173170675712	940831
328762772798046208	940831
333266372425416704	940831
337769972052787200	940831
342273571680157696	940831
346777171307528192	940831
351280770934898688	940831
355784370562269184	940831
360287970189639680	940831
364791569817010176	940831
369295169444380672	940831
373798769071751168	940831
378302368699121664	940831
382805968326492160	940831
387309567953862656	940831
391813167581233152	940831
396316767208603648	940831
400820366835974144	940831
405323966463344640	940831
409827566090715136	940831
414331165718085632	940831
418834765345456128	940831
423338364972826624	940831
427841964600197120	940831
432345564227567616	940831
436849163854938112	940831
441352763482308608	940831
445856363109679104	940831
450359962737049600	940831
454863562364420096	940831
459367161991790592	940831
463870761619161088	940831
468374361246531584	940831
472877960873902080	940831
477381560501272576	940831
481885160128643072	940831
486388759756013568	940831
490892359383384064	940831
495395959010754560	940831
499899558638125056	940831
504403158265495552	940831
508906757892866048	940831
513410357520236544	940831
517913957147607040	940831
522417556774977536	940831
526921156402348032	940831
531424756029718528	940831
535928355657089024	940831
540431955284459520	940831
544935554911830016	940831
549439154539200512	940831
553942754166571008	940831
558446353793941504	940831
562949953421312000	940831
567453553048682496	940831
571957152676052992	940831
576460752303423488	940831
585467951558164480	940831
594475150812905472	940831
603482350067646464	940831
612489549322387456	940831
621496748577128448	940831
630503947831869440	940831
639511147086610432	940831
648518346341351424	940831
657525545596092416	940831
666532744850833408	940831
675539944105574400	940831
684547143360315392	940831
693554342615056384	940831
702561541869797376	940831
711568741124538368	940831
720575940379279360	940831
729583139634020352	940831
738590338888761344	940831
747597538143502336	940831
756604737398243328	940831
765611936652984320	940831
774619135907725312	940831
783626335162466304	940831
792633534417207296	940831
801640733671948288	940831
810647932926689280	940831
819655132181430272	940831
828662331436171264	940831
837669530690912256	940831
846676729945653248	940831
855683929200394240	940831
864691128455135232	940831
873698327709876224	940831
882705526964617216	940831
891712726219358208	940831
900719925474099200	940831
909727124728840192	940831
918734323983581184	940831
927741523238322176	940831
936748722493063168	940831
945755921747804160	940831
954763121002545152	940831
963770320257286144	940831
972777519512027136	940831
981784718766768128	940831
990791918021509120	940831
999799117276250112	940831
1008806316530991104	940831
1017813515785732096	940831
1026820715040473088	940831
1035827914295214080	940831
1044835113549955072	940831
1053842312804696064	940831
1062849512059437056	940831
1071856711314178048	940831
1080863910568919040	940831
1089871109823660032	940831
1098878309078401024	940831
1107885508333142016	940831
1116892707587883008	940831
1125899906842624000	940831
1134907106097364992	940831
1143914305352105984	940831
1152921504606846976	940831
1170935903116328960	940831
1188950301625810944	940831
1206964700135292928	940831
1224979098644774912	940831
1242993497154256896	940831
1261007895663738880	940831
1279022294173220864	940831
1297036692682702848	940831
1315051091192184832	940831
1333065489701666816	940831
1351079888211148800	940831
1369094286720630784	940831
1387108685230112768	940831
1405123083739594752	940831
1423137482249076736	940831
1441151880758558720	940831
1459166279268040704	940831
1477180677777522688	940831
1495195076287004672	940831
1513209474796486656	940831
1531223873305968640	940831
1549238271815450624	940831
1567252670324932608	940831
1585267068834414592	940831
1603281467343896576	940831
1621295865853378560	940831
1639310264362860544	940831
1657324662872342528	940831
1675339061381824512	940831
1693353459891306496	940831
1711367858400788480	940831
1729382256910270464	940831
1747396655419752448	940831
1765411053929234432	940831
1783425452438716416	940831
1801439850948198400	940831
1819454249457680384	940831
1837468647967162368	940831
1855483046476644352	940831
1873497444986126336	940831
1891511843495608320	940831
1909526242005090304	940831
1927540640514572288	940831
1945555039024054272	940831
1963569437533536256	940831
1981583836043018240	940831
1999598234552500224	940831
2017612633061982208	940831
2035627031571464192	940831
2053641430080946176	940831
2071655828590428160	940831
2089670227099910144	940831
2107684625609392128	940831
2125699024118874112	940831
2143713422628356096	940831
2161727821137838080	940831
2179742219647320064	940831
2197756618156802048	940831
2215771016666284032	940831
2233785415175766016	940831
2251799813685248000	940831
2269814212194729984	940831
2287828610704211968	940831
2305843009213693952	940831
2341871806232657920	940831
2377900603251621888	940831
2413929400270585856	940831
2449958197289549824	940831
2485986994308513792	940831
2522015791327477760	940831
2558044588346441728	940831
2594073385365405696	940831
2630102182384369664	940831
2666130979403333632	940831
2702159776422297600	940831
2738188573441261568	940831
2774217370460225536	940831
2810246167479189504	940831
2846274964498153472	940831
2882303761517117440	940831
2918332558536081408	940831
2954361355555045376	940831
2990390152574009344	940831
3026418949592973312	940831
3062447746611937280	940831
3098476543630901248	940831
3134505340649865216	940831
3170534137668829184	940831
3206562934687793152	940831
3242591731706757120	940831
3278620528725721088	940831
3314649325744685056	940831
3350678122763649024	940831
3386706919782612992	940831
3422735716801576960	940831
3458764513820540928	940831
3494793310839504896	940831
3530822107858468864	940831
3566850904877432832	940831
3602879701896396800	940831
3638908498915360768	940831
3674937295934324736	940831
3710966092953288704	940831
3746994889972252672	940831
3783023686991216640	940831
3819052484010180608	940831
3855081281029144576	940831
3891110078048108544	940831
3927138875067072512	940831
3963167672086036480	940831
3999196469105000448	940831
4035225266123964416	940831
4071254063142928384	940831
4107282860161892352	940831
4143311657180856320	940831
4179340454199820288	940831
4215369251218784256	940831
4251398048237748224	940831
4287426845256712192	940831
4323455642275676160	940831
4359484439294640128	940831
4395513236313604096	940831
4431542033332568064	940831
4467570830351532032	940831
4503599627370496000	940831
4539628424389459968	940831
4575657221408423936	940831
4611686018427387904	940831
4683743612465315840	940831
4755801206503243776	940831
4827858800541171712	940831
4899916394579099648	940831
4971973988617027584	940831
5044031582654955520	940831
5116089176692883456	940831
5188146770730811392	940831
5260204364768739328	940831
5332261958806667264	940831
5404319552844595200	940831
5476377146882523136	940831
5548434740920451072	940831
5620492334958379008	940831
5692549928996306944	940831
5764607523034234880	940831
5836665117072162816	940831
5908722711110090752	940831
5980780305148018688	940831
6052837899185946624	940831
6124895493223874560	940831
6196953087261802496	940831
6269010681299730432	940831
6341068275337658368	940831
6413125869375586304	940831
6485183463413514240	940831
6557241057451442176	940831
6629298651489370112	940831
6701356245527298048	940831
6773413839565225984	940831
6845471433603153920	940831
6917529027641081856	940831
6989586621679009792	940831
7061644215716937728	940831
7133701809754865664	940831
7205759403792793600	940831
7277816997830721536	940831
7349874591868649472	940831
7421932185906577408	940831
7493989779944505344	940831
7566047373982433280	940831
7638104968020361216	940831
7710162562058289152	940831
7782220156096217088	940831
7854277750134145024	940831
7926335344172072960	940831
7998392938210000896	940831
8070450532247928832	940831
8142508126285856768	940831
8214565720323784704	940831
8286623314361712640	940831
8358680908399640576	940831
8430738502437568512	940831
8502796096475496448	940831
8574853690513424384	940831
8646911284551352320	940831
8718968878589280256	940831
8791026472627208192	940831
8863084066665136128	940831
8935141660703064064	940831
9007199254740992000	940831
9079256848778919936	940831
9151314442816847872	940831
9223372036854775808	940831
9367487224930631680	940831
9511602413006487552	940831
9655717601082343424	940831
9799832789158199296	940831
9943947977234055168	940831
10088063165309911040	940831
10232178353385766912	940831
10376293541461622784	940831
10520408729537478656	940831
10664523917613334528	940831
10808639105689190400	940831
10952754293765046272	940831
11096869481840902144	940831
11240984669916758016	940831
11385099857992613888	940831
11529215046068469760	940831
11673330234144325632	940831
11817445422220181504	940831
11961560610296037376	940831
12105675798371893248	940831
12249790986447749120	940831
12393906174523604992	940831
12538021362599460864	940831
12682136550675316736	940831
12826251738751172608	940831
12970366926827028480	940831
13114482114902884352	940831
13258597302978740224	940831
13402712491054596096	940831
13546827679130451968	940831
13690942867206307840	940831
13835058055282163712	940831
13979173243358019584	940831
14123288431433875456	940831
14267403619509731328	940831
14411518807585587200	940831
14555633995661443072	940831
14699749183737298944	940831
14843864371813154816	940831
14987979559889010688	940831
15132094747964866560	940831
15276209936040722432	940831
15420325124116578304	940831
15564440312192434176	940831
15708555500268290048	940831
15852670688344145920	940831
15996785876420001792	940831
16140901064495857664	940831
16285016252571713536	940831
16429131440647569408	940831
16573246628723425280	940831
16717361816799281152	940831
16861477004875137024	940831
17005592192950992896	940831
17149707381026848768	940831
17293822569102704640	940831
17437937757178560512	940831
17582052945254416384	940831
17726168133330272256	940831
17870283321406128128	940831
18014398509481984000	940831
18158513697557839872	940831
18302628885633695744	0
