0	0
1	1
2	1.99041
3	2.97051
4	3.91994
5	4.80962
6	5.67078
7	6.51519
8	7.35068
9	8.17479
10	8.98822
11	9.79185
12	10.5889
13	11.3793
14	12.1662
15	12.9496
16	13.7298
17	14.5065
18	15.2804
19	16.0529
20	16.823
21	17.5901
22	18.3552
23	19.1182
24	19.8792
25	20.6384
26	21.3968
27	22.1542
28	22.9106
29	23.6663
30	24.4198
31	25.172
32	25.9235
33	26.6749
34	27.4253
35	28.175
36	28.9236
37	29.6716
38	30.4181
39	31.1643
40	31.9103
41	32.656
42	33.4008
43	34.1451
44	34.8892
45	35.6324
46	36.3751
47	37.118
48	37.86
49	38.6019
50	39.343
51	40.0834
52	40.8234
53	41.563
54	42.302
55	43.0408
56	43.7795
57	44.5179
58	45.2559
59	45.9933
60	46.7306
61	47.4678
62	48.205
63	48.9421
64	49.6788
65	50.4153
66	51.1518
67	51.8881
68	52.6245
69	53.3604
70	54.0961
71	54.8315
72	55.5666
73	56.3015
74	57.0361
75	57.7702
76	58.5044
77	59.2385
78	59.9725
79	60.7062
80	61.4398
81	62.1734
82	62.9065
83	63.6396
84	64.3724
85	65.1048
86	65.8374
87	66.5699
88	67.3026
89	68.035
90	68.7672
91	69.4993
92	70.2315
93	70.9635
94	71.6952
95	72.4269
96	73.1585
97	73.89
98	74.6214
99	75.3529
100	76.0843
101	76.8156
102	77.5466
103	78.277
104	79.0074
105	79.7378
106	80.4681
107	81.1986
108	81.9286
109	82.6584
110	83.3881
111	84.1176
112	84.8474
113	85.577
114	86.3067
115	87.0365
116	87.7663
117	88.4962
118	89.2261
119	89.956
120	90.6858
121	91.4152
122	92.1447
123	92.8743
124	93.604
125	94.3337
126	95.0635
127	95.7933
128	96.5229
130	97.9824
132	99.4418
134	100.901
136	102.359
138	103.818
140	105.276
142	106.733
144	108.191
146	109.647
148	111.104
150	112.56
152	114.017
154	115.473
156	116.93
158	118.386
160	119.842
162	121.298
164	122.754
166	124.21
168	125.666
170	127.123
172	128.58
174	130.037
176	131.494
178	132.951
180	134.408
182	135.866
184	137.324
186	138.782
188	140.24
190	141.698
192	143.156
194	144.613
196	146.071
198	147.53
200	148.988
202	150.446
204	151.904
206	153.363
208	154.821
210	156.279
212	157.737
214	159.195
216	160.653
218	162.111
220	163.568
222	165.026
224	166.483
226	167.941
228	169.399
230	170.857
232	172.315
234	173.772
236	175.228
238	176.684
240	178.139
242	179.594
244	181.049
246	182.505
248	183.96
250	185.415
252	186.871
254	188.325
256	189.779
260	192.688
264	195.595
268	198.501
272	201.406
276	204.311
280	207.217
284	210.124
288	213.03
292	215.936
296	218.842
300	221.75
304	224.657
308	227.565
312	230.474
316	233.384
320	236.294
324	239.203
328	242.113
332	245.024
336	247.934
340	250.844
344	253.755
348	256.667
352	259.579
356	262.489
360	265.4
364	268.311
368	271.223
372	274.136
376	277.049
380	279.962
384	282.875
388	285.788
392	288.702
396	291.616
400	294.53
404	297.445
408	300.358
412	303.271
416	306.184
420	309.097
424	312.012
428	314.927
432	317.843
436	320.759
440	323.675
444	326.591
448	329.508
452	332.427
456	335.347
460	338.267
464	341.186
468	344.107
472	347.028
476	349.949
480	352.871
484	355.793
488	358.714
492	361.635
496	364.556
500	367.478
504	370.399
508	373.32
512	376.242
520	382.086
528	387.931
536	393.777
544	399.626
552	405.479
560	411.336
568	417.197
576	423.061
584	428.929
592	434.8
600	440.676
608	446.556
616	452.437
624	458.319
632	464.205
640	470.094
648	475.986
656	481.881
664	487.778
672	493.677
680	499.582
688	505.49
696	511.401
704	517.317
712	523.235
720	529.154
728	535.072
736	540.991
744	546.915
752	552.845
760	558.776
768	564.712
776	570.654
784	576.601
792	582.553
800	588.507
808	594.466
816	600.432
824	606.403
832	612.38
840	618.359
848	624.341
856	630.327
864	636.318
872	642.315
880	648.314
888	654.315
896	660.319
904	666.327
912	672.337
920	678.35
928	684.368
936	690.392
944	696.42
952	702.452
960	708.49
968	714.529
976	720.573
984	726.622
992	732.675
1000	738.73
1008	744.788
1016	750.85
1024	756.914
1040	769.061
1056	781.23
1072	793.423
1088	805.632
1104	817.861
1120	830.104
1136	842.367
1152	854.649
1168	866.953
1184	879.288
1200	891.622
1216	903.95
1232	916.264
1248	928.558
1264	940.836
1280	953.099
1296	965.355
1312	977.601
1328	989.825
1344	1002.03
1360	1014.24
1376	1026.43
1392	1038.6
1408	1050.76
1424	1062.9
1440	1075.03
1456	1087.13
1472	1099.22
1488	1111.29
1504	1123.34
1520	1135.38
1536	1147.4
1552	1159.44
1568	1171.49
1584	1183.56
1600	1195.65
1616	1207.75
1632	1219.87
1648	1232.01
1664	1244.17
1680	1256.37
1696	1268.59
1712	1280.83
1728	1293.1
1744	1305.4
1760	1317.72
1776	1330.07
1792	1342.44
1808	1354.83
1824	1367.25
1840	1379.72
1856	1392.23
1872	1404.76
1888	1417.33
1904	1429.92
1920	1442.54
1936	1455.19
1952	1467.88
1968	1480.62
1984	1493.38
2000	1506.17
2016	1518.99
2032	1531.84
2048	1544.72
2080	1570.56
2112	1596.57
2144	1622.71
2176	1648.99
2208	1675.38
2240	1701.73
2272	1728.05
2304	1754.34
2336	1780.58
2368	1806.79
2400	1832.92
2432	1859.01
2464	1885.05
2496	1911.05
2528	1937.01
2560	1962.92
2592	1988.78
2624	2014.59
2656	2040.36
2688	2066.08
2720	2091.74
2752	2117.34
2784	2142.89
2816	2168.4
2848	2193.89
2880	2219.33
2912	2244.72
2944	2270.05
2976	2295.35
3008	2320.58
3040	2345.76
3072	2370.87
3104	2395.89
3136	2420.82
3168	2445.68
3200	2470.45
3232	2495.13
3264	2519.74
3296	2544.32
3328	2568.83
3360	2593.23
3392	2617.57
3424	2641.9
3456	2666.15
3488	2690.3
3520	2714.44
3552	2738.49
3584	2762.44
3616	2786.29
3648	2810.08
3680	2833.78
3712	2857.34
3744	2880.78
3776	2904.12
3808	2927.32
3840	2950.38
3872	2973.29
3904	2996.1
3936	3018.76
3968	3041.31
4000	3063.71
4032	3085.98
4064	3108.09
4096	3130.08
4160	3173.62
4224	3216.43
4288	3258.56
4352	3300.04
4416	3340.68
4480	3380.42
4544	3419.09
4608	3456.71
4672	3493.17
4736	3528.64
4800	3564.08
4864	3599.91
4928	3635.88
4992	3672.24
5056	3709.07
5120	3746.63
5184	3784.58
5248	3823.08
5312	3862.26
5376	3901.64
5440	3940.01
5504	3976.76
5568	4011.72
5632	4044.94
5696	4075.79
5760	4105.12
5824	4134.29
5888	4163.56
5952	4192.76
6016	4221.72
6080	4250.36
6144	4279.35
6208	4308.29
6272	4336.99
6336	4365.74
6400	4394.62
6464	4423.07
6528	4451.61
6592	4480.47
6656	4509.07
6720	4538.05
6784	4567.81
6848	4603.71
6912	4632
6976	4632
7040	4632
7104	4632
7168	4632
7232	4632
7296	4632
7360	4632
7424	4632
7488	4632
7552	4632
7616	4632
7680	4632
7744	4632
7808	4632
7872	4632
7936	4632
8000	4632
8064	4632
8128	4632
8192	4632
8320	4632
8448	4632
8576	4632
8704	4632
8832	4632
8960	4632
9088	4632
9216	4632
9344	4632
9472	4632
9600	4632
9728	4632
9856	4632
9984	4632
10112	4632
10240	4632
10368	4632
10496	4632
10624	4632
10752	4632
10880	4632
11008	4632
11136	4632
11264	4632
11392	4632
11520	4632
11648	4632
11776	4632
11904	4632
12032	4632
12160	4632
12288	4632
12416	4632
12544	4632
12672	4632
12800	4632
12928	4632
13056	4632
13184	4632
13312	4632
13440	4632
13568	4632
13696	4632
13824	4632
13952	4632
14080	4632
14208	4632
14336	4632
14464	4632
14592	4632
14720	4632
14848	4632
14976	4632
15104	4632
15232	4632
15360	4632
15488	4632
15616	4632
15744	4632
15872	4632
16000	4632
16128	4632
16256	4632
16384	4632
16640	4632
16896	4632
17152	4632
17408	4632
17664	4632
17920	4632
18176	4632
18432	4632
18688	4632
18944	4632
19200	4632
19456	4632
19712	4632
19968	4632
20224	4632
20480	4632
20736	4632
20992	4632
21248	4632
21504	4632
21760	4632
22016	4632
22272	4632
22528	4632
22784	4632
23040	4632
23296	4632
23552	4632
23808	4632
24064	4632
24320	4632
24576	4632
24832	4632
25088	4632
25344	4632
25600	4632
25856	4632
26112	4632
26368	4632
26624	4632
26880	4632
27136	4632
27392	4632
27648	4632
27904	4632
28160	4632
28416	4632
28672	4632
28928	4632
29184	4632
29440	4632
29696	4632
29952	4632
30208	4632
30464	4632
30720	4632
30976	4632
31232	4632
31488	4632
31744	4632
32000	4632
32256	4632
32512	4632
32768	4632
33280	4632
33792	4632
34304	4632
34816	4632
35328	4632
35840	4632
36352	4632
36864	4632
37376	4632
37888	4632
38400	4632
38912	4632
39424	4632
39936	4632
40448	4632
40960	4632
41472	4632
41984	4632
42496	4632
43008	4632
43520	4632
44032	4632
44544	4632
45056	4632
45568	4632
46080	4632
46592	4632
47104	4632
47616	4632
48128	4632
48640	4632
49152	4632
49664	4632
50176	4632
50688	4632
51200	4632
51712	4632
52224	4632
52736	4632
53248	4632
53760	4632
54272	4632
54784	4632
55296	4632
55808	4632
56320	4632
56832	4632
57344	4632
57856	4632
58368	4632
58880	4632
59392	4632
59904	4632
60416	4632
60928	4632
61440	4632
61952	4632
62464	4632
62976	4632
63488	4632
64000	4632
64512	4632
65024	4632
65536	4632
66560	4632
67584	4632
68608	4632
69632	4632
70656	4632
71680	4632
72704	4632
73728	4632
74752	4632
75776	4632
76800	4632
77824	4632
78848	4632
79872	4632
80896	4632
81920	4632
82944	4632
83968	4632
84992	4632
86016	4632
87040	4632
88064	4632
89088	4632
90112	4632
91136	4632
92160	4632
93184	4632
94208	4632
95232	4632
96256	4632
97280	4632
98304	4632
99328	4632
100352	4632
101376	4632
102400	4632
103424	4632
104448	4632
105472	4632
106496	4632
107520	4632
108544	4632
109568	4632
110592	4632
111616	4632
112640	4632
113664	4632
114688	4632
115712	4632
116736	4632
117760	4632
118784	4632
119808	4632
120832	4632
121856	4632
122880	4632
123904	4632
124928	4632
125952	4632
126976	4632
128000	4632
129024	4632
130048	4632
131072	4632
133120	4632
135168	4632
137216	4632
139264	4632
141312	4632
143360	4632
145408	4632
147456	4632
149504	4632
151552	4632
153600	4632
155648	4632
157696	4632
159744	4632
161792	4632
163840	4632
165888	4632
167936	4632
169984	4632
172032	4632
174080	4632
176128	4632
178176	4632
180224	4632
182272	4632
184320	4632
186368	4632
188416	4632
190464	4632
192512	4632
194560	4632
196608	4632
198656	4632
200704	4632
202752	4632
204800	4632
206848	4632
208896	4632
210944	4632
212992	4632
215040	4632
217088	4632
219136	4632
221184	4632
223232	4632
225280	4632
227328	4632
229376	4632
231424	4632
233472	4632
235520	4632
237568	4632
239616	4632
241664	4632
243712	4632
245760	4632
247808	4632
249856	4632
251904	4632
253952	4632
256000	4632
258048	4632
260096	4632
262144	4632
266240	4632
270336	4632
274432	4632
278528	4632
282624	4632
286720	4632
290816	4632
294912	4632
299008	4632
303104	4632
307200	4632
311296	4632
315392	4632
319488	4632
323584	4632
327680	4632
331776	4632
335872	4632
339968	4632
344064	4632
348160	4632
352256	4632
356352	4632
360448	4632
364544	4632
368640	4632
372736	4632
376832	4632
380928	4632
385024	4632
389120	4632
393216	4632
397312	4632
401408	4632
405504	4632
409600	4632
413696	4632
417792	4632
421888	4632
425984	4632
430080	4632
434176	4632
438272	4632
442368	4632
446464	4632
450560	4632
454656	4632
458752	4632
462848	4632
466944	4632
471040	4632
475136	4632
479232	4632
483328	4632
487424	4632
491520	4632
495616	4632
499712	4632
503808	4632
507904	4632
512000	4632
516096	4632
520192	4632
524288	4632
532480	4632
540672	4632
548864	4632
557056	4632
565248	4632
573440	4632
581632	4632
589824	4632
598016	4632
606208	4632
614400	4632
622592	4632
630784	4632
638976	4632
647168	4632
655360	4632
663552	4632
671744	4632
679936	4632
688128	4632
696320	4632
704512	4632
712704	4632
720896	4632
729088	4632
737280	4632
745472	4632
753664	4632
761856	4632
770048	4632
778240	4632
786432	4632
794624	4632
802816	4632
811008	4632
819200	4632
827392	4632
835584	4632
843776	4632
851968	4632
860160	4632
868352	4632
876544	4632
884736	4632
892928	4632
901120	4632
909312	4632
917504	4632
925696	4632
933888	4632
942080	4632
950272	4632
958464	4632
966656	4632
974848	4632
983040	4632
991232	4632
999424	4632
1007616	4632
1015808	4632
1024000	4632
1032192	4632
1040384	4632
1048576	4632
1064960	4632
1081344	4632
1097728	4632
1114112	4632
1130496	4632
1146880	4632
1163264	4632
1179648	4632
1196032	4632
1212416	4632
1228800	4632
1245184	4632
1261568	4632
1277952	4632
1294336	4632
1310720	4632
1327104	4632
1343488	4632
1359872	4632
1376256	4632
1392640	4632
1409024	4632
1425408	4632
1441792	4632
1458176	4632
1474560	4632
1490944	4632
1507328	4632
1523712	4632
1540096	4632
1556480	4632
1572864	4632
1589248	4632
1605632	4632
1622016	4632
1638400	4632
1654784	4632
1671168	4632
1687552	4632
1703936	4632
1720320	4632
1736704	4632
1753088	4632
1769472	4632
1785856	4632
1802240	4632
1818624	4632
1835008	4632
1851392	4632
1867776	4632
1884160	4632
1900544	4632
1916928	4632
1933312	4632
1949696	4632
1966080	4632
1982464	4632
1998848	4632
2015232	4632
2031616	4632
2048000	4632
2064384	4632
2080768	4632
2097152	4632
2129920	4632
2162688	4632
2195456	4632
2228224	4632
2260992	4632
2293760	4632
2326528	4632
2359296	4632
2392064	4632
2424832	4632
2457600	4632
2490368	4632
2523136	4632
2555904	4632
2588672	4632
2621440	4632
2654208	4632
2686976	4632
2719744	4632
2752512	4632
2785280	4632
2818048	4632
2850816	4632
2883584	4632
2916352	4632
2949120	4632
2981888	4632
3014656	4632
3047424	4632
3080192	4632
3112960	4632
3145728	4632
3178496	4632
3211264	4632
3244032	4632
3276800	4632
3309568	4632
3342336	4632
3375104	4632
3407872	4632
3440640	4632
3473408	4632
3506176	4632
3538944	4632
3571712	4632
3604480	4632
3637248	4632
3670016	4632
3702784	4632
3735552	4632
3768320	4632
3801088	4632
3833856	4632
3866624	4632
3899392	4632
3932160	4632
3964928	4632
3997696	4632
4030464	4632
4063232	4632
4096000	4632
4128768	4632
4161536	4632
4194304	4632
4259840	4632
4325376	4632
4390912	4632
4456448	4632
4521984	4632
4587520	4632
4653056	4632
4718592	4632
4784128	4632
4849664	4632
4915200	4632
4980736	4632
5046272	4632
5111808	4632
5177344	4632
5242880	4632
5308416	4632
5373952	4632
5439488	4632
5505024	4632
5570560	4632
5636096	4632
5701632	4632
5767168	4632
5832704	4632
5898240	4632
5963776	4632
6029312	4632
6094848	4632
6160384	4632
6225920	4632
6291456	4632
6356992	4632
6422528	4632
6488064	4632
6553600	4632
6619136	4632
6684672	4632
6750208	4632
6815744	4632
6881280	4632
6946816	4632
7012352	4632
7077888	4632
7143424	4632
7208960	4632
7274496	4632
7340032	4632
7405568	4632
7471104	4632
7536640	4632
7602176	4632
7667712	4632
7733248	4632
7798784	4632
7864320	4632
7929856	4632
7995392	4632
8060928	4632
8126464	4632
8192000	4632
8257536	4632
8323072	4632
8388608	4632
8519680	4632
8650752	4632
8781824	4632
8912896	4632
9043968	4632
9175040	4632
9306112	4632
9437184	4632
9568256	4632
9699328	4632
9830400	4632
9961472	4632
10092544	4632
10223616	4632
10354688	4632
10485760	4632
10616832	4632
10747904	4632
10878976	4632
11010048	4632
11141120	4632
11272192	4632
11403264	4632
11534336	4632
11665408	4632
11796480	4632
11927552	4632
12058624	4632
12189696	4632
12320768	4632
12451840	4632
12582912	4632
12713984	4632
12845056	4632
12976128	4632
13107200	4632
13238272	4632
13369344	4632
13500416	4632
13631488	4632
13762560	4632
13893632	4632
14024704	4632
14155776	4632
14286848	4632
14417920	4632
14548992	4632
14680064	4632
14811136	4632
14942208	4632
15073280	4632
15204352	4632
15335424	4632
15466496	4632
15597568	4632
15728640	4632
15859712	4632
15990784	4632
16121856	4632
16252928	4632
16384000	4632
16515072	4632
16646144	4632
16777216	4632
17039360	4632
17301504	4632
17563648	4632
17825792	4632
18087936	4632
18350080	4632
18612224	4632
18874368	4632
19136512	4632
19398656	4632
19660800	4632
19922944	4632
20185088	4632
20447232	4632
20709376	4632
20971520	4632
21233664	4632
21495808	4632
21757952	4632
22020096	4632
22282240	4632
22544384	4632
22806528	4632
23068672	4632
23330816	4632
23592960	4632
23855104	4632
24117248	4632
24379392	4632
24641536	4632
24903680	4632
25165824	4632
25427968	4632
25690112	4632
25952256	4632
26214400	4632
26476544	4632
26738688	4632
27000832	4632
27262976	4632
27525120	4632
27787264	4632
28049408	4632
28311552	4632
28573696	4632
28835840	4632
29097984	4632
29360128	4632
29622272	4632
29884416	4632
30146560	4632
30408704	4632
30670848	4632
30932992	4632
31195136	4632
31457280	4632
31719424	4632
31981568	4632
32243712	4632
32505856	4632
32768000	4632
33030144	4632
33292288	4632
33554432	4632
34078720	4632
34603008	4632
35127296	4632
35651584	4632
36175872	4632
36700160	4632
37224448	4632
37748736	4632
38273024	4632
38797312	4632
39321600	4632
39845888	4632
40370176	4632
40894464	4632
41418752	4632
41943040	4632
42467328	4632
42991616	4632
43515904	4632
44040192	4632
44564480	4632
45088768	4632
45613056	4632
46137344	4632
46661632	4632
47185920	4632
47710208	4632
48234496	4632
48758784	4632
49283072	4632
49807360	4632
50331648	4632
50855936	4632
51380224	4632
51904512	4632
52428800	4632
52953088	4632
53477376	4632
54001664	4632
54525952	4632
55050240	4632
55574528	4632
56098816	4632
56623104	4632
57147392	4632
57671680	4632
58195968	4632
58720256	4632
59244544	4632
59768832	4632
60293120	4632
60817408	4632
61341696	4632
61865984	4632
62390272	4632
62914560	4632
63438848	4632
63963136	4632
64487424	4632
65011712	4632
65536000	4632
66060288	4632
66584576	4632
67108864	4632
68157440	4632
69206016	4632
70254592	4632
71303168	4632
72351744	4632
73400320	4632
74448896	4632
75497472	4632
76546048	4632
77594624	4632
78643200	4632
79691776	4632
80740352	4632
81788928	4632
82837504	4632
83886080	4632
84934656	4632
85983232	4632
87031808	4632
88080384	4632
89128960	4632
90177536	4632
91226112	4632
92274688	4632
93323264	4632
94371840	4632
95420416	4632
96468992	4632
97517568	4632
98566144	4632
99614720	4632
100663296	4632
101711872	4632
102760448	4632
103809024	4632
104857600	4632
105906176	4632
106954752	4632
108003328	4632
109051904	4632
110100480	4632
111149056	4632
112197632	4632
113246208	4632
114294784	4632
115343360	4632
116391936	4632
117440512	4632
118489088	4632
119537664	4632
120586240	4632
121634816	4632
122683392	4632
123731968	4632
124780544	4632
125829120	4632
126877696	4632
127926272	4632
128974848	4632
130023424	4632
131072000	4632
132120576	4632
133169152	4632
134217728	4632
136314880	4632
138412032	4632
140509184	4632
142606336	4632
144703488	4632
146800640	4632
148897792	4632
150994944	4632
153092096	4632
155189248	4632
157286400	4632
159383552	4632
161480704	4632
163577856	4632
165675008	4632
167772160	4632
169869312	4632
171966464	4632
174063616	4632
176160768	4632
178257920	4632
180355072	4632
182452224	4632
184549376	4632
186646528	4632
188743680	4632
190840832	4632
192937984	4632
195035136	4632
197132288	4632
199229440	4632
201326592	4632
203423744	4632
205520896	4632
207618048	4632
209715200	4632
211812352	4632
213909504	4632
216006656	4632
218103808	4632
220200960	4632
222298112	4632
224395264	4632
226492416	4632
228589568	4632
230686720	4632
232783872	4632
234881024	4632
236978176	4632
239075328	4632
241172480	4632
243269632	4632
245366784	4632
247463936	4632
249561088	4632
251658240	4632
253755392	4632
255852544	4632
257949696	4632
260046848	4632
262144000	4632
264241152	4632
266338304	4632
268435456	4632
272629760	4632
276824064	4632
281018368	4632
285212672	4632
289406976	4632
293601280	4632
297795584	4632
301989888	4632
306184192	4632
310378496	4632
314572800	4632
318767104	4632
322961408	4632
327155712	4632
331350016	4632
335544320	4632
339738624	4632
343932928	4632
348127232	4632
352321536	4632
356515840	4632
360710144	4632
364904448	4632
369098752	4632
373293056	4632
377487360	4632
381681664	4632
385875968	4632
390070272	4632
394264576	4632
398458880	4632
402653184	4632
406847488	4632
411041792	4632
415236096	4632
419430400	4632
423624704	4632
427819008	4632
432013312	4632
436207616	4632
440401920	4632
444596224	4632
448790528	4632
452984832	4632
457179136	4632
461373440	4632
465567744	4632
469762048	4632
473956352	4632
478150656	4632
482344960	4632
486539264	4632
490733568	4632
494927872	4632
499122176	4632
503316480	4632
507510784	4632
511705088	4632
515899392	4632
520093696	4632
524288000	4632
528482304	4632
532676608	4632
536870912	4632
545259520	4632
553648128	4632
562036736	4632
570425344	4632
578813952	4632
587202560	4632
595591168	4632
603979776	4632
612368384	4632
620756992	4632
629145600	4632
637534208	4632
645922816	4632
654311424	4632
662700032	4632
671088640	4632
679477248	4632
687865856	4632
696254464	4632
704643072	4632
713031680	4632
721420288	4632
729808896	4632
738197504	4632
746586112	4632
754974720	4632
763363328	4632
771751936	4632
780140544	4632
788529152	4632
796917760	4632
805306368	4632
813694976	4632
822083584	4632
830472192	4632
838860800	4632
847249408	4632
855638016	4632
864026624	4632
872415232	4632
880803840	4632
889192448	4632
897581056	4632
905969664	4632
914358272	4632
922746880	4632
931135488	4632
939524096	4632
947912704	4632
956301312	4632
964689920	4632
973078528	4632
981467136	4632
989855744	4632
998244352	4632
1006632960	4632
1015021568	4632
1023410176	4632
1031798784	4632
1040187392	4632
1048576000	4632
1056964608	4632
1065353216	4632
1073741824	4632
1090519040	4632
1107296256	4632
1124073472	4632
1140850688	4632
1157627904	4632
1174405120	4632
1191182336	4632
1207959552	4632
1224736768	4632
1241513984	4632
1258291200	4632
1275068416	4632
1291845632	4632
1308622848	4632
1325400064	4632
1342177280	4632
1358954496	4632
1375731712	4632
1392508928	4632
1409286144	4632
1426063360	4632
1442840576	4632
1459617792	4632
1476395008	4632
1493172224	4632
1509949440	4632
1526726656	4632
1543503872	4632
1560281088	4632
1577058304	4632
1593835520	4632
1610612736	4632
1627389952	4632
1644167168	4632
1660944384	4632
1677721600	4632
1694498816	4632
1711276032	4632
1728053248	4632
1744830464	4632
1761607680	4632
1778384896	4632
1795162112	4632
1811939328	4632
1828716544	4632
1845493760	4632
1862270976	4632
1879048192	4632
1895825408	4632
1912602624	4632
1929379840	4632
1946157056	4632
1962934272	4632
1979711488	4632
1996488704	4632
2013265920	4632
2030043136	4632
2046820352	4632
2063597568	4632
2080374784	4632
2097152000	4632
2113929216	4632
2130706432	4632
2147483648	4632
2181038080	4632
2214592512	4632
2248146944	4632
2281701376	4632
2315255808	4632
2348810240	4632
2382364672	4632
2415919104	4632
2449473536	4632
2483027968	4632
2516582400	4632
2550136832	4632
2583691264	4632
2617245696	4632
2650800128	4632
2684354560	4632
2717908992	4632
2751463424	4632
2785017856	4632
2818572288	4632
2852126720	4632
2885681152	4632
2919235584	4632
2952790016	4632
2986344448	4632
3019898880	4632
3053453312	4632
3087007744	4632
3120562176	4632
3154116608	4632
3187671040	4632
3221225472	4632
3254779904	4632
3288334336	4632
3321888768	4632
3355443200	4632
3388997632	4632
3422552064	4632
3456106496	4632
3489660928	4632
3523215360	4632
3556769792	4632
3590324224	4632
3623878656	4632
3657433088	4632
3690987520	4632
3724541952	4632
3758096384	4632
3791650816	4632
3825205248	4632
3858759680	4632
3892314112	4632
3925868544	4632
3959422976	4632
3992977408	4632
4026531840	4632
4060086272	4632
4093640704	4632
4127195136	4632
4160749568	4632
4194304000	4632
4227858432	4632
4261412864	4632
4294967296	4632
4362076160	4632
4429185024	4632
4496293888	4632
4563402752	4632
4630511616	4632
4697620480	4632
4764729344	4632
4831838208	4632
4898947072	4632
4966055936	4632
5033164800	4632
5100273664	4632
5167382528	4632
5234491392	4632
5301600256	4632
5368709120	4632
5435817984	4632
5502926848	4632
5570035712	4632
5637144576	4632
5704253440	4632
5771362304	4632
5838471168	4632
5905580032	4632
5972688896	4632
6039797760	4632
6106906624	4632
6174015488	4632
6241124352	4632
6308233216	4632
6375342080	4632
6442450944	4632
6509559808	4632
6576668672	4632
6643777536	4632
6710886400	4632
6777995264	4632
6845104128	4632
6912212992	4632
6979321856	4632
7046430720	4632
7113539584	4632
7180648448	4632
7247757312	4632
7314866176	4632
7381975040	4632
7449083904	4632
7516192768	4632
7583301632	4632
7650410496	4632
7717519360	4632
7784628224	4632
7851737088	4632
7918845952	4632
7985954816	4632
8053063680	4632
8120172544	4632
8187281408	4632
8254390272	4632
8321499136	4632
8388608000	4632
8455716864	4632
8522825728	4632
8589934592	4632
8724152320	4632
8858370048	4632
8992587776	4632
9126805504	4632
9261023232	4632
9395240960	4632
9529458688	4632
9663676416	4632
9797894144	4632
9932111872	4632
10066329600	4632
10200547328	4632
10334765056	4632
10468982784	4632
10603200512	4632
10737418240	4632
10871635968	4632
11005853696	4632
11140071424	4632
11274289152	4632
11408506880	4632
11542724608	4632
11676942336	4632
11811160064	4632
11945377792	4632
12079595520	4632
12213813248	4632
12348030976	4632
12482248704	4632
12616466432	4632
12750684160	4632
12884901888	4632
13019119616	4632
13153337344	4632
13287555072	4632
13421772800	4632
13555990528	4632
13690208256	4632
13824425984	4632
13958643712	4632
14092861440	4632
14227079168	4632
14361296896	4632
14495514624	4632
14629732352	4632
14763950080	4632
14898167808	4632
15032385536	4632
15166603264	4632
15300820992	4632
15435038720	4632
15569256448	4632
15703474176	4632
15837691904	4632
15971909632	4632
16106127360	4632
16240345088	4632
16374562816	4632
16508780544	4632
16642998272	4632
16777216000	4632
16911433728	4632
17045651456	4632
17179869184	4632
17448304640	4632
17716740096	4632
17985175552	4632
18253611008	4632
18522046464	4632
18790481920	4632
19058917376	4632
19327352832	4632
19595788288	4632
19864223744	4632
20132659200	4632
20401094656	4632
20669530112	4632
20937965568	4632
21206401024	4632
21474836480	4632
21743271936	4632
22011707392	4632
22280142848	4632
22548578304	4632
22817013760	4632
23085449216	4632
23353884672	4632
23622320128	4632
23890755584	4632
24159191040	4632
24427626496	4632
24696061952	4632
24964497408	4632
25232932864	4632
25501368320	4632
25769803776	4632
26038239232	4632
26306674688	4632
26575110144	4632
26843545600	4632
27111981056	4632
27380416512	4632
27648851968	4632
27917287424	4632
28185722880	4632
28454158336	4632
28722593792	4632
28991029248	4632
29259464704	4632
29527900160	4632
29796335616	4632
30064771072	4632
30333206528	4632
30601641984	4632
30870077440	4632
31138512896	4632
31406948352	4632
31675383808	4632
31943819264	4632
32212254720	4632
32480690176	4632
32749125632	4632
33017561088	4632
33285996544	4632
33554432000	4632
33822867456	4632
34091302912	4632
34359738368	4632
34896609280	4632
35433480192	4632
35970351104	4632
36507222016	4632
37044092928	4632
37580963840	4632
38117834752	4632
38654705664	4632
39191576576	4632
39728447488	4632
40265318400	4632
40802189312	4632
41339060224	4632
41875931136	4632
42412802048	4632
42949672960	4632
43486543872	4632
44023414784	4632
44560285696	4632
45097156608	4632
45634027520	4632
46170898432	4632
46707769344	4632
47244640256	4632
47781511168	4632
48318382080	4632
48855252992	4632
49392123904	4632
49928994816	4632
50465865728	4632
51002736640	4632
51539607552	4632
52076478464	4632
52613349376	4632
53150220288	4632
53687091200	4632
54223962112	4632
54760833024	4632
55297703936	4632
55834574848	4632
56371445760	4632
56908316672	4632
57445187584	4632
57982058496	4632
58518929408	4632
59055800320	4632
59592671232	4632
60129542144	4632
60666413056	4632
61203283968	4632
61740154880	4632
62277025792	4632
62813896704	4632
63350767616	4632
63887638528	4632
64424509440	4632
64961380352	4632
65498251264	4632
66035122176	4632
66571993088	4632
67108864000	4632
67645734912	4632
68182605824	4632
68719476736	4632
69793218560	4632
70866960384	4632
71940702208	4632
73014444032	4632
74088185856	4632
75161927680	4632
76235669504	4632
77309411328	4632
78383153152	4632
79456894976	4632
80530636800	4632
81604378624	4632
82678120448	4632
83751862272	4632
84825604096	4632
85899345920	4632
86973087744	4632
88046829568	4632
89120571392	4632
90194313216	4632
91268055040	4632
92341796864	4632
93415538688	4632
94489280512	4632
95563022336	4632
96636764160	4632
97710505984	4632
98784247808	4632
99857989632	4632
100931731456	4632
102005473280	4632
103079215104	4632
104152956928	4632
105226698752	4632
106300440576	4632
107374182400	4632
108447924224	4632
109521666048	4632
110595407872	4632
111669149696	4632
112742891520	4632
113816633344	4632
114890375168	4632
115964116992	4632
117037858816	4632
118111600640	4632
119185342464	4632
120259084288	4632
121332826112	4632
122406567936	4632
123480309760	4632
124554051584	4632
125627793408	4632
126701535232	4632
127775277056	4632
128849018880	4632
129922760704	4632
130996502528	4632
132070244352	4632
133143986176	4632
134217728000	4632
135291469824	4632
136365211648	4632
137438953472	4632
139586437120	4632
141733920768	4632
143881404416	4632
146028888064	4632
148176371712	4632
150323855360	4632
152471339008	4632
154618822656	4632
156766306304	4632
158913789952	4632
161061273600	4632
163208757248	4632
165356240896	4632
167503724544	4632
169651208192	4632
171798691840	4632
173946175488	4632
176093659136	4632
178241142784	4632
180388626432	4632
182536110080	4632
184683593728	4632
186831077376	4632
188978561024	4632
191126044672	4632
193273528320	4632
195421011968	4632
197568495616	4632
199715979264	4632
201863462912	4632
204010946560	4632
206158430208	4632
208305913856	4632
210453397504	4632
212600881152	4632
214748364800	4632
216895848448	4632
219043332096	4632
221190815744	4632
223338299392	4632
225485783040	4632
227633266688	4632
229780750336	4632
231928233984	4632
234075717632	4632
236223201280	4632
238370684928	4632
240518168576	4632
242665652224	4632
244813135872	4632
246960619520	4632
249108103168	4632
251255586816	4632
253403070464	4632
255550554112	4632
257698037760	4632
259845521408	4632
261993005056	4632
264140488704	4632
266287972352	4632
268435456000	4632
270582939648	4632
272730423296	4632
274877906944	4632
279172874240	4632
283467841536	4632
287762808832	4632
292057776128	4632
296352743424	4632
300647710720	4632
304942678016	4632
309237645312	4632
313532612608	4632
317827579904	4632
322122547200	4632
326417514496	4632
330712481792	4632
335007449088	4632
339302416384	4632
343597383680	4632
347892350976	4632
352187318272	4632
356482285568	4632
360777252864	4632
365072220160	4632
369367187456	4632
373662154752	4632
377957122048	4632
382252089344	4632
386547056640	4632
390842023936	4632
395136991232	4632
399431958528	4632
403726925824	4632
408021893120	4632
412316860416	4632
416611827712	4632
420906795008	4632
425201762304	4632
429496729600	4632
433791696896	4632
438086664192	4632
442381631488	4632
446676598784	4632
450971566080	4632
455266533376	4632
459561500672	4632
463856467968	4632
468151435264	4632
472446402560	4632
476741369856	4632
481036337152	4632
485331304448	4632
489626271744	4632
493921239040	4632
498216206336	4632
502511173632	4632
506806140928	4632
511101108224	4632
515396075520	4632
519691042816	4632
523986010112	4632
528280977408	4632
532575944704	4632
536870912000	4632
541165879296	4632
545460846592	4632
549755813888	4632
558345748480	4632
566935683072	4632
575525617664	4632
584115552256	4632
592705486848	4632
601295421440	4632
609885356032	4632
618475290624	4632
627065225216	4632
635655159808	4632
644245094400	4632
652835028992	4632
661424963584	4632
670014898176	4632
678604832768	4632
687194767360	4632
695784701952	4632
704374636544	4632
712964571136	4632
721554505728	4632
730144440320	4632
738734374912	4632
747324309504	4632
755914244096	4632
764504178688	4632
773094113280	4632
781684047872	4632
790273982464	4632
798863917056	4632
807453851648	4632
816043786240	4632
824633720832	4632
833223655424	4632
841813590016	4632
850403524608	4632
858993459200	4632
867583393792	4632
876173328384	4632
884763262976	4632
893353197568	4632
901943132160	4632
910533066752	4632
919123001344	4632
927712935936	4632
936302870528	4632
944892805120	4632
953482739712	4632
962072674304	4632
970662608896	4632
979252543488	4632
987842478080	4632
996432412672	4632
1005022347264	4632
1013612281856	4632
1022202216448	4632
1030792151040	4632
1039382085632	4632
1047972020224	4632
1056561954816	4632
1065151889408	4632
1073741824000	4632
1082331758592	4632
1090921693184	4632
1099511627776	4632
1116691496960	4632
1133871366144	4632
1151051235328	4632
1168231104512	4632
1185410973696	4632
1202590842880	4632
1219770712064	4632
1236950581248	4632
1254130450432	4632
1271310319616	4632
1288490188800	4632
1305670057984	4632
1322849927168	4632
1340029796352	4632
1357209665536	4632
1374389534720	4632
1391569403904	4632
1408749273088	4632
1425929142272	4632
1443109011456	4632
1460288880640	4632
1477468749824	4632
1494648619008	4632
1511828488192	4632
1529008357376	4632
1546188226560	4632
1563368095744	4632
1580547964928	4632
1597727834112	4632
1614907703296	4632
1632087572480	4632
1649267441664	4632
1666447310848	4632
1683627180032	4632
1700807049216	4632
1717986918400	4632
1735166787584	4632
1752346656768	4632
1769526525952	4632
1786706395136	4632
1803886264320	4632
1821066133504	4632
1838246002688	4632
1855425871872	4632
1872605741056	4632
1889785610240	4632
1906965479424	4632
1924145348608	4632
1941325217792	4632
1958505086976	4632
1975684956160	4632
1992864825344	4632
2010044694528	4632
2027224563712	4632
2044404432896	4632
2061584302080	4632
2078764171264	4632
2095944040448	4632
2113123909632	4632
2130303778816	4632
2147483648000	4632
2164663517184	4632
2181843386368	4632
2199023255552	4632
2233382993920	4632
2267742732288	4632
2302102470656	4632
2336462209024	4632
2370821947392	4632
2405181685760	4632
2439541424128	4632
2473901162496	4632
2508260900864	4632
2542620639232	4632
2576980377600	4632
2611340115968	4632
2645699854336	4632
2680059592704	4632
2714419331072	4632
2748779069440	4632
2783138807808	4632
2817498546176	4632
2851858284544	4632
2886218022912	4632
2920577761280	4632
2954937499648	4632
2989297238016	4632
3023656976384	4632
3058016714752	4632
3092376453120	4632
3126736191488	4632
3161095929856	4632
3195455668224	4632
3229815406592	4632
3264175144960	4632
3298534883328	4632
3332894621696	4632
3367254360064	4632
3401614098432	4632
3435973836800	4632
3470333575168	4632
3504693313536	4632
3539053051904	4632
3573412790272	4632
3607772528640	4632
3642132267008	4632
3676492005376	4632
3710851743744	4632
3745211482112	4632
3779571220480	4632
3813930958848	4632
3848290697216	4632
3882650435584	4632
3917010173952	4632
3951369912320	4632
3985729650688	4632
4020089389056	4632
4054449127424	4632
4088808865792	4632
4123168604160	4632
4157528342528	4632
4191888080896	4632
4226247819264	4632
4260607557632	4632
4294967296000	4632
4329327034368	4632
4363686772736	4632
4398046511104	4632
4466765987840	4632
4535485464576	4632
4604204941312	4632
4672924418048	4632
4741643894784	4632
4810363371520	4632
4879082848256	4632
4947802324992	4632
5016521801728	4632
5085241278464	4632
5153960755200	4632
5222680231936	4632
5291399708672	4632
5360119185408	4632
5428838662144	4632
5497558138880	4632
5566277615616	4632
5634997092352	4632
5703716569088	4632
5772436045824	4632
5841155522560	4632
5909874999296	4632
5978594476032	4632
6047313952768	4632
6116033429504	4632
6184752906240	4632
6253472382976	4632
6322191859712	4632
6390911336448	4632
6459630813184	4632
6528350289920	4632
6597069766656	4632
6665789243392	4632
6734508720128	4632
6803228196864	4632
6871947673600	4632
6940667150336	4632
7009386627072	4632
7078106103808	4632
7146825580544	4632
7215545057280	4632
7284264534016	4632
7352984010752	4632
7421703487488	4632
7490422964224	4632
7559142440960	4632
7627861917696	4632
7696581394432	4632
7765300871168	4632
7834020347904	4632
7902739824640	4632
7971459301376	4632
8040178778112	4632
8108898254848	4632
8177617731584	4632
8246337208320	4632
8315056685056	4632
8383776161792	4632
8452495638528	4632
8521215115264	4632
8589934592000	4632
8658654068736	4632
8727373545472	4632
8796093022208	4632
8933531975680	4632
9070970929152	4632
9208409882624	4632
9345848836096	4632
9483287789568	4632
9620726743040	4632
9758165696512	4632
9895604649984	4632
10033043603456	4632
10170482556928	4632
10307921510400	4632
10445360463872	4632
10582799417344	4632
10720238370816	4632
10857677324288	4632
10995116277760	4632
11132555231232	4632
11269994184704	4632
11407433138176	4632
11544872091648	4632
11682311045120	4632
11819749998592	4632
11957188952064	4632
12094627905536	4632
12232066859008	4632
12369505812480	4632
12506944765952	4632
12644383719424	4632
12781822672896	4632
12919261626368	4632
13056700579840	4632
13194139533312	4632
13331578486784	4632
13469017440256	4632
13606456393728	4632
13743895347200	4632
13881334300672	4632
14018773254144	4632
14156212207616	4632
14293651161088	4632
14431090114560	4632
14568529068032	4632
14705968021504	4632
14843406974976	4632
14980845928448	4632
15118284881920	4632
15255723835392	4632
15393162788864	4632
15530601742336	4632
15668040695808	4632
15805479649280	4632
15942918602752	4632
16080357556224	4632
16217796509696	4632
16355235463168	4632
16492674416640	4632
16630113370112	4632
16767552323584	4632
16904991277056	4632
17042430230528	4632
17179869184000	4632
17317308137472	4632
17454747090944	4632
17592186044416	4632
17867063951360	4632
18141941858304	4632
18416819765248	4632
18691697672192	4632
18966575579136	4632
19241453486080	4632
19516331393024	4632
19791209299968	4632
20066087206912	4632
20340965113856	4632
20615843020800	4632
20890720927744	4632
21165598834688	4632
21440476741632	4632
21715354648576	4632
21990232555520	4632
22265110462464	4632
22539988369408	4632
22814866276352	4632
23089744183296	4632
23364622090240	4632
23639499997184	4632
23914377904128	4632
24189255811072	4632
24464133718016	4632
24739011624960	4632
25013889531904	4632
25288767438848	4632
25563645345792	4632
25838523252736	4632
26113401159680	4632
26388279066624	4632
26663156973568	4632
26938034880512	4632
27212912787456	4632
27487790694400	4632
27762668601344	4632
28037546508288	4632
28312424415232	4632
28587302322176	4632
28862180229120	4632
29137058136064	4632
29411936043008	4632
29686813949952	4632
29961691856896	4632
30236569763840	4632
30511447670784	4632
30786325577728	4632
31061203484672	4632
31336081391616	4632
31610959298560	4632
31885837205504	4632
32160715112448	4632
32435593019392	4632
32710470926336	4632
32985348833280	4632
33260226740224	4632
33535104647168	4632
33809982554112	4632
34084860461056	4632
34359738368000	4632
34634616274944	4632
34909494181888	4632
35184372088832	4632
35734127902720	4632
36283883716608	4632
36833639530496	4632
37383395344384	4632
37933151158272	4632
38482906972160	4632
39032662786048	4632
39582418599936	4632
40132174413824	4632
40681930227712	4632
41231686041600	4632
41781441855488	4632
42331197669376	4632
42880953483264	4632
43430709297152	4632
43980465111040	4632
44530220924928	4632
45079976738816	4632
45629732552704	4632
46179488366592	4632
46729244180480	4632
47278999994368	4632
47828755808256	4632
48378511622144	4632
48928267436032	4632
49478023249920	4632
50027779063808	4632
50577534877696	4632
51127290691584	4632
51677046505472	4632
52226802319360	4632
52776558133248	4632
53326313947136	4632
53876069761024	4632
54425825574912	4632
54975581388800	4632
55525337202688	4632
56075093016576	4632
56624848830464	4632
57174604644352	4632
57724360458240	4632
58274116272128	4632
58823872086016	4632
59373627899904	4632
59923383713792	4632
60473139527680	4632
61022895341568	4632
61572651155456	4632
62122406969344	4632
62672162783232	4632
63221918597120	4632
63771674411008	4632
64321430224896	4632
64871186038784	4632
65420941852672	4632
65970697666560	4632
66520453480448	4632
67070209294336	4632
67619965108224	4632
68169720922112	4632
68719476736000	4632
69269232549888	4632
69818988363776	4632
70368744177664	4632
71468255805440	4632
72567767433216	4632
73667279060992	4632
74766790688768	4632
75866302316544	4632
76965813944320	4632
78065325572096	4632
79164837199872	4632
80264348827648	4632
81363860455424	4632
82463372083200	4632
83562883710976	4632
84662395338752	4632
85761906966528	4632
86861418594304	4632
87960930222080	4632
89060441849856	4632
90159953477632	4632
91259465105408	4632
92358976733184	4632
93458488360960	4632
94557999988736	4632
95657511616512	4632
96757023244288	4632
97856534872064	4632
98956046499840	4632
100055558127616	4632
101155069755392	4632
102254581383168	4632
103354093010944	4632
104453604638720	4632
105553116266496	4632
106652627894272	4632
107752139522048	4632
108851651149824	4632
109951162777600	4632
111050674405376	4632
112150186033152	4632
113249697660928	4632
114349209288704	4632
115448720916480	4632
116548232544256	4632
117647744172032	4632
118747255799808	4632
119846767427584	4632
120946279055360	4632
122045790683136	4632
123145302310912	4632
124244813938688	4632
125344325566464	4632
126443837194240	4632
127543348822016	4632
128642860449792	4632
129742372077568	4632
130841883705344	4632
131941395333120	4632
133040906960896	4632
134140418588672	4632
135239930216448	4632
136339441844224	4632
137438953472000	4632
138538465099776	4632
139637976727552	4632
140737488355328	4632
142936511610880	4632
145135534866432	4632
147334558121984	4632
149533581377536	4632
151732604633088	4632
153931627888640	4632
156130651144192	4632
158329674399744	4632
160528697655296	4632
162727720910848	4632
164926744166400	4632
167125767421952	4632
169324790677504	4632
171523813933056	4632
173722837188608	4632
175921860444160	4632
178120883699712	4632
180319906955264	4632
182518930210816	4632
184717953466368	4632
186916976721920	4632
189115999977472	4632
191315023233024	4632
193514046488576	4632
195713069744128	4632
197912092999680	4632
200111116255232	4632
202310139510784	4632
204509162766336	4632
206708186021888	4632
208907209277440	4632
211106232532992	4632
213305255788544	4632
215504279044096	4632
217703302299648	4632
219902325555200	4632
222101348810752	4632
224300372066304	4632
226499395321856	4632
228698418577408	4632
230897441832960	4632
233096465088512	4632
235295488344064	4632
237494511599616	4632
239693534855168	4632
241892558110720	4632
244091581366272	4632
246290604621824	4632
248489627877376	4632
250688651132928	4632
252887674388480	4632
255086697644032	4632
257285720899584	4632
259484744155136	4632
261683767410688	4632
263882790666240	4632
266081813921792	4632
268280837177344	4632
270479860432896	4632
272678883688448	4632
274877906944000	4632
277076930199552	4632
279275953455104	4632
281474976710656	4632
285873023221760	4632
290271069732864	4632
294669116243968	4632
299067162755072	4632
303465209266176	4632
307863255777280	4632
312261302288384	4632
316659348799488	4632
321057395310592	4632
325455441821696	4632
329853488332800	4632
334251534843904	4632
338649581355008	4632
343047627866112	4632
347445674377216	4632
351843720888320	4632
356241767399424	4632
360639813910528	4632
365037860421632	4632
369435906932736	4632
373833953443840	4632
378231999954944	4632
382630046466048	4632
387028092977152	4632
391426139488256	4632
395824185999360	4632
400222232510464	4632
404620279021568	4632
409018325532672	4632
413416372043776	4632
417814418554880	4632
422212465065984	4632
426610511577088	4632
431008558088192	4632
435406604599296	4632
439804651110400	4632
444202697621504	4632
448600744132608	4632
452998790643712	4632
457396837154816	4632
461794883665920	4632
466192930177024	4632
470590976688128	4632
474989023199232	4632
479387069710336	4632
483785116221440	4632
488183162732544	4632
492581209243648	4632
496979255754752	4632
501377302265856	4632
505775348776960	4632
510173395288064	4632
514571441799168	4632
518969488310272	4632
523367534821376	4632
527765581332480	4632
532163627843584	4632
536561674354688	4632
540959720865792	4632
545357767376896	4632
549755813888000	4632
554153860399104	4632
558551906910208	4632
562949953421312	4632
571746046443520	4632
580542139465728	4632
589338232487936	4632
598134325510144	4632
606930418532352	4632
615726511554560	4632
624522604576768	4632
633318697598976	4632
642114790621184	4632
650910883643392	4632
659706976665600	4632
668503069687808	4632
677299162710016	4632
686095255732224	4632
694891348754432	4632
703687441776640	4632
712483534798848	4632
721279627821056	4632
730075720843264	4632
738871813865472	4632
747667906887680	4632
756463999909888	4632
765260092932096	4632
774056185954304	4632
782852278976512	4632
791648371998720	4632
800444465020928	4632
809240558043136	4632
818036651065344	4632
826832744087552	4632
835628837109760	4632
844424930131968	4632
853221023154176	4632
862017116176384	4632
870813209198592	4632
879609302220800	4632
888405395243008	4632
897201488265216	4632
905997581287424	4632
914793674309632	4632
923589767331840	4632
932385860354048	4632
941181953376256	4632
949978046398464	4632
958774139420672	4632
967570232442880	4632
976366325465088	4632
985162418487296	4632
993958511509504	4632
1002754604531712	4632
1011550697553920	4632
1020346790576128	4632
1029142883598336	4632
1037938976620544	4632
1046735069642752	4632
1055531162664960	4632
1064327255687168	4632
1073123348709376	4632
1081919441731584	4632
1090715534753792	4632
1099511627776000	4632
1108307720798208	4632
1117103813820416	4632
1125899906842624	4632
1143492092887040	4632
1161084278931456	4632
1178676464975872	4632
1196268651020288	4632
1213860837064704	4632
1231453023109120	4632
1249045209153536	4632
1266637395197952	4632
1284229581242368	4632
1301821767286784	4632
1319413953331200	4632
1337006139375616	4632
1354598325420032	4632
1372190511464448	4632
1389782697508864	4632
1407374883553280	4632
1424967069597696	4632
1442559255642112	4632
1460151441686528	4632
1477743627730944	4632
1495335813775360	4632
1512927999819776	4632
1530520185864192	4632
1548112371908608	4632
1565704557953024	4632
1583296743997440	4632
1600888930041856	4632
1618481116086272	4632
1636073302130688	4632
1653665488175104	4632
1671257674219520	4632
1688849860263936	4632
1706442046308352	4632
1724034232352768	4632
1741626418397184	4632
1759218604441600	4632
1776810790486016	4632
1794402976530432	4632
1811995162574848	4632
1829587348619264	4632
1847179534663680	4632
1864771720708096	4632
1882363906752512	4632
1899956092796928	4632
1917548278841344	4632
1935140464885760	4632
1952732650930176	4632
1970324836974592	4632
1987917023019008	4632
2005509209063424	4632
2023101395107840	4632
2040693581152256	4632
2058285767196672	4632
2075877953241088	4632
2093470139285504	4632
2111062325329920	4632
2128654511374336	4632
2146246697418752	4632
2163838883463168	4632
2181431069507584	4632
2199023255552000	4632
2216615441596416	4632
2234207627640832	4632
2251799813685248	4632
2286984185774080	4632
2322168557862912	4632
2357352929951744	4632
2392537302040576	4632
2427721674129408	4632
2462906046218240	4632
2498090418307072	4632
2533274790395904	4632
2568459162484736	4632
2603643534573568	4632
2638827906662400	4632
2674012278751232	4632
2709196650840064	4632
2744381022928896	4632
2779565395017728	4632
2814749767106560	4632
2849934139195392	4632
2885118511284224	4632
2920302883373056	4632
2955487255461888	4632
2990671627550720	4632
3025855999639552	4632
3061040371728384	4632
3096224743817216	4632
3131409115906048	4632
3166593487994880	4632
3201777860083712	4632
3236962232172544	4632
3272146604261376	4632
3307330976350208	4632
3342515348439040	4632
3377699720527872	4632
3412884092616704	4632
3448068464705536	4632
3483252836794368	4632
3518437208883200	4632
3553621580972032	4632
3588805953060864	4632
3623990325149696	4632
3659174697238528	4632
3694359069327360	4632
3729543441416192	4632
3764727813505024	4632
3799912185593856	4632
3835096557682688	4632
3870280929771520	4632
3905465301860352	4632
3940649673949184	4632
3975834046038016	4632
4011018418126848	4632
4046202790215680	4632
4081387162304512	4632
4116571534393344	4632
4151755906482176	4632
4186940278571008	4632
4222124650659840	4632
4257309022748672	4632
4292493394837504	4632
4327677766926336	4632
4362862139015168	4632
4398046511104000	4632
4433230883192832	4632
4468415255281664	4632
4503599627370496	4632
4573968371548160	4632
4644337115725824	4632
4714705859903488	4632
4785074604081152	4632
4855443348258816	4632
4925812092436480	4632
4996180836614144	4632
5066549580791808	4632
5136918324969472	4632
5207287069147136	4632
5277655813324800	4632
5348024557502464	4632
5418393301680128	4632
5488762045857792	4632
5559130790035456	4632
5629499534213120	4632
5699868278390784	4632
5770237022568448	4632
5840605766746112	4632
5910974510923776	4632
5981343255101440	4632
6051711999279104	4632
6122080743456768	4632
6192449487634432	4632
6262818231812096	4632
6333186975989760	4632
6403555720167424	4632
6473924464345088	4632
6544293208522752	4632
6614661952700416	4632
6685030696878080	4632
6755399441055744	4632
6825768185233408	4632
6896136929411072	4632
6966505673588736	4632
7036874417766400	4632
7107243161944064	4632
7177611906121728	4632
7247980650299392	4632
7318349394477056	4632
7388718138654720	4632
7459086882832384	4632
7529455627010048	4632
7599824371187712	4632
7670193115365376	4632
7740561859543040	4632
7810930603720704	4632
7881299347898368	4632
7951668092076032	4632
8022036836253696	4632
8092405580431360	4632
8162774324609024	4632
8233143068786688	4632
8303511812964352	4632
8373880557142016	4632
8444249301319680	4632
8514618045497344	4632
8584986789675008	4632
8655355533852672	4632
8725724278030336	4632
8796093022208000	4632
8866461766385664	4632
8936830510563328	4632
9007199254740992	4632
9147936743096320	4632
9288674231451648	4632
9429411719806976	4632
9570149208162304	4632
9710886696517632	4632
9851624184872960	4632
9992361673228288	4632
10133099161583616	4632
10273836649938944	4632
10414574138294272	4632
10555311626649600	4632
10696049115004928	4632
10836786603360256	4632
10977524091715584	4632
11118261580070912	4632
11258999068426240	4632
11399736556781568	4632
11540474045136896	4632
11681211533492224	4632
11821949021847552	4632
11962686510202880	4632
12103423998558208	4632
12244161486913536	4632
12384898975268864	4632
12525636463624192	4632
12666373951979520	4632
12807111440334848	4632
12947848928690176	4632
13088586417045504	4632
13229323905400832	4632
13370061393756160	4632
13510798882111488	4632
13651536370466816	4632
13792273858822144	4632
13933011347177472	4632
14073748835532800	4632
14214486323888128	4632
14355223812243456	4632
14495961300598784	4632
14636698788954112	4632
14777436277309440	4632
14918173765664768	4632
15058911254020096	4632
15199648742375424	4632
15340386230730752	4632
15481123719086080	4632
15621861207441408	4632
15762598695796736	4632
15903336184152064	4632
16044073672507392	4632
16184811160862720	4632
16325548649218048	4632
16466286137573376	4632
16607023625928704	4632
16747761114284032	4632
16888498602639360	4632
17029236090994688	4632
17169973579350016	4632
17310711067705344	4632
17451448556060672	4632
17592186044416000	4632
17732923532771328	4632
17873661021126656	4632
18014398509481984	4632
18295873486192640	4632
18577348462903296	4632
18858823439613952	4632
19140298416324608	4632
19421773393035264	4632
19703248369745920	4632
19984723346456576	4632
20266198323167232	4632
20547673299877888	4632
20829148276588544	4632
21110623253299200	4632
21392098230009856	4632
21673573206720512	4632
21955048183431168	4632
22236523160141824	4632
22517998136852480	4632
22799473113563136	4632
23080948090273792	4632
23362423066984448	4632
23643898043695104	4632
23925373020405760	4632
24206847997116416	4632
24488322973827072	4632
24769797950537728	4632
25051272927248384	4632
25332747903959040	4632
25614222880669696	4632
25895697857380352	4632
26177172834091008	4632
26458647810801664	4632
26740122787512320	4632
27021597764222976	4632
27303072740933632	4632
27584547717644288	4632
27866022694354944	4632
28147497671065600	4632
28428972647776256	4632
28710447624486912	4632
28991922601197568	4632
29273397577908224	4632
29554872554618880	4632
29836347531329536	4632
30117822508040192	4632
30399297484750848	4632
30680772461461504	4632
30962247438172160	4632
31243722414882816	4632
31525197391593472	4632
31806672368304128	4632
32088147345014784	4632
32369622321725440	4632
32651097298436096	4632
32932572275146752	4632
33214047251857408	4632
33495522228568064	4632
33776997205278720	4632
34058472181989376	4632
34339947158700032	4632
34621422135410688	4632
34902897112121344	4632
35184372088832000	4632
35465847065542656	4632
35747322042253312	4632
36028797018963968	4632
36591746972385280	4632
37154696925806592	4632
37717646879227904	4632
38280596832649216	4632
38843546786070528	4632
39406496739491840	4632
39969446692913152	4632
40532396646334464	4632
41095346599755776	4632
41658296553177088	4632
42221246506598400	4632
42784196460019712	4632
43347146413441024	4632
43910096366862336	4632
44473046320283648	4632
45035996273704960	4632
45598946227126272	4632
46161896180547584	4632
46724846133968896	4632
47287796087390208	4632
47850746040811520	4632
48413695994232832	4632
48976645947654144	4632
49539595901075456	4632
50102545854496768	4632
50665495807918080	4632
51228445761339392	4632
51791395714760704	4632
52354345668182016	4632
52917295621603328	4632
53480245575024640	4632
54043195528445952	4632
54606145481867264	4632
55169095435288576	4632
55732045388709888	4632
56294995342131200	4632
56857945295552512	4632
57420895248973824	4632
57983845202395136	4632
58546795155816448	4632
59109745109237760	4632
59672695062659072	4632
60235645016080384	4632
60798594969501696	4632
61361544922923008	4632
61924494876344320	4632
62487444829765632	4632
63050394783186944	4632
63613344736608256	4632
64176294690029568	4632
64739244643450880	4632
65302194596872192	4632
65865144550293504	4632
66428094503714816	4632
66991044457136128	4632
67553994410557440	4632
68116944363978752	4632
68679894317400064	4632
69242844270821376	4632
69805794224242688	4632
70368744177664000	4632
70931694131085312	4632
71494644084506624	4632
72057594037927936	4632
73183493944770560	4632
74309393851613184	4632
75435293758455808	4632
76561193665298432	4632
77687093572141056	4632
78812993478983680	4632
79938893385826304	4632
81064793292668928	4632
82190693199511552	4632
83316593106354176	4632
84442493013196800	4632
85568392920039424	4632
86694292826882048	4632
87820192733724672	4632
88946092640567296	4632
90071992547409920	4632
91197892454252544	4632
92323792361095168	4632
93449692267937792	4632
94575592174780416	4632
95701492081623040	4632
96827391988465664	4632
97953291895308288	4632
99079191802150912	4632
100205091708993536	4632
101330991615836160	4632
102456891522678784	4632
103582791429521408	4632
104708691336364032	4632
105834591243206656	4632
106960491150049280	4632
108086391056891904	4632
109212290963734528	4632
110338190870577152	4632
111464090777419776	4632
112589990684262400	4632
113715890591105024	4632
114841790497947648	4632
115967690404790272	4632
117093590311632896	4632
118219490218475520	4632
119345390125318144	4632
120471290032160768	4632
121597189939003392	4632
122723089845846016	4632
123848989752688640	4632
124974889659531264	4632
126100789566373888	4632
127226689473216512	4632
128352589380059136	4632
129478489286901760	4632
130604389193744384	4632
131730289100587008	4632
132856189007429632	4632
133982088914272256	4632
135107988821114880	4632
136233888727957504	4632
137359788634800128	4632
138485688541642752	4632
139611588448485376	4632
140737488355328000	4632
141863388262170624	4632
142989288169013248	4632
144115188075855872	4632
146366987889541120	4632
148618787703226368	4632
150870587516911616	4632
153122387330596864	4632
155374187144282112	4632
157625986957967360	4632
159877786771652608	4632
162129586585337856	4632
164381386399023104	4632
166633186212708352	4632
168884986026393600	4632
171136785840078848	4632
173388585653764096	4632
175640385467449344	4632
177892185281134592	4632
180143985094819840	4632
182395784908505088	4632
184647584722190336	4632
186899384535875584	4632
189151184349560832	4632
191402984163246080	4632
193654783976931328	4632
195906583790616576	4632
198158383604301824	4632
200410183417987072	4632
202661983231672320	4632
204913783045357568	4632
207165582859042816	4632
209417382672728064	4632
211669182486413312	4632
213920982300098560	4632
216172782113783808	4632
218424581927469056	4632
220676381741154304	4632
222928181554839552	4632
225179981368524800	4632
227431781182210048	4632
229683580995895296	4632
231935380809580544	4632
234187180623265792	4632
236438980436951040	4632
238690780250636288	4632
240942580064321536	4632
243194379878006784	4632
245446179691692032	4632
247697979505377280	4632
249949779319062528	4632
252201579132747776	4632
254453378946433024	4632
256705178760118272	4632
258956978573803520	4632
261208778387488768	4632
263460578201174016	4632
265712378014859264	4632
267964177828544512	4632
270215977642229760	4632
272467777455915008	4632
274719577269600256	4632
276971377083285504	4632
279223176896970752	4632
281474976710656000	4632
283726776524341248	4632
285978576338026496	4632
288230376151711744	4632
292733975779082240	4632
297237575406452736	4632
301741175033823232	4632
306244774661193728	4632
310748374288564224	4632
315251973915934720	4632
319755573543305216	4632
324259173170675712	4632
328762772798046208	4632
333266372425416704	4632
337769972052787200	4632
342273571680157696	4632
346777171307528192	4632
351280770934898688	4632
355784370562269184	4632
360287970189639680	4632
364791569817010176	4632
369295169444380672	4632
373798769071751168	4632
378302368699121664	4632
382805968326492160	4632
387309567953862656	4632
391813167581233152	4632
396316767208603648	4632
400820366835974144	4632
405323966463344640	4632
409827566090715136	4632
414331165718085632	4632
418834765345456128	4632
423338364972826624	4632
427841964600197120	4632
432345564227567616	4632
436849163854938112	4632
441352763482308608	4632
445856363109679104	4632
450359962737049600	4632
454863562364420096	4632
459367161991790592	4632
463870761619161088	4632
468374361246531584	4632
472877960873902080	4632
477381560501272576	4632
481885160128643072	4632
486388759756013568	4632
490892359383384064	4632
495395959010754560	4632
499899558638125056	4632
504403158265495552	4632
508906757892866048	4632
513410357520236544	4632
517913957147607040	4632
522417556774977536	4632
526921156402348032	4632
531424756029718528	4632
535928355657089024	4632
540431955284459520	4632
544935554911830016	4632
549439154539200512	4632
553942754166571008	4632
558446353793941504	4632
562949953421312000	4632
567453553048682496	4632
571957152676052992	4632
576460752303423488	4632
585467951558164480	4632
594475150812905472	4632
603482350067646464	4632
612489549322387456	4632
621496748577128448	4632
630503947831869440	4632
639511147086610432	4632
648518346341351424	4632
657525545596092416	4632
666532744850833408	4632
675539944105574400	4632
684547143360315392	4632
693554342615056384	4632
702561541869797376	4632
711568741124538368	4632
720575940379279360	4632
729583139634020352	4632
738590338888761344	4632
747597538143502336	4632
756604737398243328	4632
765611936652984320	4632
774619135907725312	4632
783626335162466304	4632
792633534417207296	4632
801640733671948288	4632
810647932926689280	4632
819655132181430272	4632
828662331436171264	4632
837669530690912256	4632
846676729945653248	4632
855683929200394240	4632
864691128455135232	4632
873698327709876224	4632
882705526964617216	4632
891712726219358208	4632
900719925474099200	4632
909727124728840192	4632
918734323983581184	4632
927741523238322176	4632
936748722493063168	4632
945755921747804160	4632
954763121002545152	4632
963770320257286144	4632
972777519512027136	4632
981784718766768128	4632
990791918021509120	4632
999799117276250112	4632
1008806316530991104	4632
1017813515785732096	4632
1026820715040473088	4632
1035827914295214080	4632
1044835113549955072	4632
1053842312804696064	4632
1062849512059437056	4632
1071856711314178048	4632
1080863910568919040	4632
1089871109823660032	4632
1098878309078401024	4632
1107885508333142016	4632
1116892707587883008	4632
1125899906842624000	4632
1134907106097364992	4632
1143914305352105984	4632
1152921504606846976	4632
1170935903116328960	4632
1188950301625810944	4632
1206964700135292928	4632
1224979098644774912	4632
1242993497154256896	4632
1261007895663738880	4632
1279022294173220864	4632
1297036692682702848	4632
1315051091192184832	4632
1333065489701666816	4632
1351079888211148800	4632
1369094286720630784	4632
1387108685230112768	4632
1405123083739594752	4632
1423137482249076736	4632
1441151880758558720	4632
1459166279268040704	4632
1477180677777522688	4632
1495195076287004672	4632
1513209474796486656	4632
1531223873305968640	4632
1549238271815450624	4632
1567252670324932608	4632
1585267068834414592	4632
1603281467343896576	4632
1621295865853378560	4632
1639310264362860544	4632
1657324662872342528	4632
1675339061381824512	4632
1693353459891306496	4632
1711367858400788480	4632
1729382256910270464	4632
1747396655419752448	4632
1765411053929234432	4632
1783425452438716416	4632
1801439850948198400	4632
1819454249457680384	4632
1837468647967162368	4632
1855483046476644352	4632
1873497444986126336	4632
1891511843495608320	4632
1909526242005090304	4632
1927540640514572288	4632
1945555039024054272	4632
1963569437533536256	4632
1981583836043018240	4632
1999598234552500224	4632
2017612633061982208	4632
2035627031571464192	4632
2053641430080946176	4632
2071655828590428160	4632
2089670227099910144	4632
2107684625609392128	4632
2125699024118874112	4632
2143713422628356096	4632
2161727821137838080	4632
2179742219647320064	4632
2197756618156802048	4632
2215771016666284032	4632
2233785415175766016	4632
2251799813685248000	4632
2269814212194729984	4632
2287828610704211968	4632
2305843009213693952	4632
2341871806232657920	4632
2377900603251621888	4632
2413929400270585856	4632
2449958197289549824	4632
2485986994308513792	4632
2522015791327477760	4632
2558044588346441728	4632
2594073385365405696	4632
2630102182384369664	4632
2666130979403333632	4632
2702159776422297600	4632
2738188573441261568	4632
2774217370460225536	4632
2810246167479189504	4632
2846274964498153472	4632
2882303761517117440	4632
2918332558536081408	4632
2954361355555045376	4632
2990390152574009344	4632
3026418949592973312	4632
3062447746611937280	4632
3098476543630901248	4632
3134505340649865216	4632
3170534137668829184	4632
3206562934687793152	4632
3242591731706757120	4632
3278620528725721088	4632
3314649325744685056	4632
3350678122763649024	4632
3386706919782612992	4632
3422735716801576960	4632
3458764513820540928	4632
3494793310839504896	4632
3530822107858468864	4632
3566850904877432832	4632
3602879701896396800	4632
3638908498915360768	4632
3674937295934324736	4632
3710966092953288704	4632
3746994889972252672	4632
3783023686991216640	4632
3819052484010180608	4632
3855081281029144576	4632
3891110078048108544	4632
3927138875067072512	4632
3963167672086036480	4632
3999196469105000448	4632
4035225266123964416	4632
4071254063142928384	4632
4107282860161892352	4632
4143311657180856320	4632
4179340454199820288	4632
4215369251218784256	4632
4251398048237748224	4632
4287426845256712192	4632
4323455642275676160	4632
4359484439294640128	4632
4395513236313604096	4632
4431542033332568064	4632
4467570830351532032	4632
4503599627370496000	4632
4539628424389459968	4632
4575657221408423936	4632
4611686018427387904	4632
4683743612465315840	4632
4755801206503243776	4632
4827858800541171712	4632
4899916394579099648	4632
4971973988617027584	4632
5044031582654955520	4632
5116089176692883456	4632
5188146770730811392	4632
5260204364768739328	4632
5332261958806667264	4632
5404319552844595200	4632
5476377146882523136	4632
5548434740920451072	4632
5620492334958379008	4632
5692549928996306944	4632
5764607523034234880	4632
5836665117072162816	4632
5908722711110090752	4632
5980780305148018688	4632
6052837899185946624	4632
6124895493223874560	4632
6196953087261802496	4632
6269010681299730432	4632
6341068275337658368	4632
6413125869375586304	4632
6485183463413514240	4632
6557241057451442176	4632
6629298651489370112	4632
6701356245527298048	4632
6773413839565225984	4632
6845471433603153920	4632
6917529027641081856	4632
6989586621679009792	4632
7061644215716937728	4632
7133701809754865664	4632
7205759403792793600	4632
7277816997830721536	4632
7349874591868649472	4632
7421932185906577408	4632
7493989779944505344	4632
7566047373982433280	4632
7638104968020361216	4632
7710162562058289152	4632
7782220156096217088	4632
7854277750134145024	4632
7926335344172072960	4632
7998392938210000896	4632
8070450532247928832	4632
8142508126285856768	4632
8214565720323784704	4632
8286623314361712640	4632
8358680908399640576	4632
8430738502437568512	4632
8502796096475496448	4632
8574853690513424384	4632
8646911284551352320	4632
8718968878589280256	4632
8791026472627208192	4632
8863084066665136128	4632
8935141660703064064	4632
9007199254740992000	4632
9079256848778919936	4632
9151314442816847872	4632
9223372036854775808	4632
9367487224930631680	4632
9511602413006487552	4632
9655717601082343424	4632
9799832789158199296	4632
9943947977234055168	4632
10088063165309911040	4632
10232178353385766912	4632
10376293541461622784	4632
10520408729537478656	4632
10664523917613334528	4632
10808639105689190400	4632
10952754293765046272	4632
11096869481840902144	4632
11240984669916758016	4632
11385099857992613888	4632
11529215046068469760	4632
11673330234144325632	4632
11817445422220181504	4632
11961560610296037376	4632
12105675798371893248	4632
12249790986447749120	4632
12393906174523604992	4632
12538021362599460864	4632
12682136550675316736	4632
12826251738751172608	4632
12970366926827028480	4632
13114482114902884352	4632
13258597302978740224	4632
13402712491054596096	4632
13546827679130451968	4632
13690942867206307840	4632
13835058055282163712	4632
13979173243358019584	4632
14123288431433875456	4632
14267403619509731328	4632
14411518807585587200	4632
14555633995661443072	4632
14699749183737298944	4632
14843864371813154816	4632
14987979559889010688	4632
15132094747964866560	4632
15276209936040722432	4632
15420325124116578304	4632
15564440312192434176	4632
15708555500268290048	4632
15852670688344145920	4632
15996785876420001792	4632
16140901064495857664	4632
16285016252571713536	4632
16429131440647569408	4632
16573246628723425280	4632
16717361816799281152	4632
16861477004875137024	4632
17005592192950992896	4632
17149707381026848768	4632
17293822569102704640	4632
17437937757178560512	4632
17582052945254416384	4632
17726168133330272256	4632
17870283321406128128	4632
18014398509481984000	4632
18158513697557839872	4632
18302628885633695744	0
