0	0
1	1
2	1.99879
3	2.99717
4	3.99521
5	4.99305
6	5.99066
7	6.9881
8	7.98536
9	8.9825
10	9.97944
11	10.9762
12	11.9728
13	12.9692
14	13.9655
15	14.9617
16	15.9577
17	16.9536
18	17.9493
19	18.9448
20	19.94
21	20.9333
22	21.9244
23	22.913
24	23.9009
25	24.8886
26	25.8762
27	26.8637
28	27.851
29	28.8383
30	29.8253
31	30.8122
32	31.799
33	32.7856
34	33.7722
35	34.7586
36	35.7449
37	36.7309
38	37.7168
39	38.7025
40	39.6878
41	40.6727
42	41.657
43	42.6405
44	43.6214
45	44.6012
46	45.5807
47	46.56
48	47.5392
49	48.5183
50	49.4973
51	50.4762
52	51.455
53	52.4338
54	53.4125
55	54.3912
56	55.3698
57	56.3482
58	57.3266
59	58.3049
60	59.283
61	60.2608
62	61.2383
63	62.2156
64	63.1924
65	64.1684
66	65.1435
67	66.1183
68	67.093
69	68.0676
70	69.0421
71	70.0165
72	70.9909
73	71.9653
74	72.9396
75	73.9139
76	74.8881
77	75.8622
78	76.8364
79	77.8105
80	78.7845
81	79.7582
82	80.7318
83	81.7052
84	82.6785
85	83.6514
86	84.6239
87	85.5958
88	86.5675
89	87.5391
90	88.5106
91	89.482
92	90.4534
93	91.4249
94	92.3962
95	93.3676
96	94.3389
97	95.3102
98	96.2814
99	97.2526
100	98.2237
101	99.1947
102	100.166
103	101.136
104	102.107
105	103.078
106	104.048
107	105.019
108	105.989
109	106.958
110	107.928
111	108.897
112	109.866
113	110.836
114	111.805
115	112.774
116	113.743
117	114.712
118	115.681
119	116.65
120	117.619
121	118.587
122	119.556
123	120.524
124	121.493
125	122.461
126	123.429
127	124.397
128	125.365
130	127.3
132	129.235
134	131.169
136	133.104
138	135.038
140	136.971
142	138.905
144	140.839
146	142.772
148	144.704
150	146.637
152	148.569
154	150.5
156	152.431
158	154.362
160	156.293
162	158.224
164	160.154
166	162.084
168	164.014
170	165.943
172	167.872
174	169.801
176	171.729
178	173.657
180	175.585
182	177.513
184	179.44
186	181.367
188	183.293
190	185.22
192	187.146
194	189.071
196	190.997
198	192.922
200	194.846
202	196.771
204	198.694
206	200.618
208	202.542
210	204.465
212	206.388
214	208.31
216	210.232
218	212.154
220	214.075
222	215.996
224	217.917
226	219.838
228	221.758
230	223.678
232	225.598
234	227.517
236	229.435
238	231.353
240	233.271
242	235.189
244	237.106
246	239.023
248	240.939
250	242.855
252	244.771
254	246.686
256	248.601
260	252.429
264	256.255
268	260.078
272	263.899
276	267.718
280	271.534
284	275.349
288	279.161
292	282.969
296	286.775
300	290.577
304	294.376
308	298.171
312	301.962
316	305.749
320	309.531
324	313.309
328	317.083
332	320.852
336	324.617
340	328.378
344	332.135
348	335.89
352	339.643
356	343.393
360	347.14
364	350.886
368	354.631
372	358.374
376	362.116
380	365.856
384	369.595
388	373.334
392	377.072
396	380.808
400	384.544
404	388.279
408	392.013
412	395.746
416	399.478
420	403.21
424	406.941
428	410.672
432	414.402
436	418.131
440	421.86
444	425.588
448	429.316
452	433.044
456	436.771
460	440.497
464	444.224
468	447.95
472	451.675
476	455.4
480	459.125
484	462.85
488	466.574
492	470.299
496	474.022
500	477.745
504	481.468
508	485.19
512	488.912
520	496.355
528	503.797
536	511.237
544	518.676
552	526.112
560	533.545
568	540.975
576	548.401
584	555.824
592	563.242
600	570.656
608	578.065
616	585.468
624	592.865
632	600.255
640	607.636
648	615.009
656	622.376
664	629.734
672	637.083
680	644.426
688	651.763
696	659.095
704	666.424
712	673.749
720	681.072
728	688.393
736	695.711
744	703.029
752	710.345
760	717.659
768	724.972
776	732.283
784	739.594
792	746.904
800	754.213
808	761.521
816	768.829
824	776.135
832	783.441
840	790.746
848	798.051
856	805.353
864	812.654
872	819.953
880	827.25
888	834.545
896	841.839
904	849.13
912	856.418
920	863.702
928	870.983
936	878.259
944	885.531
952	892.798
960	900.061
968	907.32
976	914.574
984	921.824
992	929.067
1000	936.306
1008	943.542
1016	950.772
1024	957.998
1040	972.444
1056	986.882
1072	1001.31
1088	1015.74
1104	1030.16
1120	1044.59
1136	1059
1152	1073.42
1168	1087.83
1184	1102.24
1200	1116.65
1216	1131.05
1232	1145.44
1248	1159.83
1264	1174.2
1280	1188.56
1296	1202.91
1312	1217.24
1328	1231.55
1344	1245.85
1360	1260.14
1376	1274.42
1392	1288.7
1408	1302.97
1424	1317.24
1440	1331.51
1456	1345.77
1472	1360.04
1488	1374.3
1504	1388.55
1520	1402.8
1536	1417.05
1552	1431.28
1568	1445.51
1584	1459.73
1600	1473.93
1616	1488.12
1632	1502.3
1648	1516.46
1664	1530.6
1680	1544.73
1696	1558.86
1712	1572.97
1728	1587.08
1744	1601.19
1760	1615.3
1776	1629.4
1792	1643.5
1808	1657.6
1824	1671.69
1840	1685.78
1856	1699.87
1872	1713.95
1888	1728.02
1904	1742.09
1920	1756.15
1936	1770.21
1952	1784.25
1968	1798.29
1984	1812.32
2000	1826.34
2016	1840.35
2032	1854.35
2048	1868.35
2080	1896.34
2112	1924.33
2144	1952.3
2176	1980.26
2208	2008.2
2240	2036.11
2272	2064
2304	2091.85
2336	2119.67
2368	2147.48
2400	2175.26
2432	2203.04
2464	2230.8
2496	2258.55
2528	2286.28
2560	2313.98
2592	2341.66
2624	2369.32
2656	2396.94
2688	2424.55
2720	2452.13
2752	2479.71
2784	2507.28
2816	2534.83
2848	2562.38
2880	2589.9
2912	2617.41
2944	2644.89
2976	2672.35
3008	2699.79
3040	2727.21
3072	2754.62
3104	2782.01
3136	2809.4
3168	2836.77
3200	2864.12
3232	2891.45
3264	2918.76
3296	2946.04
3328	2973.3
3360	3000.55
3392	3027.78
3424	3055
3456	3082.2
3488	3109.4
3520	3136.58
3552	3163.74
3584	3190.88
3616	3218
3648	3245.1
3680	3272.18
3712	3299.25
3744	3326.3
3776	3353.34
3808	3380.37
3840	3407.38
3872	3434.38
3904	3461.37
3936	3488.34
3968	3515.29
4000	3542.22
4032	3569.14
4064	3596.04
4096	3622.95
4160	3676.72
4224	3730.44
4288	3784.09
4352	3837.67
4416	3891.21
4480	3944.71
4544	3998.16
4608	4051.52
4672	4104.84
4736	4158.11
4800	4211.36
4864	4264.55
4928	4317.65
4992	4370.71
5056	4423.72
5120	4476.7
5184	4529.64
5248	4582.51
5312	4635.35
5376	4688.13
5440	4740.89
5504	4793.58
5568	4846.21
5632	4898.79
5696	4951.35
5760	5003.88
5824	5056.35
5888	5108.75
5952	5161.11
6016	5213.43
6080	5265.74
6144	5318
6208	5370.22
6272	5422.39
6336	5474.52
6400	5526.64
6464	5578.7
6528	5630.72
6592	5682.69
6656	5734.65
6720	5786.57
6784	5838.43
6848	5890.25
6912	5942.03
6976	5993.79
7040	6045.52
7104	6097.2
7168	6148.83
7232	6200.41
7296	6251.98
7360	6303.52
7424	6355.02
7488	6406.46
7552	6457.87
7616	6509.25
7680	6560.6
7744	6611.92
7808	6663.19
7872	6714.41
7936	6765.62
8000	6816.79
8064	6867.91
8128	6918.99
8192	6970.02
8320	7072
8448	7173.82
8576	7275.52
8704	7377.1
8832	7478.54
8960	7579.89
9088	7681.11
9216	7782.18
9344	7883.11
9472	7983.9
9600	8084.58
9728	8185.13
9856	8285.55
9984	8385.85
10112	8486.01
10240	8586.05
10368	8685.98
10496	8785.78
10624	8885.51
10752	8985.12
10880	9084.62
11008	9184.02
11136	9283.26
11264	9382.41
11392	9481.4
11520	9580.24
11648	9678.95
11776	9777.51
11904	9875.97
12032	9974.34
12160	10072.6
12288	10170.7
12416	10268.7
12544	10366.7
12672	10464.5
12800	10562.2
12928	10659.9
13056	10757.4
13184	10854.8
13312	10952.1
13440	11049.3
13568	11146.3
13696	11243.3
13824	11340.2
13952	11436.9
14080	11533.6
14208	11630.1
14336	11726.5
14464	11822.9
14592	11919.1
14720	12015.3
14848	12111.3
14976	12207.3
15104	12303.2
15232	12398.9
15360	12494.6
15488	12590.2
15616	12685.7
15744	12781
15872	12876.2
16000	12971.3
16128	13066.4
16256	13161.3
16384	13256.1
16640	13445.5
16896	13634.5
17152	13823.2
17408	14011.4
17664	14199.3
17920	14386.9
18176	14574
18432	14760.8
18688	14947.4
18944	15133.5
19200	15319.2
19456	15504.6
19712	15689.6
19968	15874.2
20224	16058.5
20480	16242.5
20736	16426.2
20992	16609.5
21248	16792.5
21504	16975.2
21760	17157.7
22016	17339.7
22272	17521.5
22528	17703
22784	17884.3
23040	18065.2
23296	18245.8
23552	18426.1
23808	18606
24064	18785.7
24320	18965.1
24576	19144.4
24832	19323.3
25088	19501.9
25344	19680.3
25600	19858.3
25856	20036.2
26112	20213.8
26368	20391.3
26624	20568.5
26880	20745.4
27136	20922
27392	21098.4
27648	21274.5
27904	21450.3
28160	21625.8
28416	21800.8
28672	21975.7
28928	22150.2
29184	22324.5
29440	22498.4
29696	22672.2
29952	22845.8
30208	23019.1
30464	23192.1
30720	23364.9
30976	23537.5
31232	23709.9
31488	23882
31744	24054
32000	24225.6
32256	24397.1
32512	24568.4
32768	24739.7
33280	25082.1
33792	25423.9
34304	25764.7
34816	26104.3
35328	26442.9
35840	26780.5
36352	27117
36864	27452.7
37376	27787.7
37888	28121.6
38400	28454.9
38912	28787.6
39424	29119.6
39936	29451.2
40448	29781.9
40960	30112.2
41472	30442
41984	30771.1
42496	31099.4
43008	31426.8
43520	31753.6
44032	32079.8
44544	32405.8
45056	32730.9
45568	33055.6
46080	33379.6
46592	33702.9
47104	34025.4
47616	34346.7
48128	34667.8
48640	34988.2
49152	35307.3
49664	35626
50176	35945.5
50688	36264.9
51200	36584.1
51712	36902.7
52224	37220.7
52736	37539.1
53248	37857.2
53760	38175.8
54272	38494
54784	38812
55296	39128.3
55808	39444
56320	39760
56832	40074.8
57344	40389.4
57856	40705
58368	41018.2
58880	41331.1
59392	41642.6
59904	41950
60416	42256.6
60928	42561.7
61440	42864.2
61952	43165.9
62464	43470.6
62976	43777.7
63488	44081.3
64000	44392.4
64512	44602
65024	44602
65536	44602
66560	44602
67584	44602
68608	44602
69632	44602
70656	44602
71680	44602
72704	44602
73728	44602
74752	44602
75776	44602
76800	44602
77824	44602
78848	44602
79872	44602
80896	44602
81920	44602
82944	44602
83968	44602
84992	44602
86016	44602
87040	44602
88064	44602
89088	44602
90112	44602
91136	44602
92160	44602
93184	44602
94208	44602
95232	44602
96256	44602
97280	44602
98304	44602
99328	44602
100352	44602
101376	44602
102400	44602
103424	44602
104448	44602
105472	44602
106496	44602
107520	44602
108544	44602
109568	44602
110592	44602
111616	44602
112640	44602
113664	44602
114688	44602
115712	44602
116736	44602
117760	44602
118784	44602
119808	44602
120832	44602
121856	44602
122880	44602
123904	44602
124928	44602
125952	44602
126976	44602
128000	44602
129024	44602
130048	44602
131072	44602
133120	44602
135168	44602
137216	44602
139264	44602
141312	44602
143360	44602
145408	44602
147456	44602
149504	44602
151552	44602
153600	44602
155648	44602
157696	44602
159744	44602
161792	44602
163840	44602
165888	44602
167936	44602
169984	44602
172032	44602
174080	44602
176128	44602
178176	44602
180224	44602
182272	44602
184320	44602
186368	44602
188416	44602
190464	44602
192512	44602
194560	44602
196608	44602
198656	44602
200704	44602
202752	44602
204800	44602
206848	44602
208896	44602
210944	44602
212992	44602
215040	44602
217088	44602
219136	44602
221184	44602
223232	44602
225280	44602
227328	44602
229376	44602
231424	44602
233472	44602
235520	44602
237568	44602
239616	44602
241664	44602
243712	44602
245760	44602
247808	44602
249856	44602
251904	44602
253952	44602
256000	44602
258048	44602
260096	44602
262144	44602
266240	44602
270336	44602
274432	44602
278528	44602
282624	44602
286720	44602
290816	44602
294912	44602
299008	44602
303104	44602
307200	44602
311296	44602
315392	44602
319488	44602
323584	44602
327680	44602
331776	44602
335872	44602
339968	44602
344064	44602
348160	44602
352256	44602
356352	44602
360448	44602
364544	44602
368640	44602
372736	44602
376832	44602
380928	44602
385024	44602
389120	44602
393216	44602
397312	44602
401408	44602
405504	44602
409600	44602
413696	44602
417792	44602
421888	44602
425984	44602
430080	44602
434176	44602
438272	44602
442368	44602
446464	44602
450560	44602
454656	44602
458752	44602
462848	44602
466944	44602
471040	44602
475136	44602
479232	44602
483328	44602
487424	44602
491520	44602
495616	44602
499712	44602
503808	44602
507904	44602
512000	44602
516096	44602
520192	44602
524288	44602
532480	44602
540672	44602
548864	44602
557056	44602
565248	44602
573440	44602
581632	44602
589824	44602
598016	44602
606208	44602
614400	44602
622592	44602
630784	44602
638976	44602
647168	44602
655360	44602
663552	44602
671744	44602
679936	44602
688128	44602
696320	44602
704512	44602
712704	44602
720896	44602
729088	44602
737280	44602
745472	44602
753664	44602
761856	44602
770048	44602
778240	44602
786432	44602
794624	44602
802816	44602
811008	44602
819200	44602
827392	44602
835584	44602
843776	44602
851968	44602
860160	44602
868352	44602
876544	44602
884736	44602
892928	44602
901120	44602
909312	44602
917504	44602
925696	44602
933888	44602
942080	44602
950272	44602
958464	44602
966656	44602
974848	44602
983040	44602
991232	44602
999424	44602
1007616	44602
1015808	44602
1024000	44602
1032192	44602
1040384	44602
1048576	44602
1064960	44602
1081344	44602
1097728	44602
1114112	44602
1130496	44602
1146880	44602
1163264	44602
1179648	44602
1196032	44602
1212416	44602
1228800	44602
1245184	44602
1261568	44602
1277952	44602
1294336	44602
1310720	44602
1327104	44602
1343488	44602
1359872	44602
1376256	44602
1392640	44602
1409024	44602
1425408	44602
1441792	44602
1458176	44602
1474560	44602
1490944	44602
1507328	44602
1523712	44602
1540096	44602
1556480	44602
1572864	44602
1589248	44602
1605632	44602
1622016	44602
1638400	44602
1654784	44602
1671168	44602
1687552	44602
1703936	44602
1720320	44602
1736704	44602
1753088	44602
1769472	44602
1785856	44602
1802240	44602
1818624	44602
1835008	44602
1851392	44602
1867776	44602
1884160	44602
1900544	44602
1916928	44602
1933312	44602
1949696	44602
1966080	44602
1982464	44602
1998848	44602
2015232	44602
2031616	44602
2048000	44602
2064384	44602
2080768	44602
2097152	44602
2129920	44602
2162688	44602
2195456	44602
2228224	44602
2260992	44602
2293760	44602
2326528	44602
2359296	44602
2392064	44602
2424832	44602
2457600	44602
2490368	44602
2523136	44602
2555904	44602
2588672	44602
2621440	44602
2654208	44602
2686976	44602
2719744	44602
2752512	44602
2785280	44602
2818048	44602
2850816	44602
2883584	44602
2916352	44602
2949120	44602
2981888	44602
3014656	44602
3047424	44602
3080192	44602
3112960	44602
3145728	44602
3178496	44602
3211264	44602
3244032	44602
3276800	44602
3309568	44602
3342336	44602
3375104	44602
3407872	44602
3440640	44602
3473408	44602
3506176	44602
3538944	44602
3571712	44602
3604480	44602
3637248	44602
3670016	44602
3702784	44602
3735552	44602
3768320	44602
3801088	44602
3833856	44602
3866624	44602
3899392	44602
3932160	44602
3964928	44602
3997696	44602
4030464	44602
4063232	44602
4096000	44602
4128768	44602
4161536	44602
4194304	44602
4259840	44602
4325376	44602
4390912	44602
4456448	44602
4521984	44602
4587520	44602
4653056	44602
4718592	44602
4784128	44602
4849664	44602
4915200	44602
4980736	44602
5046272	44602
5111808	44602
5177344	44602
5242880	44602
5308416	44602
5373952	44602
5439488	44602
5505024	44602
5570560	44602
5636096	44602
5701632	44602
5767168	44602
5832704	44602
5898240	44602
5963776	44602
6029312	44602
6094848	44602
6160384	44602
6225920	44602
6291456	44602
6356992	44602
6422528	44602
6488064	44602
6553600	44602
6619136	44602
6684672	44602
6750208	44602
6815744	44602
6881280	44602
6946816	44602
7012352	44602
7077888	44602
7143424	44602
7208960	44602
7274496	44602
7340032	44602
7405568	44602
7471104	44602
7536640	44602
7602176	44602
7667712	44602
7733248	44602
7798784	44602
7864320	44602
7929856	44602
7995392	44602
8060928	44602
8126464	44602
8192000	44602
8257536	44602
8323072	44602
8388608	44602
8519680	44602
8650752	44602
8781824	44602
8912896	44602
9043968	44602
9175040	44602
9306112	44602
9437184	44602
9568256	44602
9699328	44602
9830400	44602
9961472	44602
10092544	44602
10223616	44602
10354688	44602
10485760	44602
10616832	44602
10747904	44602
10878976	44602
11010048	44602
11141120	44602
11272192	44602
11403264	44602
11534336	44602
11665408	44602
11796480	44602
11927552	44602
12058624	44602
12189696	44602
12320768	44602
12451840	44602
12582912	44602
12713984	44602
12845056	44602
12976128	44602
13107200	44602
13238272	44602
13369344	44602
13500416	44602
13631488	44602
13762560	44602
13893632	44602
14024704	44602
14155776	44602
14286848	44602
14417920	44602
14548992	44602
14680064	44602
14811136	44602
14942208	44602
15073280	44602
15204352	44602
15335424	44602
15466496	44602
15597568	44602
15728640	44602
15859712	44602
15990784	44602
16121856	44602
16252928	44602
16384000	44602
16515072	44602
16646144	44602
16777216	44602
17039360	44602
17301504	44602
17563648	44602
17825792	44602
18087936	44602
18350080	44602
18612224	44602
18874368	44602
19136512	44602
19398656	44602
19660800	44602
19922944	44602
20185088	44602
20447232	44602
20709376	44602
20971520	44602
21233664	44602
21495808	44602
21757952	44602
22020096	44602
22282240	44602
22544384	44602
22806528	44602
23068672	44602
23330816	44602
23592960	44602
23855104	44602
24117248	44602
24379392	44602
24641536	44602
24903680	44602
25165824	44602
25427968	44602
25690112	44602
25952256	44602
26214400	44602
26476544	44602
26738688	44602
27000832	44602
27262976	44602
27525120	44602
27787264	44602
28049408	44602
28311552	44602
28573696	44602
28835840	44602
29097984	44602
29360128	44602
29622272	44602
29884416	44602
30146560	44602
30408704	44602
30670848	44602
30932992	44602
31195136	44602
31457280	44602
31719424	44602
31981568	44602
32243712	44602
32505856	44602
32768000	44602
33030144	44602
33292288	44602
33554432	44602
34078720	44602
34603008	44602
35127296	44602
35651584	44602
36175872	44602
36700160	44602
37224448	44602
37748736	44602
38273024	44602
38797312	44602
39321600	44602
39845888	44602
40370176	44602
40894464	44602
41418752	44602
41943040	44602
42467328	44602
42991616	44602
43515904	44602
44040192	44602
44564480	44602
45088768	44602
45613056	44602
46137344	44602
46661632	44602
47185920	44602
47710208	44602
48234496	44602
48758784	44602
49283072	44602
49807360	44602
50331648	44602
50855936	44602
51380224	44602
51904512	44602
52428800	44602
52953088	44602
53477376	44602
54001664	44602
54525952	44602
55050240	44602
55574528	44602
56098816	44602
56623104	44602
57147392	44602
57671680	44602
58195968	44602
58720256	44602
59244544	44602
59768832	44602
60293120	44602
60817408	44602
61341696	44602
61865984	44602
62390272	44602
62914560	44602
63438848	44602
63963136	44602
64487424	44602
65011712	44602
65536000	44602
66060288	44602
66584576	44602
67108864	44602
68157440	44602
69206016	44602
70254592	44602
71303168	44602
72351744	44602
73400320	44602
74448896	44602
75497472	44602
76546048	44602
77594624	44602
78643200	44602
79691776	44602
80740352	44602
81788928	44602
82837504	44602
83886080	44602
84934656	44602
85983232	44602
87031808	44602
88080384	44602
89128960	44602
90177536	44602
91226112	44602
92274688	44602
93323264	44602
94371840	44602
95420416	44602
96468992	44602
97517568	44602
98566144	44602
99614720	44602
100663296	44602
101711872	44602
102760448	44602
103809024	44602
104857600	44602
105906176	44602
106954752	44602
108003328	44602
109051904	44602
110100480	44602
111149056	44602
112197632	44602
113246208	44602
114294784	44602
115343360	44602
116391936	44602
117440512	44602
118489088	44602
119537664	44602
120586240	44602
121634816	44602
122683392	44602
123731968	44602
124780544	44602
125829120	44602
126877696	44602
127926272	44602
128974848	44602
130023424	44602
131072000	44602
132120576	44602
133169152	44602
134217728	44602
136314880	44602
138412032	44602
140509184	44602
142606336	44602
144703488	44602
146800640	44602
148897792	44602
150994944	44602
153092096	44602
155189248	44602
157286400	44602
159383552	44602
161480704	44602
163577856	44602
165675008	44602
167772160	44602
169869312	44602
171966464	44602
174063616	44602
176160768	44602
178257920	44602
180355072	44602
182452224	44602
184549376	44602
186646528	44602
188743680	44602
190840832	44602
192937984	44602
195035136	44602
197132288	44602
199229440	44602
201326592	44602
203423744	44602
205520896	44602
207618048	44602
209715200	44602
211812352	44602
213909504	44602
216006656	44602
218103808	44602
220200960	44602
222298112	44602
224395264	44602
226492416	44602
228589568	44602
230686720	44602
232783872	44602
234881024	44602
236978176	44602
239075328	44602
241172480	44602
243269632	44602
245366784	44602
247463936	44602
249561088	44602
251658240	44602
253755392	44602
255852544	44602
257949696	44602
260046848	44602
262144000	44602
264241152	44602
266338304	44602
268435456	44602
272629760	44602
276824064	44602
281018368	44602
285212672	44602
289406976	44602
293601280	44602
297795584	44602
301989888	44602
306184192	44602
310378496	44602
314572800	44602
318767104	44602
322961408	44602
327155712	44602
331350016	44602
335544320	44602
339738624	44602
343932928	44602
348127232	44602
352321536	44602
356515840	44602
360710144	44602
364904448	44602
369098752	44602
373293056	44602
377487360	44602
381681664	44602
385875968	44602
390070272	44602
394264576	44602
398458880	44602
402653184	44602
406847488	44602
411041792	44602
415236096	44602
419430400	44602
423624704	44602
427819008	44602
432013312	44602
436207616	44602
440401920	44602
444596224	44602
448790528	44602
452984832	44602
457179136	44602
461373440	44602
465567744	44602
469762048	44602
473956352	44602
478150656	44602
482344960	44602
486539264	44602
490733568	44602
494927872	44602
499122176	44602
503316480	44602
507510784	44602
511705088	44602
515899392	44602
520093696	44602
524288000	44602
528482304	44602
532676608	44602
536870912	44602
545259520	44602
553648128	44602
562036736	44602
570425344	44602
578813952	44602
587202560	44602
595591168	44602
603979776	44602
612368384	44602
620756992	44602
629145600	44602
637534208	44602
645922816	44602
654311424	44602
662700032	44602
671088640	44602
679477248	44602
687865856	44602
696254464	44602
704643072	44602
713031680	44602
721420288	44602
729808896	44602
738197504	44602
746586112	44602
754974720	44602
763363328	44602
771751936	44602
780140544	44602
788529152	44602
796917760	44602
805306368	44602
813694976	44602
822083584	44602
830472192	44602
838860800	44602
847249408	44602
855638016	44602
864026624	44602
872415232	44602
880803840	44602
889192448	44602
897581056	44602
905969664	44602
914358272	44602
922746880	44602
931135488	44602
939524096	44602
947912704	44602
956301312	44602
964689920	44602
973078528	44602
981467136	44602
989855744	44602
998244352	44602
1006632960	44602
1015021568	44602
1023410176	44602
1031798784	44602
1040187392	44602
1048576000	44602
1056964608	44602
1065353216	44602
1073741824	44602
1090519040	44602
1107296256	44602
1124073472	44602
1140850688	44602
1157627904	44602
1174405120	44602
1191182336	44602
1207959552	44602
1224736768	44602
1241513984	44602
1258291200	44602
1275068416	44602
1291845632	44602
1308622848	44602
1325400064	44602
1342177280	44602
1358954496	44602
1375731712	44602
1392508928	44602
1409286144	44602
1426063360	44602
1442840576	44602
1459617792	44602
1476395008	44602
1493172224	44602
1509949440	44602
1526726656	44602
1543503872	44602
1560281088	44602
1577058304	44602
1593835520	44602
1610612736	44602
1627389952	44602
1644167168	44602
1660944384	44602
1677721600	44602
1694498816	44602
1711276032	44602
1728053248	44602
1744830464	44602
1761607680	44602
1778384896	44602
1795162112	44602
1811939328	44602
1828716544	44602
1845493760	44602
1862270976	44602
1879048192	44602
1895825408	44602
1912602624	44602
1929379840	44602
1946157056	44602
1962934272	44602
1979711488	44602
1996488704	44602
2013265920	44602
2030043136	44602
2046820352	44602
2063597568	44602
2080374784	44602
2097152000	44602
2113929216	44602
2130706432	44602
2147483648	44602
2181038080	44602
2214592512	44602
2248146944	44602
2281701376	44602
2315255808	44602
2348810240	44602
2382364672	44602
2415919104	44602
2449473536	44602
2483027968	44602
2516582400	44602
2550136832	44602
2583691264	44602
2617245696	44602
2650800128	44602
2684354560	44602
2717908992	44602
2751463424	44602
2785017856	44602
2818572288	44602
2852126720	44602
2885681152	44602
2919235584	44602
2952790016	44602
2986344448	44602
3019898880	44602
3053453312	44602
3087007744	44602
3120562176	44602
3154116608	44602
3187671040	44602
3221225472	44602
3254779904	44602
3288334336	44602
3321888768	44602
3355443200	44602
3388997632	44602
3422552064	44602
3456106496	44602
3489660928	44602
3523215360	44602
3556769792	44602
3590324224	44602
3623878656	44602
3657433088	44602
3690987520	44602
3724541952	44602
3758096384	44602
3791650816	44602
3825205248	44602
3858759680	44602
3892314112	44602
3925868544	44602
3959422976	44602
3992977408	44602
4026531840	44602
4060086272	44602
4093640704	44602
4127195136	44602
4160749568	44602
4194304000	44602
4227858432	44602
4261412864	44602
4294967296	44602
4362076160	44602
4429185024	44602
4496293888	44602
4563402752	44602
4630511616	44602
4697620480	44602
4764729344	44602
4831838208	44602
4898947072	44602
4966055936	44602
5033164800	44602
5100273664	44602
5167382528	44602
5234491392	44602
5301600256	44602
5368709120	44602
5435817984	44602
5502926848	44602
5570035712	44602
5637144576	44602
5704253440	44602
5771362304	44602
5838471168	44602
5905580032	44602
5972688896	44602
6039797760	44602
6106906624	44602
6174015488	44602
6241124352	44602
6308233216	44602
6375342080	44602
6442450944	44602
6509559808	44602
6576668672	44602
6643777536	44602
6710886400	44602
6777995264	44602
6845104128	44602
6912212992	44602
6979321856	44602
7046430720	44602
7113539584	44602
7180648448	44602
7247757312	44602
7314866176	44602
7381975040	44602
7449083904	44602
7516192768	44602
7583301632	44602
7650410496	44602
7717519360	44602
7784628224	44602
7851737088	44602
7918845952	44602
7985954816	44602
8053063680	44602
8120172544	44602
8187281408	44602
8254390272	44602
8321499136	44602
8388608000	44602
8455716864	44602
8522825728	44602
8589934592	44602
8724152320	44602
8858370048	44602
8992587776	44602
9126805504	44602
9261023232	44602
9395240960	44602
9529458688	44602
9663676416	44602
9797894144	44602
9932111872	44602
10066329600	44602
10200547328	44602
10334765056	44602
10468982784	44602
10603200512	44602
10737418240	44602
10871635968	44602
11005853696	44602
11140071424	44602
11274289152	44602
11408506880	44602
11542724608	44602
11676942336	44602
11811160064	44602
11945377792	44602
12079595520	44602
12213813248	44602
12348030976	44602
12482248704	44602
12616466432	44602
12750684160	44602
12884901888	44602
13019119616	44602
13153337344	44602
13287555072	44602
13421772800	44602
13555990528	44602
13690208256	44602
13824425984	44602
13958643712	44602
14092861440	44602
14227079168	44602
14361296896	44602
14495514624	44602
14629732352	44602
14763950080	44602
14898167808	44602
15032385536	44602
15166603264	44602
15300820992	44602
15435038720	44602
15569256448	44602
15703474176	44602
15837691904	44602
15971909632	44602
16106127360	44602
16240345088	44602
16374562816	44602
16508780544	44602
16642998272	44602
16777216000	44602
16911433728	44602
17045651456	44602
17179869184	44602
17448304640	44602
17716740096	44602
17985175552	44602
18253611008	44602
18522046464	44602
18790481920	44602
19058917376	44602
19327352832	44602
19595788288	44602
19864223744	44602
20132659200	44602
20401094656	44602
20669530112	44602
20937965568	44602
21206401024	44602
21474836480	44602
21743271936	44602
22011707392	44602
22280142848	44602
22548578304	44602
22817013760	44602
23085449216	44602
23353884672	44602
23622320128	44602
23890755584	44602
24159191040	44602
24427626496	44602
24696061952	44602
24964497408	44602
25232932864	44602
25501368320	44602
25769803776	44602
26038239232	44602
26306674688	44602
26575110144	44602
26843545600	44602
27111981056	44602
27380416512	44602
27648851968	44602
27917287424	44602
28185722880	44602
28454158336	44602
28722593792	44602
28991029248	44602
29259464704	44602
29527900160	44602
29796335616	44602
30064771072	44602
30333206528	44602
30601641984	44602
30870077440	44602
31138512896	44602
31406948352	44602
31675383808	44602
31943819264	44602
32212254720	44602
32480690176	44602
32749125632	44602
33017561088	44602
33285996544	44602
33554432000	44602
33822867456	44602
34091302912	44602
34359738368	44602
34896609280	44602
35433480192	44602
35970351104	44602
36507222016	44602
37044092928	44602
37580963840	44602
38117834752	44602
38654705664	44602
39191576576	44602
39728447488	44602
40265318400	44602
40802189312	44602
41339060224	44602
41875931136	44602
42412802048	44602
42949672960	44602
43486543872	44602
44023414784	44602
44560285696	44602
45097156608	44602
45634027520	44602
46170898432	44602
46707769344	44602
47244640256	44602
47781511168	44602
48318382080	44602
48855252992	44602
49392123904	44602
49928994816	44602
50465865728	44602
51002736640	44602
51539607552	44602
52076478464	44602
52613349376	44602
53150220288	44602
53687091200	44602
54223962112	44602
54760833024	44602
55297703936	44602
55834574848	44602
56371445760	44602
56908316672	44602
57445187584	44602
57982058496	44602
58518929408	44602
59055800320	44602
59592671232	44602
60129542144	44602
60666413056	44602
61203283968	44602
61740154880	44602
62277025792	44602
62813896704	44602
63350767616	44602
63887638528	44602
64424509440	44602
64961380352	44602
65498251264	44602
66035122176	44602
66571993088	44602
67108864000	44602
67645734912	44602
68182605824	44602
68719476736	44602
69793218560	44602
70866960384	44602
71940702208	44602
73014444032	44602
74088185856	44602
75161927680	44602
76235669504	44602
77309411328	44602
78383153152	44602
79456894976	44602
80530636800	44602
81604378624	44602
82678120448	44602
83751862272	44602
84825604096	44602
85899345920	44602
86973087744	44602
88046829568	44602
89120571392	44602
90194313216	44602
91268055040	44602
92341796864	44602
93415538688	44602
94489280512	44602
95563022336	44602
96636764160	44602
97710505984	44602
98784247808	44602
99857989632	44602
100931731456	44602
102005473280	44602
103079215104	44602
104152956928	44602
105226698752	44602
106300440576	44602
107374182400	44602
108447924224	44602
109521666048	44602
110595407872	44602
111669149696	44602
112742891520	44602
113816633344	44602
114890375168	44602
115964116992	44602
117037858816	44602
118111600640	44602
119185342464	44602
120259084288	44602
121332826112	44602
122406567936	44602
123480309760	44602
124554051584	44602
125627793408	44602
126701535232	44602
127775277056	44602
128849018880	44602
129922760704	44602
130996502528	44602
132070244352	44602
133143986176	44602
134217728000	44602
135291469824	44602
136365211648	44602
137438953472	44602
139586437120	44602
141733920768	44602
143881404416	44602
146028888064	44602
148176371712	44602
150323855360	44602
152471339008	44602
154618822656	44602
156766306304	44602
158913789952	44602
161061273600	44602
163208757248	44602
165356240896	44602
167503724544	44602
169651208192	44602
171798691840	44602
173946175488	44602
176093659136	44602
178241142784	44602
180388626432	44602
182536110080	44602
184683593728	44602
186831077376	44602
188978561024	44602
191126044672	44602
193273528320	44602
195421011968	44602
197568495616	44602
199715979264	44602
201863462912	44602
204010946560	44602
206158430208	44602
208305913856	44602
210453397504	44602
212600881152	44602
214748364800	44602
216895848448	44602
219043332096	44602
221190815744	44602
223338299392	44602
225485783040	44602
227633266688	44602
229780750336	44602
231928233984	44602
234075717632	44602
236223201280	44602
238370684928	44602
240518168576	44602
242665652224	44602
244813135872	44602
246960619520	44602
249108103168	44602
251255586816	44602
253403070464	44602
255550554112	44602
257698037760	44602
259845521408	44602
261993005056	44602
264140488704	44602
266287972352	44602
268435456000	44602
270582939648	44602
272730423296	44602
274877906944	44602
279172874240	44602
283467841536	44602
287762808832	44602
292057776128	44602
296352743424	44602
300647710720	44602
304942678016	44602
309237645312	44602
313532612608	44602
317827579904	44602
322122547200	44602
326417514496	44602
330712481792	44602
335007449088	44602
339302416384	44602
343597383680	44602
347892350976	44602
352187318272	44602
356482285568	44602
360777252864	44602
365072220160	44602
369367187456	44602
373662154752	44602
377957122048	44602
382252089344	44602
386547056640	44602
390842023936	44602
395136991232	44602
399431958528	44602
403726925824	44602
408021893120	44602
412316860416	44602
416611827712	44602
420906795008	44602
425201762304	44602
429496729600	44602
433791696896	44602
438086664192	44602
442381631488	44602
446676598784	44602
450971566080	44602
455266533376	44602
459561500672	44602
463856467968	44602
468151435264	44602
472446402560	44602
476741369856	44602
481036337152	44602
485331304448	44602
489626271744	44602
493921239040	44602
498216206336	44602
502511173632	44602
506806140928	44602
511101108224	44602
515396075520	44602
519691042816	44602
523986010112	44602
528280977408	44602
532575944704	44602
536870912000	44602
541165879296	44602
545460846592	44602
549755813888	44602
558345748480	44602
566935683072	44602
575525617664	44602
584115552256	44602
592705486848	44602
601295421440	44602
609885356032	44602
618475290624	44602
627065225216	44602
635655159808	44602
644245094400	44602
652835028992	44602
661424963584	44602
670014898176	44602
678604832768	44602
687194767360	44602
695784701952	44602
704374636544	44602
712964571136	44602
721554505728	44602
730144440320	44602
738734374912	44602
747324309504	44602
755914244096	44602
764504178688	44602
773094113280	44602
781684047872	44602
790273982464	44602
798863917056	44602
807453851648	44602
816043786240	44602
824633720832	44602
833223655424	44602
841813590016	44602
850403524608	44602
858993459200	44602
867583393792	44602
876173328384	44602
884763262976	44602
893353197568	44602
901943132160	44602
910533066752	44602
919123001344	44602
927712935936	44602
936302870528	44602
944892805120	44602
953482739712	44602
962072674304	44602
970662608896	44602
979252543488	44602
987842478080	44602
996432412672	44602
1005022347264	44602
1013612281856	44602
1022202216448	44602
1030792151040	44602
1039382085632	44602
1047972020224	44602
1056561954816	44602
1065151889408	44602
1073741824000	44602
1082331758592	44602
1090921693184	44602
1099511627776	44602
1116691496960	44602
1133871366144	44602
1151051235328	44602
1168231104512	44602
1185410973696	44602
1202590842880	44602
1219770712064	44602
1236950581248	44602
1254130450432	44602
1271310319616	44602
1288490188800	44602
1305670057984	44602
1322849927168	44602
1340029796352	44602
1357209665536	44602
1374389534720	44602
1391569403904	44602
1408749273088	44602
1425929142272	44602
1443109011456	44602
1460288880640	44602
1477468749824	44602
1494648619008	44602
1511828488192	44602
1529008357376	44602
1546188226560	44602
1563368095744	44602
1580547964928	44602
1597727834112	44602
1614907703296	44602
1632087572480	44602
1649267441664	44602
1666447310848	44602
1683627180032	44602
1700807049216	44602
1717986918400	44602
1735166787584	44602
1752346656768	44602
1769526525952	44602
1786706395136	44602
1803886264320	44602
1821066133504	44602
1838246002688	44602
1855425871872	44602
1872605741056	44602
1889785610240	44602
1906965479424	44602
1924145348608	44602
1941325217792	44602
1958505086976	44602
1975684956160	44602
1992864825344	44602
2010044694528	44602
2027224563712	44602
2044404432896	44602
2061584302080	44602
2078764171264	44602
2095944040448	44602
2113123909632	44602
2130303778816	44602
2147483648000	44602
2164663517184	44602
2181843386368	44602
2199023255552	44602
2233382993920	44602
2267742732288	44602
2302102470656	44602
2336462209024	44602
2370821947392	44602
2405181685760	44602
2439541424128	44602
2473901162496	44602
2508260900864	44602
2542620639232	44602
2576980377600	44602
2611340115968	44602
2645699854336	44602
2680059592704	44602
2714419331072	44602
2748779069440	44602
2783138807808	44602
2817498546176	44602
2851858284544	44602
2886218022912	44602
2920577761280	44602
2954937499648	44602
2989297238016	44602
3023656976384	44602
3058016714752	44602
3092376453120	44602
3126736191488	44602
3161095929856	44602
3195455668224	44602
3229815406592	44602
3264175144960	44602
3298534883328	44602
3332894621696	44602
3367254360064	44602
3401614098432	44602
3435973836800	44602
3470333575168	44602
3504693313536	44602
3539053051904	44602
3573412790272	44602
3607772528640	44602
3642132267008	44602
3676492005376	44602
3710851743744	44602
3745211482112	44602
3779571220480	44602
3813930958848	44602
3848290697216	44602
3882650435584	44602
3917010173952	44602
3951369912320	44602
3985729650688	44602
4020089389056	44602
4054449127424	44602
4088808865792	44602
4123168604160	44602
4157528342528	44602
4191888080896	44602
4226247819264	44602
4260607557632	44602
4294967296000	44602
4329327034368	44602
4363686772736	44602
4398046511104	44602
4466765987840	44602
4535485464576	44602
4604204941312	44602
4672924418048	44602
4741643894784	44602
4810363371520	44602
4879082848256	44602
4947802324992	44602
5016521801728	44602
5085241278464	44602
5153960755200	44602
5222680231936	44602
5291399708672	44602
5360119185408	44602
5428838662144	44602
5497558138880	44602
5566277615616	44602
5634997092352	44602
5703716569088	44602
5772436045824	44602
5841155522560	44602
5909874999296	44602
5978594476032	44602
6047313952768	44602
6116033429504	44602
6184752906240	44602
6253472382976	44602
6322191859712	44602
6390911336448	44602
6459630813184	44602
6528350289920	44602
6597069766656	44602
6665789243392	44602
6734508720128	44602
6803228196864	44602
6871947673600	44602
6940667150336	44602
7009386627072	44602
7078106103808	44602
7146825580544	44602
7215545057280	44602
7284264534016	44602
7352984010752	44602
7421703487488	44602
7490422964224	44602
7559142440960	44602
7627861917696	44602
7696581394432	44602
7765300871168	44602
7834020347904	44602
7902739824640	44602
7971459301376	44602
8040178778112	44602
8108898254848	44602
8177617731584	44602
8246337208320	44602
8315056685056	44602
8383776161792	44602
8452495638528	44602
8521215115264	44602
8589934592000	44602
8658654068736	44602
8727373545472	44602
8796093022208	44602
8933531975680	44602
9070970929152	44602
9208409882624	44602
9345848836096	44602
9483287789568	44602
9620726743040	44602
9758165696512	44602
9895604649984	44602
10033043603456	44602
10170482556928	44602
10307921510400	44602
10445360463872	44602
10582799417344	44602
10720238370816	44602
10857677324288	44602
10995116277760	44602
11132555231232	44602
11269994184704	44602
11407433138176	44602
11544872091648	44602
11682311045120	44602
11819749998592	44602
11957188952064	44602
12094627905536	44602
12232066859008	44602
12369505812480	44602
12506944765952	44602
12644383719424	44602
12781822672896	44602
12919261626368	44602
13056700579840	44602
13194139533312	44602
13331578486784	44602
13469017440256	44602
13606456393728	44602
13743895347200	44602
13881334300672	44602
14018773254144	44602
14156212207616	44602
14293651161088	44602
14431090114560	44602
14568529068032	44602
14705968021504	44602
14843406974976	44602
14980845928448	44602
15118284881920	44602
15255723835392	44602
15393162788864	44602
15530601742336	44602
15668040695808	44602
15805479649280	44602
15942918602752	44602
16080357556224	44602
16217796509696	44602
16355235463168	44602
16492674416640	44602
16630113370112	44602
16767552323584	44602
16904991277056	44602
17042430230528	44602
17179869184000	44602
17317308137472	44602
17454747090944	44602
17592186044416	44602
17867063951360	44602
18141941858304	44602
18416819765248	44602
18691697672192	44602
18966575579136	44602
19241453486080	44602
19516331393024	44602
19791209299968	44602
20066087206912	44602
20340965113856	44602
20615843020800	44602
20890720927744	44602
21165598834688	44602
21440476741632	44602
21715354648576	44602
21990232555520	44602
22265110462464	44602
22539988369408	44602
22814866276352	44602
23089744183296	44602
23364622090240	44602
23639499997184	44602
23914377904128	44602
24189255811072	44602
24464133718016	44602
24739011624960	44602
25013889531904	44602
25288767438848	44602
25563645345792	44602
25838523252736	44602
26113401159680	44602
26388279066624	44602
26663156973568	44602
26938034880512	44602
27212912787456	44602
27487790694400	44602
27762668601344	44602
28037546508288	44602
28312424415232	44602
28587302322176	44602
28862180229120	44602
29137058136064	44602
29411936043008	44602
29686813949952	44602
29961691856896	44602
30236569763840	44602
30511447670784	44602
30786325577728	44602
31061203484672	44602
31336081391616	44602
31610959298560	44602
31885837205504	44602
32160715112448	44602
32435593019392	44602
32710470926336	44602
32985348833280	44602
33260226740224	44602
33535104647168	44602
33809982554112	44602
34084860461056	44602
34359738368000	44602
34634616274944	44602
34909494181888	44602
35184372088832	44602
35734127902720	44602
36283883716608	44602
36833639530496	44602
37383395344384	44602
37933151158272	44602
38482906972160	44602
39032662786048	44602
39582418599936	44602
40132174413824	44602
40681930227712	44602
41231686041600	44602
41781441855488	44602
42331197669376	44602
42880953483264	44602
43430709297152	44602
43980465111040	44602
44530220924928	44602
45079976738816	44602
45629732552704	44602
46179488366592	44602
46729244180480	44602
47278999994368	44602
47828755808256	44602
48378511622144	44602
48928267436032	44602
49478023249920	44602
50027779063808	44602
50577534877696	44602
51127290691584	44602
51677046505472	44602
52226802319360	44602
52776558133248	44602
53326313947136	44602
53876069761024	44602
54425825574912	44602
54975581388800	44602
55525337202688	44602
56075093016576	44602
56624848830464	44602
57174604644352	44602
57724360458240	44602
58274116272128	44602
58823872086016	44602
59373627899904	44602
59923383713792	44602
60473139527680	44602
61022895341568	44602
61572651155456	44602
62122406969344	44602
62672162783232	44602
63221918597120	44602
63771674411008	44602
64321430224896	44602
64871186038784	44602
65420941852672	44602
65970697666560	44602
66520453480448	44602
67070209294336	44602
67619965108224	44602
68169720922112	44602
68719476736000	44602
69269232549888	44602
69818988363776	44602
70368744177664	44602
71468255805440	44602
72567767433216	44602
73667279060992	44602
74766790688768	44602
75866302316544	44602
76965813944320	44602
78065325572096	44602
79164837199872	44602
80264348827648	44602
81363860455424	44602
82463372083200	44602
83562883710976	44602
84662395338752	44602
85761906966528	44602
86861418594304	44602
87960930222080	44602
89060441849856	44602
90159953477632	44602
91259465105408	44602
92358976733184	44602
93458488360960	44602
94557999988736	44602
95657511616512	44602
96757023244288	44602
97856534872064	44602
98956046499840	44602
100055558127616	44602
101155069755392	44602
102254581383168	44602
103354093010944	44602
104453604638720	44602
105553116266496	44602
106652627894272	44602
107752139522048	44602
108851651149824	44602
109951162777600	44602
111050674405376	44602
112150186033152	44602
113249697660928	44602
114349209288704	44602
115448720916480	44602
116548232544256	44602
117647744172032	44602
118747255799808	44602
119846767427584	44602
120946279055360	44602
122045790683136	44602
123145302310912	44602
124244813938688	44602
125344325566464	44602
126443837194240	44602
127543348822016	44602
128642860449792	44602
129742372077568	44602
130841883705344	44602
131941395333120	44602
133040906960896	44602
134140418588672	44602
135239930216448	44602
136339441844224	44602
137438953472000	44602
138538465099776	44602
139637976727552	44602
140737488355328	44602
142936511610880	44602
145135534866432	44602
147334558121984	44602
149533581377536	44602
151732604633088	44602
153931627888640	44602
156130651144192	44602
158329674399744	44602
160528697655296	44602
162727720910848	44602
164926744166400	44602
167125767421952	44602
169324790677504	44602
171523813933056	44602
173722837188608	44602
175921860444160	44602
178120883699712	44602
180319906955264	44602
182518930210816	44602
184717953466368	44602
186916976721920	44602
189115999977472	44602
191315023233024	44602
193514046488576	44602
195713069744128	44602
197912092999680	44602
200111116255232	44602
202310139510784	44602
204509162766336	44602
206708186021888	44602
208907209277440	44602
211106232532992	44602
213305255788544	44602
215504279044096	44602
217703302299648	44602
219902325555200	44602
222101348810752	44602
224300372066304	44602
226499395321856	44602
228698418577408	44602
230897441832960	44602
233096465088512	44602
235295488344064	44602
237494511599616	44602
239693534855168	44602
241892558110720	44602
244091581366272	44602
246290604621824	44602
248489627877376	44602
250688651132928	44602
252887674388480	44602
255086697644032	44602
257285720899584	44602
259484744155136	44602
261683767410688	44602
263882790666240	44602
266081813921792	44602
268280837177344	44602
270479860432896	44602
272678883688448	44602
274877906944000	44602
277076930199552	44602
279275953455104	44602
281474976710656	44602
285873023221760	44602
290271069732864	44602
294669116243968	44602
299067162755072	44602
303465209266176	44602
307863255777280	44602
312261302288384	44602
316659348799488	44602
321057395310592	44602
325455441821696	44602
329853488332800	44602
334251534843904	44602
338649581355008	44602
343047627866112	44602
347445674377216	44602
351843720888320	44602
356241767399424	44602
360639813910528	44602
365037860421632	44602
369435906932736	44602
373833953443840	44602
378231999954944	44602
382630046466048	44602
387028092977152	44602
391426139488256	44602
395824185999360	44602
400222232510464	44602
404620279021568	44602
409018325532672	44602
413416372043776	44602
417814418554880	44602
422212465065984	44602
426610511577088	44602
431008558088192	44602
435406604599296	44602
439804651110400	44602
444202697621504	44602
448600744132608	44602
452998790643712	44602
457396837154816	44602
461794883665920	44602
466192930177024	44602
470590976688128	44602
474989023199232	44602
479387069710336	44602
483785116221440	44602
488183162732544	44602
492581209243648	44602
496979255754752	44602
501377302265856	44602
505775348776960	44602
510173395288064	44602
514571441799168	44602
518969488310272	44602
523367534821376	44602
527765581332480	44602
532163627843584	44602
536561674354688	44602
540959720865792	44602
545357767376896	44602
549755813888000	44602
554153860399104	44602
558551906910208	44602
562949953421312	44602
571746046443520	44602
580542139465728	44602
589338232487936	44602
598134325510144	44602
606930418532352	44602
615726511554560	44602
624522604576768	44602
633318697598976	44602
642114790621184	44602
650910883643392	44602
659706976665600	44602
668503069687808	44602
677299162710016	44602
686095255732224	44602
694891348754432	44602
703687441776640	44602
712483534798848	44602
721279627821056	44602
730075720843264	44602
738871813865472	44602
747667906887680	44602
756463999909888	44602
765260092932096	44602
774056185954304	44602
782852278976512	44602
791648371998720	44602
800444465020928	44602
809240558043136	44602
818036651065344	44602
826832744087552	44602
835628837109760	44602
844424930131968	44602
853221023154176	44602
862017116176384	44602
870813209198592	44602
879609302220800	44602
888405395243008	44602
897201488265216	44602
905997581287424	44602
914793674309632	44602
923589767331840	44602
932385860354048	44602
941181953376256	44602
949978046398464	44602
958774139420672	44602
967570232442880	44602
976366325465088	44602
985162418487296	44602
993958511509504	44602
1002754604531712	44602
1011550697553920	44602
1020346790576128	44602
1029142883598336	44602
1037938976620544	44602
1046735069642752	44602
1055531162664960	44602
1064327255687168	44602
1073123348709376	44602
1081919441731584	44602
1090715534753792	44602
1099511627776000	44602
1108307720798208	44602
1117103813820416	44602
1125899906842624	44602
1143492092887040	44602
1161084278931456	44602
1178676464975872	44602
1196268651020288	44602
1213860837064704	44602
1231453023109120	44602
1249045209153536	44602
1266637395197952	44602
1284229581242368	44602
1301821767286784	44602
1319413953331200	44602
1337006139375616	44602
1354598325420032	44602
1372190511464448	44602
1389782697508864	44602
1407374883553280	44602
1424967069597696	44602
1442559255642112	44602
1460151441686528	44602
1477743627730944	44602
1495335813775360	44602
1512927999819776	44602
1530520185864192	44602
1548112371908608	44602
1565704557953024	44602
1583296743997440	44602
1600888930041856	44602
1618481116086272	44602
1636073302130688	44602
1653665488175104	44602
1671257674219520	44602
1688849860263936	44602
1706442046308352	44602
1724034232352768	44602
1741626418397184	44602
1759218604441600	44602
1776810790486016	44602
1794402976530432	44602
1811995162574848	44602
1829587348619264	44602
1847179534663680	44602
1864771720708096	44602
1882363906752512	44602
1899956092796928	44602
1917548278841344	44602
1935140464885760	44602
1952732650930176	44602
1970324836974592	44602
1987917023019008	44602
2005509209063424	44602
2023101395107840	44602
2040693581152256	44602
2058285767196672	44602
2075877953241088	44602
2093470139285504	44602
2111062325329920	44602
2128654511374336	44602
2146246697418752	44602
2163838883463168	44602
2181431069507584	44602
2199023255552000	44602
2216615441596416	44602
2234207627640832	44602
2251799813685248	44602
2286984185774080	44602
2322168557862912	44602
2357352929951744	44602
2392537302040576	44602
2427721674129408	44602
2462906046218240	44602
2498090418307072	44602
2533274790395904	44602
2568459162484736	44602
2603643534573568	44602
2638827906662400	44602
2674012278751232	44602
2709196650840064	44602
2744381022928896	44602
2779565395017728	44602
2814749767106560	44602
2849934139195392	44602
2885118511284224	44602
2920302883373056	44602
2955487255461888	44602
2990671627550720	44602
3025855999639552	44602
3061040371728384	44602
3096224743817216	44602
3131409115906048	44602
3166593487994880	44602
3201777860083712	44602
3236962232172544	44602
3272146604261376	44602
3307330976350208	44602
3342515348439040	44602
3377699720527872	44602
3412884092616704	44602
3448068464705536	44602
3483252836794368	44602
3518437208883200	44602
3553621580972032	44602
3588805953060864	44602
3623990325149696	44602
3659174697238528	44602
3694359069327360	44602
3729543441416192	44602
3764727813505024	44602
3799912185593856	44602
3835096557682688	44602
3870280929771520	44602
3905465301860352	44602
3940649673949184	44602
3975834046038016	44602
4011018418126848	44602
4046202790215680	44602
4081387162304512	44602
4116571534393344	44602
4151755906482176	44602
4186940278571008	44602
4222124650659840	44602
4257309022748672	44602
4292493394837504	44602
4327677766926336	44602
4362862139015168	44602
4398046511104000	44602
4433230883192832	44602
4468415255281664	44602
4503599627370496	44602
4573968371548160	44602
4644337115725824	44602
4714705859903488	44602
4785074604081152	44602
4855443348258816	44602
4925812092436480	44602
4996180836614144	44602
5066549580791808	44602
5136918324969472	44602
5207287069147136	44602
5277655813324800	44602
5348024557502464	44602
5418393301680128	44602
5488762045857792	44602
5559130790035456	44602
5629499534213120	44602
5699868278390784	44602
5770237022568448	44602
5840605766746112	44602
5910974510923776	44602
5981343255101440	44602
6051711999279104	44602
6122080743456768	44602
6192449487634432	44602
6262818231812096	44602
6333186975989760	44602
6403555720167424	44602
6473924464345088	44602
6544293208522752	44602
6614661952700416	44602
6685030696878080	44602
6755399441055744	44602
6825768185233408	44602
6896136929411072	44602
6966505673588736	44602
7036874417766400	44602
7107243161944064	44602
7177611906121728	44602
7247980650299392	44602
7318349394477056	44602
7388718138654720	44602
7459086882832384	44602
7529455627010048	44602
7599824371187712	44602
7670193115365376	44602
7740561859543040	44602
7810930603720704	44602
7881299347898368	44602
7951668092076032	44602
8022036836253696	44602
8092405580431360	44602
8162774324609024	44602
8233143068786688	44602
8303511812964352	44602
8373880557142016	44602
8444249301319680	44602
8514618045497344	44602
8584986789675008	44602
8655355533852672	44602
8725724278030336	44602
8796093022208000	44602
8866461766385664	44602
8936830510563328	44602
9007199254740992	44602
9147936743096320	44602
9288674231451648	44602
9429411719806976	44602
9570149208162304	44602
9710886696517632	44602
9851624184872960	44602
9992361673228288	44602
10133099161583616	44602
10273836649938944	44602
10414574138294272	44602
10555311626649600	44602
10696049115004928	44602
10836786603360256	44602
10977524091715584	44602
11118261580070912	44602
11258999068426240	44602
11399736556781568	44602
11540474045136896	44602
11681211533492224	44602
11821949021847552	44602
11962686510202880	44602
12103423998558208	44602
12244161486913536	44602
12384898975268864	44602
12525636463624192	44602
12666373951979520	44602
12807111440334848	44602
12947848928690176	44602
13088586417045504	44602
13229323905400832	44602
13370061393756160	44602
13510798882111488	44602
13651536370466816	44602
13792273858822144	44602
13933011347177472	44602
14073748835532800	44602
14214486323888128	44602
14355223812243456	44602
14495961300598784	44602
14636698788954112	44602
14777436277309440	44602
14918173765664768	44602
15058911254020096	44602
15199648742375424	44602
15340386230730752	44602
15481123719086080	44602
15621861207441408	44602
15762598695796736	44602
15903336184152064	44602
16044073672507392	44602
16184811160862720	44602
16325548649218048	44602
16466286137573376	44602
16607023625928704	44602
16747761114284032	44602
16888498602639360	44602
17029236090994688	44602
17169973579350016	44602
17310711067705344	44602
17451448556060672	44602
17592186044416000	44602
17732923532771328	44602
17873661021126656	44602
18014398509481984	44602
18295873486192640	44602
18577348462903296	44602
18858823439613952	44602
19140298416324608	44602
19421773393035264	44602
19703248369745920	44602
19984723346456576	44602
20266198323167232	44602
20547673299877888	44602
20829148276588544	44602
21110623253299200	44602
21392098230009856	44602
21673573206720512	44602
21955048183431168	44602
22236523160141824	44602
22517998136852480	44602
22799473113563136	44602
23080948090273792	44602
23362423066984448	44602
23643898043695104	44602
23925373020405760	44602
24206847997116416	44602
24488322973827072	44602
24769797950537728	44602
25051272927248384	44602
25332747903959040	44602
25614222880669696	44602
25895697857380352	44602
26177172834091008	44602
26458647810801664	44602
26740122787512320	44602
27021597764222976	44602
27303072740933632	44602
27584547717644288	44602
27866022694354944	44602
28147497671065600	44602
28428972647776256	44602
28710447624486912	44602
28991922601197568	44602
29273397577908224	44602
29554872554618880	44602
29836347531329536	44602
30117822508040192	44602
30399297484750848	44602
30680772461461504	44602
30962247438172160	44602
31243722414882816	44602
31525197391593472	44602
31806672368304128	44602
32088147345014784	44602
32369622321725440	44602
32651097298436096	44602
32932572275146752	44602
33214047251857408	44602
33495522228568064	44602
33776997205278720	44602
34058472181989376	44602
34339947158700032	44602
34621422135410688	44602
34902897112121344	44602
35184372088832000	44602
35465847065542656	44602
35747322042253312	44602
36028797018963968	44602
36591746972385280	44602
37154696925806592	44602
37717646879227904	44602
38280596832649216	44602
38843546786070528	44602
39406496739491840	44602
39969446692913152	44602
40532396646334464	44602
41095346599755776	44602
41658296553177088	44602
42221246506598400	44602
42784196460019712	44602
43347146413441024	44602
43910096366862336	44602
44473046320283648	44602
45035996273704960	44602
45598946227126272	44602
46161896180547584	44602
46724846133968896	44602
47287796087390208	44602
47850746040811520	44602
48413695994232832	44602
48976645947654144	44602
49539595901075456	44602
50102545854496768	44602
50665495807918080	44602
51228445761339392	44602
51791395714760704	44602
52354345668182016	44602
52917295621603328	44602
53480245575024640	44602
54043195528445952	44602
54606145481867264	44602
55169095435288576	44602
55732045388709888	44602
56294995342131200	44602
56857945295552512	44602
57420895248973824	44602
57983845202395136	44602
58546795155816448	44602
59109745109237760	44602
59672695062659072	44602
60235645016080384	44602
60798594969501696	44602
61361544922923008	44602
61924494876344320	44602
62487444829765632	44602
63050394783186944	44602
63613344736608256	44602
64176294690029568	44602
64739244643450880	44602
65302194596872192	44602
65865144550293504	44602
66428094503714816	44602
66991044457136128	44602
67553994410557440	44602
68116944363978752	44602
68679894317400064	44602
69242844270821376	44602
69805794224242688	44602
70368744177664000	44602
70931694131085312	44602
71494644084506624	44602
72057594037927936	44602
73183493944770560	44602
74309393851613184	44602
75435293758455808	44602
76561193665298432	44602
77687093572141056	44602
78812993478983680	44602
79938893385826304	44602
81064793292668928	44602
82190693199511552	44602
83316593106354176	44602
84442493013196800	44602
85568392920039424	44602
86694292826882048	44602
87820192733724672	44602
88946092640567296	44602
90071992547409920	44602
91197892454252544	44602
92323792361095168	44602
93449692267937792	44602
94575592174780416	44602
95701492081623040	44602
96827391988465664	44602
97953291895308288	44602
99079191802150912	44602
100205091708993536	44602
101330991615836160	44602
102456891522678784	44602
103582791429521408	44602
104708691336364032	44602
105834591243206656	44602
106960491150049280	44602
108086391056891904	44602
109212290963734528	44602
110338190870577152	44602
111464090777419776	44602
112589990684262400	44602
113715890591105024	44602
114841790497947648	44602
115967690404790272	44602
117093590311632896	44602
118219490218475520	44602
119345390125318144	44602
120471290032160768	44602
121597189939003392	44602
122723089845846016	44602
123848989752688640	44602
124974889659531264	44602
126100789566373888	44602
127226689473216512	44602
128352589380059136	44602
129478489286901760	44602
130604389193744384	44602
131730289100587008	44602
132856189007429632	44602
133982088914272256	44602
135107988821114880	44602
136233888727957504	44602
137359788634800128	44602
138485688541642752	44602
139611588448485376	44602
140737488355328000	44602
141863388262170624	44602
142989288169013248	44602
144115188075855872	44602
146366987889541120	44602
148618787703226368	44602
150870587516911616	44602
153122387330596864	44602
155374187144282112	44602
157625986957967360	44602
159877786771652608	44602
162129586585337856	44602
164381386399023104	44602
166633186212708352	44602
168884986026393600	44602
171136785840078848	44602
173388585653764096	44602
175640385467449344	44602
177892185281134592	44602
180143985094819840	44602
182395784908505088	44602
184647584722190336	44602
186899384535875584	44602
189151184349560832	44602
191402984163246080	44602
193654783976931328	44602
195906583790616576	44602
198158383604301824	44602
200410183417987072	44602
202661983231672320	44602
204913783045357568	44602
207165582859042816	44602
209417382672728064	44602
211669182486413312	44602
213920982300098560	44602
216172782113783808	44602
218424581927469056	44602
220676381741154304	44602
222928181554839552	44602
225179981368524800	44602
227431781182210048	44602
229683580995895296	44602
231935380809580544	44602
234187180623265792	44602
236438980436951040	44602
238690780250636288	44602
240942580064321536	44602
243194379878006784	44602
245446179691692032	44602
247697979505377280	44602
249949779319062528	44602
252201579132747776	44602
254453378946433024	44602
256705178760118272	44602
258956978573803520	44602
261208778387488768	44602
263460578201174016	44602
265712378014859264	44602
267964177828544512	44602
270215977642229760	44602
272467777455915008	44602
274719577269600256	44602
276971377083285504	44602
279223176896970752	44602
281474976710656000	44602
283726776524341248	44602
285978576338026496	44602
288230376151711744	44602
292733975779082240	44602
297237575406452736	44602
301741175033823232	44602
306244774661193728	44602
310748374288564224	44602
315251973915934720	44602
319755573543305216	44602
324259173170675712	44602
328762772798046208	44602
333266372425416704	44602
337769972052787200	44602
342273571680157696	44602
346777171307528192	44602
351280770934898688	44602
355784370562269184	44602
360287970189639680	44602
364791569817010176	44602
369295169444380672	44602
373798769071751168	44602
378302368699121664	44602
382805968326492160	44602
387309567953862656	44602
391813167581233152	44602
396316767208603648	44602
400820366835974144	44602
405323966463344640	44602
409827566090715136	44602
414331165718085632	44602
418834765345456128	44602
423338364972826624	44602
427841964600197120	44602
432345564227567616	44602
436849163854938112	44602
441352763482308608	44602
445856363109679104	44602
450359962737049600	44602
454863562364420096	44602
459367161991790592	44602
463870761619161088	44602
468374361246531584	44602
472877960873902080	44602
477381560501272576	44602
481885160128643072	44602
486388759756013568	44602
490892359383384064	44602
495395959010754560	44602
499899558638125056	44602
504403158265495552	44602
508906757892866048	44602
513410357520236544	44602
517913957147607040	44602
522417556774977536	44602
526921156402348032	44602
531424756029718528	44602
535928355657089024	44602
540431955284459520	44602
544935554911830016	44602
549439154539200512	44602
553942754166571008	44602
558446353793941504	44602
562949953421312000	44602
567453553048682496	44602
571957152676052992	44602
576460752303423488	44602
585467951558164480	44602
594475150812905472	44602
603482350067646464	44602
612489549322387456	44602
621496748577128448	44602
630503947831869440	44602
639511147086610432	44602
648518346341351424	44602
657525545596092416	44602
666532744850833408	44602
675539944105574400	44602
684547143360315392	44602
693554342615056384	44602
702561541869797376	44602
711568741124538368	44602
720575940379279360	44602
729583139634020352	44602
738590338888761344	44602
747597538143502336	44602
756604737398243328	44602
765611936652984320	44602
774619135907725312	44602
783626335162466304	44602
792633534417207296	44602
801640733671948288	44602
810647932926689280	44602
819655132181430272	44602
828662331436171264	44602
837669530690912256	44602
846676729945653248	44602
855683929200394240	44602
864691128455135232	44602
873698327709876224	44602
882705526964617216	44602
891712726219358208	44602
900719925474099200	44602
909727124728840192	44602
918734323983581184	44602
927741523238322176	44602
936748722493063168	44602
945755921747804160	44602
954763121002545152	44602
963770320257286144	44602
972777519512027136	44602
981784718766768128	44602
990791918021509120	44602
999799117276250112	44602
1008806316530991104	44602
1017813515785732096	44602
1026820715040473088	44602
1035827914295214080	44602
1044835113549955072	44602
1053842312804696064	44602
1062849512059437056	44602
1071856711314178048	44602
1080863910568919040	44602
1089871109823660032	44602
1098878309078401024	44602
1107885508333142016	44602
1116892707587883008	44602
1125899906842624000	44602
1134907106097364992	44602
1143914305352105984	44602
1152921504606846976	44602
1170935903116328960	44602
1188950301625810944	44602
1206964700135292928	44602
1224979098644774912	44602
1242993497154256896	44602
1261007895663738880	44602
1279022294173220864	44602
1297036692682702848	44602
1315051091192184832	44602
1333065489701666816	44602
1351079888211148800	44602
1369094286720630784	44602
1387108685230112768	44602
1405123083739594752	44602
1423137482249076736	44602
1441151880758558720	44602
1459166279268040704	44602
1477180677777522688	44602
1495195076287004672	44602
1513209474796486656	44602
1531223873305968640	44602
1549238271815450624	44602
1567252670324932608	44602
1585267068834414592	44602
1603281467343896576	44602
1621295865853378560	44602
1639310264362860544	44602
1657324662872342528	44602
1675339061381824512	44602
1693353459891306496	44602
1711367858400788480	44602
1729382256910270464	44602
1747396655419752448	44602
1765411053929234432	44602
1783425452438716416	44602
1801439850948198400	44602
1819454249457680384	44602
1837468647967162368	44602
1855483046476644352	44602
1873497444986126336	44602
1891511843495608320	44602
1909526242005090304	44602
1927540640514572288	44602
1945555039024054272	44602
1963569437533536256	44602
1981583836043018240	44602
1999598234552500224	44602
2017612633061982208	44602
2035627031571464192	44602
2053641430080946176	44602
2071655828590428160	44602
2089670227099910144	44602
2107684625609392128	44602
2125699024118874112	44602
2143713422628356096	44602
2161727821137838080	44602
2179742219647320064	44602
2197756618156802048	44602
2215771016666284032	44602
2233785415175766016	44602
2251799813685248000	44602
2269814212194729984	44602
2287828610704211968	44602
2305843009213693952	44602
2341871806232657920	44602
2377900603251621888	44602
2413929400270585856	44602
2449958197289549824	44602
2485986994308513792	44602
2522015791327477760	44602
2558044588346441728	44602
2594073385365405696	44602
2630102182384369664	44602
2666130979403333632	44602
2702159776422297600	44602
2738188573441261568	44602
2774217370460225536	44602
2810246167479189504	44602
2846274964498153472	44602
2882303761517117440	44602
2918332558536081408	44602
2954361355555045376	44602
2990390152574009344	44602
3026418949592973312	44602
3062447746611937280	44602
3098476543630901248	44602
3134505340649865216	44602
3170534137668829184	44602
3206562934687793152	44602
3242591731706757120	44602
3278620528725721088	44602
3314649325744685056	44602
3350678122763649024	44602
3386706919782612992	44602
3422735716801576960	44602
3458764513820540928	44602
3494793310839504896	44602
3530822107858468864	44602
3566850904877432832	44602
3602879701896396800	44602
3638908498915360768	44602
3674937295934324736	44602
3710966092953288704	44602
3746994889972252672	44602
3783023686991216640	44602
3819052484010180608	44602
3855081281029144576	44602
3891110078048108544	44602
3927138875067072512	44602
3963167672086036480	44602
3999196469105000448	44602
4035225266123964416	44602
4071254063142928384	44602
4107282860161892352	44602
4143311657180856320	44602
4179340454199820288	44602
4215369251218784256	44602
4251398048237748224	44602
4287426845256712192	44602
4323455642275676160	44602
4359484439294640128	44602
4395513236313604096	44602
4431542033332568064	44602
4467570830351532032	44602
4503599627370496000	44602
4539628424389459968	44602
4575657221408423936	44602
4611686018427387904	44602
4683743612465315840	44602
4755801206503243776	44602
4827858800541171712	44602
4899916394579099648	44602
4971973988617027584	44602
5044031582654955520	44602
5116089176692883456	44602
5188146770730811392	44602
5260204364768739328	44602
5332261958806667264	44602
5404319552844595200	44602
5476377146882523136	44602
5548434740920451072	44602
5620492334958379008	44602
5692549928996306944	44602
5764607523034234880	44602
5836665117072162816	44602
5908722711110090752	44602
5980780305148018688	44602
6052837899185946624	44602
6124895493223874560	44602
6196953087261802496	44602
6269010681299730432	44602
6341068275337658368	44602
6413125869375586304	44602
6485183463413514240	44602
6557241057451442176	44602
6629298651489370112	44602
6701356245527298048	44602
6773413839565225984	44602
6845471433603153920	44602
6917529027641081856	44602
6989586621679009792	44602
7061644215716937728	44602
7133701809754865664	44602
7205759403792793600	44602
7277816997830721536	44602
7349874591868649472	44602
7421932185906577408	44602
7493989779944505344	44602
7566047373982433280	44602
7638104968020361216	44602
7710162562058289152	44602
7782220156096217088	44602
7854277750134145024	44602
7926335344172072960	44602
7998392938210000896	44602
8070450532247928832	44602
8142508126285856768	44602
8214565720323784704	44602
8286623314361712640	44602
8358680908399640576	44602
8430738502437568512	44602
8502796096475496448	44602
8574853690513424384	44602
8646911284551352320	44602
8718968878589280256	44602
8791026472627208192	44602
8863084066665136128	44602
8935141660703064064	44602
9007199254740992000	44602
9079256848778919936	44602
9151314442816847872	44602
9223372036854775808	44602
9367487224930631680	44602
9511602413006487552	44602
9655717601082343424	44602
9799832789158199296	44602
9943947977234055168	44602
10088063165309911040	44602
10232178353385766912	44602
10376293541461622784	44602
10520408729537478656	44602
10664523917613334528	44602
10808639105689190400	44602
10952754293765046272	44602
11096869481840902144	44602
11240984669916758016	44602
11385099857992613888	44602
11529215046068469760	44602
11673330234144325632	44602
11817445422220181504	44602
11961560610296037376	44602
12105675798371893248	44602
12249790986447749120	44602
12393906174523604992	44602
12538021362599460864	44602
12682136550675316736	44602
12826251738751172608	44602
12970366926827028480	44602
13114482114902884352	44602
13258597302978740224	44602
13402712491054596096	44602
13546827679130451968	44602
13690942867206307840	44602
13835058055282163712	44602
13979173243358019584	44602
14123288431433875456	44602
14267403619509731328	44602
14411518807585587200	44602
14555633995661443072	44602
14699749183737298944	44602
14843864371813154816	44602
14987979559889010688	44602
15132094747964866560	44602
15276209936040722432	44602
15420325124116578304	44602
15564440312192434176	44602
15708555500268290048	44602
15852670688344145920	44602
15996785876420001792	44602
16140901064495857664	44602
16285016252571713536	44602
16429131440647569408	44602
16573246628723425280	44602
16717361816799281152	44602
16861477004875137024	44602
17005592192950992896	44602
17149707381026848768	44602
17293822569102704640	44602
17437937757178560512	44602
17582052945254416384	44602
17726168133330272256	44602
17870283321406128128	44602
18014398509481984000	44602
18158513697557839872	44602
18302628885633695744	0
