0	0
1	1
2	1.97922
3	2.95574
4	3.92712
5	4.89554
6	5.86275
7	6.82778
8	7.79175
9	8.75444
10	9.71526
11	10.6752
12	11.6344
13	12.5921
14	13.5491
15	14.5054
16	15.4604
17	16.4148
18	17.3683
19	18.3208
20	19.2727
21	20.224
22	21.1745
23	22.1245
24	23.0739
25	24.0227
26	24.9709
27	25.9186
28	26.8657
29	27.8123
30	28.7585
31	29.7041
32	30.6494
33	31.5942
34	32.5385
35	33.4824
36	34.4258
37	35.3688
38	36.3115
39	37.2538
40	38.1956
41	39.1372
42	40.0784
43	41.0192
44	41.9596
45	42.8998
46	43.8396
47	44.7792
48	45.7184
49	46.6573
50	47.5959
51	48.5343
52	49.4724
53	50.4102
54	51.3477
55	52.285
56	53.222
57	54.1588
58	55.0953
59	56.0316
60	56.9677
61	57.9035
62	58.839
63	59.7744
64	60.7095
65	61.6444
66	62.5791
67	63.5136
68	64.4479
69	65.382
70	66.3159
71	67.2495
72	68.183
73	69.1163
74	70.0495
75	70.9824
76	71.9151
77	72.8477
78	73.7801
79	74.7123
80	75.6444
81	76.5762
82	77.5079
83	78.4394
84	79.3708
85	80.302
86	81.2331
87	82.1639
88	83.0947
89	84.0252
90	84.9556
91	85.8859
92	86.816
93	87.7459
94	88.6758
95	89.6054
96	90.5349
97	91.4643
98	92.3935
99	93.3225
100	94.2514
101	95.1802
102	96.1089
103	97.0374
104	97.9657
105	98.8939
106	99.822
107	100.75
108	101.678
109	102.605
110	103.533
111	104.46
112	105.388
113	106.315
114	107.242
115	108.169
116	109.096
117	110.022
118	110.949
119	111.875
120	112.802
121	113.728
122	114.654
123	115.58
124	116.506
125	117.431
126	118.357
127	119.283
128	120.208
130	122.058
132	123.908
134	125.758
136	127.607
138	129.455
140	131.303
142	133.151
144	134.998
146	136.845
148	138.692
150	140.538
152	142.383
154	144.228
156	146.073
158	147.917
160	149.761
162	151.605
164	153.448
166	155.291
168	157.133
170	158.976
172	160.817
174	162.659
176	164.5
178	166.34
180	168.181
182	170.021
184	171.86
186	173.7
188	175.538
190	177.377
192	179.215
194	181.053
196	182.891
198	184.728
200	186.565
202	188.402
204	190.238
206	192.074
208	193.909
210	195.745
212	197.58
214	199.414
216	201.249
218	203.083
220	204.916
222	206.75
224	208.583
226	210.416
228	212.248
230	214.08
232	215.912
234	217.743
236	219.575
238	221.405
240	223.236
242	225.066
244	226.896
246	228.726
248	230.555
250	232.385
252	234.214
254	236.042
256	237.871
260	241.527
264	245.182
268	248.836
272	252.489
276	256.141
280	259.792
284	263.442
288	267.091
292	270.74
296	274.387
300	278.034
304	281.68
308	285.326
312	288.97
316	292.614
320	296.257
324	299.9
328	303.542
332	307.183
336	310.823
340	314.463
344	318.102
348	321.741
352	325.378
356	329.016
360	332.652
364	336.288
368	339.923
372	343.558
376	347.192
380	350.825
384	354.458
388	358.09
392	361.722
396	365.353
400	368.983
404	372.612
408	376.241
412	379.87
416	383.498
420	387.125
424	390.751
428	394.377
432	398.002
436	401.627
440	405.251
444	408.874
448	412.497
452	416.119
456	419.74
460	423.361
464	426.981
468	430.601
472	434.22
476	437.838
480	441.456
484	445.073
488	448.69
492	452.306
496	455.922
500	459.537
504	463.151
508	466.765
512	470.379
520	477.604
528	484.828
536	492.05
544	499.27
552	506.488
560	513.704
568	520.919
576	528.132
584	535.343
592	542.552
600	549.76
608	556.966
616	564.171
624	571.374
632	578.575
640	585.774
648	592.971
656	600.167
664	607.36
672	614.552
680	621.742
688	628.93
696	636.117
704	643.301
712	650.484
720	657.665
728	664.844
736	672.022
744	679.197
752	686.372
760	693.544
768	700.715
776	707.884
784	715.052
792	722.219
800	729.384
808	736.547
816	743.709
824	750.87
832	758.03
840	765.188
848	772.345
856	779.501
864	786.656
872	793.809
880	800.961
888	808.113
896	815.263
904	822.411
912	829.559
920	836.705
928	843.849
936	850.993
944	858.135
952	865.276
960	872.416
968	879.555
976	886.693
984	893.83
992	900.966
1000	908.101
1008	915.235
1016	922.368
1024	929.5
1040	943.761
1056	958.019
1072	972.274
1088	986.526
1104	1000.77
1120	1015.02
1136	1029.26
1152	1043.5
1168	1057.74
1184	1071.98
1200	1086.21
1216	1100.44
1232	1114.66
1248	1128.89
1264	1143.11
1280	1157.33
1296	1171.54
1312	1185.76
1328	1199.97
1344	1214.17
1360	1228.38
1376	1242.58
1392	1256.78
1408	1270.98
1424	1285.17
1440	1299.37
1456	1313.56
1472	1327.75
1488	1341.93
1504	1356.12
1520	1370.3
1536	1384.48
1552	1398.66
1568	1412.84
1584	1427.01
1600	1441.19
1616	1455.36
1632	1469.53
1648	1483.69
1664	1497.86
1680	1512.02
1696	1526.18
1712	1540.34
1728	1554.49
1744	1568.64
1760	1582.79
1776	1596.94
1792	1611.08
1808	1625.21
1824	1639.34
1840	1653.47
1856	1667.58
1872	1681.69
1888	1695.79
1904	1709.87
1920	1723.95
1936	1738
1952	1752.03
1968	1766.05
1984	1780.06
2000	1794.06
2016	1808.05
2032	1822.05
2048	1836.04
2080	1864.02
2112	1892
2144	1919.97
2176	1947.94
2208	1975.91
2240	2003.87
2272	2031.83
2304	2059.78
2336	2087.73
2368	2115.68
2400	2143.63
2432	2171.56
2464	2199.5
2496	2227.43
2528	2255.36
2560	2283.28
2592	2311.2
2624	2339.12
2656	2367.03
2688	2394.94
2720	2422.85
2752	2450.75
2784	2478.65
2816	2506.55
2848	2534.45
2880	2562.34
2912	2590.24
2944	2618.12
2976	2646.01
3008	2673.89
3040	2701.77
3072	2729.65
3104	2757.53
3136	2785.4
3168	2813.27
3200	2841.13
3232	2868.99
3264	2896.85
3296	2924.71
3328	2952.56
3360	2980.41
3392	3008.25
3424	3036.09
3456	3063.93
3488	3091.76
3520	3119.59
3552	3147.42
3584	3175.24
3616	3203.06
3648	3230.87
3680	3258.67
3712	3286.47
3744	3314.25
3776	3342.03
3808	3369.79
3840	3397.53
3872	3425.25
3904	3452.94
3936	3480.61
3968	3508.26
4000	3535.91
4032	3563.55
4064	3591.19
4096	3618.83
4160	3674.1
4224	3729.37
4288	3784.62
4352	3839.87
4416	3895.11
4480	3950.33
4544	4005.55
4608	4060.76
4672	4115.95
4736	4171.15
4800	4226.33
4864	4281.51
4928	4336.68
4992	4391.84
5056	4446.99
5120	4502.13
5184	4557.27
5248	4612.39
5312	4667.5
5376	4722.6
5440	4777.69
5504	4832.76
5568	4887.81
5632	4942.84
5696	4997.85
5760	5052.83
5824	5107.76
5888	5162.63
5952	5217.48
6016	5272.31
6080	5327.13
6144	5381.94
6208	5436.75
6272	5491.55
6336	5546.34
6400	5601.12
6464	5655.9
6528	5710.66
6592	5765.43
6656	5820.18
6720	5874.93
6784	5929.67
6848	5984.41
6912	6039.14
6976	6093.86
7040	6148.58
7104	6203.28
7168	6257.98
7232	6312.66
7296	6367.34
7360	6422
7424	6476.64
7488	6531.28
7552	6585.9
7616	6640.5
7680	6695.09
7744	6749.65
7808	6804.18
7872	6858.68
7936	6913.16
8000	6967.63
8064	7022.1
8128	7076.57
8192	7131.02
8320	7239.92
8448	7348.78
8576	7457.62
8704	7566.43
8832	7675.22
8960	7783.98
9088	7892.72
9216	8001.41
9344	8110.07
9472	8218.68
9600	8327.24
9728	8435.73
9856	8544.14
9984	8652.51
10112	8760.85
10240	8869.16
10368	8977.46
10496	9085.72
10624	9193.96
10752	9302.18
10880	9410.37
11008	9518.53
11136	9626.65
11264	9734.72
11392	9842.76
11520	9950.75
11648	10058.7
11776	10166.6
11904	10274.4
12032	10382.2
12160	10490
12288	10597.8
12416	10705.5
12544	10813.2
12672	10920.9
12800	11028.6
12928	11136.2
13056	11243.8
13184	11351.3
13312	11458.8
13440	11566.3
13568	11673.7
13696	11781
13824	11888.4
13952	11995.6
14080	12102.9
14208	12210.2
14336	12317.4
14464	12424.6
14592	12531.7
14720	12638.9
14848	12745.9
14976	12853
15104	12960
15232	13067
15360	13173.9
15488	13280.8
15616	13387.7
15744	13494.5
15872	13601.3
16000	13708
16128	13814.8
16256	13921.5
16384	14028.2
16640	14241.4
16896	14454.6
17152	14667.6
17408	14880.4
17664	15093
17920	15305.6
18176	15518.1
18432	15730.4
18688	15942.7
18944	16154.8
19200	16366.7
19456	16578.5
19712	16790.2
19968	17001.8
20224	17213.2
20480	17424.6
20736	17635.8
20992	17846.9
21248	18057.8
21504	18268.5
21760	18479.2
22016	18689.7
22272	18900.1
22528	19110.4
22784	19320.5
23040	19530.4
23296	19740
23552	19949.6
23808	20158.9
24064	20368.1
24320	20577.2
24576	20786.1
24832	20994.7
25088	21203.2
25344	21411.5
25600	21619.6
25856	21827.6
26112	22035.4
26368	22243.1
26624	22450.7
26880	22658
27136	22865.1
27392	23072
27648	23278.8
27904	23485.4
28160	23691.9
28416	23898
28672	24103.9
28928	24309.2
29184	24514
29440	24718.3
29696	24922
29952	25125
30208	25327.2
30464	25527.9
30720	25726.7
30976	25923.3
31232	26118.8
31488	26313.5
31744	26507.6
32000	26700.7
32256	26892.7
32512	27083.8
32768	27274.3
33280	27654.6
33792	28034.5
34304	28413.9
34816	28792.8
35328	29171.2
35840	29549.2
36352	29926.8
36864	30304
37376	30680.8
37888	31057.2
38400	31433.2
38912	31808.9
39424	32184.2
39936	32559.2
40448	32933.9
40960	33308.2
41472	33682.2
41984	34055.9
42496	34429.3
43008	34802.4
43520	35175.2
44032	35547.7
44544	35919.9
45056	36291.8
45568	36663.4
46080	37034.7
46592	37405.6
47104	37776.3
47616	38146.7
48128	38516.8
48640	38886.5
49152	39256
49664	39625.2
50176	39994
50688	40362.5
51200	40730.8
51712	41098.7
52224	41466.3
52736	41833.6
53248	42200.6
53760	42567.3
54272	42933.6
54784	43299.6
55296	43665.3
55808	44030.5
56320	44395.3
56832	44759.7
57344	45123.4
57856	45486.5
58368	45848.9
58880	46210.5
59392	46571.3
59904	46931.1
60416	47289.8
60928	47647
61440	48002.4
61952	48355.6
62464	48706.8
62976	49056.4
63488	49403.8
64000	49749.9
64512	50095
65024	50439.3
65536	50783.1
66560	51469.6
67584	52154.8
68608	52838.7
69632	53521.5
70656	54203.2
71680	54883.8
72704	55563.4
73728	56242.1
74752	56919.8
75776	57596.6
76800	58272.3
77824	58947.1
78848	59620.9
79872	60293.7
80896	60965.6
81920	61636.5
82944	62306.5
83968	62975.3
84992	63643.1
86016	64309.6
87040	64974.6
88064	65638
89088	66299.4
90112	66958.5
91136	67614.9
92160	68267.9
93184	68916.2
94208	69559.8
95232	70198.7
96256	70834.8
97280	71469.3
98304	72102.8
99328	72735.1
100352	73366.5
101376	73996.8
102400	74626.3
103424	75254.9
104448	75882.8
105472	76509.7
106496	77135.9
107520	77761.2
108544	78385.7
109568	79009.3
110592	79632.1
111616	80254.2
112640	80875.3
113664	81495.6
114688	82115
115712	82733.4
116736	83350.8
117760	83966.8
118784	84581.5
119808	85194.5
120832	85805.8
121856	86414.9
122880	87021.6
123904	87625
124928	88225
125952	88821.4
126976	89415.3
128000	90007.7
129024	90599
130048	91189.4
131072	91778.9
133120	92955.5
135168	94129
137216	95299.8
139264	96467.5
141312	97632.2
143360	98794
145408	99952.8
147456	101108
149504	102259
151552	103404
153600	104542
155648	105670
157696	106789
159744	107900
161792	109008
163840	110114
165888	111216
167936	112316
169984	113413
172032	114507
174080	115598
176128	116687
178176	117772
180224	118853
182272	119930
184320	120999
186368	122062
188416	123117
190464	124165
192512	125210
194560	126252
196608	127291
198656	128328
200704	129363
202752	130395
204800	131424
206848	132451
208896	133475
210944	134495
212992	135510
215040	136521
217088	137525
219136	138522
221184	139514
223232	140502
225280	141488
227328	142471
229376	143451
231424	144430
233472	145406
235520	146381
237568	147352
239616	148320
241664	149286
243712	150247
245760	151204
247808	152155
249856	153101
251904	154042
253952	154979
256000	155914
258048	156846
260096	157777
262144	158705
266240	160556
270336	162397
274432	164227
278528	166039
282624	167832
286720	169612
290816	171384
294912	173149
299008	174905
303104	176651
307200	178385
311296	180100
315392	181800
319488	183490
323584	185174
327680	186850
331776	188518
335872	190176
339968	191820
344064	193449
348160	195066
352256	196676
356352	198280
360448	199877
364544	201465
368640	203042
372736	204606
376832	206157
380928	207699
385024	209236
389120	210766
393216	212289
397312	213803
401408	215306
405504	216797
409600	218277
413696	219752
417792	221221
421888	222684
425984	224139
430080	225585
434176	227020
438272	228444
442368	229861
446464	231273
450560	232679
454656	234079
458752	235471
462848	236853
466944	238224
471040	239587
475136	240946
479232	242298
483328	243645
487424	244986
491520	246318
495616	247642
499712	248956
503808	250265
507904	251569
512000	252868
516096	254160
520192	255446
524288	256725
532480	259257
540672	261768
548864	264259
557056	266722
565248	269157
573440	271574
581632	273970
589824	276339
598016	278684
606208	281013
614400	283320
622592	285600
630784	287860
638976	290104
647168	292328
655360	294527
663552	296710
671744	298876
679936	301022
688128	303145
696320	305253
704512	307346
712704	309419
720896	311473
729088	313514
737280	315538
745472	317543
753664	319532
761856	321507
770048	323466
778240	325406
786432	327331
794624	329244
802816	331140
811008	333019
819200	334886
827392	336739
835584	338577
843776	340399
851968	342210
860160	344008
868352	345790
876544	347559
884736	349317
892928	351062
901120	352793
909312	354511
917504	356219
925696	357914
933888	359593
942080	361263
950272	362921
958464	364566
966656	366198
974848	367822
983040	369433
991232	371032
999424	372620
1007616	374199
1015808	375767
1024000	377323
1032192	378870
1040384	380407
1048576	381933
1064960	384955
1081344	387937
1097728	390879
1114112	393781
1130496	396647
1146880	399475
1163264	402271
1179648	405029
1196032	407759
1212416	410451
1228800	413115
1245184	415742
1261568	418343
1277952	420909
1294336	423447
1310720	425953
1327104	428434
1343488	430886
1359872	433311
1376256	435710
1392640	438079
1409024	440424
1425408	442742
1441792	445036
1458176	447302
1474560	449548
1490944	451768
1507328	453968
1523712	456143
1540096	458295
1556480	460423
1572864	462530
1589248	464614
1605632	466676
1622016	468718
1638400	470738
1654784	472742
1671168	474722
1687552	476685
1703936	478623
1720320	480547
1736704	482448
1753088	484333
1769472	486197
1785856	488046
1802240	489876
1818624	491689
1835008	493484
1851392	495260
1867776	497020
1884160	498763
1900544	500490
1916928	502197
1933312	503892
1949696	505570
1966080	507236
1982464	508884
1998848	510519
2015232	512136
2031616	513741
2048000	515331
2064384	516906
2080768	518469
2097152	520018
2129920	523076
2162688	526079
2195456	529030
2228224	531930
2260992	534784
2293760	537594
2326528	540356
2359296	543073
2392064	545745
2424832	548377
2457600	550968
2490368	553515
2523136	556020
2555904	558484
2588672	560911
2621440	563300
2654208	565652
2686976	567966
2719744	570249
2752512	572500
2785280	574714
2818048	576894
2850816	579040
2883584	581160
2916352	583253
2949120	585313
2981888	587344
3014656	589347
3047424	591326
3080192	593280
3112960	595205
3145728	597102
3178496	598977
3211264	600831
3244032	602658
3276800	604462
3309568	606241
3342336	607999
3375104	609737
3407872	611449
3440640	613137
3473408	614805
3506176	616455
3538944	618082
3571712	619690
3604480	621273
3637248	622839
3670016	624386
3702784	625909
3735552	627412
3768320	628894
3801088	630363
3833856	631817
3866624	633250
3899392	634666
3932160	636066
3964928	637453
3997696	638822
4030464	640176
4063232	641509
4096000	642829
4128768	644137
4161536	645428
4194304	646706
4259840	649215
4325376	651665
4390912	654049
4456448	656381
4521984	658655
4587520	660886
4653056	663066
4718592	665205
4784128	667313
4849664	669367
4915200	671392
4980736	673370
5046272	675320
5111808	677232
5177344	679105
5242880	680962
5308416	682778
5373952	684585
5439488	686351
5505024	688104
5570560	689826
5636096	691517
5701632	693215
5767168	694874
5832704	696548
5898240	698129
5963776	699686
6029312	701229
6094848	702567
6160384	704064
6225920	704977
6291456	704977
6356992	704977
6422528	704977
6488064	704977
6553600	704977
6619136	704977
6684672	704977
6750208	704977
6815744	704977
6881280	704977
6946816	704977
7012352	704977
7077888	704977
7143424	704977
7208960	704977
7274496	704977
7340032	704977
7405568	704977
7471104	704977
7536640	704977
7602176	704977
7667712	704977
7733248	704977
7798784	704977
7864320	704977
7929856	704977
7995392	704977
8060928	704977
8126464	704977
8192000	704977
8257536	704977
8323072	704977
8388608	704977
8519680	704977
8650752	704977
8781824	704977
8912896	704977
9043968	704977
9175040	704977
9306112	704977
9437184	704977
9568256	704977
9699328	704977
9830400	704977
9961472	704977
10092544	704977
10223616	704977
10354688	704977
10485760	704977
10616832	704977
10747904	704977
10878976	704977
11010048	704977
11141120	704977
11272192	704977
11403264	704977
11534336	704977
11665408	704977
11796480	704977
11927552	704977
12058624	704977
12189696	704977
12320768	704977
12451840	704977
12582912	704977
12713984	704977
12845056	704977
12976128	704977
13107200	704977
13238272	704977
13369344	704977
13500416	704977
13631488	704977
13762560	704977
13893632	704977
14024704	704977
14155776	704977
14286848	704977
14417920	704977
14548992	704977
14680064	704977
14811136	704977
14942208	704977
15073280	704977
15204352	704977
15335424	704977
15466496	704977
15597568	704977
15728640	704977
15859712	704977
15990784	704977
16121856	704977
16252928	704977
16384000	704977
16515072	704977
16646144	704977
16777216	704977
17039360	704977
17301504	704977
17563648	704977
17825792	704977
18087936	704977
18350080	704977
18612224	704977
18874368	704977
19136512	704977
19398656	704977
19660800	704977
19922944	704977
20185088	704977
20447232	704977
20709376	704977
20971520	704977
21233664	704977
21495808	704977
21757952	704977
22020096	704977
22282240	704977
22544384	704977
22806528	704977
23068672	704977
23330816	704977
23592960	704977
23855104	704977
24117248	704977
24379392	704977
24641536	704977
24903680	704977
25165824	704977
25427968	704977
25690112	704977
25952256	704977
26214400	704977
26476544	704977
26738688	704977
27000832	704977
27262976	704977
27525120	704977
27787264	704977
28049408	704977
28311552	704977
28573696	704977
28835840	704977
29097984	704977
29360128	704977
29622272	704977
29884416	704977
30146560	704977
30408704	704977
30670848	704977
30932992	704977
31195136	704977
31457280	704977
31719424	704977
31981568	704977
32243712	704977
32505856	704977
32768000	704977
33030144	704977
33292288	704977
33554432	704977
34078720	704977
34603008	704977
35127296	704977
35651584	704977
36175872	704977
36700160	704977
37224448	704977
37748736	704977
38273024	704977
38797312	704977
39321600	704977
39845888	704977
40370176	704977
40894464	704977
41418752	704977
41943040	704977
42467328	704977
42991616	704977
43515904	704977
44040192	704977
44564480	704977
45088768	704977
45613056	704977
46137344	704977
46661632	704977
47185920	704977
47710208	704977
48234496	704977
48758784	704977
49283072	704977
49807360	704977
50331648	704977
50855936	704977
51380224	704977
51904512	704977
52428800	704977
52953088	704977
53477376	704977
54001664	704977
54525952	704977
55050240	704977
55574528	704977
56098816	704977
56623104	704977
57147392	704977
57671680	704977
58195968	704977
58720256	704977
59244544	704977
59768832	704977
60293120	704977
60817408	704977
61341696	704977
61865984	704977
62390272	704977
62914560	704977
63438848	704977
63963136	704977
64487424	704977
65011712	704977
65536000	704977
66060288	704977
66584576	704977
67108864	704977
68157440	704977
69206016	704977
70254592	704977
71303168	704977
72351744	704977
73400320	704977
74448896	704977
75497472	704977
76546048	704977
77594624	704977
78643200	704977
79691776	704977
80740352	704977
81788928	704977
82837504	704977
83886080	704977
84934656	704977
85983232	704977
87031808	704977
88080384	704977
89128960	704977
90177536	704977
91226112	704977
92274688	704977
93323264	704977
94371840	704977
95420416	704977
96468992	704977
97517568	704977
98566144	704977
99614720	704977
100663296	704977
101711872	704977
102760448	704977
103809024	704977
104857600	704977
105906176	704977
106954752	704977
108003328	704977
109051904	704977
110100480	704977
111149056	704977
112197632	704977
113246208	704977
114294784	704977
115343360	704977
116391936	704977
117440512	704977
118489088	704977
119537664	704977
120586240	704977
121634816	704977
122683392	704977
123731968	704977
124780544	704977
125829120	704977
126877696	704977
127926272	704977
128974848	704977
130023424	704977
131072000	704977
132120576	704977
133169152	704977
134217728	704977
136314880	704977
138412032	704977
140509184	704977
142606336	704977
144703488	704977
146800640	704977
148897792	704977
150994944	704977
153092096	704977
155189248	704977
157286400	704977
159383552	704977
161480704	704977
163577856	704977
165675008	704977
167772160	704977
169869312	704977
171966464	704977
174063616	704977
176160768	704977
178257920	704977
180355072	704977
182452224	704977
184549376	704977
186646528	704977
188743680	704977
190840832	704977
192937984	704977
195035136	704977
197132288	704977
199229440	704977
201326592	704977
203423744	704977
205520896	704977
207618048	704977
209715200	704977
211812352	704977
213909504	704977
216006656	704977
218103808	704977
220200960	704977
222298112	704977
224395264	704977
226492416	704977
228589568	704977
230686720	704977
232783872	704977
234881024	704977
236978176	704977
239075328	704977
241172480	704977
243269632	704977
245366784	704977
247463936	704977
249561088	704977
251658240	704977
253755392	704977
255852544	704977
257949696	704977
260046848	704977
262144000	704977
264241152	704977
266338304	704977
268435456	704977
272629760	704977
276824064	704977
281018368	704977
285212672	704977
289406976	704977
293601280	704977
297795584	704977
301989888	704977
306184192	704977
310378496	704977
314572800	704977
318767104	704977
322961408	704977
327155712	704977
331350016	704977
335544320	704977
339738624	704977
343932928	704977
348127232	704977
352321536	704977
356515840	704977
360710144	704977
364904448	704977
369098752	704977
373293056	704977
377487360	704977
381681664	704977
385875968	704977
390070272	704977
394264576	704977
398458880	704977
402653184	704977
406847488	704977
411041792	704977
415236096	704977
419430400	704977
423624704	704977
427819008	704977
432013312	704977
436207616	704977
440401920	704977
444596224	704977
448790528	704977
452984832	704977
457179136	704977
461373440	704977
465567744	704977
469762048	704977
473956352	704977
478150656	704977
482344960	704977
486539264	704977
490733568	704977
494927872	704977
499122176	704977
503316480	704977
507510784	704977
511705088	704977
515899392	704977
520093696	704977
524288000	704977
528482304	704977
532676608	704977
536870912	704977
545259520	704977
553648128	704977
562036736	704977
570425344	704977
578813952	704977
587202560	704977
595591168	704977
603979776	704977
612368384	704977
620756992	704977
629145600	704977
637534208	704977
645922816	704977
654311424	704977
662700032	704977
671088640	704977
679477248	704977
687865856	704977
696254464	704977
704643072	704977
713031680	704977
721420288	704977
729808896	704977
738197504	704977
746586112	704977
754974720	704977
763363328	704977
771751936	704977
780140544	704977
788529152	704977
796917760	704977
805306368	704977
813694976	704977
822083584	704977
830472192	704977
838860800	704977
847249408	704977
855638016	704977
864026624	704977
872415232	704977
880803840	704977
889192448	704977
897581056	704977
905969664	704977
914358272	704977
922746880	704977
931135488	704977
939524096	704977
947912704	704977
956301312	704977
964689920	704977
973078528	704977
981467136	704977
989855744	704977
998244352	704977
1006632960	704977
1015021568	704977
1023410176	704977
1031798784	704977
1040187392	704977
1048576000	704977
1056964608	704977
1065353216	704977
1073741824	704977
1090519040	704977
1107296256	704977
1124073472	704977
1140850688	704977
1157627904	704977
1174405120	704977
1191182336	704977
1207959552	704977
1224736768	704977
1241513984	704977
1258291200	704977
1275068416	704977
1291845632	704977
1308622848	704977
1325400064	704977
1342177280	704977
1358954496	704977
1375731712	704977
1392508928	704977
1409286144	704977
1426063360	704977
1442840576	704977
1459617792	704977
1476395008	704977
1493172224	704977
1509949440	704977
1526726656	704977
1543503872	704977
1560281088	704977
1577058304	704977
1593835520	704977
1610612736	704977
1627389952	704977
1644167168	704977
1660944384	704977
1677721600	704977
1694498816	704977
1711276032	704977
1728053248	704977
1744830464	704977
1761607680	704977
1778384896	704977
1795162112	704977
1811939328	704977
1828716544	704977
1845493760	704977
1862270976	704977
1879048192	704977
1895825408	704977
1912602624	704977
1929379840	704977
1946157056	704977
1962934272	704977
1979711488	704977
1996488704	704977
2013265920	704977
2030043136	704977
2046820352	704977
2063597568	704977
2080374784	704977
2097152000	704977
2113929216	704977
2130706432	704977
2147483648	704977
2181038080	704977
2214592512	704977
2248146944	704977
2281701376	704977
2315255808	704977
2348810240	704977
2382364672	704977
2415919104	704977
2449473536	704977
2483027968	704977
2516582400	704977
2550136832	704977
2583691264	704977
2617245696	704977
2650800128	704977
2684354560	704977
2717908992	704977
2751463424	704977
2785017856	704977
2818572288	704977
2852126720	704977
2885681152	704977
2919235584	704977
2952790016	704977
2986344448	704977
3019898880	704977
3053453312	704977
3087007744	704977
3120562176	704977
3154116608	704977
3187671040	704977
3221225472	704977
3254779904	704977
3288334336	704977
3321888768	704977
3355443200	704977
3388997632	704977
3422552064	704977
3456106496	704977
3489660928	704977
3523215360	704977
3556769792	704977
3590324224	704977
3623878656	704977
3657433088	704977
3690987520	704977
3724541952	704977
3758096384	704977
3791650816	704977
3825205248	704977
3858759680	704977
3892314112	704977
3925868544	704977
3959422976	704977
3992977408	704977
4026531840	704977
4060086272	704977
4093640704	704977
4127195136	704977
4160749568	704977
4194304000	704977
4227858432	704977
4261412864	704977
4294967296	704977
4362076160	704977
4429185024	704977
4496293888	704977
4563402752	704977
4630511616	704977
4697620480	704977
4764729344	704977
4831838208	704977
4898947072	704977
4966055936	704977
5033164800	704977
5100273664	704977
5167382528	704977
5234491392	704977
5301600256	704977
5368709120	704977
5435817984	704977
5502926848	704977
5570035712	704977
5637144576	704977
5704253440	704977
5771362304	704977
5838471168	704977
5905580032	704977
5972688896	704977
6039797760	704977
6106906624	704977
6174015488	704977
6241124352	704977
6308233216	704977
6375342080	704977
6442450944	704977
6509559808	704977
6576668672	704977
6643777536	704977
6710886400	704977
6777995264	704977
6845104128	704977
6912212992	704977
6979321856	704977
7046430720	704977
7113539584	704977
7180648448	704977
7247757312	704977
7314866176	704977
7381975040	704977
7449083904	704977
7516192768	704977
7583301632	704977
7650410496	704977
7717519360	704977
7784628224	704977
7851737088	704977
7918845952	704977
7985954816	704977
8053063680	704977
8120172544	704977
8187281408	704977
8254390272	704977
8321499136	704977
8388608000	704977
8455716864	704977
8522825728	704977
8589934592	704977
8724152320	704977
8858370048	704977
8992587776	704977
9126805504	704977
9261023232	704977
9395240960	704977
9529458688	704977
9663676416	704977
9797894144	704977
9932111872	704977
10066329600	704977
10200547328	704977
10334765056	704977
10468982784	704977
10603200512	704977
10737418240	704977
10871635968	704977
11005853696	704977
11140071424	704977
11274289152	704977
11408506880	704977
11542724608	704977
11676942336	704977
11811160064	704977
11945377792	704977
12079595520	704977
12213813248	704977
12348030976	704977
12482248704	704977
12616466432	704977
12750684160	704977
12884901888	704977
13019119616	704977
13153337344	704977
13287555072	704977
13421772800	704977
13555990528	704977
13690208256	704977
13824425984	704977
13958643712	704977
14092861440	704977
14227079168	704977
14361296896	704977
14495514624	704977
14629732352	704977
14763950080	704977
14898167808	704977
15032385536	704977
15166603264	704977
15300820992	704977
15435038720	704977
15569256448	704977
15703474176	704977
15837691904	704977
15971909632	704977
16106127360	704977
16240345088	704977
16374562816	704977
16508780544	704977
16642998272	704977
16777216000	704977
16911433728	704977
17045651456	704977
17179869184	704977
17448304640	704977
17716740096	704977
17985175552	704977
18253611008	704977
18522046464	704977
18790481920	704977
19058917376	704977
19327352832	704977
19595788288	704977
19864223744	704977
20132659200	704977
20401094656	704977
20669530112	704977
20937965568	704977
21206401024	704977
21474836480	704977
21743271936	704977
22011707392	704977
22280142848	704977
22548578304	704977
22817013760	704977
23085449216	704977
23353884672	704977
23622320128	704977
23890755584	704977
24159191040	704977
24427626496	704977
24696061952	704977
24964497408	704977
25232932864	704977
25501368320	704977
25769803776	704977
26038239232	704977
26306674688	704977
26575110144	704977
26843545600	704977
27111981056	704977
27380416512	704977
27648851968	704977
27917287424	704977
28185722880	704977
28454158336	704977
28722593792	704977
28991029248	704977
29259464704	704977
29527900160	704977
29796335616	704977
30064771072	704977
30333206528	704977
30601641984	704977
30870077440	704977
31138512896	704977
31406948352	704977
31675383808	704977
31943819264	704977
32212254720	704977
32480690176	704977
32749125632	704977
33017561088	704977
33285996544	704977
33554432000	704977
33822867456	704977
34091302912	704977
34359738368	704977
34896609280	704977
35433480192	704977
35970351104	704977
36507222016	704977
37044092928	704977
37580963840	704977
38117834752	704977
38654705664	704977
39191576576	704977
39728447488	704977
40265318400	704977
40802189312	704977
41339060224	704977
41875931136	704977
42412802048	704977
42949672960	704977
43486543872	704977
44023414784	704977
44560285696	704977
45097156608	704977
45634027520	704977
46170898432	704977
46707769344	704977
47244640256	704977
47781511168	704977
48318382080	704977
48855252992	704977
49392123904	704977
49928994816	704977
50465865728	704977
51002736640	704977
51539607552	704977
52076478464	704977
52613349376	704977
53150220288	704977
53687091200	704977
54223962112	704977
54760833024	704977
55297703936	704977
55834574848	704977
56371445760	704977
56908316672	704977
57445187584	704977
57982058496	704977
58518929408	704977
59055800320	704977
59592671232	704977
60129542144	704977
60666413056	704977
61203283968	704977
61740154880	704977
62277025792	704977
62813896704	704977
63350767616	704977
63887638528	704977
64424509440	704977
64961380352	704977
65498251264	704977
66035122176	704977
66571993088	704977
67108864000	704977
67645734912	704977
68182605824	704977
68719476736	704977
69793218560	704977
70866960384	704977
71940702208	704977
73014444032	704977
74088185856	704977
75161927680	704977
76235669504	704977
77309411328	704977
78383153152	704977
79456894976	704977
80530636800	704977
81604378624	704977
82678120448	704977
83751862272	704977
84825604096	704977
85899345920	704977
86973087744	704977
88046829568	704977
89120571392	704977
90194313216	704977
91268055040	704977
92341796864	704977
93415538688	704977
94489280512	704977
95563022336	704977
96636764160	704977
97710505984	704977
98784247808	704977
99857989632	704977
100931731456	704977
102005473280	704977
103079215104	704977
104152956928	704977
105226698752	704977
106300440576	704977
107374182400	704977
108447924224	704977
109521666048	704977
110595407872	704977
111669149696	704977
112742891520	704977
113816633344	704977
114890375168	704977
115964116992	704977
117037858816	704977
118111600640	704977
119185342464	704977
120259084288	704977
121332826112	704977
122406567936	704977
123480309760	704977
124554051584	704977
125627793408	704977
126701535232	704977
127775277056	704977
128849018880	704977
129922760704	704977
130996502528	704977
132070244352	704977
133143986176	704977
134217728000	704977
135291469824	704977
136365211648	704977
137438953472	704977
139586437120	704977
141733920768	704977
143881404416	704977
146028888064	704977
148176371712	704977
150323855360	704977
152471339008	704977
154618822656	704977
156766306304	704977
158913789952	704977
161061273600	704977
163208757248	704977
165356240896	704977
167503724544	704977
169651208192	704977
171798691840	704977
173946175488	704977
176093659136	704977
178241142784	704977
180388626432	704977
182536110080	704977
184683593728	704977
186831077376	704977
188978561024	704977
191126044672	704977
193273528320	704977
195421011968	704977
197568495616	704977
199715979264	704977
201863462912	704977
204010946560	704977
206158430208	704977
208305913856	704977
210453397504	704977
212600881152	704977
214748364800	704977
216895848448	704977
219043332096	704977
221190815744	704977
223338299392	704977
225485783040	704977
227633266688	704977
229780750336	704977
231928233984	704977
234075717632	704977
236223201280	704977
238370684928	704977
240518168576	704977
242665652224	704977
244813135872	704977
246960619520	704977
249108103168	704977
251255586816	704977
253403070464	704977
255550554112	704977
257698037760	704977
259845521408	704977
261993005056	704977
264140488704	704977
266287972352	704977
268435456000	704977
270582939648	704977
272730423296	704977
274877906944	704977
279172874240	704977
283467841536	704977
287762808832	704977
292057776128	704977
296352743424	704977
300647710720	704977
304942678016	704977
309237645312	704977
313532612608	704977
317827579904	704977
322122547200	704977
326417514496	704977
330712481792	704977
335007449088	704977
339302416384	704977
343597383680	704977
347892350976	704977
352187318272	704977
356482285568	704977
360777252864	704977
365072220160	704977
369367187456	704977
373662154752	704977
377957122048	704977
382252089344	704977
386547056640	704977
390842023936	704977
395136991232	704977
399431958528	704977
403726925824	704977
408021893120	704977
412316860416	704977
416611827712	704977
420906795008	704977
425201762304	704977
429496729600	704977
433791696896	704977
438086664192	704977
442381631488	704977
446676598784	704977
450971566080	704977
455266533376	704977
459561500672	704977
463856467968	704977
468151435264	704977
472446402560	704977
476741369856	704977
481036337152	704977
485331304448	704977
489626271744	704977
493921239040	704977
498216206336	704977
502511173632	704977
506806140928	704977
511101108224	704977
515396075520	704977
519691042816	704977
523986010112	704977
528280977408	704977
532575944704	704977
536870912000	704977
541165879296	704977
545460846592	704977
549755813888	704977
558345748480	704977
566935683072	704977
575525617664	704977
584115552256	704977
592705486848	704977
601295421440	704977
609885356032	704977
618475290624	704977
627065225216	704977
635655159808	704977
644245094400	704977
652835028992	704977
661424963584	704977
670014898176	704977
678604832768	704977
687194767360	704977
695784701952	704977
704374636544	704977
712964571136	704977
721554505728	704977
730144440320	704977
738734374912	704977
747324309504	704977
755914244096	704977
764504178688	704977
773094113280	704977
781684047872	704977
790273982464	704977
798863917056	704977
807453851648	704977
816043786240	704977
824633720832	704977
833223655424	704977
841813590016	704977
850403524608	704977
858993459200	704977
867583393792	704977
876173328384	704977
884763262976	704977
893353197568	704977
901943132160	704977
910533066752	704977
919123001344	704977
927712935936	704977
936302870528	704977
944892805120	704977
953482739712	704977
962072674304	704977
970662608896	704977
979252543488	704977
987842478080	704977
996432412672	704977
1005022347264	704977
1013612281856	704977
1022202216448	704977
1030792151040	704977
1039382085632	704977
1047972020224	704977
1056561954816	704977
1065151889408	704977
1073741824000	704977
1082331758592	704977
1090921693184	704977
1099511627776	704977
1116691496960	704977
1133871366144	704977
1151051235328	704977
1168231104512	704977
1185410973696	704977
1202590842880	704977
1219770712064	704977
1236950581248	704977
1254130450432	704977
1271310319616	704977
1288490188800	704977
1305670057984	704977
1322849927168	704977
1340029796352	704977
1357209665536	704977
1374389534720	704977
1391569403904	704977
1408749273088	704977
1425929142272	704977
1443109011456	704977
1460288880640	704977
1477468749824	704977
1494648619008	704977
1511828488192	704977
1529008357376	704977
1546188226560	704977
1563368095744	704977
1580547964928	704977
1597727834112	704977
1614907703296	704977
1632087572480	704977
1649267441664	704977
1666447310848	704977
1683627180032	704977
1700807049216	704977
1717986918400	704977
1735166787584	704977
1752346656768	704977
1769526525952	704977
1786706395136	704977
1803886264320	704977
1821066133504	704977
1838246002688	704977
1855425871872	704977
1872605741056	704977
1889785610240	704977
1906965479424	704977
1924145348608	704977
1941325217792	704977
1958505086976	704977
1975684956160	704977
1992864825344	704977
2010044694528	704977
2027224563712	704977
2044404432896	704977
2061584302080	704977
2078764171264	704977
2095944040448	704977
2113123909632	704977
2130303778816	704977
2147483648000	704977
2164663517184	704977
2181843386368	704977
2199023255552	704977
2233382993920	704977
2267742732288	704977
2302102470656	704977
2336462209024	704977
2370821947392	704977
2405181685760	704977
2439541424128	704977
2473901162496	704977
2508260900864	704977
2542620639232	704977
2576980377600	704977
2611340115968	704977
2645699854336	704977
2680059592704	704977
2714419331072	704977
2748779069440	704977
2783138807808	704977
2817498546176	704977
2851858284544	704977
2886218022912	704977
2920577761280	704977
2954937499648	704977
2989297238016	704977
3023656976384	704977
3058016714752	704977
3092376453120	704977
3126736191488	704977
3161095929856	704977
3195455668224	704977
3229815406592	704977
3264175144960	704977
3298534883328	704977
3332894621696	704977
3367254360064	704977
3401614098432	704977
3435973836800	704977
3470333575168	704977
3504693313536	704977
3539053051904	704977
3573412790272	704977
3607772528640	704977
3642132267008	704977
3676492005376	704977
3710851743744	704977
3745211482112	704977
3779571220480	704977
3813930958848	704977
3848290697216	704977
3882650435584	704977
3917010173952	704977
3951369912320	704977
3985729650688	704977
4020089389056	704977
4054449127424	704977
4088808865792	704977
4123168604160	704977
4157528342528	704977
4191888080896	704977
4226247819264	704977
4260607557632	704977
4294967296000	704977
4329327034368	704977
4363686772736	704977
4398046511104	704977
4466765987840	704977
4535485464576	704977
4604204941312	704977
4672924418048	704977
4741643894784	704977
4810363371520	704977
4879082848256	704977
4947802324992	704977
5016521801728	704977
5085241278464	704977
5153960755200	704977
5222680231936	704977
5291399708672	704977
5360119185408	704977
5428838662144	704977
5497558138880	704977
5566277615616	704977
5634997092352	704977
5703716569088	704977
5772436045824	704977
5841155522560	704977
5909874999296	704977
5978594476032	704977
6047313952768	704977
6116033429504	704977
6184752906240	704977
6253472382976	704977
6322191859712	704977
6390911336448	704977
6459630813184	704977
6528350289920	704977
6597069766656	704977
6665789243392	704977
6734508720128	704977
6803228196864	704977
6871947673600	704977
6940667150336	704977
7009386627072	704977
7078106103808	704977
7146825580544	704977
7215545057280	704977
7284264534016	704977
7352984010752	704977
7421703487488	704977
7490422964224	704977
7559142440960	704977
7627861917696	704977
7696581394432	704977
7765300871168	704977
7834020347904	704977
7902739824640	704977
7971459301376	704977
8040178778112	704977
8108898254848	704977
8177617731584	704977
8246337208320	704977
8315056685056	704977
8383776161792	704977
8452495638528	704977
8521215115264	704977
8589934592000	704977
8658654068736	704977
8727373545472	704977
8796093022208	704977
8933531975680	704977
9070970929152	704977
9208409882624	704977
9345848836096	704977
9483287789568	704977
9620726743040	704977
9758165696512	704977
9895604649984	704977
10033043603456	704977
10170482556928	704977
10307921510400	704977
10445360463872	704977
10582799417344	704977
10720238370816	704977
10857677324288	704977
10995116277760	704977
11132555231232	704977
11269994184704	704977
11407433138176	704977
11544872091648	704977
11682311045120	704977
11819749998592	704977
11957188952064	704977
12094627905536	704977
12232066859008	704977
12369505812480	704977
12506944765952	704977
12644383719424	704977
12781822672896	704977
12919261626368	704977
13056700579840	704977
13194139533312	704977
13331578486784	704977
13469017440256	704977
13606456393728	704977
13743895347200	704977
13881334300672	704977
14018773254144	704977
14156212207616	704977
14293651161088	704977
14431090114560	704977
14568529068032	704977
14705968021504	704977
14843406974976	704977
14980845928448	704977
15118284881920	704977
15255723835392	704977
15393162788864	704977
15530601742336	704977
15668040695808	704977
15805479649280	704977
15942918602752	704977
16080357556224	704977
16217796509696	704977
16355235463168	704977
16492674416640	704977
16630113370112	704977
16767552323584	704977
16904991277056	704977
17042430230528	704977
17179869184000	704977
17317308137472	704977
17454747090944	704977
17592186044416	704977
17867063951360	704977
18141941858304	704977
18416819765248	704977
18691697672192	704977
18966575579136	704977
19241453486080	704977
19516331393024	704977
19791209299968	704977
20066087206912	704977
20340965113856	704977
20615843020800	704977
20890720927744	704977
21165598834688	704977
21440476741632	704977
21715354648576	704977
21990232555520	704977
22265110462464	704977
22539988369408	704977
22814866276352	704977
23089744183296	704977
23364622090240	704977
23639499997184	704977
23914377904128	704977
24189255811072	704977
24464133718016	704977
24739011624960	704977
25013889531904	704977
25288767438848	704977
25563645345792	704977
25838523252736	704977
26113401159680	704977
26388279066624	704977
26663156973568	704977
26938034880512	704977
27212912787456	704977
27487790694400	704977
27762668601344	704977
28037546508288	704977
28312424415232	704977
28587302322176	704977
28862180229120	704977
29137058136064	704977
29411936043008	704977
29686813949952	704977
29961691856896	704977
30236569763840	704977
30511447670784	704977
30786325577728	704977
31061203484672	704977
31336081391616	704977
31610959298560	704977
31885837205504	704977
32160715112448	704977
32435593019392	704977
32710470926336	704977
32985348833280	704977
33260226740224	704977
33535104647168	704977
33809982554112	704977
34084860461056	704977
34359738368000	704977
34634616274944	704977
34909494181888	704977
35184372088832	704977
35734127902720	704977
36283883716608	704977
36833639530496	704977
37383395344384	704977
37933151158272	704977
38482906972160	704977
39032662786048	704977
39582418599936	704977
40132174413824	704977
40681930227712	704977
41231686041600	704977
41781441855488	704977
42331197669376	704977
42880953483264	704977
43430709297152	704977
43980465111040	704977
44530220924928	704977
45079976738816	704977
45629732552704	704977
46179488366592	704977
46729244180480	704977
47278999994368	704977
47828755808256	704977
48378511622144	704977
48928267436032	704977
49478023249920	704977
50027779063808	704977
50577534877696	704977
51127290691584	704977
51677046505472	704977
52226802319360	704977
52776558133248	704977
53326313947136	704977
53876069761024	704977
54425825574912	704977
54975581388800	704977
55525337202688	704977
56075093016576	704977
56624848830464	704977
57174604644352	704977
57724360458240	704977
58274116272128	704977
58823872086016	704977
59373627899904	704977
59923383713792	704977
60473139527680	704977
61022895341568	704977
61572651155456	704977
62122406969344	704977
62672162783232	704977
63221918597120	704977
63771674411008	704977
64321430224896	704977
64871186038784	704977
65420941852672	704977
65970697666560	704977
66520453480448	704977
67070209294336	704977
67619965108224	704977
68169720922112	704977
68719476736000	704977
69269232549888	704977
69818988363776	704977
70368744177664	704977
71468255805440	704977
72567767433216	704977
73667279060992	704977
74766790688768	704977
75866302316544	704977
76965813944320	704977
78065325572096	704977
79164837199872	704977
80264348827648	704977
81363860455424	704977
82463372083200	704977
83562883710976	704977
84662395338752	704977
85761906966528	704977
86861418594304	704977
87960930222080	704977
89060441849856	704977
90159953477632	704977
91259465105408	704977
92358976733184	704977
93458488360960	704977
94557999988736	704977
95657511616512	704977
96757023244288	704977
97856534872064	704977
98956046499840	704977
100055558127616	704977
101155069755392	704977
102254581383168	704977
103354093010944	704977
104453604638720	704977
105553116266496	704977
106652627894272	704977
107752139522048	704977
108851651149824	704977
109951162777600	704977
111050674405376	704977
112150186033152	704977
113249697660928	704977
114349209288704	704977
115448720916480	704977
116548232544256	704977
117647744172032	704977
118747255799808	704977
119846767427584	704977
120946279055360	704977
122045790683136	704977
123145302310912	704977
124244813938688	704977
125344325566464	704977
126443837194240	704977
127543348822016	704977
128642860449792	704977
129742372077568	704977
130841883705344	704977
131941395333120	704977
133040906960896	704977
134140418588672	704977
135239930216448	704977
136339441844224	704977
137438953472000	704977
138538465099776	704977
139637976727552	704977
140737488355328	704977
142936511610880	704977
145135534866432	704977
147334558121984	704977
149533581377536	704977
151732604633088	704977
153931627888640	704977
156130651144192	704977
158329674399744	704977
160528697655296	704977
162727720910848	704977
164926744166400	704977
167125767421952	704977
169324790677504	704977
171523813933056	704977
173722837188608	704977
175921860444160	704977
178120883699712	704977
180319906955264	704977
182518930210816	704977
184717953466368	704977
186916976721920	704977
189115999977472	704977
191315023233024	704977
193514046488576	704977
195713069744128	704977
197912092999680	704977
200111116255232	704977
202310139510784	704977
204509162766336	704977
206708186021888	704977
208907209277440	704977
211106232532992	704977
213305255788544	704977
215504279044096	704977
217703302299648	704977
219902325555200	704977
222101348810752	704977
224300372066304	704977
226499395321856	704977
228698418577408	704977
230897441832960	704977
233096465088512	704977
235295488344064	704977
237494511599616	704977
239693534855168	704977
241892558110720	704977
244091581366272	704977
246290604621824	704977
248489627877376	704977
250688651132928	704977
252887674388480	704977
255086697644032	704977
257285720899584	704977
259484744155136	704977
261683767410688	704977
263882790666240	704977
266081813921792	704977
268280837177344	704977
270479860432896	704977
272678883688448	704977
274877906944000	704977
277076930199552	704977
279275953455104	704977
281474976710656	704977
285873023221760	704977
290271069732864	704977
294669116243968	704977
299067162755072	704977
303465209266176	704977
307863255777280	704977
312261302288384	704977
316659348799488	704977
321057395310592	704977
325455441821696	704977
329853488332800	704977
334251534843904	704977
338649581355008	704977
343047627866112	704977
347445674377216	704977
351843720888320	704977
356241767399424	704977
360639813910528	704977
365037860421632	704977
369435906932736	704977
373833953443840	704977
378231999954944	704977
382630046466048	704977
387028092977152	704977
391426139488256	704977
395824185999360	704977
400222232510464	704977
404620279021568	704977
409018325532672	704977
413416372043776	704977
417814418554880	704977
422212465065984	704977
426610511577088	704977
431008558088192	704977
435406604599296	704977
439804651110400	704977
444202697621504	704977
448600744132608	704977
452998790643712	704977
457396837154816	704977
461794883665920	704977
466192930177024	704977
470590976688128	704977
474989023199232	704977
479387069710336	704977
483785116221440	704977
488183162732544	704977
492581209243648	704977
496979255754752	704977
501377302265856	704977
505775348776960	704977
510173395288064	704977
514571441799168	704977
518969488310272	704977
523367534821376	704977
527765581332480	704977
532163627843584	704977
536561674354688	704977
540959720865792	704977
545357767376896	704977
549755813888000	704977
554153860399104	704977
558551906910208	704977
562949953421312	704977
571746046443520	704977
580542139465728	704977
589338232487936	704977
598134325510144	704977
606930418532352	704977
615726511554560	704977
624522604576768	704977
633318697598976	704977
642114790621184	704977
650910883643392	704977
659706976665600	704977
668503069687808	704977
677299162710016	704977
686095255732224	704977
694891348754432	704977
703687441776640	704977
712483534798848	704977
721279627821056	704977
730075720843264	704977
738871813865472	704977
747667906887680	704977
756463999909888	704977
765260092932096	704977
774056185954304	704977
782852278976512	704977
791648371998720	704977
800444465020928	704977
809240558043136	704977
818036651065344	704977
826832744087552	704977
835628837109760	704977
844424930131968	704977
853221023154176	704977
862017116176384	704977
870813209198592	704977
879609302220800	704977
888405395243008	704977
897201488265216	704977
905997581287424	704977
914793674309632	704977
923589767331840	704977
932385860354048	704977
941181953376256	704977
949978046398464	704977
958774139420672	704977
967570232442880	704977
976366325465088	704977
985162418487296	704977
993958511509504	704977
1002754604531712	704977
1011550697553920	704977
1020346790576128	704977
1029142883598336	704977
1037938976620544	704977
1046735069642752	704977
1055531162664960	704977
1064327255687168	704977
1073123348709376	704977
1081919441731584	704977
1090715534753792	704977
1099511627776000	704977
1108307720798208	704977
1117103813820416	704977
1125899906842624	704977
1143492092887040	704977
1161084278931456	704977
1178676464975872	704977
1196268651020288	704977
1213860837064704	704977
1231453023109120	704977
1249045209153536	704977
1266637395197952	704977
1284229581242368	704977
1301821767286784	704977
1319413953331200	704977
1337006139375616	704977
1354598325420032	704977
1372190511464448	704977
1389782697508864	704977
1407374883553280	704977
1424967069597696	704977
1442559255642112	704977
1460151441686528	704977
1477743627730944	704977
1495335813775360	704977
1512927999819776	704977
1530520185864192	704977
1548112371908608	704977
1565704557953024	704977
1583296743997440	704977
1600888930041856	704977
1618481116086272	704977
1636073302130688	704977
1653665488175104	704977
1671257674219520	704977
1688849860263936	704977
1706442046308352	704977
1724034232352768	704977
1741626418397184	704977
1759218604441600	704977
1776810790486016	704977
1794402976530432	704977
1811995162574848	704977
1829587348619264	704977
1847179534663680	704977
1864771720708096	704977
1882363906752512	704977
1899956092796928	704977
1917548278841344	704977
1935140464885760	704977
1952732650930176	704977
1970324836974592	704977
1987917023019008	704977
2005509209063424	704977
2023101395107840	704977
2040693581152256	704977
2058285767196672	704977
2075877953241088	704977
2093470139285504	704977
2111062325329920	704977
2128654511374336	704977
2146246697418752	704977
2163838883463168	704977
2181431069507584	704977
2199023255552000	704977
2216615441596416	704977
2234207627640832	704977
2251799813685248	704977
2286984185774080	704977
2322168557862912	704977
2357352929951744	704977
2392537302040576	704977
2427721674129408	704977
2462906046218240	704977
2498090418307072	704977
2533274790395904	704977
2568459162484736	704977
2603643534573568	704977
2638827906662400	704977
2674012278751232	704977
2709196650840064	704977
2744381022928896	704977
2779565395017728	704977
2814749767106560	704977
2849934139195392	704977
2885118511284224	704977
2920302883373056	704977
2955487255461888	704977
2990671627550720	704977
3025855999639552	704977
3061040371728384	704977
3096224743817216	704977
3131409115906048	704977
3166593487994880	704977
3201777860083712	704977
3236962232172544	704977
3272146604261376	704977
3307330976350208	704977
3342515348439040	704977
3377699720527872	704977
3412884092616704	704977
3448068464705536	704977
3483252836794368	704977
3518437208883200	704977
3553621580972032	704977
3588805953060864	704977
3623990325149696	704977
3659174697238528	704977
3694359069327360	704977
3729543441416192	704977
3764727813505024	704977
3799912185593856	704977
3835096557682688	704977
3870280929771520	704977
3905465301860352	704977
3940649673949184	704977
3975834046038016	704977
4011018418126848	704977
4046202790215680	704977
4081387162304512	704977
4116571534393344	704977
4151755906482176	704977
4186940278571008	704977
4222124650659840	704977
4257309022748672	704977
4292493394837504	704977
4327677766926336	704977
4362862139015168	704977
4398046511104000	704977
4433230883192832	704977
4468415255281664	704977
4503599627370496	704977
4573968371548160	704977
4644337115725824	704977
4714705859903488	704977
4785074604081152	704977
4855443348258816	704977
4925812092436480	704977
4996180836614144	704977
5066549580791808	704977
5136918324969472	704977
5207287069147136	704977
5277655813324800	704977
5348024557502464	704977
5418393301680128	704977
5488762045857792	704977
5559130790035456	704977
5629499534213120	704977
5699868278390784	704977
5770237022568448	704977
5840605766746112	704977
5910974510923776	704977
5981343255101440	704977
6051711999279104	704977
6122080743456768	704977
6192449487634432	704977
6262818231812096	704977
6333186975989760	704977
6403555720167424	704977
6473924464345088	704977
6544293208522752	704977
6614661952700416	704977
6685030696878080	704977
6755399441055744	704977
6825768185233408	704977
6896136929411072	704977
6966505673588736	704977
7036874417766400	704977
7107243161944064	704977
7177611906121728	704977
7247980650299392	704977
7318349394477056	704977
7388718138654720	704977
7459086882832384	704977
7529455627010048	704977
7599824371187712	704977
7670193115365376	704977
7740561859543040	704977
7810930603720704	704977
7881299347898368	704977
7951668092076032	704977
8022036836253696	704977
8092405580431360	704977
8162774324609024	704977
8233143068786688	704977
8303511812964352	704977
8373880557142016	704977
8444249301319680	704977
8514618045497344	704977
8584986789675008	704977
8655355533852672	704977
8725724278030336	704977
8796093022208000	704977
8866461766385664	704977
8936830510563328	704977
9007199254740992	704977
9147936743096320	704977
9288674231451648	704977
9429411719806976	704977
9570149208162304	704977
9710886696517632	704977
9851624184872960	704977
9992361673228288	704977
10133099161583616	704977
10273836649938944	704977
10414574138294272	704977
10555311626649600	704977
10696049115004928	704977
10836786603360256	704977
10977524091715584	704977
11118261580070912	704977
11258999068426240	704977
11399736556781568	704977
11540474045136896	704977
11681211533492224	704977
11821949021847552	704977
11962686510202880	704977
12103423998558208	704977
12244161486913536	704977
12384898975268864	704977
12525636463624192	704977
12666373951979520	704977
12807111440334848	704977
12947848928690176	704977
13088586417045504	704977
13229323905400832	704977
13370061393756160	704977
13510798882111488	704977
13651536370466816	704977
13792273858822144	704977
13933011347177472	704977
14073748835532800	704977
14214486323888128	704977
14355223812243456	704977
14495961300598784	704977
14636698788954112	704977
14777436277309440	704977
14918173765664768	704977
15058911254020096	704977
15199648742375424	704977
15340386230730752	704977
15481123719086080	704977
15621861207441408	704977
15762598695796736	704977
15903336184152064	704977
16044073672507392	704977
16184811160862720	704977
16325548649218048	704977
16466286137573376	704977
16607023625928704	704977
16747761114284032	704977
16888498602639360	704977
17029236090994688	704977
17169973579350016	704977
17310711067705344	704977
17451448556060672	704977
17592186044416000	704977
17732923532771328	704977
17873661021126656	704977
18014398509481984	704977
18295873486192640	704977
18577348462903296	704977
18858823439613952	704977
19140298416324608	704977
19421773393035264	704977
19703248369745920	704977
19984723346456576	704977
20266198323167232	704977
20547673299877888	704977
20829148276588544	704977
21110623253299200	704977
21392098230009856	704977
21673573206720512	704977
21955048183431168	704977
22236523160141824	704977
22517998136852480	704977
22799473113563136	704977
23080948090273792	704977
23362423066984448	704977
23643898043695104	704977
23925373020405760	704977
24206847997116416	704977
24488322973827072	704977
24769797950537728	704977
25051272927248384	704977
25332747903959040	704977
25614222880669696	704977
25895697857380352	704977
26177172834091008	704977
26458647810801664	704977
26740122787512320	704977
27021597764222976	704977
27303072740933632	704977
27584547717644288	704977
27866022694354944	704977
28147497671065600	704977
28428972647776256	704977
28710447624486912	704977
28991922601197568	704977
29273397577908224	704977
29554872554618880	704977
29836347531329536	704977
30117822508040192	704977
30399297484750848	704977
30680772461461504	704977
30962247438172160	704977
31243722414882816	704977
31525197391593472	704977
31806672368304128	704977
32088147345014784	704977
32369622321725440	704977
32651097298436096	704977
32932572275146752	704977
33214047251857408	704977
33495522228568064	704977
33776997205278720	704977
34058472181989376	704977
34339947158700032	704977
34621422135410688	704977
34902897112121344	704977
35184372088832000	704977
35465847065542656	704977
35747322042253312	704977
36028797018963968	704977
36591746972385280	704977
37154696925806592	704977
37717646879227904	704977
38280596832649216	704977
38843546786070528	704977
39406496739491840	704977
39969446692913152	704977
40532396646334464	704977
41095346599755776	704977
41658296553177088	704977
42221246506598400	704977
42784196460019712	704977
43347146413441024	704977
43910096366862336	704977
44473046320283648	704977
45035996273704960	704977
45598946227126272	704977
46161896180547584	704977
46724846133968896	704977
47287796087390208	704977
47850746040811520	704977
48413695994232832	704977
48976645947654144	704977
49539595901075456	704977
50102545854496768	704977
50665495807918080	704977
51228445761339392	704977
51791395714760704	704977
52354345668182016	704977
52917295621603328	704977
53480245575024640	704977
54043195528445952	704977
54606145481867264	704977
55169095435288576	704977
55732045388709888	704977
56294995342131200	704977
56857945295552512	704977
57420895248973824	704977
57983845202395136	704977
58546795155816448	704977
59109745109237760	704977
59672695062659072	704977
60235645016080384	704977
60798594969501696	704977
61361544922923008	704977
61924494876344320	704977
62487444829765632	704977
63050394783186944	704977
63613344736608256	704977
64176294690029568	704977
64739244643450880	704977
65302194596872192	704977
65865144550293504	704977
66428094503714816	704977
66991044457136128	704977
67553994410557440	704977
68116944363978752	704977
68679894317400064	704977
69242844270821376	704977
69805794224242688	704977
70368744177664000	704977
70931694131085312	704977
71494644084506624	704977
72057594037927936	704977
73183493944770560	704977
74309393851613184	704977
75435293758455808	704977
76561193665298432	704977
77687093572141056	704977
78812993478983680	704977
79938893385826304	704977
81064793292668928	704977
82190693199511552	704977
83316593106354176	704977
84442493013196800	704977
85568392920039424	704977
86694292826882048	704977
87820192733724672	704977
88946092640567296	704977
90071992547409920	704977
91197892454252544	704977
92323792361095168	704977
93449692267937792	704977
94575592174780416	704977
95701492081623040	704977
96827391988465664	704977
97953291895308288	704977
99079191802150912	704977
100205091708993536	704977
101330991615836160	704977
102456891522678784	704977
103582791429521408	704977
104708691336364032	704977
105834591243206656	704977
106960491150049280	704977
108086391056891904	704977
109212290963734528	704977
110338190870577152	704977
111464090777419776	704977
112589990684262400	704977
113715890591105024	704977
114841790497947648	704977
115967690404790272	704977
117093590311632896	704977
118219490218475520	704977
119345390125318144	704977
120471290032160768	704977
121597189939003392	704977
122723089845846016	704977
123848989752688640	704977
124974889659531264	704977
126100789566373888	704977
127226689473216512	704977
128352589380059136	704977
129478489286901760	704977
130604389193744384	704977
131730289100587008	704977
132856189007429632	704977
133982088914272256	704977
135107988821114880	704977
136233888727957504	704977
137359788634800128	704977
138485688541642752	704977
139611588448485376	704977
140737488355328000	704977
141863388262170624	704977
142989288169013248	704977
144115188075855872	704977
146366987889541120	704977
148618787703226368	704977
150870587516911616	704977
153122387330596864	704977
155374187144282112	704977
157625986957967360	704977
159877786771652608	704977
162129586585337856	704977
164381386399023104	704977
166633186212708352	704977
168884986026393600	704977
171136785840078848	704977
173388585653764096	704977
175640385467449344	704977
177892185281134592	704977
180143985094819840	704977
182395784908505088	704977
184647584722190336	704977
186899384535875584	704977
189151184349560832	704977
191402984163246080	704977
193654783976931328	704977
195906583790616576	704977
198158383604301824	704977
200410183417987072	704977
202661983231672320	704977
204913783045357568	704977
207165582859042816	704977
209417382672728064	704977
211669182486413312	704977
213920982300098560	704977
216172782113783808	704977
218424581927469056	704977
220676381741154304	704977
222928181554839552	704977
225179981368524800	704977
227431781182210048	704977
229683580995895296	704977
231935380809580544	704977
234187180623265792	704977
236438980436951040	704977
238690780250636288	704977
240942580064321536	704977
243194379878006784	704977
245446179691692032	704977
247697979505377280	704977
249949779319062528	704977
252201579132747776	704977
254453378946433024	704977
256705178760118272	704977
258956978573803520	704977
261208778387488768	704977
263460578201174016	704977
265712378014859264	704977
267964177828544512	704977
270215977642229760	704977
272467777455915008	704977
274719577269600256	704977
276971377083285504	704977
279223176896970752	704977
281474976710656000	704977
283726776524341248	704977
285978576338026496	704977
288230376151711744	704977
292733975779082240	704977
297237575406452736	704977
301741175033823232	704977
306244774661193728	704977
310748374288564224	704977
315251973915934720	704977
319755573543305216	704977
324259173170675712	704977
328762772798046208	704977
333266372425416704	704977
337769972052787200	704977
342273571680157696	704977
346777171307528192	704977
351280770934898688	704977
355784370562269184	704977
360287970189639680	704977
364791569817010176	704977
369295169444380672	704977
373798769071751168	704977
378302368699121664	704977
382805968326492160	704977
387309567953862656	704977
391813167581233152	704977
396316767208603648	704977
400820366835974144	704977
405323966463344640	704977
409827566090715136	704977
414331165718085632	704977
418834765345456128	704977
423338364972826624	704977
427841964600197120	704977
432345564227567616	704977
436849163854938112	704977
441352763482308608	704977
445856363109679104	704977
450359962737049600	704977
454863562364420096	704977
459367161991790592	704977
463870761619161088	704977
468374361246531584	704977
472877960873902080	704977
477381560501272576	704977
481885160128643072	704977
486388759756013568	704977
490892359383384064	704977
495395959010754560	704977
499899558638125056	704977
504403158265495552	704977
508906757892866048	704977
513410357520236544	704977
517913957147607040	704977
522417556774977536	704977
526921156402348032	704977
531424756029718528	704977
535928355657089024	704977
540431955284459520	704977
544935554911830016	704977
549439154539200512	704977
553942754166571008	704977
558446353793941504	704977
562949953421312000	704977
567453553048682496	704977
571957152676052992	704977
576460752303423488	704977
585467951558164480	704977
594475150812905472	704977
603482350067646464	704977
612489549322387456	704977
621496748577128448	704977
630503947831869440	704977
639511147086610432	704977
648518346341351424	704977
657525545596092416	704977
666532744850833408	704977
675539944105574400	704977
684547143360315392	704977
693554342615056384	704977
702561541869797376	704977
711568741124538368	704977
720575940379279360	704977
729583139634020352	704977
738590338888761344	704977
747597538143502336	704977
756604737398243328	704977
765611936652984320	704977
774619135907725312	704977
783626335162466304	704977
792633534417207296	704977
801640733671948288	704977
810647932926689280	704977
819655132181430272	704977
828662331436171264	704977
837669530690912256	704977
846676729945653248	704977
855683929200394240	704977
864691128455135232	704977
873698327709876224	704977
882705526964617216	704977
891712726219358208	704977
900719925474099200	704977
909727124728840192	704977
918734323983581184	704977
927741523238322176	704977
936748722493063168	704977
945755921747804160	704977
954763121002545152	704977
963770320257286144	704977
972777519512027136	704977
981784718766768128	704977
990791918021509120	704977
999799117276250112	704977
1008806316530991104	704977
1017813515785732096	704977
1026820715040473088	704977
1035827914295214080	704977
1044835113549955072	704977
1053842312804696064	704977
1062849512059437056	704977
1071856711314178048	704977
1080863910568919040	704977
1089871109823660032	704977
1098878309078401024	704977
1107885508333142016	704977
1116892707587883008	704977
1125899906842624000	704977
1134907106097364992	704977
1143914305352105984	704977
1152921504606846976	704977
1170935903116328960	704977
1188950301625810944	704977
1206964700135292928	704977
1224979098644774912	704977
1242993497154256896	704977
1261007895663738880	704977
1279022294173220864	704977
1297036692682702848	704977
1315051091192184832	704977
1333065489701666816	704977
1351079888211148800	704977
1369094286720630784	704977
1387108685230112768	704977
1405123083739594752	704977
1423137482249076736	704977
1441151880758558720	704977
1459166279268040704	704977
1477180677777522688	704977
1495195076287004672	704977
1513209474796486656	704977
1531223873305968640	704977
1549238271815450624	704977
1567252670324932608	704977
1585267068834414592	704977
1603281467343896576	704977
1621295865853378560	704977
1639310264362860544	704977
1657324662872342528	704977
1675339061381824512	704977
1693353459891306496	704977
1711367858400788480	704977
1729382256910270464	704977
1747396655419752448	704977
1765411053929234432	704977
1783425452438716416	704977
1801439850948198400	704977
1819454249457680384	704977
1837468647967162368	704977
1855483046476644352	704977
1873497444986126336	704977
1891511843495608320	704977
1909526242005090304	704977
1927540640514572288	704977
1945555039024054272	704977
1963569437533536256	704977
1981583836043018240	704977
1999598234552500224	704977
2017612633061982208	704977
2035627031571464192	704977
2053641430080946176	704977
2071655828590428160	704977
2089670227099910144	704977
2107684625609392128	704977
2125699024118874112	704977
2143713422628356096	704977
2161727821137838080	704977
2179742219647320064	704977
2197756618156802048	704977
2215771016666284032	704977
2233785415175766016	704977
2251799813685248000	704977
2269814212194729984	704977
2287828610704211968	704977
2305843009213693952	704977
2341871806232657920	704977
2377900603251621888	704977
2413929400270585856	704977
2449958197289549824	704977
2485986994308513792	704977
2522015791327477760	704977
2558044588346441728	704977
2594073385365405696	704977
2630102182384369664	704977
2666130979403333632	704977
2702159776422297600	704977
2738188573441261568	704977
2774217370460225536	704977
2810246167479189504	704977
2846274964498153472	704977
2882303761517117440	704977
2918332558536081408	704977
2954361355555045376	704977
2990390152574009344	704977
3026418949592973312	704977
3062447746611937280	704977
3098476543630901248	704977
3134505340649865216	704977
3170534137668829184	704977
3206562934687793152	704977
3242591731706757120	704977
3278620528725721088	704977
3314649325744685056	704977
3350678122763649024	704977
3386706919782612992	704977
3422735716801576960	704977
3458764513820540928	704977
3494793310839504896	704977
3530822107858468864	704977
3566850904877432832	704977
3602879701896396800	704977
3638908498915360768	704977
3674937295934324736	704977
3710966092953288704	704977
3746994889972252672	704977
3783023686991216640	704977
3819052484010180608	704977
3855081281029144576	704977
3891110078048108544	704977
3927138875067072512	704977
3963167672086036480	704977
3999196469105000448	704977
4035225266123964416	704977
4071254063142928384	704977
4107282860161892352	704977
4143311657180856320	704977
4179340454199820288	704977
4215369251218784256	704977
4251398048237748224	704977
4287426845256712192	704977
4323455642275676160	704977
4359484439294640128	704977
4395513236313604096	704977
4431542033332568064	704977
4467570830351532032	704977
4503599627370496000	704977
4539628424389459968	704977
4575657221408423936	704977
4611686018427387904	704977
4683743612465315840	704977
4755801206503243776	704977
4827858800541171712	704977
4899916394579099648	704977
4971973988617027584	704977
5044031582654955520	704977
5116089176692883456	704977
5188146770730811392	704977
5260204364768739328	704977
5332261958806667264	704977
5404319552844595200	704977
5476377146882523136	704977
5548434740920451072	704977
5620492334958379008	704977
5692549928996306944	704977
5764607523034234880	704977
5836665117072162816	704977
5908722711110090752	704977
5980780305148018688	704977
6052837899185946624	704977
6124895493223874560	704977
6196953087261802496	704977
6269010681299730432	704977
6341068275337658368	704977
6413125869375586304	704977
6485183463413514240	704977
6557241057451442176	704977
6629298651489370112	704977
6701356245527298048	704977
6773413839565225984	704977
6845471433603153920	704977
6917529027641081856	704977
6989586621679009792	704977
7061644215716937728	704977
7133701809754865664	704977
7205759403792793600	704977
7277816997830721536	704977
7349874591868649472	704977
7421932185906577408	704977
7493989779944505344	704977
7566047373982433280	704977
7638104968020361216	704977
7710162562058289152	704977
7782220156096217088	704977
7854277750134145024	704977
7926335344172072960	704977
7998392938210000896	704977
8070450532247928832	704977
8142508126285856768	704977
8214565720323784704	704977
8286623314361712640	704977
8358680908399640576	704977
8430738502437568512	704977
8502796096475496448	704977
8574853690513424384	704977
8646911284551352320	704977
8718968878589280256	704977
8791026472627208192	704977
8863084066665136128	704977
8935141660703064064	704977
9007199254740992000	704977
9079256848778919936	704977
9151314442816847872	704977
9223372036854775808	704977
9367487224930631680	704977
9511602413006487552	704977
9655717601082343424	704977
9799832789158199296	704977
9943947977234055168	704977
10088063165309911040	704977
10232178353385766912	704977
10376293541461622784	704977
10520408729537478656	704977
10664523917613334528	704977
10808639105689190400	704977
10952754293765046272	704977
11096869481840902144	704977
11240984669916758016	704977
11385099857992613888	704977
11529215046068469760	704977
11673330234144325632	704977
11817445422220181504	704977
11961560610296037376	704977
12105675798371893248	704977
12249790986447749120	704977
12393906174523604992	704977
12538021362599460864	704977
12682136550675316736	704977
12826251738751172608	704977
12970366926827028480	704977
13114482114902884352	704977
13258597302978740224	704977
13402712491054596096	704977
13546827679130451968	704977
13690942867206307840	704977
13835058055282163712	704977
13979173243358019584	704977
14123288431433875456	704977
14267403619509731328	704977
14411518807585587200	704977
14555633995661443072	704977
14699749183737298944	704977
14843864371813154816	704977
14987979559889010688	704977
15132094747964866560	704977
15276209936040722432	704977
15420325124116578304	704977
15564440312192434176	704977
15708555500268290048	704977
15852670688344145920	704977
15996785876420001792	704977
16140901064495857664	704977
16285016252571713536	704977
16429131440647569408	704977
16573246628723425280	704977
16717361816799281152	704977
16861477004875137024	704977
17005592192950992896	704977
17149707381026848768	704977
17293822569102704640	704977
17437937757178560512	704977
17582052945254416384	704977
17726168133330272256	704977
17870283321406128128	704977
18014398509481984000	704977
18158513697557839872	704977
18302628885633695744	0
