0	0
1	2759610700
2	2924313325
3	51965977999
4	257655404
5	64459984
6	362247106
7	202964248
8	5145243
9	11793461
10	4820334
11	747051
12	1681761
13	1501485
14	756634
15	1573216
16	877279
17	701027
18	711487
19	534210
20	542742
21	541217
22	632740
23	967733
24	521228
25	335492
26	364594
27	437106
28	460026
29	404578
30	379064
31	369067
32	376867
33	338628
34	345275
35	410964
36	370186
37	278266
38	286178
39	280413
40	317070
41	260275
42	275026
43	301574
44	624757
45	324485
46	258975
47	255118
48	310300
49	258476
50	267068
51	258828
52	280727
53	251096
54	255663
55	255705
56	268779
57	243739
58	229108
59	228990
60	243629
61	210546
62	223919
63	219835
64	251084
65	293522
66	214067
67	209533
68	228083
69	223498
70	218107
71	217209
72	237120
73	211185
74	213908
75	212975
76	223420
77	211698
78	225684
79	196390
80	208913
81	205695
82	204068
83	205598
84	213407
85	201964
86	231526
87	201055
88	212712
89	201989
90	360596
91	201331
92	209929
93	206830
94	203102
95	200381
96	363761
97	200654
98	211223
99	232526
100	211724
101	203169
102	204201
103	198225
104	207583
105	203926
106	212455
107	230374
108	214668
109	201508
110	210675
111	209974
112	223528
113	216002
114	219013
115	221299
116	222996
117	221735
118	229895
119	222708
120	245927
121	227759
122	258913
123	251921
124	241272
125	233358
126	242694
127	242344
128	504947
130	497383
132	523126
134	529915
136	513503
138	542776
140	571096
142	582860
144	579155
146	603330
148	619245
150	595246
152	638274
154	654186
156	684655
158	683741
160	824735
162	846844
164	709152
166	740189
168	772633
170	802014
172	784429
174	829924
176	838009
178	793914
180	845323
182	874837
184	897816
186	887122
188	930461
190	929084
192	893189
194	953158
196	956198
198	1012317
200	1766731
202	1009447
204	1060165
206	995434
208	1013845
210	1038291
212	1094070
214	1027179
216	1097450
218	1096026
220	1013351
222	1102995
224	1105215
226	1083196
228	1101394
230	1153998
232	1084415
234	1098392
236	1212684
238	2018857
240	2054187
242	1180890
244	1089846
246	1187291
248	1147390
250	1073348
252	1196806
254	1185497
256	2218149
260	2196886
264	2358879
268	2216239
272	2347706
276	6726833
280	2286647
284	2309368
288	2623008
292	2221613
296	2160553
300	2647794
304	2224830
308	2239584
312	3544158
316	10097733
320	2500331
324	3486404
328	2540087
332	2466871
336	3543050
340	2642289
344	2653475
348	4211357
352	4133429
356	15691770
360	5517762
364	3433687
368	3574936
372	5757064
376	3615099
380	3595701
384	6390436
388	4226443
392	15207486
396	17276776
400	4932051
404	5076656
408	8903159
412	5126231
416	5114647
420	9834503
424	5732263
428	7926657
432	36490305
436	7106323
440	7240439
444	13478865
448	7079399
452	7353636
456	14159416
460	7804193
464	8426175
468	20971445
472	34644460
476	9740594
480	18361822
484	9512549
488	9325216
492	18639589
496	9898683
500	10423537
504	21558677
508	16843550
512	61658788
520	22618138
528	33707359
536	35192441
544	46073781
552	51303465
560	36180953
568	23462672
576	35908164
584	67844510
592	24621910
600	34291657
608	33026057
616	22638823
624	59084277
632	30887490
640	19382464
648	27723976
656	28680908
664	38885929
672	25485433
680	22974712
688	14582867
696	22115491
704	36520836
712	12502603
720	16575104
728	15762651
736	12913410
744	24353622
752	13177249
760	8013252
768	11548872
776	14080130
784	12435851
792	10302549
800	9520579
808	6306729
816	11232841
824	12489523
832	6184526
840	8552577
848	9044242
856	8470127
864	10782555
872	9598373
880	6220381
888	9357241
896	12052192
904	7755300
912	11372981
920	10928526
928	7615657
936	13173198
944	13561835
952	8853349
960	12880439
968	13725571
976	10056410
984	16080091
992	15100465
1000	10122664
1008	15788131
1016	17780683
1024	29514078
1040	28624501
1056	39516399
1072	30848646
1088	33148150
1104	40282215
1120	32949330
1136	35084795
1152	38013707
1168	33718815
1184	31762116
1200	36632717
1216	32098253
1232	28770873
1248	35495218
1264	26871944
1280	26844796
1296	32007475
1312	24396812
1328	25180025
1344	27780507
1360	23484093
1376	24015190
1392	25847308
1408	23200917
1424	21842358
1440	26511614
1456	23112881
1472	21882986
1488	28654362
1504	22667444
1520	23302307
1536	29841183
1552	23603801
1568	26370982
1584	29230583
1600	26202020
1616	26856451
1632	30683248
1648	28049862
1664	25672596
1680	33144563
1696	27454469
1712	26483156
1728	33530006
1744	25576201
1760	27706301
1776	32076109
1792	26017333
1808	27831942
1824	29868086
1840	26424055
1856	25395276
1872	30459608
1888	26041595
1904	24457150
1920	30926139
1936	24148453
1952	24114842
1968	29499046
1984	22470543
2000	24334215
2016	27812288
2032	23926286
2048	51895107
2080	47908583
2112	53123669
2144	52816921
2176	48438843
2208	53320961
2240	54100319
2272	50247015
2304	55174319
2336	54226787
2368	48536193
2400	54269218
2432	53459644
2464	49661259
2496	53107893
2528	51399733
2560	46081002
2592	51734216
2624	51364266
2656	46771037
2688	50800149
2720	51261262
2752	46924115
2784	51844207
2816	51309036
2848	46474859
2880	51286905
2912	51615948
2944	47235147
2976	51126222
3008	51786262
3040	46582345
3072	49987687
3104	50018277
3136	46106788
3168	49111028
3200	49962944
3232	44637467
3264	49847482
3296	50196675
3328	45724125
3360	49821619
3392	48977074
3424	44880428
3456	50221321
3488	49696532
3520	45886712
3552	48497716
3584	48385866
3616	43621781
3648	49570281
3680	48083849
3712	43575256
3744	46849437
3776	47687607
3808	43753738
3840	47975948
3872	47869679
3904	43262555
3936	48012249
3968	48102396
4000	43568911
4032	48058138
4064	47328252
4096	89507842
4160	89713968
4224	93263326
4288	87981646
4352	87549091
4416	90866207
4480	87744374
4544	87427332
4608	91731700
4672	86905762
4736	85060187
4800	89007426
4864	85539614
4928	84690196
4992	88232117
5056	83263732
5120	81398544
5184	87512140
5248	82127791
5312	81953563
5376	87212865
5440	82656619
5504	82774489
5568	83772481
5632	79904601
5696	78586280
5760	81607924
5824	79468323
5888	80354876
5952	82829986
6016	79229165
6080	78261638
6144	80958406
6208	76764000
6272	76236215
6336	79884650
6400	76317669
6464	74828825
6528	81005346
6592	75319679
6656	75168717
6720	79136227
6784	72434961
6848	72757729
6912	78093149
6976	73571349
7040	73884570
7104	76302683
7168	71740841
7232	73817864
7296	74168985
7360	70639912
7424	70538085
7488	73731666
7552	71333649
7616	70656274
7680	72873439
7744	69419176
7808	69053247
7872	71478277
7936	68200695
8000	67251063
8064	71117137
8128	66790728
8192	137519849
8320	132904019
8448	134458010
8576	133462853
8704	127728748
8832	130946640
8960	129493722
9088	126577126
9216	128837321
9344	125602383
9472	122090400
9600	124945987
9728	124296334
9856	116712974
9984	121472902
10112	120314608
10240	115486186
10368	117957567
10496	115879562
10624	112890243
10752	114607659
10880	112961200
11008	110407751
11136	111372815
11264	109846089
11392	106692716
11520	108331291
11648	107294431
11776	104745066
11904	105510246
12032	104612620
12160	99700081
12288	102531456
12416	102699268
12544	99305670
12672	99756964
12800	97967827
12928	95389746
13056	97122750
13184	96270240
13312	94214570
13440	93855489
13568	93168449
13696	90389337
13824	91796697
13952	91264780
14080	87427515
14208	89990256
14336	88811251
14464	86471734
14592	86049655
14720	86258883
14848	84331524
14976	85513069
15104	82297782
15232	80439664
15360	82429829
15488	83277576
15616	79151739
15744	80379794
15872	78859766
16000	77832096
16128	77797062
16256	77298772
16384	150160098
16640	148673484
16896	147695244
17152	145078486
17408	140390924
17664	139664013
17920	136118321
18176	133555937
18432	132342386
18688	127962744
18944	126155944
19200	124798525
19456	122873125
19712	119409000
19968	117272146
20224	115345637
20480	111510559
20736	112482969
20992	108470825
21248	108759889
21504	106083097
21760	102788776
22016	102283551
22272	100395405
22528	98249460
22784	95894234
23040	96177735
23296	92412805
23552	91635875
23808	90251884
24064	88434341
24320	85946466
24576	86339095
24832	82498537
25088	82142557
25344	81163382
25600	78438850
25856	77997696
26112	76659050
26368	74819252
26624	72643879
26880	73550531
27136	70558316
27392	69347542
27648	68608861
27904	66920660
28160	65407098
28416	65790899
28672	63821320
28928	62089434
29184	61932605
29440	60017523
29696	58517682
29952	59017780
30208	56728164
30464	55846487
30720	55509641
30976	54269216
31232	53003928
31488	52467351
31744	51205445
32000	49995692
32256	50500842
32512	48155701
32768	95277041
33280	91117190
33792	88417842
34304	85588779
34816	81186744
35328	79108348
35840	76312783
36352	73349615
36864	71291630
37376	68814649
37888	66193967
38400	64412378
38912	61360775
39424	58665178
39936	57404324
40448	54771697
40960	53303028
41472	50824844
41984	49956647
42496	47899020
43008	45699457
43520	45139932
44032	42464279
44544	41514335
45056	40016190
45568	38177097
46080	37488954
46592	35880778
47104	34593123
47616	33442614
48128	32148170
48640	30848282
49152	30074986
49664	28693618
50176	27386385
50688	27141265
51200	26346391
51712	25143229
52224	24418576
52736	23372208
53248	22489032
53760	22215417
54272	21057286
54784	20221187
55296	19564261
55808	18939943
56320	18327373
56832	17390460
57344	16931281
57856	16078061
58368	15987592
58880	14991786
59392	14905650
59904	13952315
60416	14003892
60928	13095028
61440	12713959
61952	12334567
62464	11702350
62976	11304623
63488	10995328
64000	10625016
64512	10264282
65024	10057275
65536	18616940
66560	17304114
67584	16485870
68608	15085203
69632	14442915
70656	13208750
71680	12338460
72704	11540371
73728	10820540
74752	9964878
75776	9356536
76800	8951513
77824	8159940
78848	7628454
79872	7204215
80896	6712507
81920	6234412
82944	5885943
83968	5505761
84992	5029262
86016	4663363
87040	4588145
88064	4227050
89088	3970168
90112	3669880
91136	3385366
92160	3308431
93184	3222051
94208	2876958
95232	2758449
96256	2564116
97280	2166828
98304	2207019
99328	2076811
100352	1998040
101376	1910771
102400	1782595
103424	1625936
104448	1529760
105472	1410280
106496	1351320
107520	1285591
108544	1171359
109568	1142507
110592	1159938
111616	998966
112640	961655
113664	989510
114688	878733
115712	865209
116736	874451
117760	774270
118784	802802
119808	717390
120832	691314
121856	681737
122880	697370
123904	650891
124928	585551
125952	578510
126976	544893
128000	564975
129024	562861
130048	463098
131072	1038101
133120	957737
135168	933786
137216	842230
139264	807886
141312	814011
143360	784057
145408	750897
147456	722949
149504	1132408
151552	732659
153600	710465
155648	638825
157696	603417
159744	545967
161792	569001
163840	556924
165888	546482
167936	508443
169984	497630
172032	475388
174080	502693
176128	477944
178176	474822
180224	467548
182272	455729
184320	450086
186368	444484
188416	453550
190464	455146
192512	446839
194560	441896
196608	447504
198656	443139
200704	434586
202752	447522
204800	433681
206848	436425
208896	436403
210944	436512
212992	429813
215040	431376
217088	430069
219136	429650
221184	433258
223232	457899
225280	591083
227328	591851
229376	593017
231424	592331
233472	593163
235520	591410
237568	594364
239616	594458
241664	591597
243712	595105
245760	596463
247808	594934
249856	593791
251904	591953
253952	596776
256000	594584
258048	592188
260096	592785
262144	413659
266240	344622
270336	344106
274432	343775
278528	349199
282624	342475
286720	347080
290816	344025
294912	345833
299008	345150
303104	343661
307200	338242
311296	340340
315392	336302
319488	334065
323584	338694
327680	336819
331776	335492
335872	137819
339968	13354
344064	10906
348160	13120
352256	11937
356352	9911
360448	8602
364544	12213
368640	10384
372736	12781
376832	10241
380928	12842
385024	10478
389120	11828
393216	10312
397312	12543
401408	9443
405504	11924
409600	9952
413696	11756
417792	10046
421888	10998
425984	10751
430080	9856
434176	11608
438272	10658
442368	11814
446464	10087
450560	12475
454656	10661
458752	10830
462848	10569
466944	12996
471040	10999
475136	8962
479232	11938
483328	10426
487424	11011
491520	9085
495616	8076
499712	8401
503808	7693
507904	7463
512000	7344
516096	6902
520192	6982
524288	11501
532480	13597
540672	12767
548864	13383
557056	12484
565248	12374
573440	12495
581632	13105
589824	11313
598016	12442
606208	13597
614400	12720
622592	12871
630784	13420
638976	12286
647168	11650
655360	13084
663552	12117
671744	16148
679936	18197
688128	19103
696320	17770
704512	17382
712704	16382
720896	18073
729088	18760
737280	17553
745472	18092
753664	18523
761856	18942
770048	16773
778240	17427
786432	18733
794624	19155
802816	18385
811008	17449
819200	18015
827392	15917
835584	17653
843776	16619
851968	17874
860160	18429
868352	18742
876544	18326
884736	18137
892928	17922
901120	18557
909312	18327
917504	18210
925696	18803
933888	18096
942080	16040
950272	17839
958464	16216
966656	17396
974848	18657
983040	17957
991232	17758
999424	18820
1007616	18098
1015808	18783
1024000	19049
1032192	17702
1040384	17786
1048576	35863
1064960	33730
1081344	35647
1097728	36141
1114112	36525
1130496	34698
1146880	37600
1163264	36209
1179648	36298
1196032	381805
1212416	25708
1228800	25665
1245184	22248
1261568	28248
1277952	32356
1294336	32051
1310720	30976
1327104	31166
1343488	28995
1359872	31202
1376256	28604
1392640	31032
1409024	31281
1425408	30480
1441792	30703
1458176	30407
1474560	31045
1490944	30869
1507328	28816
1523712	28770
1540096	30554
1556480	30975
1572864	34583
1589248	35940
1605632	35986
1622016	36414
1638400	34554
1654784	34448
1671168	36031
1687552	36070
1703936	36994
1720320	36478
1736704	36159
1753088	33971
1769472	33992
1785856	36420
1802240	36825
1818624	36245
1835008	36002
1851392	34148
1867776	36300
1884160	36091
1900544	34118
1916928	33704
1933312	36272
1949696	35764
1966080	35777
1982464	34426
1998848	34227
2015232	36505
2031616	35754
2048000	36766
2064384	36264
2080768	35658
2097152	71080
2129920	70684
2162688	72596
2195456	57763
2228224	53202
2260992	49491
2293760	53295
2326528	52558
2359296	51361
2392064	45325
2424832	32901
2457600	32702
2490368	29183
2523136	32981
2555904	33078
2588672	30438
2621440	21965
2654208	21732
2686976	21285
2719744	19838
2752512	19600
2785280	21629
2818048	21555
2850816	19459
2883584	19413
2916352	21700
2949120	19513
2981888	21660
3014656	19202
3047424	21615
3080192	19790
3112960	21339
3145728	21332
3178496	19733
3211264	19640
3244032	21497
3276800	19032
3309568	19836
3342336	21287
3375104	21467
3407872	21579
3440640	17478
3473408	21221
3506176	21115
3538944	17598
3571712	21547
3604480	21214
3637248	20793
3670016	19244
3702784	21198
3735552	17567
3768320	21469
3801088	21306
3833856	17644
3866624	21533
3899392	21181
3932160	19710
3964928	19648
3997696	21326
4030464	21172
4063232	21383
4096000	19418
4128768	21260
4161536	19199
4194304	40700
4259840	39212
4325376	42403
4390912	38893
4456448	40451
4521984	40815
4587520	40121
4653056	40614
4718592	42449
4784128	38721
4849664	42216
4915200	38307
4980736	39776
5046272	40253
5111808	39857
5177344	39564
5242880	39345
5308416	39413
5373952	39676
5439488	38002
5505024	41318
5570560	38076
5636096	41930
5701632	37556
5767168	39505
5832704	39678
5898240	38989
5963776	39799
6029312	39131
6094848	39421
6160384	39270
6225920	39045
6291456	37398
6356992	41385
6422528	37292
6488064	40862
6553600	37114
6619136	41320
6684672	37103
6750208	41317
6815744	37162
6881280	39060
6946816	38615
7012352	39036
7077888	39130
7143424	38622
7208960	36866
7274496	40521
7340032	37011
7405568	38327
7471104	39639
7536640	39528
7602176	37788
7667712	41715
7733248	38313
7798784	37506
7864320	41016
7929856	37456
7995392	39820
8060928	40923
8126464	39542
8192000	37567
8257536	39453
8323072	41386
8388608	76080
8519680	78362
8650752	77758
8781824	76212
8912896	75622
9043968	77921
9175040	78005
9306112	74233
9437184	77587
9568256	77887
9699328	75920
9830400	77768
9961472	77024
10092544	77280
10223616	76988
10354688	74940
10485760	78594
10616832	72664
10747904	78677
10878976	78561
11010048	76299
11141120	78146
11272192	74748
11403264	76190
11534336	75991
11665408	75818
11796480	75964
11927552	75149
12058624	75412
12189696	77349
12320768	73641
12451840	75688
12582912	75062
12713984	74908
12845056	76929
12976128	73398
13107200	75683
13238272	75358
13369344	75443
13500416	77971
13631488	74351
13762560	76326
13893632	77989
14024704	76655
14155776	74160
14286848	75688
14417920	76417
14548992	76054
14680064	73784
14811136	74430
14942208	77454
15073280	73632
15204352	75742
15335424	75459
15466496	75563
15597568	74794
15728640	75177
15859712	72646
15990784	75373
16121856	73495
16252928	76499
16384000	73048
16515072	75089
16646144	75027
16777216	149592
17039360	151334
17301504	149738
17563648	147357
17825792	149171
18087936	148081
18350080	149561
18612224	147714
18874368	144258
19136512	149986
19398656	146283
19660800	147741
19922944	147376
20185088	147111
20447232	144422
20709376	146297
20971520	147354
21233664	147860
21495808	144681
21757952	145697
22020096	146202
22282240	144159
22544384	145413
22806528	142974
23068672	145584
23330816	148231
23592960	144358
23855104	142856
24117248	143227
24379392	146490
24641536	146241
24903680	144767
25165824	144061
25427968	141533
25690112	142132
25952256	143423
26214400	143511
26476544	144209
26738688	142438
27000832	141583
27262976	143387
27525120	140893
27787264	143151
28049408	145573
28311552	142674
28573696	140805
28835840	144966
29097984	143241
29360128	141080
29622272	142325
29884416	142756
30146560	141959
30408704	144863
30670848	144234
30932992	140650
31195136	142364
31457280	141683
31719424	142026
31981568	140617
32243712	138355
32505856	141946
32768000	133956
33030144	137719
33292288	136003
33554432	274984
34078720	269282
34603008	272471
35127296	272803
35651584	272256
36175872	275553
36700160	270146
37224448	269646
37748736	270558
38273024	273539
38797312	270596
39321600	270541
39845888	269273
40370176	271174
40894464	256744
41418752	8977323
41943040	2455056844
42467328	126243
42991616	38729
43515904	38249
44040192	480386
44564480	219626
45088768	96673222
45613056	32406
46137344	71077
46661632	83743
47185920	81508
47710208	78009
48234496	78145
48758784	78412
49283072	77022
49807360	77075
50331648	76989
50855936	76631
51380224	76742
51904512	76650
52428800	76727
52953088	76848
53477376	76517
54001664	76571
54525952	64685
55050240	23703
55574528	24733
56098816	24018
56623104	23537
57147392	23688
57671680	22502
58195968	23171
58720256	24036
59244544	24334
59768832	23777
60293120	22776
60817408	22534
61341696	22308
61865984	22864
62390272	23218
62914560	22661
63438848	23538
63963136	22101
64487424	22608
65011712	22221
65536000	22017
66060288	22970
66584576	21891
67108864	46145
68157440	45896
69206016	45265
70254592	43855
71303168	44282
72351744	44531
73400320	44100
74448896	42952
75497472	42890
76546048	43231
77594624	43507
78643200	42269
79691776	41783
80740352	41825
81788928	40949
82837504	41370
83886080	40471
84934656	41371
85983232	39945
87031808	41339
88080384	42379
89128960	42327
90177536	40482
91226112	39439
92274688	39919
93323264	40627
94371840	41226
95420416	39976
96468992	39992
97517568	38706
98566144	39874
99614720	37782
100663296	38499
101711872	38691
102760448	39162
103809024	38973
104857600	39364
105906176	38103
106954752	38078
108003328	37537
109051904	37713
110100480	37465
111149056	38114
112197632	37691
113246208	36407
114294784	37510
115343360	37934
116391936	36599
117440512	35679
118489088	35704
119537664	36939
120586240	35743
121634816	36162
122683392	34956
123731968	35488
124780544	35772
125829120	35577
126877696	34712
127926272	35845
128974848	32778
130023424	35866
131072000	34389
132120576	34173
133169152	34300
134217728	69452
136314880	68095
138412032	70135
140509184	68647
142606336	68544
144703488	65446
146800640	66170
148897792	65508
150994944	64013
153092096	63828
155189248	61715
157286400	64032
159383552	62525
161480704	62736
163577856	63418
165675008	60879
167772160	59835
169869312	59745
171966464	59832
174063616	60940
176160768	58666
178257920	59340
180355072	57405
182452224	57811
184549376	57394
186646528	57848
188743680	56245
190840832	56422
192937984	54822
195035136	55773
197132288	54926
199229440	53769
201326592	54792
203423744	53872
205520896	55761
207618048	52675
209715200	52545
211812352	52061
213909504	50717
216006656	50949
218103808	50125
220200960	50649
222298112	51813
224395264	48776
226492416	51190
228589568	49999
230686720	48341
232783872	49328
234881024	47692
236978176	48429
239075328	48141
241172480	46293
243269632	47860
245366784	46964
247463936	45861
249561088	45903
251658240	45727
253755392	43513
255852544	44665
257949696	44790
260046848	44318
262144000	43772
264241152	42141
266338304	44586
268435456	85775
272629760	85160
276824064	83587
281018368	81550
285212672	82221
289406976	79490
293601280	77556
297795584	77692
301989888	79084
306184192	77140
310378496	77248
314572800	73159
318767104	73912
322961408	71848
327155712	69991
331350016	70111
335544320	69452
339738624	67514
343932928	67699
348127232	65902
352321536	65546
356515840	64576
360710144	62662
364904448	63180
369098752	61495
373293056	60443
377487360	60895
381681664	60534
385875968	57008
390070272	57880
394264576	57104
398458880	57263
402653184	54641
406847488	54576
411041792	54525
415236096	53845
419430400	51856
423624704	53123
427819008	51918
432013312	52336
436207616	49329
440401920	50076
444596224	47660
448790528	48130
452984832	47922
457179136	46044
461373440	45748
465567744	47238
469762048	45612
473956352	45337
478150656	43975
482344960	44202
486539264	43389
490733568	42583
494927872	42359
499122176	39830
503316480	41626
507510784	40524
511705088	39397
515899392	38959
520093696	37873
524288000	38003
528482304	37948
532676608	37054
536870912	73000
545259520	70326
553648128	70812
562036736	68330
570425344	66365
578813952	64725
587202560	64748
595591168	60369
603979776	58513
612368384	57869
620756992	56924
629145600	55124
637534208	54844
645922816	54505
654311424	51675
662700032	49714
671088640	48452
679477248	48679
687865856	46958
696254464	45630
704643072	44898
713031680	43817
721420288	42937
729808896	42593
738197504	41216
746586112	39596
754974720	39730
763363328	38561
771751936	37550
780140544	36532
788529152	35913
796917760	34694
805306368	34310
813694976	33312
822083584	31669
830472192	31717
838860800	30775
847249408	29621
855638016	29406
864026624	28530
872415232	28098
880803840	26793
889192448	27157
897581056	26133
905969664	24947
914358272	25111
922746880	23636
931135488	23301
939524096	23083
947912704	22896
956301312	21969
964689920	22372
973078528	21763
981467136	21619
989855744	20313
998244352	19980
1006632960	20398
1015021568	18911
1023410176	18707
1031798784	19055
1040187392	18100
1048576000	17984
1056964608	17238
1065353216	17167
1073741824	32803
1090519040	391907
1107296256	30303
1124073472	28601
1140850688	27908
1157627904	25972
1174405120	25547
1191182336	23117
1207959552	23329
1224736768	22546
1241513984	21583
1258291200	21088
1275068416	20081
1291845632	19140
1308622848	19110
1325400064	17471
1342177280	17155
1358954496	17093
1375731712	16564
1392508928	15002
1409286144	14531
1426063360	13513
1442840576	14714
1459617792	13252
1476395008	12898
1493172224	12324
1509949440	12020
1526726656	11125
1543503872	11091
1560281088	10506
1577058304	10539
1593835520	9490
1610612736	10043
1627389952	9626
1644167168	9576
1660944384	9245
1677721600	8811
1694498816	8646
1711276032	8288
1728053248	8041
1744830464	8112
1761607680	7318
1778384896	7574
1795162112	7187
1811939328	7030
1828716544	6728
1845493760	6922
1862270976	6576
1879048192	6444
1895825408	6321
1912602624	5893
1929379840	5779
1946157056	5500
1962934272	5779
1979711488	5260
1996488704	5355
2013265920	5691
2030043136	5392
2046820352	5355
2063597568	5169
2080374784	5084
2097152000	4751
2113929216	4751
2130706432	4604
2147483648	9158
2181038080	8976
2214592512	8308
2248146944	8125
2281701376	8140
2315255808	7957
2348810240	7690
2382364672	7704
2415919104	7262
2449473536	7402
2483027968	7190
2516582400	7140
2550136832	7029
2583691264	6853
2617245696	6690
2650800128	6660
2684354560	6551
2717908992	6485
2751463424	6458
2785017856	6438
2818572288	6266
2852126720	6227
2885681152	6207
2919235584	6136
2952790016	6151
2986344448	5954
3019898880	5965
3053453312	6022
3087007744	5932
3120562176	5877
3154116608	5677
3187671040	5671
3221225472	5695
3254779904	5667
3288334336	5667
3321888768	5735
3355443200	5634
3388997632	5583
3422552064	5563
3456106496	5573
3489660928	5479
3523215360	5489
3556769792	5535
3590324224	5392
3623878656	5423
3657433088	5290
3690987520	5340
3724541952	5254
3758096384	5239
3791650816	5225
3825205248	5217
3858759680	5152
3892314112	5208
3925868544	5099
3959422976	5225
3992977408	5015
4026531840	5055
4060086272	4981
4093640704	5023
4127195136	5006
4160749568	5011
4194304000	4928
4227858432	4861
4261412864	4832
4294967296	9662
4362076160	9591
4429185024	9386
4496293888	9276
4563402752	9032
4630511616	9032
4697620480	8878
4764729344	8685
4831838208	8593
4898947072	8420
4966055936	3942
5033164800	13
5100273664	0
5167382528	0
5234491392	0
5301600256	0
5368709120	0
5435817984	0
5502926848	0
5570035712	0
5637144576	0
5704253440	0
5771362304	0
5838471168	0
5905580032	0
5972688896	0
6039797760	0
6106906624	31
6174015488	0
6241124352	0
6308233216	0
6375342080	0
6442450944	0
6509559808	0
6576668672	0
6643777536	0
6710886400	0
6777995264	0
6845104128	0
6912212992	0
6979321856	0
7046430720	0
7113539584	0
7180648448	0
7247757312	2
7314866176	0
7381975040	0
7449083904	0
7516192768	0
7583301632	0
7650410496	0
7717519360	0
7784628224	0
7851737088	0
7918845952	0
7985954816	0
8053063680	0
8120172544	0
8187281408	0
8254390272	0
8321499136	0
8388608000	0
8455716864	0
8522825728	0
8589934592	0
8724152320	0
8858370048	0
8992587776	0
9126805504	0
9261023232	0
9395240960	0
9529458688	0
9663676416	0
9797894144	0
9932111872	0
10066329600	0
10200547328	0
10334765056	0
10468982784	0
10603200512	0
10737418240	0
10871635968	0
11005853696	0
11140071424	0
11274289152	0
11408506880	0
11542724608	0
11676942336	0
11811160064	0
11945377792	0
12079595520	0
12213813248	0
12348030976	0
12482248704	0
12616466432	0
12750684160	0
12884901888	0
13019119616	0
13153337344	0
13287555072	0
13421772800	0
13555990528	0
13690208256	0
13824425984	0
13958643712	0
14092861440	0
14227079168	0
14361296896	0
14495514624	0
14629732352	0
14763950080	0
14898167808	0
15032385536	0
15166603264	0
15300820992	0
15435038720	0
15569256448	0
15703474176	0
15837691904	0
15971909632	0
16106127360	0
16240345088	0
16374562816	0
16508780544	0
16642998272	0
16777216000	0
16911433728	0
17045651456	0
17179869184	0
17448304640	0
17716740096	0
17985175552	0
18253611008	0
18522046464	0
18790481920	0
19058917376	0
19327352832	0
19595788288	0
19864223744	0
20132659200	0
20401094656	0
20669530112	0
20937965568	0
21206401024	0
21474836480	0
21743271936	0
22011707392	0
22280142848	0
22548578304	0
22817013760	0
23085449216	0
23353884672	0
23622320128	0
23890755584	0
24159191040	0
24427626496	0
24696061952	0
24964497408	0
25232932864	0
25501368320	0
25769803776	0
26038239232	0
26306674688	0
26575110144	0
26843545600	0
27111981056	0
27380416512	0
27648851968	0
27917287424	0
28185722880	0
28454158336	0
28722593792	0
28991029248	0
29259464704	0
29527900160	0
29796335616	0
30064771072	0
30333206528	0
30601641984	0
30870077440	0
31138512896	0
31406948352	0
31675383808	0
31943819264	0
32212254720	0
32480690176	0
32749125632	0
33017561088	0
33285996544	0
33554432000	0
33822867456	0
34091302912	0
34359738368	0
34896609280	0
35433480192	0
35970351104	0
36507222016	0
37044092928	0
37580963840	0
38117834752	0
38654705664	0
39191576576	0
39728447488	0
40265318400	0
40802189312	0
41339060224	0
41875931136	0
42412802048	0
42949672960	0
43486543872	0
44023414784	0
44560285696	0
45097156608	0
45634027520	0
46170898432	0
46707769344	0
47244640256	0
47781511168	0
48318382080	0
48855252992	0
49392123904	0
49928994816	0
50465865728	0
51002736640	0
51539607552	0
52076478464	0
52613349376	0
53150220288	0
53687091200	0
54223962112	0
54760833024	0
55297703936	0
55834574848	0
56371445760	0
56908316672	0
57445187584	0
57982058496	0
58518929408	0
59055800320	0
59592671232	0
60129542144	0
60666413056	0
61203283968	0
61740154880	0
62277025792	0
62813896704	0
63350767616	0
63887638528	0
64424509440	0
64961380352	0
65498251264	0
66035122176	0
66571993088	0
67108864000	0
67645734912	0
68182605824	0
68719476736	0
69793218560	0
70866960384	0
71940702208	0
73014444032	0
74088185856	0
75161927680	0
76235669504	0
77309411328	0
78383153152	0
79456894976	0
80530636800	0
81604378624	3
82678120448	16
83751862272	0
84825604096	0
85899345920	0
86973087744	0
88046829568	39
89120571392	0
90194313216	0
91268055040	0
92341796864	0
93415538688	0
94489280512	0
95563022336	0
96636764160	0
97710505984	0
98784247808	0
99857989632	0
100931731456	0
102005473280	0
103079215104	0
104152956928	0
105226698752	0
106300440576	0
107374182400	0
108447924224	0
109521666048	0
110595407872	0
111669149696	0
112742891520	0
113816633344	0
114890375168	0
115964116992	0
117037858816	0
118111600640	0
119185342464	0
120259084288	0
121332826112	0
122406567936	0
123480309760	0
124554051584	0
125627793408	0
126701535232	0
127775277056	0
128849018880	0
129922760704	0
130996502528	0
132070244352	0
133143986176	0
134217728000	0
135291469824	0
136365211648	0
137438953472	0
139586437120	0
141733920768	0
143881404416	0
146028888064	0
148176371712	0
150323855360	0
152471339008	0
154618822656	0
156766306304	0
158913789952	0
161061273600	0
163208757248	0
165356240896	0
167503724544	0
169651208192	0
171798691840	0
173946175488	0
176093659136	0
178241142784	0
180388626432	0
182536110080	0
184683593728	0
186831077376	0
188978561024	0
191126044672	0
193273528320	0
195421011968	0
197568495616	0
199715979264	0
201863462912	0
204010946560	0
206158430208	0
208305913856	0
210453397504	0
212600881152	0
214748364800	0
216895848448	0
219043332096	0
221190815744	0
223338299392	0
225485783040	0
227633266688	0
229780750336	0
231928233984	0
234075717632	0
236223201280	0
238370684928	0
240518168576	0
242665652224	0
244813135872	0
246960619520	0
249108103168	0
251255586816	0
253403070464	0
255550554112	0
257698037760	0
259845521408	0
261993005056	0
264140488704	0
266287972352	0
268435456000	0
270582939648	0
272730423296	0
274877906944	0
279172874240	0
283467841536	0
287762808832	0
292057776128	0
296352743424	0
300647710720	0
304942678016	0
309237645312	0
313532612608	0
317827579904	0
322122547200	0
326417514496	0
330712481792	0
335007449088	0
339302416384	0
343597383680	0
347892350976	0
352187318272	0
356482285568	0
360777252864	0
365072220160	0
369367187456	0
373662154752	0
377957122048	0
382252089344	0
386547056640	0
390842023936	0
395136991232	0
399431958528	0
403726925824	0
408021893120	0
412316860416	0
416611827712	0
420906795008	0
425201762304	0
429496729600	0
433791696896	0
438086664192	0
442381631488	0
446676598784	0
450971566080	0
455266533376	0
459561500672	0
463856467968	0
468151435264	0
472446402560	0
476741369856	0
481036337152	0
485331304448	0
489626271744	0
493921239040	0
498216206336	0
502511173632	0
506806140928	0
511101108224	0
515396075520	0
519691042816	0
523986010112	0
528280977408	0
532575944704	0
536870912000	0
541165879296	0
545460846592	0
549755813888	0
558345748480	0
566935683072	0
575525617664	0
584115552256	0
592705486848	0
601295421440	0
609885356032	0
618475290624	0
627065225216	0
635655159808	0
644245094400	0
652835028992	0
661424963584	0
670014898176	0
678604832768	0
687194767360	0
695784701952	0
704374636544	0
712964571136	0
721554505728	0
730144440320	0
738734374912	0
747324309504	0
755914244096	0
764504178688	0
773094113280	0
781684047872	0
790273982464	0
798863917056	0
807453851648	0
816043786240	0
824633720832	0
833223655424	0
841813590016	0
850403524608	0
858993459200	0
867583393792	0
876173328384	0
884763262976	0
893353197568	0
901943132160	0
910533066752	0
919123001344	0
927712935936	0
936302870528	0
944892805120	0
953482739712	0
962072674304	0
970662608896	0
979252543488	0
987842478080	0
996432412672	0
1005022347264	0
1013612281856	0
1022202216448	0
1030792151040	0
1039382085632	0
1047972020224	0
1056561954816	0
1065151889408	0
1073741824000	0
1082331758592	0
1090921693184	0
1099511627776	0
1116691496960	0
1133871366144	0
1151051235328	0
1168231104512	0
1185410973696	0
1202590842880	0
1219770712064	0
1236950581248	0
1254130450432	0
1271310319616	0
1288490188800	0
1305670057984	0
1322849927168	0
1340029796352	0
1357209665536	0
1374389534720	0
1391569403904	0
1408749273088	0
1425929142272	0
1443109011456	0
1460288880640	0
1477468749824	0
1494648619008	0
1511828488192	0
1529008357376	0
1546188226560	0
1563368095744	0
1580547964928	0
1597727834112	0
1614907703296	0
1632087572480	0
1649267441664	0
1666447310848	0
1683627180032	0
1700807049216	0
1717986918400	0
1735166787584	0
1752346656768	0
1769526525952	0
1786706395136	0
1803886264320	0
1821066133504	0
1838246002688	0
1855425871872	0
1872605741056	0
1889785610240	0
1906965479424	0
1924145348608	0
1941325217792	0
1958505086976	0
1975684956160	0
1992864825344	0
2010044694528	0
2027224563712	0
2044404432896	0
2061584302080	0
2078764171264	0
2095944040448	0
2113123909632	0
2130303778816	0
2147483648000	0
2164663517184	0
2181843386368	0
2199023255552	0
2233382993920	0
2267742732288	0
2302102470656	0
2336462209024	0
2370821947392	0
2405181685760	0
2439541424128	0
2473901162496	0
2508260900864	0
2542620639232	0
2576980377600	0
2611340115968	0
2645699854336	0
2680059592704	0
2714419331072	0
2748779069440	0
2783138807808	0
2817498546176	0
2851858284544	0
2886218022912	0
2920577761280	0
2954937499648	0
2989297238016	0
3023656976384	0
3058016714752	0
3092376453120	0
3126736191488	0
3161095929856	0
3195455668224	0
3229815406592	0
3264175144960	0
3298534883328	0
3332894621696	0
3367254360064	0
3401614098432	0
3435973836800	0
3470333575168	0
3504693313536	0
3539053051904	0
3573412790272	0
3607772528640	0
3642132267008	0
3676492005376	0
3710851743744	0
3745211482112	0
3779571220480	0
3813930958848	0
3848290697216	0
3882650435584	0
3917010173952	0
3951369912320	0
3985729650688	0
4020089389056	0
4054449127424	0
4088808865792	0
4123168604160	0
4157528342528	0
4191888080896	0
4226247819264	0
4260607557632	0
4294967296000	0
4329327034368	0
4363686772736	0
4398046511104	0
4466765987840	0
4535485464576	0
4604204941312	0
4672924418048	0
4741643894784	0
4810363371520	0
4879082848256	0
4947802324992	0
5016521801728	0
5085241278464	0
5153960755200	0
5222680231936	0
5291399708672	0
5360119185408	0
5428838662144	0
5497558138880	0
5566277615616	0
5634997092352	0
5703716569088	0
5772436045824	0
5841155522560	0
5909874999296	0
5978594476032	0
6047313952768	0
6116033429504	0
6184752906240	0
6253472382976	0
6322191859712	0
6390911336448	0
6459630813184	0
6528350289920	0
6597069766656	0
6665789243392	0
6734508720128	0
6803228196864	0
6871947673600	0
6940667150336	0
7009386627072	0
7078106103808	0
7146825580544	0
7215545057280	0
7284264534016	0
7352984010752	0
7421703487488	0
7490422964224	0
7559142440960	0
7627861917696	0
7696581394432	0
7765300871168	0
7834020347904	0
7902739824640	0
7971459301376	0
8040178778112	0
8108898254848	0
8177617731584	0
8246337208320	0
8315056685056	0
8383776161792	0
8452495638528	0
8521215115264	0
8589934592000	0
8658654068736	0
8727373545472	0
8796093022208	0
8933531975680	0
9070970929152	0
9208409882624	0
9345848836096	0
9483287789568	0
9620726743040	0
9758165696512	0
9895604649984	0
10033043603456	0
10170482556928	0
10307921510400	0
10445360463872	0
10582799417344	0
10720238370816	0
10857677324288	0
10995116277760	0
11132555231232	0
11269994184704	0
11407433138176	0
11544872091648	0
11682311045120	0
11819749998592	0
11957188952064	0
12094627905536	0
12232066859008	0
12369505812480	0
12506944765952	0
12644383719424	0
12781822672896	0
12919261626368	0
13056700579840	0
13194139533312	0
13331578486784	0
13469017440256	0
13606456393728	0
13743895347200	0
13881334300672	0
14018773254144	0
14156212207616	0
14293651161088	0
14431090114560	0
14568529068032	0
14705968021504	0
14843406974976	0
14980845928448	0
15118284881920	0
15255723835392	0
15393162788864	0
15530601742336	0
15668040695808	0
15805479649280	0
15942918602752	0
16080357556224	0
16217796509696	0
16355235463168	0
16492674416640	0
16630113370112	0
16767552323584	0
16904991277056	0
17042430230528	0
17179869184000	0
17317308137472	0
17454747090944	0
17592186044416	0
17867063951360	0
18141941858304	0
18416819765248	0
18691697672192	0
18966575579136	0
19241453486080	0
19516331393024	0
19791209299968	0
20066087206912	0
20340965113856	0
20615843020800	0
20890720927744	0
21165598834688	0
21440476741632	0
21715354648576	0
21990232555520	0
22265110462464	0
22539988369408	0
22814866276352	0
23089744183296	0
23364622090240	0
23639499997184	0
23914377904128	0
24189255811072	0
24464133718016	0
24739011624960	0
25013889531904	0
25288767438848	0
25563645345792	0
25838523252736	0
26113401159680	0
26388279066624	0
26663156973568	0
26938034880512	0
27212912787456	0
27487790694400	0
27762668601344	0
28037546508288	0
28312424415232	0
28587302322176	0
28862180229120	0
29137058136064	0
29411936043008	0
29686813949952	0
29961691856896	0
30236569763840	0
30511447670784	0
30786325577728	0
31061203484672	0
31336081391616	0
31610959298560	0
31885837205504	0
32160715112448	0
32435593019392	0
32710470926336	0
32985348833280	0
33260226740224	0
33535104647168	0
33809982554112	0
34084860461056	0
34359738368000	0
34634616274944	0
34909494181888	0
35184372088832	0
35734127902720	0
36283883716608	0
36833639530496	0
37383395344384	0
37933151158272	0
38482906972160	0
39032662786048	0
39582418599936	0
40132174413824	0
40681930227712	0
41231686041600	0
41781441855488	0
42331197669376	0
42880953483264	0
43430709297152	0
43980465111040	0
44530220924928	0
45079976738816	0
45629732552704	0
46179488366592	0
46729244180480	0
47278999994368	0
47828755808256	0
48378511622144	0
48928267436032	0
49478023249920	0
50027779063808	0
50577534877696	0
51127290691584	0
51677046505472	0
52226802319360	0
52776558133248	0
53326313947136	0
53876069761024	0
54425825574912	0
54975581388800	0
55525337202688	0
56075093016576	0
56624848830464	0
57174604644352	0
57724360458240	0
58274116272128	0
58823872086016	0
59373627899904	0
59923383713792	0
60473139527680	0
61022895341568	0
61572651155456	0
62122406969344	0
62672162783232	0
63221918597120	0
63771674411008	0
64321430224896	0
64871186038784	0
65420941852672	0
65970697666560	0
66520453480448	0
67070209294336	0
67619965108224	0
68169720922112	0
68719476736000	0
69269232549888	0
69818988363776	0
70368744177664	0
71468255805440	0
72567767433216	0
73667279060992	0
74766790688768	0
75866302316544	0
76965813944320	0
78065325572096	0
79164837199872	0
80264348827648	0
81363860455424	0
82463372083200	0
83562883710976	0
84662395338752	0
85761906966528	0
86861418594304	0
87960930222080	0
89060441849856	0
90159953477632	0
91259465105408	0
92358976733184	0
93458488360960	0
94557999988736	0
95657511616512	0
96757023244288	0
97856534872064	0
98956046499840	0
100055558127616	0
101155069755392	0
102254581383168	0
103354093010944	0
104453604638720	0
105553116266496	0
106652627894272	0
107752139522048	0
108851651149824	0
109951162777600	0
111050674405376	0
112150186033152	0
113249697660928	0
114349209288704	0
115448720916480	0
116548232544256	0
117647744172032	0
118747255799808	0
119846767427584	0
120946279055360	0
122045790683136	0
123145302310912	0
124244813938688	0
125344325566464	0
126443837194240	0
127543348822016	0
128642860449792	0
129742372077568	0
130841883705344	0
131941395333120	0
133040906960896	0
134140418588672	0
135239930216448	0
136339441844224	0
137438953472000	0
138538465099776	0
139637976727552	0
140737488355328	0
142936511610880	0
145135534866432	0
147334558121984	0
149533581377536	0
151732604633088	0
153931627888640	0
156130651144192	0
158329674399744	0
160528697655296	0
162727720910848	0
164926744166400	0
167125767421952	0
169324790677504	0
171523813933056	0
173722837188608	0
175921860444160	0
178120883699712	0
180319906955264	0
182518930210816	0
184717953466368	0
186916976721920	0
189115999977472	0
191315023233024	0
193514046488576	0
195713069744128	0
197912092999680	0
200111116255232	0
202310139510784	0
204509162766336	0
206708186021888	0
208907209277440	0
211106232532992	0
213305255788544	0
215504279044096	0
217703302299648	0
219902325555200	0
222101348810752	0
224300372066304	0
226499395321856	0
228698418577408	0
230897441832960	0
233096465088512	0
235295488344064	0
237494511599616	0
239693534855168	0
241892558110720	0
244091581366272	0
246290604621824	0
248489627877376	0
250688651132928	0
252887674388480	0
255086697644032	0
257285720899584	0
259484744155136	0
261683767410688	0
263882790666240	0
266081813921792	0
268280837177344	0
270479860432896	0
272678883688448	0
274877906944000	0
277076930199552	0
279275953455104	0
281474976710656	0
285873023221760	0
290271069732864	0
294669116243968	0
299067162755072	0
303465209266176	0
307863255777280	0
312261302288384	0
316659348799488	0
321057395310592	0
325455441821696	0
329853488332800	0
334251534843904	0
338649581355008	0
343047627866112	0
347445674377216	0
351843720888320	0
356241767399424	0
360639813910528	0
365037860421632	0
369435906932736	0
373833953443840	0
378231999954944	0
382630046466048	0
387028092977152	0
391426139488256	0
395824185999360	0
400222232510464	0
404620279021568	0
409018325532672	0
413416372043776	0
417814418554880	0
422212465065984	0
426610511577088	0
431008558088192	0
435406604599296	0
439804651110400	0
444202697621504	0
448600744132608	0
452998790643712	0
457396837154816	0
461794883665920	0
466192930177024	0
470590976688128	0
474989023199232	0
479387069710336	0
483785116221440	0
488183162732544	0
492581209243648	0
496979255754752	0
501377302265856	0
505775348776960	0
510173395288064	0
514571441799168	0
518969488310272	0
523367534821376	0
527765581332480	0
532163627843584	0
536561674354688	0
540959720865792	0
545357767376896	0
549755813888000	0
554153860399104	0
558551906910208	0
562949953421312	0
571746046443520	0
580542139465728	0
589338232487936	0
598134325510144	0
606930418532352	0
615726511554560	0
624522604576768	0
633318697598976	0
642114790621184	0
650910883643392	0
659706976665600	0
668503069687808	0
677299162710016	0
686095255732224	0
694891348754432	0
703687441776640	0
712483534798848	0
721279627821056	0
730075720843264	0
738871813865472	0
747667906887680	0
756463999909888	0
765260092932096	0
774056185954304	0
782852278976512	0
791648371998720	0
800444465020928	0
809240558043136	0
818036651065344	0
826832744087552	0
835628837109760	0
844424930131968	0
853221023154176	0
862017116176384	0
870813209198592	0
879609302220800	0
888405395243008	0
897201488265216	0
905997581287424	0
914793674309632	0
923589767331840	0
932385860354048	0
941181953376256	0
949978046398464	0
958774139420672	0
967570232442880	0
976366325465088	0
985162418487296	0
993958511509504	0
1002754604531712	0
1011550697553920	0
1020346790576128	0
1029142883598336	0
1037938976620544	0
1046735069642752	0
1055531162664960	0
1064327255687168	0
1073123348709376	0
1081919441731584	0
1090715534753792	0
1099511627776000	0
1108307720798208	0
1117103813820416	0
1125899906842624	0
1143492092887040	0
1161084278931456	0
1178676464975872	0
1196268651020288	0
1213860837064704	0
1231453023109120	0
1249045209153536	0
1266637395197952	0
1284229581242368	0
1301821767286784	0
1319413953331200	0
1337006139375616	0
1354598325420032	0
1372190511464448	0
1389782697508864	0
1407374883553280	0
1424967069597696	0
1442559255642112	0
1460151441686528	0
1477743627730944	0
1495335813775360	0
1512927999819776	0
1530520185864192	0
1548112371908608	0
1565704557953024	0
1583296743997440	0
1600888930041856	0
1618481116086272	0
1636073302130688	0
1653665488175104	0
1671257674219520	0
1688849860263936	0
1706442046308352	0
1724034232352768	0
1741626418397184	0
1759218604441600	0
1776810790486016	0
1794402976530432	0
1811995162574848	0
1829587348619264	0
1847179534663680	0
1864771720708096	0
1882363906752512	0
1899956092796928	0
1917548278841344	0
1935140464885760	0
1952732650930176	0
1970324836974592	0
1987917023019008	0
2005509209063424	0
2023101395107840	0
2040693581152256	0
2058285767196672	0
2075877953241088	0
2093470139285504	0
2111062325329920	0
2128654511374336	0
2146246697418752	0
2163838883463168	0
2181431069507584	0
2199023255552000	0
2216615441596416	0
2234207627640832	0
2251799813685248	0
2286984185774080	0
2322168557862912	0
2357352929951744	0
2392537302040576	0
2427721674129408	0
2462906046218240	0
2498090418307072	0
2533274790395904	0
2568459162484736	0
2603643534573568	0
2638827906662400	0
2674012278751232	0
2709196650840064	0
2744381022928896	0
2779565395017728	0
2814749767106560	0
2849934139195392	0
2885118511284224	0
2920302883373056	0
2955487255461888	0
2990671627550720	0
3025855999639552	0
3061040371728384	0
3096224743817216	0
3131409115906048	0
3166593487994880	0
3201777860083712	0
3236962232172544	0
3272146604261376	0
3307330976350208	0
3342515348439040	0
3377699720527872	0
3412884092616704	0
3448068464705536	0
3483252836794368	0
3518437208883200	0
3553621580972032	0
3588805953060864	0
3623990325149696	0
3659174697238528	0
3694359069327360	0
3729543441416192	0
3764727813505024	0
3799912185593856	0
3835096557682688	0
3870280929771520	0
3905465301860352	0
3940649673949184	0
3975834046038016	0
4011018418126848	0
4046202790215680	0
4081387162304512	0
4116571534393344	0
4151755906482176	0
4186940278571008	0
4222124650659840	0
4257309022748672	0
4292493394837504	0
4327677766926336	0
4362862139015168	0
4398046511104000	0
4433230883192832	0
4468415255281664	0
4503599627370496	0
4573968371548160	0
4644337115725824	0
4714705859903488	0
4785074604081152	0
4855443348258816	0
4925812092436480	0
4996180836614144	0
5066549580791808	0
5136918324969472	0
5207287069147136	0
5277655813324800	0
5348024557502464	0
5418393301680128	0
5488762045857792	0
5559130790035456	0
5629499534213120	0
5699868278390784	0
5770237022568448	0
5840605766746112	0
5910974510923776	0
5981343255101440	0
6051711999279104	0
6122080743456768	0
6192449487634432	0
6262818231812096	0
6333186975989760	0
6403555720167424	0
6473924464345088	0
6544293208522752	0
6614661952700416	0
6685030696878080	0
6755399441055744	0
6825768185233408	0
6896136929411072	0
6966505673588736	0
7036874417766400	0
7107243161944064	0
7177611906121728	0
7247980650299392	0
7318349394477056	0
7388718138654720	0
7459086882832384	0
7529455627010048	0
7599824371187712	0
7670193115365376	0
7740561859543040	0
7810930603720704	0
7881299347898368	0
7951668092076032	0
8022036836253696	0
8092405580431360	0
8162774324609024	0
8233143068786688	0
8303511812964352	0
8373880557142016	0
8444249301319680	0
8514618045497344	0
8584986789675008	0
8655355533852672	0
8725724278030336	0
8796093022208000	0
8866461766385664	0
8936830510563328	0
9007199254740992	0
9147936743096320	0
9288674231451648	0
9429411719806976	0
9570149208162304	0
9710886696517632	0
9851624184872960	0
9992361673228288	0
10133099161583616	0
10273836649938944	0
10414574138294272	0
10555311626649600	0
10696049115004928	0
10836786603360256	0
10977524091715584	0
11118261580070912	0
11258999068426240	0
11399736556781568	0
11540474045136896	0
11681211533492224	0
11821949021847552	0
11962686510202880	0
12103423998558208	0
12244161486913536	0
12384898975268864	0
12525636463624192	0
12666373951979520	0
12807111440334848	0
12947848928690176	0
13088586417045504	0
13229323905400832	0
13370061393756160	0
13510798882111488	0
13651536370466816	0
13792273858822144	0
13933011347177472	0
14073748835532800	0
14214486323888128	0
14355223812243456	0
14495961300598784	0
14636698788954112	0
14777436277309440	0
14918173765664768	0
15058911254020096	0
15199648742375424	0
15340386230730752	0
15481123719086080	0
15621861207441408	0
15762598695796736	0
15903336184152064	0
16044073672507392	0
16184811160862720	0
16325548649218048	0
16466286137573376	0
16607023625928704	0
16747761114284032	0
16888498602639360	0
17029236090994688	0
17169973579350016	0
17310711067705344	0
17451448556060672	0
17592186044416000	0
17732923532771328	0
17873661021126656	0
18014398509481984	0
18295873486192640	0
18577348462903296	0
18858823439613952	0
19140298416324608	0
19421773393035264	0
19703248369745920	0
19984723346456576	0
20266198323167232	0
20547673299877888	0
20829148276588544	0
21110623253299200	0
21392098230009856	0
21673573206720512	0
21955048183431168	0
22236523160141824	0
22517998136852480	0
22799473113563136	0
23080948090273792	0
23362423066984448	0
23643898043695104	0
23925373020405760	0
24206847997116416	0
24488322973827072	0
24769797950537728	0
25051272927248384	0
25332747903959040	0
25614222880669696	0
25895697857380352	0
26177172834091008	0
26458647810801664	0
26740122787512320	0
27021597764222976	0
27303072740933632	0
27584547717644288	0
27866022694354944	0
28147497671065600	0
28428972647776256	0
28710447624486912	0
28991922601197568	0
29273397577908224	0
29554872554618880	0
29836347531329536	0
30117822508040192	0
30399297484750848	0
30680772461461504	0
30962247438172160	0
31243722414882816	0
31525197391593472	0
31806672368304128	0
32088147345014784	0
32369622321725440	0
32651097298436096	0
32932572275146752	0
33214047251857408	0
33495522228568064	0
33776997205278720	0
34058472181989376	0
34339947158700032	0
34621422135410688	0
34902897112121344	0
35184372088832000	0
35465847065542656	0
35747322042253312	0
36028797018963968	0
36591746972385280	0
37154696925806592	0
37717646879227904	0
38280596832649216	0
38843546786070528	0
39406496739491840	0
39969446692913152	0
40532396646334464	0
41095346599755776	0
41658296553177088	0
42221246506598400	0
42784196460019712	0
43347146413441024	0
43910096366862336	0
44473046320283648	0
45035996273704960	0
45598946227126272	0
46161896180547584	0
46724846133968896	0
47287796087390208	0
47850746040811520	0
48413695994232832	0
48976645947654144	0
49539595901075456	0
50102545854496768	0
50665495807918080	0
51228445761339392	0
51791395714760704	0
52354345668182016	0
52917295621603328	0
53480245575024640	0
54043195528445952	0
54606145481867264	0
55169095435288576	0
55732045388709888	0
56294995342131200	0
56857945295552512	0
57420895248973824	0
57983845202395136	0
58546795155816448	0
59109745109237760	0
59672695062659072	0
60235645016080384	0
60798594969501696	0
61361544922923008	0
61924494876344320	0
62487444829765632	0
63050394783186944	0
63613344736608256	0
64176294690029568	0
64739244643450880	0
65302194596872192	0
65865144550293504	0
66428094503714816	0
66991044457136128	0
67553994410557440	0
68116944363978752	0
68679894317400064	0
69242844270821376	0
69805794224242688	0
70368744177664000	0
70931694131085312	0
71494644084506624	0
72057594037927936	0
73183493944770560	0
74309393851613184	0
75435293758455808	0
76561193665298432	0
77687093572141056	0
78812993478983680	0
79938893385826304	0
81064793292668928	0
82190693199511552	0
83316593106354176	0
84442493013196800	0
85568392920039424	0
86694292826882048	0
87820192733724672	0
88946092640567296	0
90071992547409920	0
91197892454252544	0
92323792361095168	0
93449692267937792	0
94575592174780416	0
95701492081623040	0
96827391988465664	0
97953291895308288	0
99079191802150912	0
100205091708993536	0
101330991615836160	0
102456891522678784	0
103582791429521408	0
104708691336364032	0
105834591243206656	0
106960491150049280	0
108086391056891904	0
109212290963734528	0
110338190870577152	0
111464090777419776	0
112589990684262400	0
113715890591105024	0
114841790497947648	0
115967690404790272	0
117093590311632896	0
118219490218475520	0
119345390125318144	0
120471290032160768	0
121597189939003392	0
122723089845846016	0
123848989752688640	0
124974889659531264	0
126100789566373888	0
127226689473216512	0
128352589380059136	0
129478489286901760	0
130604389193744384	0
131730289100587008	0
132856189007429632	0
133982088914272256	0
135107988821114880	0
136233888727957504	0
137359788634800128	0
138485688541642752	0
139611588448485376	0
140737488355328000	0
141863388262170624	0
142989288169013248	0
144115188075855872	0
146366987889541120	0
148618787703226368	0
150870587516911616	0
153122387330596864	0
155374187144282112	0
157625986957967360	0
159877786771652608	0
162129586585337856	0
164381386399023104	0
166633186212708352	0
168884986026393600	0
171136785840078848	0
173388585653764096	0
175640385467449344	0
177892185281134592	0
180143985094819840	0
182395784908505088	0
184647584722190336	0
186899384535875584	0
189151184349560832	0
191402984163246080	0
193654783976931328	0
195906583790616576	0
198158383604301824	0
200410183417987072	0
202661983231672320	0
204913783045357568	0
207165582859042816	0
209417382672728064	0
211669182486413312	0
213920982300098560	0
216172782113783808	0
218424581927469056	0
220676381741154304	0
222928181554839552	0
225179981368524800	0
227431781182210048	0
229683580995895296	0
231935380809580544	0
234187180623265792	0
236438980436951040	0
238690780250636288	0
240942580064321536	0
243194379878006784	0
245446179691692032	0
247697979505377280	0
249949779319062528	0
252201579132747776	0
254453378946433024	0
256705178760118272	0
258956978573803520	0
261208778387488768	0
263460578201174016	0
265712378014859264	0
267964177828544512	0
270215977642229760	0
272467777455915008	0
274719577269600256	0
276971377083285504	0
279223176896970752	0
281474976710656000	0
283726776524341248	0
285978576338026496	0
288230376151711744	0
292733975779082240	0
297237575406452736	0
301741175033823232	0
306244774661193728	0
310748374288564224	0
315251973915934720	0
319755573543305216	0
324259173170675712	0
328762772798046208	0
333266372425416704	0
337769972052787200	0
342273571680157696	0
346777171307528192	0
351280770934898688	0
355784370562269184	0
360287970189639680	0
364791569817010176	0
369295169444380672	0
373798769071751168	0
378302368699121664	0
382805968326492160	0
387309567953862656	0
391813167581233152	0
396316767208603648	0
400820366835974144	0
405323966463344640	0
409827566090715136	0
414331165718085632	0
418834765345456128	0
423338364972826624	0
427841964600197120	0
432345564227567616	0
436849163854938112	0
441352763482308608	0
445856363109679104	0
450359962737049600	0
454863562364420096	0
459367161991790592	0
463870761619161088	0
468374361246531584	0
472877960873902080	0
477381560501272576	0
481885160128643072	0
486388759756013568	0
490892359383384064	0
495395959010754560	0
499899558638125056	0
504403158265495552	0
508906757892866048	0
513410357520236544	0
517913957147607040	0
522417556774977536	0
526921156402348032	0
531424756029718528	0
535928355657089024	0
540431955284459520	0
544935554911830016	0
549439154539200512	0
553942754166571008	0
558446353793941504	0
562949953421312000	0
567453553048682496	0
571957152676052992	0
576460752303423488	0
585467951558164480	0
594475150812905472	0
603482350067646464	0
612489549322387456	0
621496748577128448	0
630503947831869440	0
639511147086610432	0
648518346341351424	0
657525545596092416	0
666532744850833408	0
675539944105574400	0
684547143360315392	0
693554342615056384	0
702561541869797376	0
711568741124538368	0
720575940379279360	0
729583139634020352	0
738590338888761344	0
747597538143502336	0
756604737398243328	0
765611936652984320	0
774619135907725312	0
783626335162466304	0
792633534417207296	0
801640733671948288	0
810647932926689280	0
819655132181430272	0
828662331436171264	0
837669530690912256	0
846676729945653248	0
855683929200394240	0
864691128455135232	0
873698327709876224	0
882705526964617216	0
891712726219358208	0
900719925474099200	0
909727124728840192	0
918734323983581184	0
927741523238322176	0
936748722493063168	0
945755921747804160	0
954763121002545152	0
963770320257286144	0
972777519512027136	0
981784718766768128	0
990791918021509120	0
999799117276250112	0
1008806316530991104	0
1017813515785732096	0
1026820715040473088	0
1035827914295214080	0
1044835113549955072	0
1053842312804696064	0
1062849512059437056	0
1071856711314178048	0
1080863910568919040	0
1089871109823660032	0
1098878309078401024	0
1107885508333142016	0
1116892707587883008	0
1125899906842624000	0
1134907106097364992	0
1143914305352105984	0
1152921504606846976	0
1170935903116328960	0
1188950301625810944	0
1206964700135292928	0
1224979098644774912	0
1242993497154256896	0
1261007895663738880	0
1279022294173220864	0
1297036692682702848	0
1315051091192184832	0
1333065489701666816	0
1351079888211148800	0
1369094286720630784	0
1387108685230112768	0
1405123083739594752	0
1423137482249076736	0
1441151880758558720	0
1459166279268040704	0
1477180677777522688	0
1495195076287004672	0
1513209474796486656	0
1531223873305968640	0
1549238271815450624	0
1567252670324932608	0
1585267068834414592	0
1603281467343896576	0
1621295865853378560	0
1639310264362860544	0
1657324662872342528	0
1675339061381824512	0
1693353459891306496	0
1711367858400788480	0
1729382256910270464	0
1747396655419752448	0
1765411053929234432	0
1783425452438716416	0
1801439850948198400	0
1819454249457680384	0
1837468647967162368	0
1855483046476644352	0
1873497444986126336	0
1891511843495608320	0
1909526242005090304	0
1927540640514572288	0
1945555039024054272	0
1963569437533536256	0
1981583836043018240	0
1999598234552500224	0
2017612633061982208	0
2035627031571464192	0
2053641430080946176	0
2071655828590428160	0
2089670227099910144	0
2107684625609392128	0
2125699024118874112	0
2143713422628356096	0
2161727821137838080	0
2179742219647320064	0
2197756618156802048	0
2215771016666284032	0
2233785415175766016	0
2251799813685248000	0
2269814212194729984	0
2287828610704211968	0
2305843009213693952	0
2341871806232657920	0
2377900603251621888	0
2413929400270585856	0
2449958197289549824	0
2485986994308513792	0
2522015791327477760	0
2558044588346441728	0
2594073385365405696	0
2630102182384369664	0
2666130979403333632	0
2702159776422297600	0
2738188573441261568	0
2774217370460225536	0
2810246167479189504	0
2846274964498153472	0
2882303761517117440	0
2918332558536081408	0
2954361355555045376	0
2990390152574009344	0
3026418949592973312	0
3062447746611937280	0
3098476543630901248	0
3134505340649865216	0
3170534137668829184	0
3206562934687793152	0
3242591731706757120	0
3278620528725721088	0
3314649325744685056	0
3350678122763649024	0
3386706919782612992	0
3422735716801576960	0
3458764513820540928	0
3494793310839504896	0
3530822107858468864	0
3566850904877432832	0
3602879701896396800	0
3638908498915360768	0
3674937295934324736	0
3710966092953288704	0
3746994889972252672	0
3783023686991216640	0
3819052484010180608	0
3855081281029144576	0
3891110078048108544	0
3927138875067072512	0
3963167672086036480	0
3999196469105000448	0
4035225266123964416	0
4071254063142928384	0
4107282860161892352	0
4143311657180856320	0
4179340454199820288	0
4215369251218784256	0
4251398048237748224	0
4287426845256712192	0
4323455642275676160	0
4359484439294640128	0
4395513236313604096	0
4431542033332568064	0
4467570830351532032	0
4503599627370496000	0
4539628424389459968	0
4575657221408423936	0
4611686018427387904	0
4683743612465315840	0
4755801206503243776	0
4827858800541171712	0
4899916394579099648	0
4971973988617027584	0
5044031582654955520	0
5116089176692883456	0
5188146770730811392	0
5260204364768739328	0
5332261958806667264	0
5404319552844595200	0
5476377146882523136	0
5548434740920451072	0
5620492334958379008	0
5692549928996306944	0
5764607523034234880	0
5836665117072162816	0
5908722711110090752	0
5980780305148018688	0
6052837899185946624	0
6124895493223874560	0
6196953087261802496	0
6269010681299730432	0
6341068275337658368	0
6413125869375586304	0
6485183463413514240	0
6557241057451442176	0
6629298651489370112	0
6701356245527298048	0
6773413839565225984	0
6845471433603153920	0
6917529027641081856	0
6989586621679009792	0
7061644215716937728	0
7133701809754865664	0
7205759403792793600	0
7277816997830721536	0
7349874591868649472	0
7421932185906577408	0
7493989779944505344	0
7566047373982433280	0
7638104968020361216	0
7710162562058289152	0
7782220156096217088	0
7854277750134145024	0
7926335344172072960	0
7998392938210000896	0
8070450532247928832	0
8142508126285856768	0
8214565720323784704	0
8286623314361712640	0
8358680908399640576	0
8430738502437568512	0
8502796096475496448	0
8574853690513424384	0
8646911284551352320	0
8718968878589280256	0
8791026472627208192	0
8863084066665136128	0
8935141660703064064	0
9007199254740992000	0
9079256848778919936	0
9151314442816847872	0
9223372036854775808	0
9367487224930631680	0
9511602413006487552	0
9655717601082343424	0
9799832789158199296	0
9943947977234055168	0
10088063165309911040	0
10232178353385766912	0
10376293541461622784	0
10520408729537478656	0
10664523917613334528	0
10808639105689190400	0
10952754293765046272	0
11096869481840902144	0
11240984669916758016	0
11385099857992613888	0
11529215046068469760	0
11673330234144325632	0
11817445422220181504	0
11961560610296037376	0
12105675798371893248	0
12249790986447749120	0
12393906174523604992	0
12538021362599460864	0
12682136550675316736	0
12826251738751172608	0
12970366926827028480	0
13114482114902884352	0
13258597302978740224	0
13402712491054596096	0
13546827679130451968	0
13690942867206307840	0
13835058055282163712	0
13979173243358019584	0
14123288431433875456	0
14267403619509731328	0
14411518807585587200	0
14555633995661443072	0
14699749183737298944	0
14843864371813154816	0
14987979559889010688	0
15132094747964866560	0
15276209936040722432	0
15420325124116578304	0
15564440312192434176	0
15708555500268290048	0
15852670688344145920	0
15996785876420001792	0
16140901064495857664	0
16285016252571713536	0
16429131440647569408	0
16573246628723425280	0
16717361816799281152	0
16861477004875137024	0
17005592192950992896	0
17149707381026848768	0
17293822569102704640	0
17437937757178560512	0
17582052945254416384	0
17726168133330272256	0
17870283321406128128	0
18014398509481984000	0
18158513697557839872	0
18302628885633695744	0
