0	0
1	92415349563
2	38880379435
3	20568218741
4	21685698926
5	15495954459
6	12326057602
7	8047680096
8	6183682585
9	2171636840
10	5253600794
11	2952383825
12	1658672223
13	4123652080
14	1666814364
15	2398490627
16	7138309971
17	3321016663
18	1510186845
19	1855496135
20	304132590
21	164373522
22	2203733765
23	273655306
24	1266001674
25	656779772
26	1872766510
27	1641247283
28	1292401562
29	223298993
30	130412711
31	379039340
32	4050501
33	27094831
34	1168343285
35	1148754567
36	390178448
37	2074773048
38	103045311
39	714884516
40	28098045
41	5264138
42	123099727
43	48749350
44	1504253
45	1021702
46	50446
47	20272
48	30515
49	47926638
50	12734578
51	9342556
52	7377291
53	7598255
54	6738646597
55	6343668626
56	749957
57	200053
58	749981
59	123654
60	503694
61	2315539
62	23680985
63	1275
64	8550287
65	12735171
66	7251300
67	9967
68	28637641
69	58302737
70	2101754
71	44070975
72	8302174
73	70734
74	4093554
75	314035
76	50810502
77	39869
78	40474
79	4239552
80	3900988
81	290
82	2244589459
83	58
84	7840013
85	2235566
86	3668377
87	248595
88	4611134
89	1026
90	180129
91	4203235
92	570019
93	2161630
94	2242744
95	15840422
96	4224077
97	51251
98	20130
99	2122237
100	10023
101	3483447
102	497692
103	34
104	53
105	30654
106	4203246
107	419
108	49
109	272
110	10
111	20
112	51224
113	29
114	19
115	228
116	3482551
117	3969933
118	20642
119	14
120	15
121	16
122	430
123	28
124	12
125	43
126	23
127	3234514
128	233
130	34
132	248467
134	56
136	46
138	80
140	66
142	61
144	65
146	31
148	31
150	2122437
152	2122454
154	36
156	33
158	14
160	95
162	11
164	19
166	10
168	24
170	72
172	56
174	57
176	29
178	18
180	4010025
182	31
184	73
186	47
188	37
190	24
192	2101639
194	31
196	22
198	30
200	44
202	27
204	32
206	14
208	24
210	23
212	20
214	25
216	26
218	39
220	3969927
222	34
224	45
226	41
228	55
230	8020050
232	38
234	42
236	32
238	34
240	37
242	32
244	37
246	53
248	44
250	56
252	78
254	97
256	177
260	225
264	192
268	120
272	86
276	2101682
280	20656
284	6092351
288	25
292	222
296	17
300	22
304	32
308	4010030
312	52
316	39
320	29
324	3969912
328	3969932
332	32
336	31
340	29
344	4010052
348	8020014
352	10
356	21
360	19
364	7979938
368	4010013
372	17
376	7979911
380	7939829
384	28
388	16040015
392	7939803
396	3969912
400	57
404	3969908
408	7979944
412	7979914
416	40114
420	15
424	3969930
428	11909729
432	32
436	12030012
440	15
444	17
448	10
452	3969918
456	45
460	4010016
464	14
468	5980264
472	7992792
476	7939851
480	24
484	12030011
488	3969906
492	4244434
496	10
500	3970131
504	219
508	4030816
512	32
520	11909718
528	15999950
536	21
544	7979930
552	4010021
560	24
568	15879619
576	16040052
584	15
592	3969917
600	5
608	4010015
616	11909709
624	7
632	13
640	7979910
648	3969916
656	13
664	12030018
672	3969908
680	4010010
688	4010008
696	18
704	4010009
712	10
720	5
728	12
736	3969908
744	13
752	14
760	8
768	10
776	4010008
784	6
792	3
800	7
808	3473867
816	6
824	4
832	3
840	5
848	10
856	9
864	15
872	6
880	8
888	4010002
896	8
904	7
912	7979905
920	4
928	1
936	6
944	4
952	12
960	4010001
968	2233579
976	4
984	9
992	11
1000	3849608
1008	4962388
1016	20
1024	25
1040	33
1056	27
1072	54
1088	24
1104	687795249
1120	1583126356
1136	93
1152	21
1168	10
1184	21
1200	18
1216	26
1232	19715
1248	191764
1264	456681
1280	602199
1296	765014
1312	522623
1328	8821092
1344	462715
1360	511751
1376	523714
1392	778394
1408	456283
1424	462720
1440	511759
1456	483618
1472	488447
1488	498893
1504	424126
1520	481660
1536	590997
1552	720830
1568	8442934
1584	406827
1600	404419
1616	399595
1632	402021
1648	402028
1664	404457
1680	399603
1696	12432008
1712	402015
1728	406820
1744	539942
1760	728818
1776	772127
1792	4918447
1808	905249
1824	796188
1840	841907
1856	46720807
1872	138096687
1888	216027649
1904	73586583
1920	2822248
1936	12488649
1952	12491926
1968	914269
1984	398996
2000	420651
2016	390978
2032	442305
2048	1012937
2080	982056
2112	845723
2144	998903
2176	1126820
2208	941963
2240	920707
2272	1138051
2304	4961584
2336	1004119
2368	1055845
2400	951580
2432	1001723
2464	1040207
2496	459286156
2528	37198367
2560	14099164
2592	14605226
2624	1602001
2656	1760797
2688	1381452
2720	1793276
2752	1488112
2784	1729115
2816	1697036
2848	1881897
2880	1810318
2912	1697447
2944	1399896
2976	1636485
3008	5048196
3040	769096
3072	947881
3104	825916
3136	42515719
3168	679624525
3200	308911348
3232	22549931
3264	19475596
3296	9539988
3328	1359901
3360	1343877
3392	1033266
3424	437169
3456	448565
3488	425928
3520	511506
3552	369492
3584	369157
3616	366734
3648	496557
3680	405925
3712	482798
3744	358967
3776	362495
3808	413933
3840	502761
3872	372751
3904	413895
3936	484830
3968	407809
4000	316233
4032	602638
4064	1256932134
4096	242439734
4160	42028836
4224	242377
4288	76881
4352	63753
4416	71256
4480	286748
4544	224666
4608	187651
4672	211534098
4736	5527304
4800	37823715
4864	2115873
4928	162194
4992	465409
5056	295196
5120	90102
5184	102597
5248	197183
5312	242323878
5376	10041754
5440	5335946
5504	6833823
5568	65351
5632	71252
5696	42505
5760	78559
5824	41454
5888	119618
5952	226966
6016	190305
6080	160304
6144	143153
6208	266917
6272	51358
6336	51881
6400	76874
6464	143949
6528	31253
6592	77506
6656	235578
6720	48748
6784	91256
6848	41875
6912	139279
6976	72066
7040	229155
7104	240546
7168	59899
7232	255015
7296	292926
7360	551105
7424	381572
7488	361596
7552	447953
7616	416032
7680	421476
7744	436489
7808	608846
7872	534115
7936	489604
8000	612635
8064	467426
8128	425933
8192	5040105
8320	942749
8448	916353
8576	851908
8704	826176
8832	702078
8960	485537
9088	269799
9216	80502
9344	475839
9472	149900
9600	10200
9728	90204
9856	303156
9984	200502
10112	20969426
10240	1064702
10368	3487301
10496	120102
10624	70202
10752	296914
10880	280602
11008	309195
11136	159511
11264	198040
11392	170053
11520	353800
11648	297543
11776	320958
11904	350498
12032	260297
12160	159597
12288	180099
12416	99899
12544	259996
12672	232059
12800	240648
12928	150857
13056	518365
13184	55695
13312	117332
13440	55691
13568	135895
13696	134238
13824	215291
13952	408913
14080	836382
14208	1104705
14336	682855
14464	719693
14592	728915
14720	1027586
14848	915813
14976	896994
15104	688817
15232	813038
15360	738194
15488	736590
15616	480290
15744	271365
15872	295086
16000	206809
16128	135883
16256	184755
16384	444553
16640	229219
16896	342699
17152	341893
17408	589657
17664	311523
17920	583459
18176	370403
18432	401158
18688	303721
18944	638394
19200	200503
19456	382962
19712	167622
19968	360102
20224	198099
20480	378946
20736	1132041
20992	1588865
21248	1736558
21504	1643206
21760	1563100
22016	1609530
22272	1421147
22528	236194
22784	383763
23040	417846
23296	178050
23552	240203
23808	654436
24064	399408
24320	222961
24576	199699
24832	423714
25088	297588
25344	662372
25600	206921
25856	401005
26112	303160
26368	417043
26624	416240
26880	599897
27136	478797
27392	239800
27648	1641696
27904	1603203
28160	1403104
28416	1644000
28672	1900066
28928	1558876
29184	1191595
29440	403166
29696	735037
29952	418647
30208	359299
30464	240202
30720	480799
30976	463561
31232	240201
31488	439499
31744	647115
32000	519298
32256	441013
32512	422653
32768	655637
33280	759894
33792	982854
34304	2428860
34816	3389315
35328	3580279
35840	2266453
36352	1257937
36864	919497
37376	1022524
37888	635987
38400	1078190
38912	1286721
39424	959994
39936	958390
40448	870972
40960	1840590
41472	3500331
41984	3549951
42496	3114882
43008	931924
43520	1087913
44032	858139
44544	1574327
45056	880997
45568	1593751
46080	1204214
46592	967213
47104	920295
47616	1384654
48128	3264139
48640	3670252
49152	3401595
49664	1848410
50176	1097537
50688	1095934
51200	1038590
51712	1302849
52224	1120697
52736	1590280
53248	1576740
53760	1270742
54272	1158892
54784	2917274
55296	3677172
55808	3610652
56320	2381302
56832	1343750
57344	1377036
57856	1040995
58368	1229467
58880	1364069
59392	1411062
59904	1262748
60416	1200595
60928	1518586
61440	2411614
61952	3832732
62464	4102129
62976	3131320
63488	1283200
64000	1535830
64512	1167712
65024	1161296
65536	3255619
66560	3004605
67584	2849105
68608	8249650
69632	5500454
70656	3440981
71680	2760083
72704	3008513
73728	3197977
74752	5235856
75776	7882356
76800	4090513
77824	3430529
78848	3310255
79872	3336531
80896	3302235
81920	7112939
82944	7671742
83968	3440179
84992	3246898
86016	3907172
87040	3424897
88064	3916166
89088	8936687
90112	5556868
91136	3515567
92160	3885690
93184	3822945
94208	3805406
95232	6173853
96256	8410874
97280	26787913
98304	39484465
99328	30184473
100352	35308661
101376	33289419
102400	14989668
103424	13354401
104448	10697477
105472	11461382
106496	11342986
107520	11139290
108544	12514408
109568	16451025
110592	13510189
111616	11351997
112640	11277724
113664	11522545
114688	11028703
115712	14018158
116736	16098846
117760	11401945
118784	11320512
119808	11415360
120832	10908213
121856	11251258
122880	15666669
123904	14560121
124928	11390332
125952	11185874
126976	11676091
128000	11546383
129024	12129432
130048	15944143
131072	24159224
133120	23052470
135168	25064448
137216	27183172
139264	21826400
141312	22249261
143360	29837761
145408	21502388
147456	22166662
149504	27726419
151552	23281961
153600	21711676
155648	24566582
157696	25603376
159744	22167373
161792	23240687
163840	28336997
165888	21709053
167936	18343248
169984	29034526
172032	18864176
174080	17422151
176128	20615524
178176	21929820
180224	507181359
182272	16839806
184320	23446098
186368	16626117
188416	16408308
190464	23994585
192512	18606319
194560	17348434
196608	20650312
198656	21069037
200704	16742895
202752	18094212
204800	23906779
206848	16955484
208896	17019195
210944	24200405
212992	17283783
215040	16314677
217088	23574744
219136	23225782
221184	17560294
223232	21839234
225280	24297740
227328	21131478
229376	16038685
231424	25406626
233472	16602883
235520	21578552
237568	21024919
239616	24799737
241664	16257800
243712	23135171
245760	22930540
247808	20998251
249856	17097619
251904	28357267
253952	17323895
256000	19439355
258048	23533751
260096	21455786
262144	43445477
266240	43494113
270336	44555480
274432	37704040
278528	45336446
282624	39095028
286720	42856028
290816	44575992
294912	36967751
299008	44324240
303104	33370904
307200	24291710
311296	25109380
315392	17723740
319488	25357878
323584	23496148
327680	29851665
331776	31725869
335872	21116220
339968	28504844
344064	22651925
348160	25822768
352256	30087930
356352	22899226
360448	57916021
364544	237219597
368640	27522251
372736	29638806
376832	21649538
380928	31153135
385024	26171285
389120	26406288
393216	33418540
397312	29453861
401408	36987936
405504	33006335
409600	33643293
413696	29370105
417792	19721941
421888	27047505
425984	20636726
430080	23157805
434176	27489723
438272	19087849
442368	26403014
446464	24524411
450560	23855460
454656	25578719
458752	20271734
462848	28218968
466944	22272373
471040	27644982
475136	35426724
479232	25781527
483328	35115661
487424	32610159
491520	30085634
495616	33684015
499712	34349637
503808	46698522
507904	37431378
512000	38102687
516096	43354849
520192	33609777
524288	85041510
532480	67594923
540672	560955500
548864	43293563
557056	41647988
565248	49947483
573440	43590333
581632	41542733
589824	40843180
598016	40730497
606208	50152106
614400	42917551
622592	41806379
630784	44158672
638976	42089174
647168	40520776
655360	32332754
663552	31811573
671744	33944775
679936	33073402
688128	27026020
696320	24719384
704512	26428432
712704	31499479
720896	24229460
729088	24585031
737280	25763977
745472	13804461
753664	9522671
761856	7100232
770048	6981936
778240	9694026
786432	6902541
794624	9274454
802816	7581141
811008	6901335
819200	9603677
827392	4345821
835584	4294386
843776	3907422
851968	2611390
860160	5431221
868352	2731689
876544	3372303
884736	4760065
892928	2613707
901120	5357096
909312	2619812
917504	2690788
925696	5193832
933888	2651492
942080	4663305
950272	3259807
958464	2651489
966656	5801745
974848	2690787
983040	3774693
991232	4109626
999424	2624624
1007616	5272425
1015808	69852
1024000	29764
1032192	29823
1040384	30626
1048576	60852
1064960	418540
1081344	25451575
1097728	73283
1114112	60446
1130496	5206485
1146880	60051
1163264	29898
1179648	245260
1196032	7368
1212416	151
1228800	153
1245184	150
1261568	147
1277952	7160409
1294336	12985
1310720	148
1327104	151
1343488	2959
1359872	152
1376256	12984
1392640	3555415
1409024	551
1425408	156
1441792	554
1458176	13382
1474560	13385
1490944	3361
1507328	554
1523712	552
1540096	550
1556480	13386
1572864	12988
1589248	151
1605632	13784
1622016	550
1638400	558
1654784	3361
1671168	13383
1687552	558
1703936	552
1720320	12985
1736704	155
1753088	553
1769472	27006
1785856	79
1802240	408
1818624	3216
1835008	412
1851392	412
1867776	22868
1884160	3219
1900544	10
1916928	813
1933312	13244
1949696	412
1966080	16051
1982464	14
1998848	412
2015232	410
2031616	13648
2048000	33
2064384	12850
2080768	814
2097152	14158
2129920	7339
2162688	9653
2195456	26086
2228224	13665
2260992	13657
2293760	16472
2326528	13655
2359296	12857
2392064	13660
2424832	29303
2457600	826
2490368	13264
2523136	26096
2555904	825
2588672	29706
2621440	13660
2654208	958
2686976	25715
2719744	16897
2752512	16078
2785280	13689
2818048	13688
2850816	13683
2883584	17697
2916352	30184
2949120	13686
2981888	13287
3014656	26517
3047424	6937
3080192	28522
3112960	26520
3145728	10879
3178496	16555
3211264	17296
3244032	30535
3276800	13691
3309568	13350
3342336	26923
3375104	7676
3407872	27360
3440640	26551
3473408	853
3506176	29326
3538944	16977
3571712	14520
3604480	39350
3637248	13280
3670016	17024
3702784	37738
3735552	18901
3768320	13680
3801088	26647
3833856	29730
3866624	17291
3899392	26920
3932160	26646
3964928	4862
3997696	38544
4030464	30561
4063232	9776
4096000	31332
4128768	28928
4161536	28637
4194304	33869
4259840	57138
4325376	73542
4390912	29100
4456448	51035
4521984	80834
4587520	35115
4653056	58507
4718592	57170
4784128	48874
4849664	54368
4915200	61320
4980736	1394611
5046272	1805019
5111808	1678468
5177344	1473403
5242880	1503155
5308416	1482419
5373952	1475944
5439488	1513004
5505024	1485244
5570560	1480945
5636096	1508910
5701632	1493260
5767168	1488456
5832704	1515436
5898240	1490459
5963776	1492176
6029312	1513350
6094848	1484931
6160384	1515354
6225920	1489639
6291456	1487415
6356992	1530981
6422528	1485363
6488064	1505698
6553600	1526679
6619136	1490461
6684672	1502070
6750208	1527348
6815744	1488966
6881280	1504089
6946816	1528684
7012352	1491675
7077888	1528675
7143424	1519993
7208960	1489764
7274496	1544599
7340032	1503415
7405568	1494065
7471104	2616197
7536640	3474913
7602176	4132234
7667712	4891934
7733248	4872128
7798784	4881198
7864320	4906129
7929856	4882379
7995392	4853448
8060928	4869196
8126464	4870410
8192000	4905743
8257536	4883175
8323072	4876095
8388608	9783432
8519680	9805408
8650752	9760956
8781824	9731942
8912896	9805398
9043968	9792992
9175040	9792182
9306112	9818185
9437184	9816603
9568256	9708881
9699328	9834483
9830400	10056650
9961472	12101868
10092544	11816325
10223616	11330636
10354688	13696509
10485760	11477719
10616832	10261411
10747904	10058141
10878976	10902209
11010048	10481165
11141120	10188957
11272192	10310892
11403264	10266041
11534336	10072371
11665408	10701302
11796480	10715349
11927552	11271034
12058624	10068676
12189696	10059989
12320768	9794052
12451840	10132177
12582912	10401156
12713984	10512766
12845056	11398327
12976128	10771493
13107200	10695234
13238272	10041697
13369344	9877158
13500416	9835580
13631488	8361312
13762560	7954873
13893632	8706683
14024704	7788330
14155776	7313637
14286848	8053458
14417920	7739912
14548992	7075653
14680064	7043370
14811136	8604150
14942208	7316433
15073280	7609237
15204352	7798491
15335424	7789680
15466496	7234475
15597568	7831525
15728640	8581805
15859712	8024379
15990784	2355693
16121856	2082569
16252928	2165928
16384000	3101065
16515072	2253623
16646144	2052666
16777216	5892636
17039360	4938475
17301504	4851706
17563648	7631473
17825792	5118217
18087936	4911710
18350080	3389178
18612224	4525631
18874368	3948320
19136512	4261561
19398656	4339236
19660800	4798600
19922944	3770336
20185088	3339096
20447232	5302864
20709376	5413824
20971520	5134558
21233664	19944051
21495808	30325581
21757952	30289670
22020096	28817808
22282240	29009725
22544384	31191858
22806528	28754819
23068672	29217244
23330816	29930118
23592960	19112355
23855104	14570962
24117248	13587192
24379392	7376055
24641536	5008385
24903680	4078197
25165824	3264387
25427968	6828676
25690112	4878025
25952256	5039841
26214400	4630861
26476544	4805702
26738688	5172278
27000832	4313611
27262976	6734489
27525120	4029428
27787264	4529050
28049408	5257971
28311552	5137667
28573696	5191146
28835840	4565529
29097984	4428565
29360128	5556956
29622272	4655270
29884416	6478203
30146560	4627940
30408704	3781635
30670848	4954917
30932992	5455887
31195136	6371806
31457280	3602247
31719424	4884276
31981568	4533761
32243712	5752206
32505856	5742572
32768000	4132202
33030144	5150349
33292288	4744003
33554432	10309285
34078720	10236199
34603008	9118772
35127296	11245288
35651584	8775727
36175872	11339008
36700160	9383199
37224448	9511488
37748736	12056899
38273024	8373581
38797312	14972486
39321600	9485307
39845888	13149066
40370176	10539396
40894464	12970819
41418752	12025570
41943040	11167973
42467328	12435649
42991616	11453771
43515904	12092267
44040192	12139692
44564480	11164692
45088768	12411814
45613056	11274474
46137344	11927031
46661632	12115785
47185920	10617713
47710208	13307995
48234496	11057077
48758784	12348926
49283072	12623758
49807360	10221784
50331648	12951280
50855936	10803708
51380224	13478365
51904512	10657315
52428800	11419469
52953088	11280583
53477376	16601231
54001664	18637029
54525952	20934166
55050240	17677305
55574528	19030244
56098816	18660974
56623104	18220747
57147392	18988191
57671680	17935433
58195968	20587426
58720256	17463520
59244544	19503434
59768832	17693975
60293120	18975383
60817408	17787556
61341696	20085845
61865984	18333031
62390272	19339787
62914560	18658582
63438848	18250131
63963136	18762395
64487424	17856500
65011712	20807584
65536000	15990683
66060288	21037448
66584576	16766372
67108864	38767413
68157440	39125944
69206016	36193056
70254592	36661631
71303168	37453230
72351744	37446437
73400320	31903915
74448896	26193524
75497472	26035212
76546048	22315715
77594624	21992786
78643200	24158142
79691776	21339308
80740352	23554815
81788928	23189270
82837504	22326583
83886080	23572309
84934656	21365487
85983232	22539360
87031808	22287896
88080384	23434646
89128960	23959261
90177536	20700606
91226112	22895748
92274688	22465096
93323264	23998646
94371840	23254016
95420416	22443802
96468992	23021922
97517568	21755274
98566144	22504507
99614720	23593528
100663296	21517052
101711872	23955128
102760448	21702461
103809024	22341859
104857600	23462310
105906176	21437451
106954752	19324787
108003328	18267545
109051904	18942949
110100480	20123418
111149056	17929226
112197632	19593175
113246208	18329168
114294784	18895100
115343360	19643518
116391936	19631399
117440512	15296981
118489088	9241982
119537664	9320956
120586240	10036088
121634816	9848789
122683392	8877632
123731968	9162514
124780544	9556250
125829120	10007664
126877696	10083287
127926272	8563864
128974848	6614645
130023424	6358646
131072000	7148743
132120576	6908882
133169152	6238015
134217728	13622470
136314880	14411479
138412032	12143432
140509184	8568709
142606336	8870476
144703488	7429059
146800640	6653242
148897792	4986516
150994944	2603796
153092096	2002307
155189248	1867921
157286400	1906263
159383552	1736684
161480704	1765680
163577856	1711580
165675008	2193909
167772160	1517039
169869312	2369780
171966464	1826958
174063616	1799420
176160768	1621853
178257920	2101960
180355072	1349057
182452224	1872862
184549376	1622885
186646528	1788253
188743680	1372763
190840832	1985925
192937984	1522762
195035136	1536501
197132288	1644344
199229440	1982524
201326592	1107720
203423744	1789357
205520896	1436050
207618048	1236935
209715200	1387244
211812352	1916811
213909504	1105667
216006656	4349971
218103808	1347861
220200960	1381915
222298112	1103510
224395264	1573140
226492416	1225351
228589568	1163583
230686720	1314774
232783872	1517940
234881024	825873
236978176	1488813
239075328	1299739
241172480	976181
243269632	1250037
245366784	1442101
247463936	891918
249561088	1265569
251658240	1227890
253755392	1119172
255852544	3565913
257949696	829134
260046848	708859
262144000	526728
264241152	690340
266338304	777320
268435456	1350555
272629760	1505098
276824064	1871164
281018368	1798105
285212672	2039231
289406976	1251477
293601280	26833905
297795584	1005088
301989888	980470
306184192	1004038
310378496	1006515
314572800	1457628
318767104	2102234
322961408	2145760
327155712	2164180
331350016	5749718
335544320	2165243
339738624	2171036
343932928	1889004
348127232	2126197
352321536	1843363
356515840	2090304
360710144	2113569
364904448	1860699
369098752	2100857
373293056	1938651
377487360	2032419
381681664	2102518
385875968	1848269
390070272	2119784
394264576	2104055
398458880	1842928
402653184	2119508
406847488	964488
411041792	552220
415236096	385456
419430400	26024789
423624704	123395
427819008	146089
432013312	148026
436207616	139651
440401920	35924755
444596224	92401361
448790528	328102
452984832	419110
457179136	416296
461373440	174033
465567744	130853
469762048	130762
473956352	129233
478150656	118414
482344960	4698110
486539264	2815280
490733568	2803817
494927872	2802867
499122176	2785649
503316480	2814941
507510784	2784374
511705088	2786760
515899392	2793003
520093696	4681715
524288000	113912
528482304	97163
532676608	93880
536870912	739478
545259520	655801
553648128	1668345
562036736	804605
570425344	804044
578813952	845018
587202560	828682
595591168	463413
603979776	206008
612368384	205602
620756992	202190
629145600	193339
637534208	190289
645922816	191268
654311424	190850
662700032	190846
671088640	191261
679477248	190877
687865856	165581
696254464	97564
704643072	17242
713031680	8271
721420288	266
729808896	998
738197504	133904874
746586112	694
754974720	711
763363328	711
771751936	658
780140544	664
788529152	703
796917760	651
805306368	722
813694976	626
822083584	758
830472192	678
838860800	336071
847249408	532
855638016	388
864026624	9665
872415232	0
880803840	2
889192448	1
897581056	0
905969664	1
914358272	0
922746880	2
931135488	0
939524096	1
947912704	0
956301312	1
964689920	39
973078528	0
981467136	190
989855744	0
998244352	0
1006632960	0
1015021568	9527
1023410176	13317
1031798784	13320
1040187392	13317
1048576000	13318
1056964608	6808
1065353216	0
1073741824	1412
1090519040	1391
1107296256	1438
1124073472	913
1140850688	21
1157627904	6
1174405120	0
1191182336	13067
1207959552	2
1224736768	0
1241513984	0
1258291200	0
1275068416	335407
1291845632	0
1308622848	0
1325400064	0
1342177280	0
1358954496	0
1375731712	0
1392508928	0
1409286144	0
1426063360	0
1442840576	0
1459617792	0
1476395008	0
1493172224	51
1509949440	0
1526726656	0
1543503872	0
1560281088	0
1577058304	0
1593835520	0
1610612736	0
1627389952	0
1644167168	0
1660944384	0
1677721600	0
1694498816	0
1711276032	0
1728053248	0
1744830464	0
1761607680	0
1778384896	0
1795162112	0
1811939328	0
1828716544	0
1845493760	0
1862270976	0
1879048192	0
1895825408	0
1912602624	0
1929379840	0
1946157056	0
1962934272	0
1979711488	0
1996488704	0
2013265920	0
2030043136	0
2046820352	0
2063597568	0
2080374784	0
2097152000	0
2113929216	0
2130706432	0
2147483648	0
2181038080	0
2214592512	0
2248146944	0
2281701376	0
2315255808	0
2348810240	0
2382364672	0
2415919104	0
2449473536	47
2483027968	0
2516582400	0
2550136832	0
2583691264	0
2617245696	0
2650800128	0
2684354560	0
2717908992	0
2751463424	0
2785017856	0
2818572288	0
2852126720	0
2885681152	0
2919235584	0
2952790016	0
2986344448	0
3019898880	0
3053453312	0
3087007744	0
3120562176	0
3154116608	0
3187671040	0
3221225472	0
3254779904	0
3288334336	0
3321888768	0
3355443200	0
3388997632	0
3422552064	0
3456106496	0
3489660928	0
3523215360	0
3556769792	0
3590324224	0
3623878656	0
3657433088	0
3690987520	0
3724541952	0
3758096384	0
3791650816	0
3825205248	0
3858759680	0
3892314112	0
3925868544	0
3959422976	0
3992977408	0
4026531840	0
4060086272	0
4093640704	0
4127195136	0
4160749568	0
4194304000	0
4227858432	0
4261412864	0
4294967296	0
4362076160	0
4429185024	0
4496293888	0
4563402752	0
4630511616	0
4697620480	0
4764729344	0
4831838208	0
4898947072	0
4966055936	0
5033164800	0
5100273664	0
5167382528	0
5234491392	0
5301600256	0
5368709120	0
5435817984	0
5502926848	0
5570035712	0
5637144576	0
5704253440	0
5771362304	0
5838471168	0
5905580032	0
5972688896	0
6039797760	0
6106906624	0
6174015488	0
6241124352	0
6308233216	0
6375342080	0
6442450944	0
6509559808	0
6576668672	0
6643777536	0
6710886400	0
6777995264	0
6845104128	0
6912212992	0
6979321856	0
7046430720	0
7113539584	0
7180648448	0
7247757312	0
7314866176	0
7381975040	0
7449083904	0
7516192768	0
7583301632	0
7650410496	0
7717519360	0
7784628224	0
7851737088	0
7918845952	0
7985954816	0
8053063680	0
8120172544	0
8187281408	0
8254390272	0
8321499136	0
8388608000	0
8455716864	0
8522825728	0
8589934592	0
8724152320	0
8858370048	0
8992587776	0
9126805504	0
9261023232	0
9395240960	0
9529458688	0
9663676416	0
9797894144	0
9932111872	0
10066329600	0
10200547328	0
10334765056	0
10468982784	0
10603200512	0
10737418240	0
10871635968	0
11005853696	0
11140071424	0
11274289152	0
11408506880	0
11542724608	0
11676942336	0
11811160064	0
11945377792	0
12079595520	0
12213813248	0
12348030976	0
12482248704	0
12616466432	0
12750684160	0
12884901888	0
13019119616	0
13153337344	0
13287555072	0
13421772800	0
13555990528	0
13690208256	0
13824425984	0
13958643712	24
14092861440	0
14227079168	0
14361296896	0
14495514624	0
14629732352	0
14763950080	456
14898167808	0
15032385536	0
15166603264	0
15300820992	0
15435038720	0
15569256448	0
15703474176	0
15837691904	0
15971909632	0
16106127360	0
16240345088	0
16374562816	0
16508780544	0
16642998272	0
16777216000	0
16911433728	0
17045651456	0
17179869184	0
17448304640	0
17716740096	0
17985175552	0
18253611008	0
18522046464	0
18790481920	0
19058917376	0
19327352832	0
19595788288	0
19864223744	0
20132659200	0
20401094656	0
20669530112	0
20937965568	0
21206401024	0
21474836480	0
21743271936	0
22011707392	0
22280142848	0
22548578304	0
22817013760	0
23085449216	0
23353884672	0
23622320128	0
23890755584	0
24159191040	0
24427626496	0
24696061952	0
24964497408	0
25232932864	0
25501368320	0
25769803776	0
26038239232	0
26306674688	0
26575110144	0
26843545600	0
27111981056	0
27380416512	0
27648851968	0
27917287424	0
28185722880	0
28454158336	0
28722593792	0
28991029248	0
29259464704	0
29527900160	0
29796335616	0
30064771072	0
30333206528	0
30601641984	0
30870077440	0
31138512896	0
31406948352	0
31675383808	0
31943819264	0
32212254720	0
32480690176	0
32749125632	0
33017561088	0
33285996544	0
33554432000	0
33822867456	0
34091302912	0
34359738368	0
34896609280	0
35433480192	0
35970351104	0
36507222016	0
37044092928	0
37580963840	0
38117834752	0
38654705664	0
39191576576	0
39728447488	0
40265318400	0
40802189312	0
41339060224	0
41875931136	0
42412802048	0
42949672960	0
43486543872	0
44023414784	0
44560285696	0
45097156608	0
45634027520	0
46170898432	0
46707769344	0
47244640256	0
47781511168	0
48318382080	0
48855252992	0
49392123904	0
49928994816	0
50465865728	0
51002736640	0
51539607552	0
52076478464	0
52613349376	0
53150220288	0
53687091200	0
54223962112	0
54760833024	0
55297703936	0
55834574848	0
56371445760	0
56908316672	0
57445187584	0
57982058496	0
58518929408	0
59055800320	0
59592671232	0
60129542144	0
60666413056	0
61203283968	0
61740154880	0
62277025792	0
62813896704	0
63350767616	0
63887638528	0
64424509440	0
64961380352	0
65498251264	0
66035122176	0
66571993088	0
67108864000	0
67645734912	0
68182605824	0
68719476736	0
69793218560	0
70866960384	0
71940702208	0
73014444032	0
74088185856	0
75161927680	0
76235669504	0
77309411328	0
78383153152	0
79456894976	0
80530636800	0
81604378624	0
82678120448	0
83751862272	0
84825604096	0
85899345920	0
86973087744	0
88046829568	0
89120571392	0
90194313216	0
91268055040	0
92341796864	0
93415538688	0
94489280512	0
95563022336	0
96636764160	0
97710505984	0
98784247808	0
99857989632	0
100931731456	0
102005473280	0
103079215104	0
104152956928	0
105226698752	0
106300440576	0
107374182400	0
108447924224	0
109521666048	0
110595407872	0
111669149696	0
112742891520	0
113816633344	0
114890375168	0
115964116992	0
117037858816	0
118111600640	0
119185342464	0
120259084288	0
121332826112	0
122406567936	0
123480309760	0
124554051584	0
125627793408	0
126701535232	0
127775277056	0
128849018880	0
129922760704	0
130996502528	0
132070244352	0
133143986176	0
134217728000	0
135291469824	0
136365211648	0
137438953472	0
139586437120	0
141733920768	0
143881404416	0
146028888064	0
148176371712	0
150323855360	0
152471339008	0
154618822656	0
156766306304	0
158913789952	0
161061273600	0
163208757248	0
165356240896	0
167503724544	0
169651208192	0
171798691840	0
173946175488	0
176093659136	0
178241142784	0
180388626432	0
182536110080	0
184683593728	0
186831077376	0
188978561024	0
191126044672	0
193273528320	0
195421011968	0
197568495616	0
199715979264	0
201863462912	0
204010946560	0
206158430208	0
208305913856	0
210453397504	0
212600881152	0
214748364800	0
216895848448	0
219043332096	0
221190815744	0
223338299392	0
225485783040	0
227633266688	0
229780750336	0
231928233984	0
234075717632	0
236223201280	0
238370684928	0
240518168576	0
242665652224	0
244813135872	0
246960619520	0
249108103168	0
251255586816	0
253403070464	0
255550554112	0
257698037760	0
259845521408	0
261993005056	0
264140488704	0
266287972352	0
268435456000	0
270582939648	0
272730423296	0
274877906944	0
279172874240	0
283467841536	0
287762808832	0
292057776128	0
296352743424	79
300647710720	0
304942678016	0
309237645312	0
313532612608	0
317827579904	0
322122547200	0
326417514496	0
330712481792	0
335007449088	0
339302416384	0
343597383680	0
347892350976	0
352187318272	0
356482285568	0
360777252864	0
365072220160	0
369367187456	0
373662154752	0
377957122048	0
382252089344	0
386547056640	0
390842023936	0
395136991232	0
399431958528	0
403726925824	0
408021893120	0
412316860416	0
416611827712	0
420906795008	0
425201762304	0
429496729600	0
433791696896	0
438086664192	0
442381631488	0
446676598784	0
450971566080	0
455266533376	0
459561500672	0
463856467968	0
468151435264	0
472446402560	0
476741369856	0
481036337152	0
485331304448	0
489626271744	0
493921239040	0
498216206336	0
502511173632	0
506806140928	0
511101108224	0
515396075520	0
519691042816	0
523986010112	0
528280977408	0
532575944704	0
536870912000	0
541165879296	0
545460846592	0
549755813888	0
558345748480	0
566935683072	0
575525617664	0
584115552256	0
592705486848	0
601295421440	0
609885356032	0
618475290624	0
627065225216	0
635655159808	0
644245094400	0
652835028992	0
661424963584	0
670014898176	0
678604832768	0
687194767360	0
695784701952	0
704374636544	0
712964571136	0
721554505728	0
730144440320	0
738734374912	0
747324309504	0
755914244096	0
764504178688	0
773094113280	0
781684047872	0
790273982464	0
798863917056	0
807453851648	0
816043786240	0
824633720832	0
833223655424	0
841813590016	0
850403524608	0
858993459200	0
867583393792	0
876173328384	0
884763262976	0
893353197568	0
901943132160	0
910533066752	0
919123001344	0
927712935936	0
936302870528	0
944892805120	0
953482739712	0
962072674304	0
970662608896	0
979252543488	0
987842478080	0
996432412672	0
1005022347264	0
1013612281856	0
1022202216448	0
1030792151040	0
1039382085632	0
1047972020224	0
1056561954816	0
1065151889408	0
1073741824000	0
1082331758592	0
1090921693184	0
1099511627776	0
1116691496960	0
1133871366144	0
1151051235328	0
1168231104512	0
1185410973696	0
1202590842880	0
1219770712064	0
1236950581248	0
1254130450432	0
1271310319616	0
1288490188800	0
1305670057984	0
1322849927168	0
1340029796352	0
1357209665536	0
1374389534720	0
1391569403904	0
1408749273088	0
1425929142272	0
1443109011456	0
1460288880640	0
1477468749824	0
1494648619008	0
1511828488192	0
1529008357376	0
1546188226560	0
1563368095744	0
1580547964928	0
1597727834112	0
1614907703296	0
1632087572480	0
1649267441664	0
1666447310848	0
1683627180032	0
1700807049216	0
1717986918400	0
1735166787584	0
1752346656768	0
1769526525952	0
1786706395136	0
1803886264320	0
1821066133504	0
1838246002688	0
1855425871872	0
1872605741056	0
1889785610240	0
1906965479424	0
1924145348608	0
1941325217792	0
1958505086976	0
1975684956160	0
1992864825344	0
2010044694528	0
2027224563712	0
2044404432896	0
2061584302080	0
2078764171264	0
2095944040448	0
2113123909632	0
2130303778816	0
2147483648000	0
2164663517184	0
2181843386368	0
2199023255552	0
2233382993920	0
2267742732288	0
2302102470656	0
2336462209024	0
2370821947392	0
2405181685760	0
2439541424128	0
2473901162496	0
2508260900864	0
2542620639232	0
2576980377600	0
2611340115968	0
2645699854336	0
2680059592704	0
2714419331072	0
2748779069440	0
2783138807808	0
2817498546176	0
2851858284544	0
2886218022912	0
2920577761280	0
2954937499648	0
2989297238016	0
3023656976384	0
3058016714752	0
3092376453120	0
3126736191488	0
3161095929856	0
3195455668224	0
3229815406592	0
3264175144960	0
3298534883328	0
3332894621696	0
3367254360064	0
3401614098432	0
3435973836800	0
3470333575168	0
3504693313536	0
3539053051904	0
3573412790272	0
3607772528640	0
3642132267008	0
3676492005376	0
3710851743744	0
3745211482112	0
3779571220480	0
3813930958848	0
3848290697216	0
3882650435584	0
3917010173952	0
3951369912320	0
3985729650688	0
4020089389056	0
4054449127424	0
4088808865792	0
4123168604160	0
4157528342528	0
4191888080896	0
4226247819264	0
4260607557632	0
4294967296000	0
4329327034368	0
4363686772736	0
4398046511104	0
4466765987840	0
4535485464576	0
4604204941312	0
4672924418048	0
4741643894784	0
4810363371520	0
4879082848256	0
4947802324992	0
5016521801728	0
5085241278464	0
5153960755200	0
5222680231936	0
5291399708672	0
5360119185408	0
5428838662144	0
5497558138880	0
5566277615616	0
5634997092352	0
5703716569088	0
5772436045824	0
5841155522560	0
5909874999296	0
5978594476032	0
6047313952768	0
6116033429504	0
6184752906240	0
6253472382976	0
6322191859712	0
6390911336448	0
6459630813184	0
6528350289920	0
6597069766656	0
6665789243392	0
6734508720128	0
6803228196864	0
6871947673600	0
6940667150336	0
7009386627072	0
7078106103808	0
7146825580544	0
7215545057280	0
7284264534016	0
7352984010752	0
7421703487488	0
7490422964224	0
7559142440960	0
7627861917696	0
7696581394432	0
7765300871168	0
7834020347904	0
7902739824640	0
7971459301376	0
8040178778112	0
8108898254848	0
8177617731584	0
8246337208320	0
8315056685056	0
8383776161792	0
8452495638528	0
8521215115264	0
8589934592000	0
8658654068736	0
8727373545472	0
8796093022208	0
8933531975680	0
9070970929152	0
9208409882624	0
9345848836096	0
9483287789568	0
9620726743040	0
9758165696512	0
9895604649984	0
10033043603456	0
10170482556928	0
10307921510400	0
10445360463872	0
10582799417344	0
10720238370816	0
10857677324288	0
10995116277760	0
11132555231232	0
11269994184704	0
11407433138176	0
11544872091648	0
11682311045120	0
11819749998592	0
11957188952064	0
12094627905536	0
12232066859008	0
12369505812480	0
12506944765952	0
12644383719424	0
12781822672896	0
12919261626368	0
13056700579840	0
13194139533312	0
13331578486784	0
13469017440256	0
13606456393728	0
13743895347200	0
13881334300672	0
14018773254144	0
14156212207616	0
14293651161088	0
14431090114560	0
14568529068032	0
14705968021504	0
14843406974976	0
14980845928448	0
15118284881920	0
15255723835392	0
15393162788864	0
15530601742336	0
15668040695808	0
15805479649280	0
15942918602752	0
16080357556224	0
16217796509696	0
16355235463168	0
16492674416640	0
16630113370112	0
16767552323584	0
16904991277056	0
17042430230528	0
17179869184000	0
17317308137472	0
17454747090944	0
17592186044416	0
17867063951360	0
18141941858304	0
18416819765248	0
18691697672192	0
18966575579136	0
19241453486080	0
19516331393024	0
19791209299968	0
20066087206912	0
20340965113856	0
20615843020800	0
20890720927744	0
21165598834688	0
21440476741632	0
21715354648576	0
21990232555520	0
22265110462464	0
22539988369408	0
22814866276352	0
23089744183296	0
23364622090240	0
23639499997184	0
23914377904128	0
24189255811072	0
24464133718016	0
24739011624960	0
25013889531904	0
25288767438848	0
25563645345792	0
25838523252736	0
26113401159680	0
26388279066624	0
26663156973568	0
26938034880512	0
27212912787456	0
27487790694400	0
27762668601344	0
28037546508288	0
28312424415232	0
28587302322176	0
28862180229120	0
29137058136064	0
29411936043008	0
29686813949952	0
29961691856896	0
30236569763840	0
30511447670784	0
30786325577728	0
31061203484672	0
31336081391616	0
31610959298560	0
31885837205504	0
32160715112448	0
32435593019392	0
32710470926336	0
32985348833280	0
33260226740224	0
33535104647168	0
33809982554112	0
34084860461056	0
34359738368000	0
34634616274944	0
34909494181888	0
35184372088832	0
35734127902720	0
36283883716608	0
36833639530496	0
37383395344384	0
37933151158272	0
38482906972160	0
39032662786048	0
39582418599936	0
40132174413824	0
40681930227712	0
41231686041600	0
41781441855488	0
42331197669376	0
42880953483264	0
43430709297152	0
43980465111040	0
44530220924928	0
45079976738816	0
45629732552704	0
46179488366592	0
46729244180480	0
47278999994368	0
47828755808256	0
48378511622144	0
48928267436032	0
49478023249920	0
50027779063808	0
50577534877696	0
51127290691584	0
51677046505472	0
52226802319360	0
52776558133248	0
53326313947136	0
53876069761024	0
54425825574912	0
54975581388800	0
55525337202688	0
56075093016576	0
56624848830464	0
57174604644352	0
57724360458240	0
58274116272128	0
58823872086016	0
59373627899904	0
59923383713792	0
60473139527680	0
61022895341568	0
61572651155456	0
62122406969344	0
62672162783232	0
63221918597120	0
63771674411008	0
64321430224896	0
64871186038784	0
65420941852672	0
65970697666560	0
66520453480448	0
67070209294336	0
67619965108224	0
68169720922112	0
68719476736000	0
69269232549888	0
69818988363776	0
70368744177664	0
71468255805440	0
72567767433216	0
73667279060992	0
74766790688768	0
75866302316544	0
76965813944320	0
78065325572096	0
79164837199872	0
80264348827648	0
81363860455424	0
82463372083200	0
83562883710976	0
84662395338752	0
85761906966528	0
86861418594304	0
87960930222080	0
89060441849856	0
90159953477632	0
91259465105408	0
92358976733184	0
93458488360960	0
94557999988736	0
95657511616512	0
96757023244288	0
97856534872064	0
98956046499840	0
100055558127616	0
101155069755392	0
102254581383168	0
103354093010944	0
104453604638720	0
105553116266496	0
106652627894272	0
107752139522048	0
108851651149824	0
109951162777600	0
111050674405376	0
112150186033152	0
113249697660928	0
114349209288704	0
115448720916480	0
116548232544256	0
117647744172032	0
118747255799808	0
119846767427584	0
120946279055360	0
122045790683136	0
123145302310912	0
124244813938688	0
125344325566464	0
126443837194240	0
127543348822016	0
128642860449792	0
129742372077568	0
130841883705344	0
131941395333120	0
133040906960896	0
134140418588672	0
135239930216448	0
136339441844224	0
137438953472000	0
138538465099776	0
139637976727552	0
140737488355328	0
142936511610880	0
145135534866432	0
147334558121984	0
149533581377536	0
151732604633088	0
153931627888640	0
156130651144192	0
158329674399744	0
160528697655296	0
162727720910848	0
164926744166400	0
167125767421952	0
169324790677504	0
171523813933056	0
173722837188608	0
175921860444160	0
178120883699712	0
180319906955264	0
182518930210816	0
184717953466368	0
186916976721920	0
189115999977472	0
191315023233024	0
193514046488576	0
195713069744128	0
197912092999680	0
200111116255232	0
202310139510784	0
204509162766336	0
206708186021888	0
208907209277440	0
211106232532992	0
213305255788544	0
215504279044096	0
217703302299648	0
219902325555200	0
222101348810752	0
224300372066304	0
226499395321856	0
228698418577408	0
230897441832960	0
233096465088512	0
235295488344064	0
237494511599616	0
239693534855168	0
241892558110720	0
244091581366272	0
246290604621824	0
248489627877376	0
250688651132928	0
252887674388480	0
255086697644032	0
257285720899584	0
259484744155136	0
261683767410688	0
263882790666240	0
266081813921792	0
268280837177344	0
270479860432896	0
272678883688448	0
274877906944000	0
277076930199552	0
279275953455104	0
281474976710656	0
285873023221760	0
290271069732864	0
294669116243968	0
299067162755072	0
303465209266176	0
307863255777280	0
312261302288384	0
316659348799488	0
321057395310592	0
325455441821696	0
329853488332800	0
334251534843904	0
338649581355008	0
343047627866112	0
347445674377216	0
351843720888320	0
356241767399424	0
360639813910528	0
365037860421632	0
369435906932736	0
373833953443840	0
378231999954944	0
382630046466048	0
387028092977152	0
391426139488256	0
395824185999360	0
400222232510464	0
404620279021568	0
409018325532672	0
413416372043776	0
417814418554880	0
422212465065984	0
426610511577088	0
431008558088192	0
435406604599296	0
439804651110400	0
444202697621504	0
448600744132608	0
452998790643712	0
457396837154816	0
461794883665920	0
466192930177024	0
470590976688128	0
474989023199232	0
479387069710336	0
483785116221440	0
488183162732544	0
492581209243648	0
496979255754752	0
501377302265856	0
505775348776960	0
510173395288064	0
514571441799168	0
518969488310272	0
523367534821376	0
527765581332480	0
532163627843584	0
536561674354688	0
540959720865792	0
545357767376896	0
549755813888000	0
554153860399104	0
558551906910208	0
562949953421312	0
571746046443520	0
580542139465728	0
589338232487936	0
598134325510144	0
606930418532352	0
615726511554560	0
624522604576768	0
633318697598976	0
642114790621184	0
650910883643392	0
659706976665600	0
668503069687808	0
677299162710016	0
686095255732224	0
694891348754432	0
703687441776640	0
712483534798848	0
721279627821056	0
730075720843264	0
738871813865472	0
747667906887680	0
756463999909888	0
765260092932096	0
774056185954304	0
782852278976512	0
791648371998720	0
800444465020928	0
809240558043136	0
818036651065344	0
826832744087552	0
835628837109760	0
844424930131968	0
853221023154176	0
862017116176384	0
870813209198592	0
879609302220800	0
888405395243008	0
897201488265216	0
905997581287424	0
914793674309632	0
923589767331840	0
932385860354048	0
941181953376256	0
949978046398464	0
958774139420672	0
967570232442880	0
976366325465088	0
985162418487296	0
993958511509504	0
1002754604531712	0
1011550697553920	0
1020346790576128	0
1029142883598336	0
1037938976620544	0
1046735069642752	0
1055531162664960	0
1064327255687168	0
1073123348709376	0
1081919441731584	0
1090715534753792	0
1099511627776000	0
1108307720798208	0
1117103813820416	0
1125899906842624	0
1143492092887040	0
1161084278931456	0
1178676464975872	0
1196268651020288	0
1213860837064704	0
1231453023109120	0
1249045209153536	0
1266637395197952	0
1284229581242368	0
1301821767286784	0
1319413953331200	0
1337006139375616	0
1354598325420032	0
1372190511464448	0
1389782697508864	0
1407374883553280	0
1424967069597696	0
1442559255642112	0
1460151441686528	0
1477743627730944	0
1495335813775360	0
1512927999819776	0
1530520185864192	0
1548112371908608	0
1565704557953024	0
1583296743997440	0
1600888930041856	0
1618481116086272	0
1636073302130688	0
1653665488175104	0
1671257674219520	0
1688849860263936	0
1706442046308352	0
1724034232352768	0
1741626418397184	0
1759218604441600	0
1776810790486016	0
1794402976530432	0
1811995162574848	0
1829587348619264	0
1847179534663680	0
1864771720708096	0
1882363906752512	0
1899956092796928	0
1917548278841344	0
1935140464885760	0
1952732650930176	0
1970324836974592	0
1987917023019008	0
2005509209063424	0
2023101395107840	0
2040693581152256	0
2058285767196672	0
2075877953241088	0
2093470139285504	0
2111062325329920	0
2128654511374336	0
2146246697418752	0
2163838883463168	0
2181431069507584	0
2199023255552000	0
2216615441596416	0
2234207627640832	0
2251799813685248	0
2286984185774080	0
2322168557862912	0
2357352929951744	0
2392537302040576	0
2427721674129408	0
2462906046218240	0
2498090418307072	0
2533274790395904	0
2568459162484736	0
2603643534573568	0
2638827906662400	0
2674012278751232	0
2709196650840064	0
2744381022928896	0
2779565395017728	0
2814749767106560	0
2849934139195392	0
2885118511284224	0
2920302883373056	0
2955487255461888	0
2990671627550720	0
3025855999639552	0
3061040371728384	0
3096224743817216	0
3131409115906048	0
3166593487994880	0
3201777860083712	0
3236962232172544	0
3272146604261376	0
3307330976350208	0
3342515348439040	0
3377699720527872	0
3412884092616704	0
3448068464705536	0
3483252836794368	0
3518437208883200	0
3553621580972032	0
3588805953060864	0
3623990325149696	0
3659174697238528	0
3694359069327360	0
3729543441416192	0
3764727813505024	0
3799912185593856	0
3835096557682688	0
3870280929771520	0
3905465301860352	0
3940649673949184	0
3975834046038016	0
4011018418126848	0
4046202790215680	0
4081387162304512	0
4116571534393344	0
4151755906482176	0
4186940278571008	0
4222124650659840	0
4257309022748672	0
4292493394837504	0
4327677766926336	0
4362862139015168	0
4398046511104000	0
4433230883192832	0
4468415255281664	0
4503599627370496	0
4573968371548160	0
4644337115725824	0
4714705859903488	0
4785074604081152	0
4855443348258816	0
4925812092436480	0
4996180836614144	0
5066549580791808	0
5136918324969472	0
5207287069147136	0
5277655813324800	0
5348024557502464	0
5418393301680128	0
5488762045857792	0
5559130790035456	0
5629499534213120	0
5699868278390784	0
5770237022568448	0
5840605766746112	0
5910974510923776	0
5981343255101440	0
6051711999279104	0
6122080743456768	0
6192449487634432	0
6262818231812096	0
6333186975989760	0
6403555720167424	0
6473924464345088	0
6544293208522752	0
6614661952700416	0
6685030696878080	0
6755399441055744	0
6825768185233408	0
6896136929411072	0
6966505673588736	0
7036874417766400	0
7107243161944064	0
7177611906121728	0
7247980650299392	0
7318349394477056	0
7388718138654720	0
7459086882832384	0
7529455627010048	0
7599824371187712	0
7670193115365376	0
7740561859543040	0
7810930603720704	0
7881299347898368	0
7951668092076032	0
8022036836253696	0
8092405580431360	0
8162774324609024	0
8233143068786688	0
8303511812964352	0
8373880557142016	0
8444249301319680	0
8514618045497344	0
8584986789675008	0
8655355533852672	0
8725724278030336	0
8796093022208000	0
8866461766385664	0
8936830510563328	0
9007199254740992	0
9147936743096320	0
9288674231451648	0
9429411719806976	0
9570149208162304	0
9710886696517632	0
9851624184872960	0
9992361673228288	0
10133099161583616	0
10273836649938944	0
10414574138294272	0
10555311626649600	0
10696049115004928	0
10836786603360256	0
10977524091715584	0
11118261580070912	0
11258999068426240	0
11399736556781568	0
11540474045136896	0
11681211533492224	0
11821949021847552	0
11962686510202880	0
12103423998558208	0
12244161486913536	0
12384898975268864	0
12525636463624192	0
12666373951979520	0
12807111440334848	0
12947848928690176	0
13088586417045504	0
13229323905400832	0
13370061393756160	0
13510798882111488	0
13651536370466816	0
13792273858822144	0
13933011347177472	0
14073748835532800	0
14214486323888128	0
14355223812243456	0
14495961300598784	0
14636698788954112	0
14777436277309440	0
14918173765664768	0
15058911254020096	0
15199648742375424	0
15340386230730752	0
15481123719086080	0
15621861207441408	0
15762598695796736	0
15903336184152064	0
16044073672507392	0
16184811160862720	0
16325548649218048	0
16466286137573376	0
16607023625928704	0
16747761114284032	0
16888498602639360	0
17029236090994688	0
17169973579350016	0
17310711067705344	0
17451448556060672	0
17592186044416000	0
17732923532771328	0
17873661021126656	0
18014398509481984	0
18295873486192640	0
18577348462903296	0
18858823439613952	0
19140298416324608	0
19421773393035264	0
19703248369745920	0
19984723346456576	0
20266198323167232	0
20547673299877888	0
20829148276588544	0
21110623253299200	0
21392098230009856	0
21673573206720512	0
21955048183431168	0
22236523160141824	0
22517998136852480	0
22799473113563136	0
23080948090273792	0
23362423066984448	0
23643898043695104	0
23925373020405760	0
24206847997116416	0
24488322973827072	0
24769797950537728	0
25051272927248384	0
25332747903959040	0
25614222880669696	0
25895697857380352	0
26177172834091008	0
26458647810801664	0
26740122787512320	0
27021597764222976	0
27303072740933632	0
27584547717644288	0
27866022694354944	0
28147497671065600	0
28428972647776256	0
28710447624486912	0
28991922601197568	0
29273397577908224	0
29554872554618880	0
29836347531329536	0
30117822508040192	0
30399297484750848	0
30680772461461504	0
30962247438172160	0
31243722414882816	0
31525197391593472	0
31806672368304128	0
32088147345014784	0
32369622321725440	0
32651097298436096	0
32932572275146752	0
33214047251857408	0
33495522228568064	0
33776997205278720	0
34058472181989376	0
34339947158700032	0
34621422135410688	0
34902897112121344	0
35184372088832000	0
35465847065542656	0
35747322042253312	0
36028797018963968	0
36591746972385280	0
37154696925806592	0
37717646879227904	0
38280596832649216	0
38843546786070528	0
39406496739491840	0
39969446692913152	0
40532396646334464	0
41095346599755776	0
41658296553177088	0
42221246506598400	0
42784196460019712	0
43347146413441024	0
43910096366862336	0
44473046320283648	0
45035996273704960	0
45598946227126272	0
46161896180547584	0
46724846133968896	0
47287796087390208	0
47850746040811520	0
48413695994232832	0
48976645947654144	0
49539595901075456	0
50102545854496768	0
50665495807918080	0
51228445761339392	0
51791395714760704	0
52354345668182016	0
52917295621603328	0
53480245575024640	0
54043195528445952	0
54606145481867264	0
55169095435288576	0
55732045388709888	0
56294995342131200	0
56857945295552512	0
57420895248973824	0
57983845202395136	0
58546795155816448	0
59109745109237760	0
59672695062659072	0
60235645016080384	0
60798594969501696	0
61361544922923008	0
61924494876344320	0
62487444829765632	0
63050394783186944	0
63613344736608256	0
64176294690029568	0
64739244643450880	0
65302194596872192	0
65865144550293504	0
66428094503714816	0
66991044457136128	0
67553994410557440	0
68116944363978752	0
68679894317400064	0
69242844270821376	0
69805794224242688	0
70368744177664000	0
70931694131085312	0
71494644084506624	0
72057594037927936	0
73183493944770560	0
74309393851613184	0
75435293758455808	0
76561193665298432	0
77687093572141056	0
78812993478983680	0
79938893385826304	0
81064793292668928	0
82190693199511552	0
83316593106354176	0
84442493013196800	0
85568392920039424	0
86694292826882048	0
87820192733724672	0
88946092640567296	0
90071992547409920	0
91197892454252544	0
92323792361095168	0
93449692267937792	0
94575592174780416	0
95701492081623040	0
96827391988465664	0
97953291895308288	0
99079191802150912	0
100205091708993536	0
101330991615836160	0
102456891522678784	0
103582791429521408	0
104708691336364032	0
105834591243206656	0
106960491150049280	0
108086391056891904	0
109212290963734528	0
110338190870577152	0
111464090777419776	0
112589990684262400	0
113715890591105024	0
114841790497947648	0
115967690404790272	0
117093590311632896	0
118219490218475520	0
119345390125318144	0
120471290032160768	0
121597189939003392	0
122723089845846016	0
123848989752688640	0
124974889659531264	0
126100789566373888	0
127226689473216512	0
128352589380059136	0
129478489286901760	0
130604389193744384	0
131730289100587008	0
132856189007429632	0
133982088914272256	0
135107988821114880	0
136233888727957504	0
137359788634800128	0
138485688541642752	0
139611588448485376	0
140737488355328000	0
141863388262170624	0
142989288169013248	0
144115188075855872	0
146366987889541120	0
148618787703226368	0
150870587516911616	0
153122387330596864	0
155374187144282112	0
157625986957967360	0
159877786771652608	0
162129586585337856	0
164381386399023104	0
166633186212708352	0
168884986026393600	0
171136785840078848	0
173388585653764096	0
175640385467449344	0
177892185281134592	0
180143985094819840	0
182395784908505088	0
184647584722190336	0
186899384535875584	0
189151184349560832	0
191402984163246080	0
193654783976931328	0
195906583790616576	0
198158383604301824	0
200410183417987072	0
202661983231672320	0
204913783045357568	0
207165582859042816	0
209417382672728064	0
211669182486413312	0
213920982300098560	0
216172782113783808	0
218424581927469056	0
220676381741154304	0
222928181554839552	0
225179981368524800	0
227431781182210048	0
229683580995895296	0
231935380809580544	0
234187180623265792	0
236438980436951040	0
238690780250636288	0
240942580064321536	0
243194379878006784	0
245446179691692032	0
247697979505377280	0
249949779319062528	0
252201579132747776	0
254453378946433024	0
256705178760118272	0
258956978573803520	0
261208778387488768	0
263460578201174016	0
265712378014859264	0
267964177828544512	0
270215977642229760	0
272467777455915008	0
274719577269600256	0
276971377083285504	0
279223176896970752	0
281474976710656000	0
283726776524341248	0
285978576338026496	0
288230376151711744	0
292733975779082240	0
297237575406452736	0
301741175033823232	0
306244774661193728	0
310748374288564224	0
315251973915934720	0
319755573543305216	0
324259173170675712	0
328762772798046208	0
333266372425416704	0
337769972052787200	0
342273571680157696	0
346777171307528192	0
351280770934898688	0
355784370562269184	0
360287970189639680	0
364791569817010176	0
369295169444380672	0
373798769071751168	0
378302368699121664	0
382805968326492160	0
387309567953862656	0
391813167581233152	0
396316767208603648	0
400820366835974144	0
405323966463344640	0
409827566090715136	0
414331165718085632	0
418834765345456128	0
423338364972826624	0
427841964600197120	0
432345564227567616	0
436849163854938112	0
441352763482308608	0
445856363109679104	0
450359962737049600	0
454863562364420096	0
459367161991790592	0
463870761619161088	0
468374361246531584	0
472877960873902080	0
477381560501272576	0
481885160128643072	0
486388759756013568	0
490892359383384064	0
495395959010754560	0
499899558638125056	0
504403158265495552	0
508906757892866048	0
513410357520236544	0
517913957147607040	0
522417556774977536	0
526921156402348032	0
531424756029718528	0
535928355657089024	0
540431955284459520	0
544935554911830016	0
549439154539200512	0
553942754166571008	0
558446353793941504	0
562949953421312000	0
567453553048682496	0
571957152676052992	0
576460752303423488	0
585467951558164480	0
594475150812905472	0
603482350067646464	0
612489549322387456	0
621496748577128448	0
630503947831869440	0
639511147086610432	0
648518346341351424	0
657525545596092416	0
666532744850833408	0
675539944105574400	0
684547143360315392	0
693554342615056384	0
702561541869797376	0
711568741124538368	0
720575940379279360	0
729583139634020352	0
738590338888761344	0
747597538143502336	0
756604737398243328	0
765611936652984320	0
774619135907725312	0
783626335162466304	0
792633534417207296	0
801640733671948288	0
810647932926689280	0
819655132181430272	0
828662331436171264	0
837669530690912256	0
846676729945653248	0
855683929200394240	0
864691128455135232	0
873698327709876224	0
882705526964617216	0
891712726219358208	0
900719925474099200	0
909727124728840192	0
918734323983581184	0
927741523238322176	0
936748722493063168	0
945755921747804160	0
954763121002545152	0
963770320257286144	0
972777519512027136	0
981784718766768128	0
990791918021509120	0
999799117276250112	0
1008806316530991104	0
1017813515785732096	0
1026820715040473088	0
1035827914295214080	0
1044835113549955072	0
1053842312804696064	0
1062849512059437056	0
1071856711314178048	0
1080863910568919040	0
1089871109823660032	0
1098878309078401024	0
1107885508333142016	0
1116892707587883008	0
1125899906842624000	0
1134907106097364992	0
1143914305352105984	0
1152921504606846976	0
1170935903116328960	0
1188950301625810944	0
1206964700135292928	0
1224979098644774912	0
1242993497154256896	0
1261007895663738880	0
1279022294173220864	0
1297036692682702848	0
1315051091192184832	0
1333065489701666816	0
1351079888211148800	0
1369094286720630784	0
1387108685230112768	0
1405123083739594752	0
1423137482249076736	0
1441151880758558720	0
1459166279268040704	0
1477180677777522688	0
1495195076287004672	0
1513209474796486656	0
1531223873305968640	0
1549238271815450624	0
1567252670324932608	0
1585267068834414592	0
1603281467343896576	0
1621295865853378560	0
1639310264362860544	0
1657324662872342528	0
1675339061381824512	0
1693353459891306496	0
1711367858400788480	0
1729382256910270464	0
1747396655419752448	0
1765411053929234432	0
1783425452438716416	0
1801439850948198400	0
1819454249457680384	0
1837468647967162368	0
1855483046476644352	0
1873497444986126336	0
1891511843495608320	0
1909526242005090304	0
1927540640514572288	0
1945555039024054272	0
1963569437533536256	0
1981583836043018240	0
1999598234552500224	0
2017612633061982208	0
2035627031571464192	0
2053641430080946176	0
2071655828590428160	0
2089670227099910144	0
2107684625609392128	0
2125699024118874112	0
2143713422628356096	0
2161727821137838080	0
2179742219647320064	0
2197756618156802048	0
2215771016666284032	0
2233785415175766016	0
2251799813685248000	0
2269814212194729984	0
2287828610704211968	0
2305843009213693952	0
2341871806232657920	0
2377900603251621888	0
2413929400270585856	0
2449958197289549824	0
2485986994308513792	0
2522015791327477760	0
2558044588346441728	0
2594073385365405696	0
2630102182384369664	0
2666130979403333632	0
2702159776422297600	0
2738188573441261568	0
2774217370460225536	0
2810246167479189504	0
2846274964498153472	0
2882303761517117440	0
2918332558536081408	0
2954361355555045376	0
2990390152574009344	0
3026418949592973312	0
3062447746611937280	0
3098476543630901248	0
3134505340649865216	0
3170534137668829184	0
3206562934687793152	0
3242591731706757120	0
3278620528725721088	0
3314649325744685056	0
3350678122763649024	0
3386706919782612992	0
3422735716801576960	0
3458764513820540928	0
3494793310839504896	0
3530822107858468864	0
3566850904877432832	0
3602879701896396800	0
3638908498915360768	0
3674937295934324736	0
3710966092953288704	0
3746994889972252672	0
3783023686991216640	0
3819052484010180608	0
3855081281029144576	0
3891110078048108544	0
3927138875067072512	0
3963167672086036480	0
3999196469105000448	0
4035225266123964416	0
4071254063142928384	0
4107282860161892352	0
4143311657180856320	0
4179340454199820288	0
4215369251218784256	0
4251398048237748224	0
4287426845256712192	0
4323455642275676160	0
4359484439294640128	0
4395513236313604096	0
4431542033332568064	0
4467570830351532032	0
4503599627370496000	0
4539628424389459968	0
4575657221408423936	0
4611686018427387904	0
4683743612465315840	0
4755801206503243776	0
4827858800541171712	0
4899916394579099648	0
4971973988617027584	0
5044031582654955520	0
5116089176692883456	0
5188146770730811392	0
5260204364768739328	0
5332261958806667264	0
5404319552844595200	0
5476377146882523136	0
5548434740920451072	0
5620492334958379008	0
5692549928996306944	0
5764607523034234880	0
5836665117072162816	0
5908722711110090752	0
5980780305148018688	0
6052837899185946624	0
6124895493223874560	0
6196953087261802496	0
6269010681299730432	0
6341068275337658368	0
6413125869375586304	0
6485183463413514240	0
6557241057451442176	0
6629298651489370112	0
6701356245527298048	0
6773413839565225984	0
6845471433603153920	0
6917529027641081856	0
6989586621679009792	0
7061644215716937728	0
7133701809754865664	0
7205759403792793600	0
7277816997830721536	0
7349874591868649472	0
7421932185906577408	0
7493989779944505344	0
7566047373982433280	0
7638104968020361216	0
7710162562058289152	0
7782220156096217088	0
7854277750134145024	0
7926335344172072960	0
7998392938210000896	0
8070450532247928832	0
8142508126285856768	0
8214565720323784704	0
8286623314361712640	0
8358680908399640576	0
8430738502437568512	0
8502796096475496448	0
8574853690513424384	0
8646911284551352320	0
8718968878589280256	0
8791026472627208192	0
8863084066665136128	0
8935141660703064064	0
9007199254740992000	0
9079256848778919936	0
9151314442816847872	0
9223372036854775808	0
9367487224930631680	0
9511602413006487552	0
9655717601082343424	0
9799832789158199296	0
9943947977234055168	0
10088063165309911040	0
10232178353385766912	0
10376293541461622784	0
10520408729537478656	0
10664523917613334528	0
10808639105689190400	0
10952754293765046272	0
11096869481840902144	0
11240984669916758016	0
11385099857992613888	0
11529215046068469760	0
11673330234144325632	0
11817445422220181504	0
11961560610296037376	0
12105675798371893248	0
12249790986447749120	0
12393906174523604992	0
12538021362599460864	0
12682136550675316736	0
12826251738751172608	0
12970366926827028480	0
13114482114902884352	0
13258597302978740224	0
13402712491054596096	0
13546827679130451968	0
13690942867206307840	0
13835058055282163712	0
13979173243358019584	0
14123288431433875456	0
14267403619509731328	0
14411518807585587200	0
14555633995661443072	0
14699749183737298944	0
14843864371813154816	0
14987979559889010688	0
15132094747964866560	0
15276209936040722432	0
15420325124116578304	0
15564440312192434176	0
15708555500268290048	0
15852670688344145920	0
15996785876420001792	0
16140901064495857664	0
16285016252571713536	0
16429131440647569408	0
16573246628723425280	0
16717361816799281152	0
16861477004875137024	0
17005592192950992896	0
17149707381026848768	0
17293822569102704640	0
17437937757178560512	0
17582052945254416384	0
17726168133330272256	0
17870283321406128128	0
18014398509481984000	0
18158513697557839872	0
18302628885633695744	0
