0	0
1	79015189959
2	26940248830
3	30613151752
4	36588271079
5	9277965556
6	2632335476
7	3803047915
8	2898201028
9	2683705027
10	1028628929
11	2412724003
12	1305220847
13	1082812362
14	1173225615
15	983498251
16	573686129
17	502026393
18	413755205
19	703428158
20	773927611
21	735971383
22	651003688
23	579304800
24	429115666
25	317291268
26	442413989
27	630220430
28	236622723
29	188859831
30	308864254
31	362850155
32	971547526
33	1810491352
34	270095191
35	1166654627
36	885700891
37	1142798344
38	260989157
39	294297080
40	240506457
41	398496467
42	449415885
43	112319569
44	261301474
45	210737139
46	76564320
47	497003985
48	161048982
49	82945526
50	356088264
51	48917772
52	257961674
53	106616736
54	112767103
55	56721098
56	71258663
57	68400462
58	64806475
59	54848657
60	70162749
61	64594886
62	136177351
63	80192550
64	153210071
65	94025616
66	185190256
67	67594941
68	118525079
69	78405448
70	43783726
71	173977583
72	133552646
73	95142981
74	151266448
75	199172336
76	182338081
77	99184674
78	93903854
79	253921191
80	148944192
81	248018992
82	157563128
83	288546542
84	153635127
85	98728623
86	201343747
87	130717617
88	299102915
89	193135328
90	321029865
91	233818882
92	219633166
93	557677632
94	294214882
95	850308549
96	638817317
97	541252564
98	373371782
99	67735364
100	656139310
101	72570892
102	52038781
103	85198233
104	103103757
105	133885243
106	127821631
107	131551116
108	39447505
109	70941608
110	55743619
111	80459903
112	97108437
113	222774213
114	38199948
115	183297540
116	17215487
117	114810632
118	117168455
119	13875575
120	22890709
121	6346394
122	25965546
123	88017520
124	47486554
125	8881513
126	26769214
127	11877361
128	121482749
130	68227408
132	23907872
134	45755060
136	231433896
138	100771612
140	52044564
142	36180900
144	85426500
146	66142309
148	152311486
150	29831186
152	10969066
154	35416634
156	17335499
158	21371860
160	31981522
162	28697275
164	87636313
166	11700871
168	73358244
170	20195490
172	23422484
174	24072353
176	36574535
178	19020606
180	50807509
182	47909658
184	11259531
186	6648586
188	26623971
190	41252803
192	19042266
194	28645921
196	32327291
198	11115430
200	33627038
202	34158960
204	65496098
206	20002477
208	24650092
210	20597760
212	35435035
214	12968400
216	38154300
218	76174093
220	63167567
222	207205747
224	22907104
226	98245992
228	12924341
230	26755736
232	9202135
234	14427853
236	8847465
238	23548649
240	11947525
242	40458200
244	41599033
246	92041664
248	57526549
250	15946959
252	4105602
254	23238375
256	8277070
260	23002111
264	8770163
268	20792267
272	15427651
276	16563695
280	12144394
284	22322912
288	219552546
292	34870365
296	65437580
300	7625366
304	96998459
308	21166740
312	33532147
316	30996183
320	7268381
324	4991792
328	8203019
332	8463790
336	7768623
340	43524892
344	28845319
348	13831765
352	16998588
356	14831033
360	18259142
364	11237114
368	8643207
372	16980020
376	25470110
380	17623456
384	20703004
388	43748636
392	29559930
396	14713807
400	19412867
404	42929916
408	10170742
412	17621688
416	6775951
420	9673416
424	9433928
428	23849437
432	3777579
436	495410249
440	17500819
444	22507879
448	24107595
452	22733750
456	20704290
460	21129381
464	19304387
468	24634629
472	19500106
476	28941409
480	43007442
484	52049711
488	25086136
492	27486065
496	25497108
500	18684185
504	8185592
508	5910709
512	38166516
520	20670579
528	11907895
536	10083963
544	4488807
552	10778163
560	18090146
568	33015694
576	19402549
584	25603937
592	12823372
600	19840835
608	51451187
616	14820202
624	11425744
632	41811864
640	46083833
648	2554931
656	7744514
664	5461395
672	6463044
680	3969556
688	40394380
696	5788402
704	5541882
712	4201084
720	2551586
728	4660714
736	2359274
744	3928572
752	13824176
760	4937034
768	3850427
776	3575959
784	4845928
792	3677192
800	4607255
808	4878625
816	2298944
824	3225889
832	2028898
840	5265952
848	3266693
856	5168834
864	3227712
872	2729811
880	2163473
888	20182091
896	26221630
904	5187908
912	18439260
920	6681822
928	19156367
936	7649424
944	7883535
952	9314663
960	11421764
968	17662124
976	25248446
984	7243286
992	6061247
1000	7788988
1008	23171470
1016	5323894
1024	10408983
1040	12837135
1056	5937210
1072	16925455
1088	4784169
1104	8947810
1120	10850641
1136	10438966
1152	7468784
1168	41302831
1184	68060757
1200	20276686
1216	33018159
1232	11473914
1248	7087050
1264	9955699
1280	14902125
1296	7003404
1312	22836920
1328	39118059
1344	25573817
1360	31543958
1376	7633201
1392	18927569
1408	8653357
1424	16455298
1440	11613446
1456	4755619
1472	21471953
1488	4390272
1504	5232712
1520	6253808
1536	7178328
1552	7687592
1568	23084481
1584	10722571
1600	8379003
1616	8197354
1632	9841526
1648	35099534
1664	7954177
1680	29719610
1696	5543904
1712	2140695
1728	2344914
1744	7144827
1760	6070496
1776	23290558
1792	2164955
1808	7601843
1824	5441630
1840	5679583
1856	7506946
1872	4168966
1888	2718270
1904	18143986
1920	2299676
1936	18675272
1952	8671310
1968	5547019
1984	5810954
2000	3311901
2016	2040800
2032	24551921
2048	21432773
2080	12657325
2112	6025381
2144	26254485
2176	20516924
2208	14367575
2240	4701396
2272	4455939
2304	5753714
2336	7266120
2368	7245154
2400	6348444
2432	8661072
2464	6031971
2496	43227562
2528	5459798
2560	19624254
2592	5212905
2624	3042372
2656	5248565
2688	1917261
2720	1663063
2752	1709504
2784	1673496
2816	2143905
2848	2428044
2880	4027606
2912	2551630
2944	2090445
2976	1719502
3008	2722146
3040	35968294
3072	1990998
3104	2879750
3136	21963462
3168	2174649
3200	18207644
3232	19116779
3264	2512366
3296	3297201
3328	18300172
3360	2758131
3392	1169993
3424	18061705
3456	3007581
3488	6566213
3520	1382373
3552	18311934
3584	2917962
3616	1215919
3648	2141655
3680	801051
3712	1492089
3744	35321962
3776	834516
3808	1866916
3840	1265505
3872	661775
3904	1473646
3936	1042589
3968	1390665
4000	3633616
4032	2719411
4064	6242239
4096	9578339
4160	8404153
4224	5895356
4288	4219421
4352	4683858
4416	3432441
4480	2505588
4544	4108322
4608	21914554
4672	2415528
4736	26559165
4800	19445460
4864	19767187
4928	19666945
4992	1573901
5056	20108876
5120	1720449
5184	2046569
5248	20509141
5312	1276910
5376	1341903
5440	1245193
5504	1347590
5568	1221106
5632	4409965
5696	1543413
5760	4014767
5824	2578070
5888	2357799
5952	1795573
6016	1544758
6080	2843792
6144	73656544
6208	408003741
6272	209755322
6336	2209493
6400	1579750
6464	1941322
6528	1396555
6592	2953106
6656	2115142
6720	1275521
6784	1662838
6848	1651213
6912	2733245
6976	1220058
7040	1177150
7104	1183104
7168	998780
7232	1351027
7296	1649421
7360	1209454
7424	1760397
7488	1216332
7552	1162675
7616	1113352
7680	1099072
7744	1086519
7808	1296237
7872	1964214
7936	1332678
8000	1177318
8064	1243842
8128	1070424
8192	2256517
8320	3271658
8448	3791468
8576	3327075
8704	3866138
8832	7110113
8960	2240546
9088	2841872
9216	3302662
9344	7737229
9472	4058316
9600	3006496
9728	2245749
9856	2806734
9984	1850063
10112	1991844
10240	2572991
10368	3137431
10496	3398979
10624	4356719
10752	5895384
10880	6609054
11008	5548163
11136	4755421
11264	4247660
11392	3686217
11520	4289409
11648	3341373
11776	3013440
11904	2757205
12032	2872995
12160	2583874
12288	1814963
12416	4112920
12544	7325825
12672	966628
12800	1033807
12928	1228678
13056	1049684
13184	813129
13312	677600
13440	5261629
13568	770210
13696	550644
13824	658130
13952	2183971
14080	3131282
14208	680948
14336	617698
14464	704007
14592	955546
14720	1383125
14848	669941
14976	556200
15104	830333
15232	547368
15360	510608
15488	645522
15616	564762
15744	568031
15872	528199
16000	640478
16128	575766
16256	625989
16384	1037158
16640	1833914
16896	1137668
17152	844831
17408	1724186
17664	2187219
17920	1102958
18176	1784932
18432	1023460
18688	4988226
18944	2911868
19200	9677547
19456	1288473
19712	1056936
19968	1278932
20224	1080559
20480	965312
20736	975939
20992	879533
21248	849299
21504	817194
21760	744219
22016	1533720
22272	1495388
22528	1269818
22784	1107711
23040	2621975
23296	3466987
23552	2294556
23808	2498770
24064	2127611
24320	1576252
24576	910521
24832	1171917
25088	2250824
25344	1084861
25600	675708
25856	521919
26112	371737
26368	322802
26624	387721
26880	331393
27136	332225
27392	311732
27648	325801
27904	407078
28160	509026
28416	328846
28672	275645
28928	300885
29184	322806
29440	359119
29696	331313
29952	333554
30208	285860
30464	358110
30720	305099
30976	292452
31232	373143
31488	1034433
31744	288828
32000	310383
32256	291363
32512	292100
32768	751303
33280	959191
33792	908714
34304	1220841
34816	2021780
35328	2388237
35840	3053050
36352	2705068
36864	1376250
37376	1186316
37888	1097003
38400	589988
38912	437256
39424	445303
39936	462561
40448	450584
40960	430277
41472	357450
41984	462971
42496	421327
43008	410002
43520	371657
44032	1435063
44544	421367
45056	385643
45568	854805
46080	412010
46592	542474
47104	508357
47616	854911
48128	1243861
48640	1185094
49152	1251320
49664	2393098
50176	3292063
50688	3738635
51200	726183
51712	351868
52224	399787
52736	332317
53248	327936
53760	314381
54272	309759
54784	296465
55296	367689
55808	305675
56320	504704
56832	8381110
57344	311831
57856	244532
58368	238764
58880	278678
59392	313998
59904	230316
60416	243159
60928	213210
61440	221211
61952	240797
62464	274507
62976	969243
63488	240808
64000	218418
64512	220326
65024	216899
65536	495609
66560	557414
67584	624757
68608	766852
69632	457933
70656	576149
71680	766338
72704	959359
73728	691351
74752	618515
75776	1028908
76800	330663
77824	305356
78848	319303
79872	341235
80896	339372
81920	817360
82944	295616
83968	312856
84992	325414
86016	285978
87040	310994
88064	712595
89088	434684
90112	282668
91136	295111
92160	325165
93184	339759
94208	552202
95232	346950
96256	699073
97280	282223
98304	405065
99328	635580
100352	596436
101376	246056
102400	242262
103424	269563
104448	248979
105472	218871
106496	225241
107520	2775737
108544	197121
109568	204581
110592	202705
111616	187505
112640	234322
113664	371192
114688	218317
115712	194281
116736	193395
117760	193948
118784	201596
119808	534519
120832	199665
121856	175079
122880	195583
123904	194778
124928	185875
125952	289672
126976	183678
128000	183671
129024	183733
130048	181108
131072	495668
133120	395536
135168	411219
137216	567708
139264	379048
141312	620930
143360	420477
145408	800100
147456	547441
149504	775296
151552	838011
153600	271028
155648	268443
157696	1069250
159744	399839
161792	273166
163840	410999
165888	280036
167936	291209
169984	348374
172032	264754
174080	348741
176128	335526
178176	282371
180224	308782
182272	355371
184320	271426
186368	454667
188416	402965
190464	337925
192512	276056
194560	571973
196608	413243
198656	530738
200704	320939
202752	198285
204800	193062
206848	497063
208896	686133
210944	184246
212992	192743
215040	230156
217088	187461
219136	175225
221184	247923
223232	186597
225280	189363
227328	259468
229376	163942
231424	169429
233472	409313
235520	178443
237568	168281
239616	328312
241664	157994
243712	160563
245760	241367
247808	159564
249856	165842
251904	214351
253952	162121
256000	183556
258048	333581
260096	190908
262144	443698
266240	478550
270336	574666
274432	475044
278528	421579
282624	541332
286720	371857
290816	487499
294912	500041
299008	459733
303104	389172
307200	499750
311296	312517
315392	369736
319488	320853
323584	227407
327680	287526
331776	266342
335872	253156
339968	332100
344064	254492
348160	300836
352256	314268
356352	267232
360448	350467
364544	285780
368640	321371
372736	375930
376832	301656
380928	262316
385024	333557
389120	285204
393216	309970
397312	301282
401408	235842
405504	234736
409600	434721
413696	232888
417792	274781
421888	241220
425984	210772
430080	322247
434176	255634
438272	198542
442368	243522
446464	214662
450560	197555
454656	281255
458752	775864
462848	255090
466944	271118
471040	271042
475136	183323
479232	180845
483328	178093
487424	189909
491520	215736
495616	189681
499712	201932
503808	215682
507904	191266
512000	269476
516096	239776
520192	206624
524288	401733
532480	392913
540672	411904
548864	413209
557056	465736
565248	495456
573440	411152
581632	451977
589824	424437
598016	364332
606208	346994
614400	394204
622592	279653
630784	289027
638976	279177
647168	303341
655360	283666
663552	508145
671744	272738
679936	316484
688128	285897
696320	322462
704512	280026
712704	290735
720896	271535
729088	274268
737280	308824
745472	288448
753664	289656
761856	352807
770048	312361
778240	285218
786432	271945
794624	269689
802816	242888
811008	374151
819200	237583
827392	256270
835584	272232
843776	221499
851968	244607
860160	263041
868352	229193
876544	238508
884736	219662
892928	205825
901120	201512
909312	212975
917504	342949
925696	236398
933888	215707
942080	232088
950272	235384
958464	214330
966656	202540
974848	205264
983040	217186
991232	225665
999424	220854
1007616	230142
1015808	222084
1024000	221857
1032192	233680
1040384	216990
1048576	453184
1064960	438837
1081344	398839
1097728	427963
1114112	444609
1130496	439531
1146880	439461
1163264	496334
1179648	491557
1196032	408386
1212416	399581
1228800	364602
1245184	403416
1261568	371386
1277952	409292
1294336	373049
1310720	373785
1327104	377322
1343488	387428
1359872	437847
1376256	374219
1392640	419292
1409024	418706
1425408	475037
1441792	452456
1458176	524704
1474560	532261
1490944	517308
1507328	670225
1523712	713388
1540096	805912
1556480	814964
1572864	758370
1589248	734677
1605632	740165
1622016	721718
1638400	725188
1654784	740180
1671168	732874
1687552	738363
1703936	749698
1720320	785327
1736704	751835
1753088	764023
1769472	807588
1785856	783436
1802240	756051
1818624	906316
1835008	3468980
1851392	874156
1867776	3590959
1884160	3776514
1900544	6607396
1916928	1300132
1933312	9702085
1949696	7206154
1966080	4607056
1982464	7583726
1998848	31560547
2015232	29327840
2031616	18525957
2048000	13238354
2064384	4583840
2080768	4539216
2097152	9092453
2129920	9084678
2162688	9100755
2195456	9081586
2228224	9227841
2260992	9165010
2293760	9124980
2326528	9113497
2359296	9072707
2392064	8997694
2424832	8894942
2457600	8827081
2490368	8576617
2523136	8356124
2555904	8161595
2588672	8247708
2621440	8222083
2654208	8341459
2686976	8244471
2719744	8300814
2752512	8381860
2785280	8461092
2818048	8717085
2850816	9038924
2883584	9219003
2916352	9226767
2949120	9318645
2981888	9490252
3014656	9515315
3047424	9380412
3080192	9446720
3112960	9531714
3145728	9715165
3178496	9843085
3211264	9906106
3244032	9893664
3276800	9973480
3309568	10012892
3342336	10037310
3375104	10039465
3407872	10048126
3440640	10084753
3473408	10045949
3506176	10103175
3538944	10010910
3571712	10055195
3604480	10128276
3637248	10162165
3670016	10455427
3702784	10261828
3735552	10505477
3768320	10545875
3801088	11006022
3833856	10387040
3866624	11373803
3899392	11165252
3932160	11017547
3964928	11315865
3997696	14081884
4030464	14213110
4063232	13034795
4096000	12499719
4128768	11526373
4161536	11578664
4194304	22843704
4259840	22881246
4325376	21604812
4390912	20701338
4456448	20946064
4521984	23342797
4587520	25167623
4653056	25316278
4718592	24814170
4784128	24508062
4849664	24537363
4915200	24127918
4980736	22452275
5046272	17716459
5111808	15190159
5177344	14797001
5242880	14867332
5308416	14950813
5373952	14857164
5439488	14969663
5505024	14846868
5570560	14690666
5636096	14617878
5701632	14589426
5767168	14464726
5832704	14174161
5898240	14174456
5963776	13725607
6029312	13501950
6094848	13426781
6160384	12792810
6225920	12386670
6291456	11876448
6356992	10066134
6422528	8971622
6488064	8193358
6553600	7940186
6619136	7683894
6684672	7634743
6750208	7401183
6815744	7334208
6881280	7150581
6946816	7043381
7012352	6297416
7077888	5492580
7143424	4907503
7208960	4572773
7274496	4266885
7340032	4065048
7405568	3962061
7471104	3915718
7536640	3859715
7602176	3850050
7667712	4052651
7733248	4142100
7798784	4280039
7864320	4739042
7929856	4937276
7995392	5018824
8060928	5667566
8126464	6173466
8192000	6493971
8257536	10234659
8323072	7983424
8388608	29538732
8519680	32093774
8650752	34124684
8781824	32356208
8912896	49846846
9043968	70559018
9175040	41623884
9306112	10989192
9437184	5424445
9568256	2976929
9699328	2946767
9830400	2817733
9961472	2763522
10092544	2699915
10223616	2477761
10354688	2476911
10485760	2428212
10616832	2081712
10747904	1797458
10878976	1815399
11010048	1827651
11141120	1784770
11272192	1791513
11403264	1788994
11534336	1743275
11665408	1742734
11796480	1750597
11927552	1773896
12058624	1736166
12189696	1699983
12320768	1747670
12451840	1797285
12582912	1824502
12713984	1822638
12845056	1818805
12976128	1823069
13107200	1817776
13238272	1815737
13369344	1826948
13500416	1804630
13631488	1800800
13762560	1796826
13893632	1789077
14024704	1786518
14155776	1785062
14286848	1779984
14417920	1799785
14548992	1773590
14680064	1803058
14811136	1863777
14942208	1963416
15073280	1962120
15204352	2075440
15335424	2192623
15466496	2254225
15597568	2345447
15728640	2937688
15859712	3435098
15990784	3864846
16121856	3976524
16252928	4017754
16384000	4289338
16515072	4266562
16646144	4011037
16777216	8715221
17039360	9276974
17301504	11686779
17563648	11655678
17825792	9460037
18087936	7763260
18350080	7269303
18612224	6880962
18874368	5471464
19136512	3811380
19398656	3191539
19660800	3184628
19922944	3167209
20185088	3175700
20447232	3173494
20709376	3147799
20971520	3124152
21233664	3121686
21495808	3121943
21757952	3118176
22020096	3660529
22282240	4372985
22544384	5271341
22806528	7664122
23068672	9234684
23330816	11373460
23592960	14778868
23855104	15902077
24117248	25792934
24379392	37891556
24641536	44384480
24903680	44219346
25165824	40651396
25427968	37827293
25690112	35054934
25952256	21855796
26214400	11034895
26476544	3916504
26738688	3021291
27000832	3030007
27262976	3047898
27525120	3220153
27787264	3066689
28049408	3257320
28311552	3277260
28573696	3467543
28835840	3314600
29097984	3500060
29360128	3700376
29622272	3189999
29884416	4432355
30146560	5144301
30408704	4432441
30670848	3885900
30932992	3142446
31195136	3120024
31457280	3105614
31719424	3082471
31981568	3059240
32243712	3032094
32505856	3018438
32768000	3006509
33030144	3000195
33292288	3036875
33554432	6056111
34078720	6065601
34603008	6049580
35127296	6043117
35651584	6063578
36175872	6099826
36700160	6108991
37224448	6149804
37748736	6189165
38273024	6161193
38797312	6077209
39321600	6048539
39845888	6013784
40370176	6035346
40894464	6021422
41418752	6035443
41943040	6033398
42467328	6056903
42991616	6085363
43515904	6102327
44040192	6094281
44564480	6136151
45088768	6192389
45613056	6229981
46137344	6400594
46661632	6482512
47185920	6404167
47710208	6342377
48234496	6147761
48758784	6007135
49283072	5929415
49807360	5659183
50331648	5452030
50855936	5041151
51380224	3843544
51904512	3087284
52428800	2679016
52953088	2662131
53477376	3858107
54001664	5296139
54525952	5722528
55050240	10091079
55574528	11978836
56098816	14562913
56623104	15524798
57147392	19568698
57671680	19777124
58195968	28689366
58720256	51971713
59244544	65432826
59768832	81800348
60293120	62342649
60817408	35790613
61341696	17809068
61865984	7678514
62390272	5952891
62914560	3695885
63438848	3306517
63963136	2511516
64487424	3139274
65011712	5095271
65536000	6821787
66060288	7100610
66584576	6549231
67108864	16221863
68157440	17079801
69206016	41372347
70254592	44500414
71303168	14801960
72351744	3228168
73400320	4917050
74448896	7437377
75497472	8848783
76546048	17006842
77594624	14125775
78643200	33253207
79691776	55048409
80740352	53558510
81788928	66602045
82837504	27588288
83886080	104071301
84934656	90395643
85983232	49345278
87031808	192373
88080384	189513
89128960	187362
90177536	185455
91226112	185324
92274688	245254
93323264	185015
94371840	302247
95420416	302953
96468992	181355
97517568	364150
98566144	366426
99614720	244257
100663296	748505
101711872	879872
102760448	695009
103809024	178844
104857600	180459
105906176	180892
106954752	179585
108003328	178207
109051904	187190
110100480	190044
111149056	178640
112197632	215561
113246208	208376
114294784	195639
115343360	207729
116391936	225865
117440512	212901
118489088	201284
119537664	359148
120586240	364299
121634816	309334
122683392	230962
123731968	177411
124780544	177833
125829120	179249
126877696	178126
127926272	175377
128974848	173821
130023424	173180
131072000	171876
132120576	170821
133169152	171309
134217728	346549
136314880	347204
138412032	349371
140509184	345751
142606336	339197
144703488	336067
146800640	339594
148897792	340699
150994944	344883
153092096	348313
155189248	345014
157286400	339321
159383552	338632
161480704	341855
163577856	350696
165675008	350937
167772160	347718
169869312	347623
171966464	344101
174063616	344824
176160768	349735
178257920	347896
180355072	349078
182452224	343100
184549376	342107
186646528	349326
188743680	351926
190840832	354364
192937984	351034
195035136	346740
197132288	349829
199229440	357473
201326592	358315
203423744	355182
205520896	352029
207618048	351037
209715200	351040
211812352	355464
213909504	357177
216006656	359833
218103808	364944
220200960	366319
222298112	361402
224395264	362059
226492416	373275
228589568	373964
230686720	375550
232783872	375099
234881024	380714
236978176	386726
239075328	387082
241172480	385562
243269632	387180
245366784	386856
247463936	388724
249561088	394997
251658240	402387
253755392	413542
255852544	415199
257949696	424045
260046848	440149
262144000	451141
264241152	471212
266338304	471674
268435456	1615345
272629760	3346557
276824064	4722847
281018368	11842206
285212672	16191039
289406976	6439908
293601280	6382446
297795584	505232
301989888	495440
306184192	800754
310378496	907275
314572800	424484
318767104	447600
322961408	446286
327155712	467277
331350016	482341
335544320	816962
339738624	1428354
343932928	1250255
348127232	2455788
352321536	4932306
356515840	7691997
360710144	3691991
364904448	2004806
369098752	6787797
373293056	4881631
377487360	870519
381681664	866000
385875968	913945
390070272	868450
394264576	926308
398458880	909739
402653184	1097984
406847488	1038184
411041792	1422810
415236096	1197762
419430400	2089524
423624704	2073107
427819008	2751738
432013312	2369166
436207616	2533255
440401920	1836970
444596224	1253737
448790528	5474667
452984832	3075642
457179136	1229226
461373440	277502
465567744	352823
469762048	431494
473956352	582009
478150656	722925
482344960	837560
486539264	741770
490733568	688075
494927872	498353
499122176	305732
503316480	155516
507510784	0
511705088	0
515899392	0
520093696	0
524288000	0
528482304	0
532676608	0
536870912	0
545259520	0
553648128	0
562036736	0
570425344	0
578813952	0
587202560	0
595591168	0
603979776	0
612368384	0
620756992	0
629145600	0
637534208	0
645922816	0
654311424	0
662700032	0
671088640	0
679477248	0
687865856	0
696254464	0
704643072	0
713031680	0
721420288	0
729808896	0
738197504	0
746586112	0
754974720	0
763363328	0
771751936	0
780140544	5
788529152	9504
796917760	100643
805306368	46206
813694976	238497
822083584	254303
830472192	289640
838860800	401412
847249408	620941
855638016	461215
864026624	1292565
872415232	1835625
880803840	1824664
889192448	1657569
897581056	1368725
905969664	1392357
914358272	1136014
922746880	746687
931135488	467803
939524096	327271
947912704	312203
956301312	210185
964689920	112440
973078528	42941
981467136	14567
989855744	13652
998244352	12944
1006632960	13868
1015021568	12748
1023410176	12120
1031798784	11965
1040187392	11975
1048576000	12637
1056964608	12969
1065353216	17291
1073741824	89349
1090519040	207554
1107296256	472049
1124073472	678843
1140850688	1199896
1157627904	2001717
1174405120	2880590
1191182336	3887089
1207959552	4445389
1224736768	2432453
1241513984	1423916
1258291200	557009
1275068416	99926
1291845632	38
1308622848	0
1325400064	0
1342177280	0
1358954496	0
1375731712	0
1392508928	0
1409286144	0
1426063360	0
1442840576	0
1459617792	0
1476395008	0
1493172224	0
1509949440	0
1526726656	0
1543503872	0
1560281088	0
1577058304	0
1593835520	0
1610612736	0
1627389952	0
1644167168	0
1660944384	0
1677721600	0
1694498816	0
1711276032	0
1728053248	0
1744830464	0
1761607680	0
1778384896	0
1795162112	0
1811939328	0
1828716544	0
1845493760	0
1862270976	0
1879048192	0
1895825408	0
1912602624	0
1929379840	0
1946157056	0
1962934272	0
1979711488	0
1996488704	0
2013265920	0
2030043136	0
2046820352	0
2063597568	0
2080374784	0
2097152000	0
2113929216	0
2130706432	0
2147483648	0
2181038080	0
2214592512	0
2248146944	0
2281701376	0
2315255808	0
2348810240	0
2382364672	0
2415919104	0
2449473536	0
2483027968	0
2516582400	1
2550136832	0
2583691264	0
2617245696	0
2650800128	0
2684354560	0
2717908992	0
2751463424	0
2785017856	0
2818572288	0
2852126720	0
2885681152	0
2919235584	0
2952790016	0
2986344448	0
3019898880	0
3053453312	0
3087007744	0
3120562176	0
3154116608	0
3187671040	0
3221225472	0
3254779904	0
3288334336	0
3321888768	0
3355443200	0
3388997632	0
3422552064	0
3456106496	0
3489660928	0
3523215360	0
3556769792	0
3590324224	0
3623878656	0
3657433088	0
3690987520	0
3724541952	0
3758096384	0
3791650816	0
3825205248	0
3858759680	0
3892314112	0
3925868544	0
3959422976	0
3992977408	0
4026531840	0
4060086272	0
4093640704	0
4127195136	0
4160749568	0
4194304000	0
4227858432	0
4261412864	0
4294967296	0
4362076160	0
4429185024	0
4496293888	0
4563402752	0
4630511616	0
4697620480	0
4764729344	0
4831838208	0
4898947072	0
4966055936	0
5033164800	0
5100273664	0
5167382528	0
5234491392	3937
5301600256	1
5368709120	9017
5435817984	7304
5502926848	8499
5570035712	12719
5637144576	146453
5704253440	85949
5771362304	340111
5838471168	133213
5905580032	233373
5972688896	327107
6039797760	397010
6106906624	1577260
6174015488	944279
6241124352	134389
6308233216	28097
6375342080	24733
6442450944	16336
6509559808	5341
6576668672	3099
6643777536	6727
6710886400	3281
6777995264	4867
6845104128	7376
6912212992	5284
6979321856	3534
7046430720	4289
7113539584	2565
7180648448	3432
7247757312	68
7314866176	102529
7381975040	0
7449083904	0
7516192768	0
7583301632	0
7650410496	131
7717519360	0
7784628224	0
7851737088	0
7918845952	0
7985954816	0
8053063680	0
8120172544	0
8187281408	0
8254390272	0
8321499136	0
8388608000	0
8455716864	0
8522825728	0
8589934592	0
8724152320	0
8858370048	0
8992587776	0
9126805504	0
9261023232	0
9395240960	0
9529458688	0
9663676416	0
9797894144	0
9932111872	0
10066329600	0
10200547328	0
10334765056	0
10468982784	0
10603200512	0
10737418240	0
10871635968	0
11005853696	0
11140071424	0
11274289152	366
11408506880	176
11542724608	304
11676942336	21221
11811160064	9519
11945377792	11579
12079595520	31359
12213813248	12079
12348030976	4170
12482248704	7973
12616466432	4955
12750684160	382
12884901888	1129
13019119616	2088
13153337344	101
13287555072	1272
13421772800	155
13555990528	0
13690208256	0
13824425984	0
13958643712	0
14092861440	0
14227079168	0
14361296896	0
14495514624	0
14629732352	0
14763950080	0
14898167808	0
15032385536	0
15166603264	0
15300820992	0
15435038720	0
15569256448	0
15703474176	0
15837691904	0
15971909632	0
16106127360	0
16240345088	0
16374562816	0
16508780544	0
16642998272	0
16777216000	0
16911433728	0
17045651456	0
17179869184	0
17448304640	101
17716740096	4561
17985175552	8948
18253611008	12197
18522046464	4296
18790481920	1920
19058917376	1000
19327352832	173
19595788288	230
19864223744	0
20132659200	0
20401094656	0
20669530112	0
20937965568	0
21206401024	0
21474836480	0
21743271936	0
22011707392	0
22280142848	0
22548578304	0
22817013760	0
23085449216	0
23353884672	0
23622320128	52
23890755584	635
24159191040	1591
24427626496	626
24696061952	0
24964497408	0
25232932864	0
25501368320	0
25769803776	0
26038239232	0
26306674688	0
26575110144	0
26843545600	0
27111981056	0
27380416512	0
27648851968	0
27917287424	0
28185722880	0
28454158336	0
28722593792	0
28991029248	0
29259464704	0
29527900160	0
29796335616	243
30064771072	489
30333206528	2508
30601641984	1992
30870077440	1247
31138512896	434
31406948352	263
31675383808	0
31943819264	0
32212254720	0
32480690176	0
32749125632	0
33017561088	0
33285996544	0
33554432000	0
33822867456	0
34091302912	0
34359738368	0
34896609280	0
35433480192	11
35970351104	2360
36507222016	2011
37044092928	450
37580963840	0
38117834752	0
38654705664	0
39191576576	0
39728447488	0
40265318400	0
40802189312	0
41339060224	0
41875931136	487
42412802048	154
42949672960	2
43486543872	0
44023414784	0
44560285696	0
45097156608	0
45634027520	0
46170898432	0
46707769344	0
47244640256	0
47781511168	0
48318382080	0
48855252992	0
49392123904	0
49928994816	0
50465865728	0
51002736640	0
51539607552	0
52076478464	0
52613349376	0
53150220288	0
53687091200	0
54223962112	4663
54760833024	5216
55297703936	584
55834574848	41
56371445760	0
56908316672	0
57445187584	0
57982058496	0
58518929408	0
59055800320	0
59592671232	0
60129542144	1063
60666413056	320
61203283968	0
61740154880	33
62277025792	0
62813896704	0
63350767616	0
63887638528	0
64424509440	0
64961380352	0
65498251264	0
66035122176	0
66571993088	972
67108864000	1968
67645734912	447
68182605824	426
68719476736	0
69793218560	0
70866960384	0
71940702208	87
73014444032	390
74088185856	0
75161927680	0
76235669504	0
77309411328	0
78383153152	3950
79456894976	552
80530636800	0
81604378624	0
82678120448	0
83751862272	16
84825604096	554
85899345920	0
86973087744	0
88046829568	0
89120571392	0
90194313216	0
91268055040	0
92341796864	0
93415538688	0
94489280512	0
95563022336	0
96636764160	1
97710505984	0
98784247808	0
99857989632	0
100931731456	0
102005473280	0
103079215104	0
104152956928	0
105226698752	0
106300440576	0
107374182400	0
108447924224	0
109521666048	0
110595407872	0
111669149696	0
112742891520	0
113816633344	0
114890375168	0
115964116992	0
117037858816	0
118111600640	0
119185342464	0
120259084288	0
121332826112	0
122406567936	0
123480309760	0
124554051584	0
125627793408	0
126701535232	0
127775277056	0
128849018880	0
129922760704	0
130996502528	0
132070244352	0
133143986176	0
134217728000	0
135291469824	0
136365211648	0
137438953472	0
139586437120	0
141733920768	0
143881404416	0
146028888064	0
148176371712	0
150323855360	0
152471339008	0
154618822656	0
156766306304	1
158913789952	0
161061273600	0
163208757248	0
165356240896	0
167503724544	0
169651208192	0
171798691840	0
173946175488	0
176093659136	0
178241142784	0
180388626432	0
182536110080	0
184683593728	0
186831077376	0
188978561024	0
191126044672	0
193273528320	0
195421011968	0
197568495616	0
199715979264	0
201863462912	0
204010946560	0
206158430208	0
208305913856	0
210453397504	0
212600881152	0
214748364800	0
216895848448	0
219043332096	0
221190815744	0
223338299392	0
225485783040	0
227633266688	0
229780750336	0
231928233984	0
234075717632	0
236223201280	0
238370684928	0
240518168576	0
242665652224	152
244813135872	0
246960619520	0
249108103168	0
251255586816	0
253403070464	0
255550554112	0
257698037760	0
259845521408	0
261993005056	0
264140488704	0
266287972352	0
268435456000	0
270582939648	0
272730423296	0
274877906944	0
279172874240	0
283467841536	0
287762808832	0
292057776128	0
296352743424	0
300647710720	0
304942678016	0
309237645312	0
313532612608	0
317827579904	0
322122547200	0
326417514496	0
330712481792	0
335007449088	0
339302416384	0
343597383680	0
347892350976	0
352187318272	0
356482285568	0
360777252864	0
365072220160	0
369367187456	0
373662154752	0
377957122048	0
382252089344	0
386547056640	0
390842023936	0
395136991232	0
399431958528	0
403726925824	0
408021893120	0
412316860416	0
416611827712	0
420906795008	0
425201762304	0
429496729600	0
433791696896	0
438086664192	0
442381631488	0
446676598784	0
450971566080	0
455266533376	0
459561500672	0
463856467968	0
468151435264	0
472446402560	0
476741369856	0
481036337152	0
485331304448	0
489626271744	0
493921239040	0
498216206336	0
502511173632	0
506806140928	0
511101108224	0
515396075520	0
519691042816	0
523986010112	0
528280977408	0
532575944704	0
536870912000	0
541165879296	0
545460846592	0
549755813888	0
558345748480	0
566935683072	0
575525617664	0
584115552256	0
592705486848	0
601295421440	0
609885356032	0
618475290624	0
627065225216	0
635655159808	0
644245094400	0
652835028992	0
661424963584	0
670014898176	0
678604832768	0
687194767360	0
695784701952	0
704374636544	0
712964571136	0
721554505728	0
730144440320	0
738734374912	0
747324309504	0
755914244096	0
764504178688	0
773094113280	0
781684047872	0
790273982464	0
798863917056	0
807453851648	0
816043786240	0
824633720832	0
833223655424	0
841813590016	0
850403524608	0
858993459200	0
867583393792	0
876173328384	0
884763262976	0
893353197568	0
901943132160	0
910533066752	0
919123001344	0
927712935936	0
936302870528	0
944892805120	0
953482739712	0
962072674304	0
970662608896	0
979252543488	0
987842478080	0
996432412672	0
1005022347264	0
1013612281856	0
1022202216448	0
1030792151040	0
1039382085632	0
1047972020224	0
1056561954816	0
1065151889408	0
1073741824000	0
1082331758592	0
1090921693184	0
1099511627776	0
1116691496960	0
1133871366144	0
1151051235328	0
1168231104512	0
1185410973696	0
1202590842880	0
1219770712064	0
1236950581248	0
1254130450432	0
1271310319616	0
1288490188800	0
1305670057984	0
1322849927168	0
1340029796352	0
1357209665536	0
1374389534720	0
1391569403904	0
1408749273088	0
1425929142272	0
1443109011456	0
1460288880640	0
1477468749824	0
1494648619008	0
1511828488192	0
1529008357376	0
1546188226560	0
1563368095744	0
1580547964928	0
1597727834112	0
1614907703296	0
1632087572480	0
1649267441664	0
1666447310848	0
1683627180032	0
1700807049216	0
1717986918400	0
1735166787584	0
1752346656768	0
1769526525952	0
1786706395136	0
1803886264320	0
1821066133504	0
1838246002688	0
1855425871872	0
1872605741056	0
1889785610240	0
1906965479424	0
1924145348608	0
1941325217792	0
1958505086976	0
1975684956160	0
1992864825344	0
2010044694528	0
2027224563712	0
2044404432896	0
2061584302080	0
2078764171264	0
2095944040448	0
2113123909632	0
2130303778816	0
2147483648000	0
2164663517184	0
2181843386368	0
2199023255552	0
2233382993920	0
2267742732288	0
2302102470656	0
2336462209024	0
2370821947392	0
2405181685760	0
2439541424128	0
2473901162496	0
2508260900864	0
2542620639232	0
2576980377600	0
2611340115968	0
2645699854336	0
2680059592704	0
2714419331072	0
2748779069440	0
2783138807808	0
2817498546176	0
2851858284544	0
2886218022912	0
2920577761280	0
2954937499648	0
2989297238016	0
3023656976384	0
3058016714752	0
3092376453120	0
3126736191488	0
3161095929856	0
3195455668224	0
3229815406592	0
3264175144960	0
3298534883328	0
3332894621696	0
3367254360064	0
3401614098432	0
3435973836800	0
3470333575168	0
3504693313536	0
3539053051904	0
3573412790272	0
3607772528640	0
3642132267008	0
3676492005376	0
3710851743744	0
3745211482112	0
3779571220480	0
3813930958848	0
3848290697216	0
3882650435584	0
3917010173952	0
3951369912320	0
3985729650688	0
4020089389056	0
4054449127424	0
4088808865792	0
4123168604160	0
4157528342528	0
4191888080896	0
4226247819264	0
4260607557632	0
4294967296000	0
4329327034368	0
4363686772736	0
4398046511104	0
4466765987840	0
4535485464576	0
4604204941312	0
4672924418048	0
4741643894784	0
4810363371520	0
4879082848256	0
4947802324992	0
5016521801728	0
5085241278464	0
5153960755200	0
5222680231936	0
5291399708672	0
5360119185408	0
5428838662144	0
5497558138880	0
5566277615616	0
5634997092352	0
5703716569088	0
5772436045824	0
5841155522560	0
5909874999296	0
5978594476032	0
6047313952768	0
6116033429504	0
6184752906240	0
6253472382976	0
6322191859712	0
6390911336448	0
6459630813184	0
6528350289920	0
6597069766656	0
6665789243392	0
6734508720128	0
6803228196864	0
6871947673600	0
6940667150336	0
7009386627072	0
7078106103808	0
7146825580544	0
7215545057280	0
7284264534016	0
7352984010752	0
7421703487488	0
7490422964224	0
7559142440960	0
7627861917696	0
7696581394432	0
7765300871168	0
7834020347904	0
7902739824640	0
7971459301376	0
8040178778112	0
8108898254848	0
8177617731584	0
8246337208320	0
8315056685056	0
8383776161792	0
8452495638528	0
8521215115264	0
8589934592000	0
8658654068736	0
8727373545472	0
8796093022208	0
8933531975680	0
9070970929152	0
9208409882624	0
9345848836096	0
9483287789568	0
9620726743040	0
9758165696512	0
9895604649984	0
10033043603456	0
10170482556928	0
10307921510400	0
10445360463872	0
10582799417344	0
10720238370816	0
10857677324288	0
10995116277760	0
11132555231232	0
11269994184704	0
11407433138176	0
11544872091648	0
11682311045120	0
11819749998592	0
11957188952064	0
12094627905536	0
12232066859008	0
12369505812480	0
12506944765952	0
12644383719424	0
12781822672896	0
12919261626368	0
13056700579840	0
13194139533312	0
13331578486784	0
13469017440256	0
13606456393728	0
13743895347200	0
13881334300672	0
14018773254144	0
14156212207616	0
14293651161088	0
14431090114560	0
14568529068032	0
14705968021504	0
14843406974976	0
14980845928448	0
15118284881920	0
15255723835392	0
15393162788864	0
15530601742336	0
15668040695808	0
15805479649280	0
15942918602752	0
16080357556224	0
16217796509696	0
16355235463168	0
16492674416640	0
16630113370112	0
16767552323584	0
16904991277056	0
17042430230528	0
17179869184000	0
17317308137472	0
17454747090944	0
17592186044416	0
17867063951360	0
18141941858304	0
18416819765248	0
18691697672192	0
18966575579136	0
19241453486080	0
19516331393024	0
19791209299968	0
20066087206912	0
20340965113856	0
20615843020800	0
20890720927744	0
21165598834688	0
21440476741632	0
21715354648576	0
21990232555520	0
22265110462464	0
22539988369408	0
22814866276352	0
23089744183296	0
23364622090240	0
23639499997184	0
23914377904128	0
24189255811072	0
24464133718016	0
24739011624960	0
25013889531904	0
25288767438848	0
25563645345792	0
25838523252736	0
26113401159680	0
26388279066624	0
26663156973568	0
26938034880512	0
27212912787456	0
27487790694400	0
27762668601344	0
28037546508288	0
28312424415232	0
28587302322176	0
28862180229120	0
29137058136064	0
29411936043008	0
29686813949952	0
29961691856896	0
30236569763840	0
30511447670784	0
30786325577728	0
31061203484672	0
31336081391616	0
31610959298560	0
31885837205504	0
32160715112448	0
32435593019392	0
32710470926336	0
32985348833280	0
33260226740224	0
33535104647168	0
33809982554112	0
34084860461056	0
34359738368000	0
34634616274944	0
34909494181888	0
35184372088832	0
35734127902720	0
36283883716608	0
36833639530496	0
37383395344384	0
37933151158272	0
38482906972160	0
39032662786048	0
39582418599936	0
40132174413824	0
40681930227712	0
41231686041600	0
41781441855488	0
42331197669376	0
42880953483264	0
43430709297152	0
43980465111040	0
44530220924928	0
45079976738816	0
45629732552704	0
46179488366592	0
46729244180480	0
47278999994368	0
47828755808256	0
48378511622144	0
48928267436032	0
49478023249920	0
50027779063808	0
50577534877696	0
51127290691584	0
51677046505472	0
52226802319360	0
52776558133248	0
53326313947136	0
53876069761024	0
54425825574912	0
54975581388800	0
55525337202688	0
56075093016576	0
56624848830464	0
57174604644352	0
57724360458240	0
58274116272128	0
58823872086016	0
59373627899904	0
59923383713792	0
60473139527680	0
61022895341568	0
61572651155456	0
62122406969344	0
62672162783232	0
63221918597120	0
63771674411008	0
64321430224896	0
64871186038784	0
65420941852672	0
65970697666560	0
66520453480448	0
67070209294336	0
67619965108224	0
68169720922112	0
68719476736000	0
69269232549888	0
69818988363776	0
70368744177664	0
71468255805440	0
72567767433216	0
73667279060992	0
74766790688768	0
75866302316544	0
76965813944320	0
78065325572096	0
79164837199872	0
80264348827648	0
81363860455424	0
82463372083200	0
83562883710976	0
84662395338752	0
85761906966528	0
86861418594304	0
87960930222080	0
89060441849856	0
90159953477632	0
91259465105408	0
92358976733184	0
93458488360960	0
94557999988736	0
95657511616512	0
96757023244288	0
97856534872064	0
98956046499840	0
100055558127616	0
101155069755392	0
102254581383168	0
103354093010944	0
104453604638720	0
105553116266496	0
106652627894272	0
107752139522048	0
108851651149824	0
109951162777600	0
111050674405376	0
112150186033152	0
113249697660928	0
114349209288704	0
115448720916480	0
116548232544256	0
117647744172032	0
118747255799808	0
119846767427584	0
120946279055360	0
122045790683136	0
123145302310912	0
124244813938688	0
125344325566464	0
126443837194240	0
127543348822016	0
128642860449792	0
129742372077568	0
130841883705344	0
131941395333120	0
133040906960896	0
134140418588672	0
135239930216448	0
136339441844224	0
137438953472000	0
138538465099776	0
139637976727552	0
140737488355328	0
142936511610880	0
145135534866432	0
147334558121984	0
149533581377536	0
151732604633088	0
153931627888640	0
156130651144192	0
158329674399744	0
160528697655296	0
162727720910848	0
164926744166400	0
167125767421952	0
169324790677504	0
171523813933056	0
173722837188608	0
175921860444160	0
178120883699712	0
180319906955264	0
182518930210816	0
184717953466368	0
186916976721920	0
189115999977472	0
191315023233024	0
193514046488576	0
195713069744128	0
197912092999680	0
200111116255232	0
202310139510784	0
204509162766336	0
206708186021888	0
208907209277440	0
211106232532992	0
213305255788544	0
215504279044096	0
217703302299648	0
219902325555200	0
222101348810752	0
224300372066304	0
226499395321856	0
228698418577408	0
230897441832960	0
233096465088512	0
235295488344064	0
237494511599616	0
239693534855168	0
241892558110720	0
244091581366272	0
246290604621824	0
248489627877376	0
250688651132928	0
252887674388480	0
255086697644032	0
257285720899584	0
259484744155136	0
261683767410688	0
263882790666240	0
266081813921792	0
268280837177344	0
270479860432896	0
272678883688448	0
274877906944000	0
277076930199552	0
279275953455104	0
281474976710656	0
285873023221760	0
290271069732864	0
294669116243968	0
299067162755072	0
303465209266176	0
307863255777280	0
312261302288384	0
316659348799488	0
321057395310592	0
325455441821696	0
329853488332800	0
334251534843904	0
338649581355008	0
343047627866112	0
347445674377216	0
351843720888320	0
356241767399424	0
360639813910528	0
365037860421632	0
369435906932736	0
373833953443840	0
378231999954944	0
382630046466048	0
387028092977152	0
391426139488256	0
395824185999360	0
400222232510464	0
404620279021568	0
409018325532672	0
413416372043776	0
417814418554880	0
422212465065984	0
426610511577088	0
431008558088192	0
435406604599296	0
439804651110400	0
444202697621504	0
448600744132608	0
452998790643712	0
457396837154816	0
461794883665920	0
466192930177024	0
470590976688128	0
474989023199232	0
479387069710336	0
483785116221440	0
488183162732544	0
492581209243648	0
496979255754752	0
501377302265856	0
505775348776960	0
510173395288064	0
514571441799168	0
518969488310272	0
523367534821376	0
527765581332480	0
532163627843584	0
536561674354688	0
540959720865792	0
545357767376896	0
549755813888000	0
554153860399104	0
558551906910208	0
562949953421312	0
571746046443520	0
580542139465728	0
589338232487936	0
598134325510144	0
606930418532352	0
615726511554560	0
624522604576768	0
633318697598976	0
642114790621184	0
650910883643392	0
659706976665600	0
668503069687808	0
677299162710016	0
686095255732224	0
694891348754432	0
703687441776640	0
712483534798848	0
721279627821056	0
730075720843264	0
738871813865472	0
747667906887680	0
756463999909888	0
765260092932096	0
774056185954304	0
782852278976512	0
791648371998720	0
800444465020928	0
809240558043136	0
818036651065344	0
826832744087552	0
835628837109760	0
844424930131968	0
853221023154176	0
862017116176384	0
870813209198592	0
879609302220800	0
888405395243008	0
897201488265216	0
905997581287424	0
914793674309632	0
923589767331840	0
932385860354048	0
941181953376256	0
949978046398464	0
958774139420672	0
967570232442880	0
976366325465088	0
985162418487296	0
993958511509504	0
1002754604531712	0
1011550697553920	0
1020346790576128	0
1029142883598336	0
1037938976620544	0
1046735069642752	0
1055531162664960	0
1064327255687168	0
1073123348709376	0
1081919441731584	0
1090715534753792	0
1099511627776000	0
1108307720798208	0
1117103813820416	0
1125899906842624	0
1143492092887040	0
1161084278931456	0
1178676464975872	0
1196268651020288	0
1213860837064704	0
1231453023109120	0
1249045209153536	0
1266637395197952	0
1284229581242368	0
1301821767286784	0
1319413953331200	0
1337006139375616	0
1354598325420032	0
1372190511464448	0
1389782697508864	0
1407374883553280	0
1424967069597696	0
1442559255642112	0
1460151441686528	0
1477743627730944	0
1495335813775360	0
1512927999819776	0
1530520185864192	0
1548112371908608	0
1565704557953024	0
1583296743997440	0
1600888930041856	0
1618481116086272	0
1636073302130688	0
1653665488175104	0
1671257674219520	0
1688849860263936	0
1706442046308352	0
1724034232352768	0
1741626418397184	0
1759218604441600	0
1776810790486016	0
1794402976530432	0
1811995162574848	0
1829587348619264	0
1847179534663680	0
1864771720708096	0
1882363906752512	0
1899956092796928	0
1917548278841344	0
1935140464885760	0
1952732650930176	0
1970324836974592	0
1987917023019008	0
2005509209063424	0
2023101395107840	0
2040693581152256	0
2058285767196672	0
2075877953241088	0
2093470139285504	0
2111062325329920	0
2128654511374336	0
2146246697418752	0
2163838883463168	0
2181431069507584	0
2199023255552000	0
2216615441596416	0
2234207627640832	0
2251799813685248	0
2286984185774080	0
2322168557862912	0
2357352929951744	0
2392537302040576	0
2427721674129408	0
2462906046218240	0
2498090418307072	0
2533274790395904	0
2568459162484736	0
2603643534573568	0
2638827906662400	0
2674012278751232	0
2709196650840064	0
2744381022928896	0
2779565395017728	0
2814749767106560	0
2849934139195392	0
2885118511284224	0
2920302883373056	0
2955487255461888	0
2990671627550720	0
3025855999639552	0
3061040371728384	0
3096224743817216	0
3131409115906048	0
3166593487994880	0
3201777860083712	0
3236962232172544	0
3272146604261376	0
3307330976350208	0
3342515348439040	0
3377699720527872	0
3412884092616704	0
3448068464705536	0
3483252836794368	0
3518437208883200	0
3553621580972032	0
3588805953060864	0
3623990325149696	0
3659174697238528	0
3694359069327360	0
3729543441416192	0
3764727813505024	0
3799912185593856	0
3835096557682688	0
3870280929771520	0
3905465301860352	0
3940649673949184	0
3975834046038016	0
4011018418126848	0
4046202790215680	0
4081387162304512	0
4116571534393344	0
4151755906482176	0
4186940278571008	0
4222124650659840	0
4257309022748672	0
4292493394837504	0
4327677766926336	0
4362862139015168	0
4398046511104000	0
4433230883192832	0
4468415255281664	0
4503599627370496	0
4573968371548160	0
4644337115725824	0
4714705859903488	0
4785074604081152	0
4855443348258816	0
4925812092436480	0
4996180836614144	0
5066549580791808	0
5136918324969472	0
5207287069147136	0
5277655813324800	0
5348024557502464	0
5418393301680128	0
5488762045857792	0
5559130790035456	0
5629499534213120	0
5699868278390784	0
5770237022568448	0
5840605766746112	0
5910974510923776	0
5981343255101440	0
6051711999279104	0
6122080743456768	0
6192449487634432	0
6262818231812096	0
6333186975989760	0
6403555720167424	0
6473924464345088	0
6544293208522752	0
6614661952700416	0
6685030696878080	0
6755399441055744	0
6825768185233408	0
6896136929411072	0
6966505673588736	0
7036874417766400	0
7107243161944064	0
7177611906121728	0
7247980650299392	0
7318349394477056	0
7388718138654720	0
7459086882832384	0
7529455627010048	0
7599824371187712	0
7670193115365376	0
7740561859543040	0
7810930603720704	0
7881299347898368	0
7951668092076032	0
8022036836253696	0
8092405580431360	0
8162774324609024	0
8233143068786688	0
8303511812964352	0
8373880557142016	0
8444249301319680	0
8514618045497344	0
8584986789675008	0
8655355533852672	0
8725724278030336	0
8796093022208000	0
8866461766385664	0
8936830510563328	0
9007199254740992	0
9147936743096320	0
9288674231451648	0
9429411719806976	0
9570149208162304	0
9710886696517632	0
9851624184872960	0
9992361673228288	0
10133099161583616	0
10273836649938944	0
10414574138294272	0
10555311626649600	0
10696049115004928	0
10836786603360256	0
10977524091715584	0
11118261580070912	0
11258999068426240	0
11399736556781568	0
11540474045136896	0
11681211533492224	0
11821949021847552	0
11962686510202880	0
12103423998558208	0
12244161486913536	0
12384898975268864	0
12525636463624192	0
12666373951979520	0
12807111440334848	0
12947848928690176	0
13088586417045504	0
13229323905400832	0
13370061393756160	0
13510798882111488	0
13651536370466816	0
13792273858822144	0
13933011347177472	0
14073748835532800	0
14214486323888128	0
14355223812243456	0
14495961300598784	0
14636698788954112	0
14777436277309440	0
14918173765664768	0
15058911254020096	0
15199648742375424	0
15340386230730752	0
15481123719086080	0
15621861207441408	0
15762598695796736	0
15903336184152064	0
16044073672507392	0
16184811160862720	0
16325548649218048	0
16466286137573376	0
16607023625928704	0
16747761114284032	0
16888498602639360	0
17029236090994688	0
17169973579350016	0
17310711067705344	0
17451448556060672	0
17592186044416000	0
17732923532771328	0
17873661021126656	0
18014398509481984	0
18295873486192640	0
18577348462903296	0
18858823439613952	0
19140298416324608	0
19421773393035264	0
19703248369745920	0
19984723346456576	0
20266198323167232	0
20547673299877888	0
20829148276588544	0
21110623253299200	0
21392098230009856	0
21673573206720512	0
21955048183431168	0
22236523160141824	0
22517998136852480	0
22799473113563136	0
23080948090273792	0
23362423066984448	0
23643898043695104	0
23925373020405760	0
24206847997116416	0
24488322973827072	0
24769797950537728	0
25051272927248384	0
25332747903959040	0
25614222880669696	0
25895697857380352	0
26177172834091008	0
26458647810801664	0
26740122787512320	0
27021597764222976	0
27303072740933632	0
27584547717644288	0
27866022694354944	0
28147497671065600	0
28428972647776256	0
28710447624486912	0
28991922601197568	0
29273397577908224	0
29554872554618880	0
29836347531329536	0
30117822508040192	0
30399297484750848	0
30680772461461504	0
30962247438172160	0
31243722414882816	0
31525197391593472	0
31806672368304128	0
32088147345014784	0
32369622321725440	0
32651097298436096	0
32932572275146752	0
33214047251857408	0
33495522228568064	0
33776997205278720	0
34058472181989376	0
34339947158700032	0
34621422135410688	0
34902897112121344	0
35184372088832000	0
35465847065542656	0
35747322042253312	0
36028797018963968	0
36591746972385280	0
37154696925806592	0
37717646879227904	0
38280596832649216	0
38843546786070528	0
39406496739491840	0
39969446692913152	0
40532396646334464	0
41095346599755776	0
41658296553177088	0
42221246506598400	0
42784196460019712	0
43347146413441024	0
43910096366862336	0
44473046320283648	0
45035996273704960	0
45598946227126272	0
46161896180547584	0
46724846133968896	0
47287796087390208	0
47850746040811520	0
48413695994232832	0
48976645947654144	0
49539595901075456	0
50102545854496768	0
50665495807918080	0
51228445761339392	0
51791395714760704	0
52354345668182016	0
52917295621603328	0
53480245575024640	0
54043195528445952	0
54606145481867264	0
55169095435288576	0
55732045388709888	0
56294995342131200	0
56857945295552512	0
57420895248973824	0
57983845202395136	0
58546795155816448	0
59109745109237760	0
59672695062659072	0
60235645016080384	0
60798594969501696	0
61361544922923008	0
61924494876344320	0
62487444829765632	0
63050394783186944	0
63613344736608256	0
64176294690029568	0
64739244643450880	0
65302194596872192	0
65865144550293504	0
66428094503714816	0
66991044457136128	0
67553994410557440	0
68116944363978752	0
68679894317400064	0
69242844270821376	0
69805794224242688	0
70368744177664000	0
70931694131085312	0
71494644084506624	0
72057594037927936	0
73183493944770560	0
74309393851613184	0
75435293758455808	0
76561193665298432	0
77687093572141056	0
78812993478983680	0
79938893385826304	0
81064793292668928	0
82190693199511552	0
83316593106354176	0
84442493013196800	0
85568392920039424	0
86694292826882048	0
87820192733724672	0
88946092640567296	0
90071992547409920	0
91197892454252544	0
92323792361095168	0
93449692267937792	0
94575592174780416	0
95701492081623040	0
96827391988465664	0
97953291895308288	0
99079191802150912	0
100205091708993536	0
101330991615836160	0
102456891522678784	0
103582791429521408	0
104708691336364032	0
105834591243206656	0
106960491150049280	0
108086391056891904	0
109212290963734528	0
110338190870577152	0
111464090777419776	0
112589990684262400	0
113715890591105024	0
114841790497947648	0
115967690404790272	0
117093590311632896	0
118219490218475520	0
119345390125318144	0
120471290032160768	0
121597189939003392	0
122723089845846016	0
123848989752688640	0
124974889659531264	0
126100789566373888	0
127226689473216512	0
128352589380059136	0
129478489286901760	0
130604389193744384	0
131730289100587008	0
132856189007429632	0
133982088914272256	0
135107988821114880	0
136233888727957504	0
137359788634800128	0
138485688541642752	0
139611588448485376	0
140737488355328000	0
141863388262170624	0
142989288169013248	0
144115188075855872	0
146366987889541120	0
148618787703226368	0
150870587516911616	0
153122387330596864	0
155374187144282112	0
157625986957967360	0
159877786771652608	0
162129586585337856	0
164381386399023104	0
166633186212708352	0
168884986026393600	0
171136785840078848	0
173388585653764096	0
175640385467449344	0
177892185281134592	0
180143985094819840	0
182395784908505088	0
184647584722190336	0
186899384535875584	0
189151184349560832	0
191402984163246080	0
193654783976931328	0
195906583790616576	0
198158383604301824	0
200410183417987072	0
202661983231672320	0
204913783045357568	0
207165582859042816	0
209417382672728064	0
211669182486413312	0
213920982300098560	0
216172782113783808	0
218424581927469056	0
220676381741154304	0
222928181554839552	0
225179981368524800	0
227431781182210048	0
229683580995895296	0
231935380809580544	0
234187180623265792	0
236438980436951040	0
238690780250636288	0
240942580064321536	0
243194379878006784	0
245446179691692032	0
247697979505377280	0
249949779319062528	0
252201579132747776	0
254453378946433024	0
256705178760118272	0
258956978573803520	0
261208778387488768	0
263460578201174016	0
265712378014859264	0
267964177828544512	0
270215977642229760	0
272467777455915008	0
274719577269600256	0
276971377083285504	0
279223176896970752	0
281474976710656000	0
283726776524341248	0
285978576338026496	0
288230376151711744	0
292733975779082240	0
297237575406452736	0
301741175033823232	0
306244774661193728	0
310748374288564224	0
315251973915934720	0
319755573543305216	0
324259173170675712	0
328762772798046208	0
333266372425416704	0
337769972052787200	0
342273571680157696	0
346777171307528192	0
351280770934898688	0
355784370562269184	0
360287970189639680	0
364791569817010176	0
369295169444380672	0
373798769071751168	0
378302368699121664	0
382805968326492160	0
387309567953862656	0
391813167581233152	0
396316767208603648	0
400820366835974144	0
405323966463344640	0
409827566090715136	0
414331165718085632	0
418834765345456128	0
423338364972826624	0
427841964600197120	0
432345564227567616	0
436849163854938112	0
441352763482308608	0
445856363109679104	0
450359962737049600	0
454863562364420096	0
459367161991790592	0
463870761619161088	0
468374361246531584	0
472877960873902080	0
477381560501272576	0
481885160128643072	0
486388759756013568	0
490892359383384064	0
495395959010754560	0
499899558638125056	0
504403158265495552	0
508906757892866048	0
513410357520236544	0
517913957147607040	0
522417556774977536	0
526921156402348032	0
531424756029718528	0
535928355657089024	0
540431955284459520	0
544935554911830016	0
549439154539200512	0
553942754166571008	0
558446353793941504	0
562949953421312000	0
567453553048682496	0
571957152676052992	0
576460752303423488	0
585467951558164480	0
594475150812905472	0
603482350067646464	0
612489549322387456	0
621496748577128448	0
630503947831869440	0
639511147086610432	0
648518346341351424	0
657525545596092416	0
666532744850833408	0
675539944105574400	0
684547143360315392	0
693554342615056384	0
702561541869797376	0
711568741124538368	0
720575940379279360	0
729583139634020352	0
738590338888761344	0
747597538143502336	0
756604737398243328	0
765611936652984320	0
774619135907725312	0
783626335162466304	0
792633534417207296	0
801640733671948288	0
810647932926689280	0
819655132181430272	0
828662331436171264	0
837669530690912256	0
846676729945653248	0
855683929200394240	0
864691128455135232	0
873698327709876224	0
882705526964617216	0
891712726219358208	0
900719925474099200	0
909727124728840192	0
918734323983581184	0
927741523238322176	0
936748722493063168	0
945755921747804160	0
954763121002545152	0
963770320257286144	0
972777519512027136	0
981784718766768128	0
990791918021509120	0
999799117276250112	0
1008806316530991104	0
1017813515785732096	0
1026820715040473088	0
1035827914295214080	0
1044835113549955072	0
1053842312804696064	0
1062849512059437056	0
1071856711314178048	0
1080863910568919040	0
1089871109823660032	0
1098878309078401024	0
1107885508333142016	0
1116892707587883008	0
1125899906842624000	0
1134907106097364992	0
1143914305352105984	0
1152921504606846976	0
1170935903116328960	0
1188950301625810944	0
1206964700135292928	0
1224979098644774912	0
1242993497154256896	0
1261007895663738880	0
1279022294173220864	0
1297036692682702848	0
1315051091192184832	0
1333065489701666816	0
1351079888211148800	0
1369094286720630784	0
1387108685230112768	0
1405123083739594752	0
1423137482249076736	0
1441151880758558720	0
1459166279268040704	0
1477180677777522688	0
1495195076287004672	0
1513209474796486656	0
1531223873305968640	0
1549238271815450624	0
1567252670324932608	0
1585267068834414592	0
1603281467343896576	0
1621295865853378560	0
1639310264362860544	0
1657324662872342528	0
1675339061381824512	0
1693353459891306496	0
1711367858400788480	0
1729382256910270464	0
1747396655419752448	0
1765411053929234432	0
1783425452438716416	0
1801439850948198400	0
1819454249457680384	0
1837468647967162368	0
1855483046476644352	0
1873497444986126336	0
1891511843495608320	0
1909526242005090304	0
1927540640514572288	0
1945555039024054272	0
1963569437533536256	0
1981583836043018240	0
1999598234552500224	0
2017612633061982208	0
2035627031571464192	0
2053641430080946176	0
2071655828590428160	0
2089670227099910144	0
2107684625609392128	0
2125699024118874112	0
2143713422628356096	0
2161727821137838080	0
2179742219647320064	0
2197756618156802048	0
2215771016666284032	0
2233785415175766016	0
2251799813685248000	0
2269814212194729984	0
2287828610704211968	0
2305843009213693952	0
2341871806232657920	0
2377900603251621888	0
2413929400270585856	0
2449958197289549824	0
2485986994308513792	0
2522015791327477760	0
2558044588346441728	0
2594073385365405696	0
2630102182384369664	0
2666130979403333632	0
2702159776422297600	0
2738188573441261568	0
2774217370460225536	0
2810246167479189504	0
2846274964498153472	0
2882303761517117440	0
2918332558536081408	0
2954361355555045376	0
2990390152574009344	0
3026418949592973312	0
3062447746611937280	0
3098476543630901248	0
3134505340649865216	0
3170534137668829184	0
3206562934687793152	0
3242591731706757120	0
3278620528725721088	0
3314649325744685056	0
3350678122763649024	0
3386706919782612992	0
3422735716801576960	0
3458764513820540928	0
3494793310839504896	0
3530822107858468864	0
3566850904877432832	0
3602879701896396800	0
3638908498915360768	0
3674937295934324736	0
3710966092953288704	0
3746994889972252672	0
3783023686991216640	0
3819052484010180608	0
3855081281029144576	0
3891110078048108544	0
3927138875067072512	0
3963167672086036480	0
3999196469105000448	0
4035225266123964416	0
4071254063142928384	0
4107282860161892352	0
4143311657180856320	0
4179340454199820288	0
4215369251218784256	0
4251398048237748224	0
4287426845256712192	0
4323455642275676160	0
4359484439294640128	0
4395513236313604096	0
4431542033332568064	0
4467570830351532032	0
4503599627370496000	0
4539628424389459968	0
4575657221408423936	0
4611686018427387904	0
4683743612465315840	0
4755801206503243776	0
4827858800541171712	0
4899916394579099648	0
4971973988617027584	0
5044031582654955520	0
5116089176692883456	0
5188146770730811392	0
5260204364768739328	0
5332261958806667264	0
5404319552844595200	0
5476377146882523136	0
5548434740920451072	0
5620492334958379008	0
5692549928996306944	0
5764607523034234880	0
5836665117072162816	0
5908722711110090752	0
5980780305148018688	0
6052837899185946624	0
6124895493223874560	0
6196953087261802496	0
6269010681299730432	0
6341068275337658368	0
6413125869375586304	0
6485183463413514240	0
6557241057451442176	0
6629298651489370112	0
6701356245527298048	0
6773413839565225984	0
6845471433603153920	0
6917529027641081856	0
6989586621679009792	0
7061644215716937728	0
7133701809754865664	0
7205759403792793600	0
7277816997830721536	0
7349874591868649472	0
7421932185906577408	0
7493989779944505344	0
7566047373982433280	0
7638104968020361216	0
7710162562058289152	0
7782220156096217088	0
7854277750134145024	0
7926335344172072960	0
7998392938210000896	0
8070450532247928832	0
8142508126285856768	0
8214565720323784704	0
8286623314361712640	0
8358680908399640576	0
8430738502437568512	0
8502796096475496448	0
8574853690513424384	0
8646911284551352320	0
8718968878589280256	0
8791026472627208192	0
8863084066665136128	0
8935141660703064064	0
9007199254740992000	0
9079256848778919936	0
9151314442816847872	0
9223372036854775808	0
9367487224930631680	0
9511602413006487552	0
9655717601082343424	0
9799832789158199296	0
9943947977234055168	0
10088063165309911040	0
10232178353385766912	0
10376293541461622784	0
10520408729537478656	0
10664523917613334528	0
10808639105689190400	0
10952754293765046272	0
11096869481840902144	0
11240984669916758016	0
11385099857992613888	0
11529215046068469760	0
11673330234144325632	0
11817445422220181504	0
11961560610296037376	0
12105675798371893248	0
12249790986447749120	0
12393906174523604992	0
12538021362599460864	0
12682136550675316736	0
12826251738751172608	0
12970366926827028480	0
13114482114902884352	0
13258597302978740224	0
13402712491054596096	0
13546827679130451968	0
13690942867206307840	0
13835058055282163712	0
13979173243358019584	0
14123288431433875456	0
14267403619509731328	0
14411518807585587200	0
14555633995661443072	0
14699749183737298944	0
14843864371813154816	0
14987979559889010688	0
15132094747964866560	0
15276209936040722432	0
15420325124116578304	0
15564440312192434176	0
15708555500268290048	0
15852670688344145920	0
15996785876420001792	0
16140901064495857664	0
16285016252571713536	0
16429131440647569408	0
16573246628723425280	0
16717361816799281152	0
16861477004875137024	0
17005592192950992896	0
17149707381026848768	0
17293822569102704640	0
17437937757178560512	0
17582052945254416384	0
17726168133330272256	0
17870283321406128128	0
18014398509481984000	0
18158513697557839872	0
18302628885633695744	0
