0 0.00771907
1 0.195675
2 0.383631
3 0.571587
4 0.759543
5 0.947499
6 1.13546
7 1.32341
8 1.51119
9 1.71325
10 1.90087
11 2.08849
12 2.27612
13 2.46374
14 2.65136
15 2.83899
16 3.02661
17 3.22867
18 3.41629
19 3.60392
20 3.79154
21 3.97916
22 4.16679
23 4.35441
24 4.54204
25 4.74409
26 4.93172
27 5.1193
28 5.30636
29 5.49343
30 5.68049
31 5.86756
32 6.05462
33 6.25608
34 6.44315
35 6.63021
36 6.81728
37 7.00434
38 7.19141
39 7.37847
40 7.56554
41 7.767
42 7.95406
43 8.14113
44 8.32819
45 8.51526
46 8.70232
47 8.88924
48 9.07602
49 9.27718
50 9.46396
51 9.65075
52 9.83753
53 10.0243
54 10.2111
55 10.3979
56 10.5847
57 10.7858
58 10.9726
59 11.1594
60 11.3462
61 11.533
62 11.7198
63 11.9065
64 12.0933
65 12.2945
66 12.4812
67 12.6678
68 12.8543
69 13.0408
70 13.2273
71 13.4138
72 13.6003
73 13.8012
74 13.9877
75 14.1742
76 14.3607
77 14.5472
78 14.7337
79 14.9202
80 15.1067
81 15.2932
82 15.4941
83 15.6806
84 15.8671
85 16.0536
86 16.2399
87 16.426
88 16.6121
89 16.7981
90 16.9985
91 17.1846
92 17.3707
93 17.5567
94 17.7428
95 17.9289
96 18.115
97 18.301
98 18.5014
99 18.6875
100 18.8736
101 19.0596
102 19.2457
103 19.4318
104 19.6178
105 19.8039
106 20.004
107 20.1897
108 20.3755
109 20.5613
110 20.747
111 20.9328
112 21.1186
113 21.3043
114 21.5044
115 21.6902
116 21.8759
117 22.0617
118 22.2474
119 22.4332
120 22.619
121 22.8047
122 23.0048
123 23.1906
124 23.3763
125 23.5618
126 23.7471
127 23.9323
128 24.1176
130 24.5024
132 24.8729
134 25.2434
136 25.6139
138 25.9987
140 26.3692
142 26.7397
144 27.1103
146 27.4939
148 27.8633
150 28.2327
152 28.6021
154 28.9716
156 29.3552
158 29.7246
160 30.094
162 30.4634
164 30.8471
166 31.2165
168 31.5859
170 31.9553
172 32.339
174 32.7084
176 33.0778
178 33.4472
180 33.8308
182 34.2003
184 34.5689
186 34.9369
188 35.319
190 35.687
192 36.0549
194 36.4229
196 36.805
198 37.173
200 37.5409
202 37.9089
204 38.291
206 38.659
208 39.0269
210 39.3949
212 39.777
214 40.145
216 40.5129
218 40.8809
220 41.263
222 41.631
224 41.9972
226 42.3635
228 42.7438
230 43.1101
232 43.4764
234 43.8426
236 44.223
238 44.5892
240 44.9555
242 45.3217
244 45.7021
246 46.0683
248 46.4346
250 46.8009
252 47.1812
254 47.5475
256 47.9137
260 48.6603
264 49.3904
268 50.1336
272 50.8629
276 51.6061
280 52.3354
284 53.0786
288 53.8079
292 54.5511
296 55.2804
300 56.0236
304 56.7497
308 57.4759
312 58.2159
316 58.9421
320 59.6822
324 60.4083
328 61.1484
332 61.8745
336 62.6146
340 63.34
344 64.0768
348 64.7998
352 65.5367
356 66.2597
360 66.9965
364 67.7195
368 68.4564
372 69.1793
376 69.9162
380 70.6375
384 71.3707
388 72.0902
392 72.8234
396 73.5429
400 74.2761
404 74.9956
408 75.7288
412 76.4483
416 77.1815
420 77.8988
424 78.6291
428 79.3456
432 80.0758
436 80.7923
440 81.5225
444 82.239
448 82.9693
452 83.6858
456 84.416
460 85.129
464 85.8556
468 86.5685
472 87.2951
476 88.008
480 88.7346
484 89.4475
488 90.1741
492 90.887
496 91.6129
500 92.3227
504 93.0462
508 93.7561
512 94.4796
520 95.913
528 97.3463
536 98.7784
544 100.207
552 101.635
560 103.063
568 104.491
576 105.916
584 107.337
592 108.758
600 110.178
608 111.599
616 113.003
624 114.418
632 115.833
640 117.248
648 118.663
656 120.074
664 121.483
672 122.891
680 124.299
688 125.708
696 127.111
704 128.513
712 129.915
720 131.316
728 132.718
736 134.115
744 135.511
752 136.908
760 138.304
768 139.7
776 141.09
784 142.48
792 143.87
800 145.26
808 146.65
816 148.034
824 149.418
832 150.801
840 152.185
848 153.568
856 154.945
864 156.321
872 157.698
880 159.075
888 160.449
896 161.82
904 163.19
912 164.56
920 165.93
928 167.295
936 168.654
944 170.014
952 171.373
960 172.732
968 174.088
976 175.441
984 176.794
992 178.147
1000 179.501
1008 180.848
1016 182.194
1024 183.539
1040 186.231
1056 188.909
1072 191.585
1088 194.256
1104 196.919
1120 199.582
1136 202.232
1152 204.881
1168 207.523
1184 210.16
1200 212.795
1216 215.418
1232 218.028
1248 220.642
1264 223.252
1280 225.857
1296 228.452
1312 231.047
1328 233.631
1344 236.213
1360 238.789
1376 241.356
1392 243.923
1408 246.476
1424 249.029
1440 251.575
1456 254.115
1472 256.653
1488 259.177
1504 261.7
1520 264.214
1536 266.723
1552 269.228
1568 271.72
1584 274.212
1600 276.694
1616 279.172
1632 281.646
1648 284.11
1664 286.573
1680 289.025
1696 291.475
1712 293.919
1728 296.355
1744 298.79
1760 301.212
1776 303.633
1792 306.048
1808 308.458
1824 310.867
1840 313.252
1856 315.648
1872 318.035
1888 320.418
1904 322.797
1920 325.165
1936 327.533
1952 329.89
1968 332.245
1984 334.595
2000 336.936
2016 339.276
2032 341.604
2048 343.931
2080 348.567
2112 353.18
2144 357.771
2176 362.344
2208 366.886
2240 371.407
2272 375.906
2304 380.382
2336 384.837
2368 389.27
2400 393.672
2432 398.052
2464 402.398
2496 406.732
2528 411.048
2560 415.337
2592 419.603
2624 423.847
2656 428.062
2688 432.253
2720 436.443
2752 440.579
2784 444.716
2816 448.818
2848 452.896
2880 456.965
2912 460.984
2944 465.003
2976 468.982
3008 472.946
3040 476.894
3072 480.794
3104 484.703
3136 488.567
3168 492.421
3200 496.254
3232 500.055
3264 503.856
3296 507.601
3328 511.345
3360 515.06
3392 518.747
3424 522.43
3456 526.06
3488 529.69
3520 533.282
3552 536.854
3584 540.415
3616 543.932
3648 547.449
3680 550.915
3712 554.377
3744 557.82
3776 561.225
3808 564.631
3840 567.987
3872 571.337
3904 574.66
3936 577.951
3968 581.241
4000 584.473
4032 587.705
4064 590.904
4096 594.081
4160 600.372
4224 606.577
4288 612.69
4352 618.717
4416 624.684
4480 630.607
4544 636.489
4608 642.329
4672 648.125
4736 653.885
4800 659.62
4864 665.333
4928 671.015
4992 676.677
5056 682.311
5120 687.915
5184 693.492
5248 699.026
5312 704.509
5376 709.945
5440 715.331
5504 720.666
5568 725.966
5632 731.224
5696 736.44
5760 741.612
5824 746.732
5888 751.811
5952 756.848
6016 761.843
6080 766.797
6144 771.696
6208 776.554
6272 781.37
6336 786.145
6400 790.879
6464 795.57
6528 800.207
6592 804.803
6656 809.356
6720 813.863
6784 818.334
6848 822.757
6912 827.134
6976 831.468
7040 835.76
7104 840.009
7168 844.217
7232 848.373
7296 852.486
7360 856.552
7424 860.582
7488 864.569
7552 868.511
7616 872.399
7680 876.213
7744 879.999
7808 883.754
7872 887.424
7936 891.09
8000 894.693
8064 898.282
8128 901.868
8192 905.449
8320 912.603
8448 919.458
8576 925.417
8704 930.041
8832 934.664
8960 939.286
9088 943.908
9216 948.526
9344 953.147
9472 957.766
9600 962.386
9728 967.004
9856 971.619
9984 976.236
10112 980.853
10240 985.468
10368 990.081
10496 994.695
10624 999.309
10752 1003.92
10880 1008.53
11008 1013.14
11136 1017.75
11264 1022.36
11392 1026.94
11520 1031.22
11648 1035.39
11776 1039.55
11904 1043.71
12032 1047.86
12160 1052.02
12288 1056.18
12416 1060.33
12544 1064.49
12672 1068.64
12800 1072.79
12928 1076.94
13056 1081.09
13184 1085.24
13312 1089.39
13440 1093.53
13568 1097.68
13696 1101.82
13824 1105.96
13952 1110.1
14080 1114.24
14208 1118.38
14336 1122.52
14464 1126.65
14592 1130.79
14720 1134.92
14848 1139.05
14976 1143.18
15104 1147.31
15232 1151.44
15360 1155.56
15488 1159.69
15616 1163.81
15744 1167.94
15872 1172.05
16000 1176.18
16128 1180.29
16256 1184.41
16384 1188.53
16640 1196.76
16896 1204.98
17152 1213.2
17408 1221.41
17664 1229.62
17920 1237.83
18176 1246.02
18432 1254.22
18688 1262.4
18944 1270.59
19200 1278.77
19456 1286.94
19712 1295.11
19968 1303.27
20224 1311.43
20480 1319.58
20736 1327.73
20992 1335.87
21248 1344.01
21504 1352.14
21760 1360.27
22016 1368.39
22272 1376.51
22528 1384.61
22784 1392.71
23040 1400.81
23296 1408.89
23552 1416.97
23808 1425.04
24064 1433.11
24320 1441.16
24576 1449.21
24832 1457.25
25088 1465.28
25344 1473.31
25600 1481.33
25856 1489.34
26112 1497.34
26368 1505.34
26624 1513.33
26880 1521.3
27136 1529.28
27392 1537.25
27648 1545.2
27904 1553.15
28160 1561.1
28416 1569.03
28672 1576.96
28928 1584.88
29184 1592.8
29440 1600.7
29696 1608.6
29952 1616.49
30208 1624.37
30464 1632.25
30720 1640.12
30976 1647.98
31232 1655.83
31488 1663.67
31744 1671.51
32000 1679.34
32256 1687.17
32512 1694.98
32768 1702.79
33280 1718.38
33792 1733.95
34304 1749.48
34816 1764.98
35328 1780.46
35840 1795.9
36352 1811.31
36864 1826.7
37376 1842.05
37888 1857.37
38400 1872.67
38912 1887.7
39424 1901.15
39936 1914.49
40448 1927.82
40960 1941.13
41472 1954.43
41984 1967.72
42496 1981
43008 1994.26
43520 2007.51
44032 2020.75
44544 2033.98
45056 2047.2
45568 2060.4
46080 2073.59
46592 2086.77
47104 2099.94
47616 2113.1
48128 2126.24
48640 2139.37
49152 2152.49
49664 2165.6
50176 2178.69
50688 2191.77
51200 2204.84
51712 2217.9
52224 2230.95
52736 2243.98
53248 2257
53760 2270.01
54272 2283.01
54784 2296
55296 2308.97
55808 2321.93
56320 2334.88
56832 2347.82
57344 2360.74
57856 2373.65
58368 2386.55
58880 2399.44
59392 2412.32
59904 2425.18
60416 2438.03
60928 2450.87
61440 2463.71
61952 2476.54
62464 2489.37
62976 2502.21
63488 2515.04
64000 2527.87
64512 2540.71
65024 2553.54
65536 2566.37
66560 2592.04
67584 2617.7
68608 2643.37
69632 2669.03
70656 2694.69
71680 2720.36
72704 2746.02
73728 2771.68
74752 2797.34
75776 2823
76800 2848.67
77824 2874.33
78848 2899.99
79872 2925.64
80896 2951.16
81920 2976.64
82944 3002.11
83968 3027.58
84992 3053.05
86016 3078.52
87040 3104
88064 3129.47
89088 3154.94
90112 3180.41
91136 3205.88
92160 3231.35
93184 3256.82
94208 3282.29
95232 3307.77
96256 3333.24
97280 3358.71
98304 3384.18
99328 3409.65
100352 3435.12
101376 3460.59
102400 3486.06
103424 3511.53
104448 3537.01
105472 3562.48
106496 3587.95
107520 3613.42
108544 3638.89
109568 3664.36
110592 3689.83
111616 3715.3
112640 3740.77
113664 3766.24
114688 3791.71
115712 3817.19
116736 3842.66
117760 3868.13
118784 3893.6
119808 3919.07
120832 3944.54
121856 3970.01
122880 3995.48
123904 4020.95
124928 4046.42
125952 4071.89
126976 4097.36
128000 4122.83
129024 4148.3
130048 4173.77
131072 4199.24
133120 4250.19
135168 4301.13
137216 4352.07
139264 4403.01
141312 4453.95
143360 4504.89
145408 4555.83
147456 4606.77
149504 4657.71
151552 4708.65
153600 4759.59
155648 4810.53
157696 4861.47
159744 4912.41
161792 4963.35
163840 5014.29
165888 5065.23
167936 5116.17
169984 5167.11
172032 5218.05
174080 5268.99
176128 5319.93
178176 5370.86
180224 5421.8
182272 5472.74
184320 5523.68
186368 5574.62
188416 5625.56
190464 5676.5
192512 5727.44
194560 5778.37
196608 5829.31
198656 5880.25
200704 5931.19
202752 5982.13
204800 6033.06
206848 6084
208896 6134.94
210944 6185.88
212992 6236.81
215040 6287.75
217088 6338.69
219136 6389.63
221184 6440.56
223232 6491.5
225280 6542.44
227328 6593.38
229376 6644.31
231424 6695.25
233472 6746.19
235520 6797.12
237568 6848.06
239616 6898.99
241664 6949.93
243712 7000.87
245760 7051.8
247808 7102.74
249856 7153.67
251904 7204.61
253952 7255.54
256000 7306.48
258048 7357.42
260096 7408.35
262144 7459.29
266240 7561.16
270336 7663.03
274432 7764.89
278528 7866.76
282624 7968.63
286720 8070.5
290816 8172.37
294912 8274.24
299008 8376.1
303104 8477.97
307200 8579.84
311296 8681.7
315392 8783.57
319488 8885.43
323584 8987.3
327680 9089.16
331776 9191.02
335872 9292.89
339968 9394.75
344064 9496.61
348160 9598.47
352256 9700.34
356352 9802.2
360448 9904.06
364544 10005.9
368640 10107.8
372736 10209.6
376832 10311.5
380928 10413.3
385024 10515.2
389120 10617
393216 10718.8
397312 10820.5
401408 10922.3
405504 11024
409600 11125.7
413696 11227.4
417792 11329.1
421888 11430.8
425984 11532.4
430080 11634.1
434176 11735.7
438272 11837.3
442368 11938.9
446464 12040.5
450560 12142
454656 12243.6
458752 12345.1
462848 12446.6
466944 12548.1
471040 12649.5
475136 12751
479232 12852.4
483328 12953.9
487424 13055.3
491520 13156.6
495616 13258
499712 13359.4
503808 13460.7
507904 13562
512000 13663.3
516096 13764.6
520192 13865.9
524288 13967.1
532480 14169.6
540672 14372
548864 14574.3
557056 14776.6
565248 14978.8
573440 15180.9
581632 15382.9
589824 15584.9
598016 15786.8
606208 15988.7
614400 16190.5
622592 16392
630784 16593.2
638976 16794
647168 16994.4
655360 17194.3
663552 17393.9
671744 17593.1
679936 17791.9
688128 17990.3
696320 18188.3
704512 18385.9
712704 18583
720896 18779.8
729088 18976.2
737280 19172.3
745472 19367.9
753664 19563
761856 19757.8
770048 19952.2
778240 20146.2
786432 20339.9
794624 20533
802816 20725.9
811008 20918.7
819200 21111.3
827392 21303.9
835584 21496.4
843776 21688.9
851968 21881.2
860160 22073.5
868352 22265.8
876544 22457.9
884736 22650
892928 22842
901120 23034
909312 23225.8
917504 23417.6
925696 23609.4
933888 23801
942080 23992.6
950272 24184
958464 24375.1
966656 24566
974848 24756.7
983040 24947.4
991232 25138
999424 25328.6
1007616 25519
1015808 25709.4
1024000 25899.8
1032192 26090
1040384 26280.2
1048576 26470.3
1064960 26850.3
1081344 27230
1097728 27609.4
1114112 27988.6
1130496 28367.4
1146880 28746
1163264 29124.3
1179648 29502.2
1196032 29879.9
1212416 30257.3
1228800 30634.4
1245184 31011.2
1261568 31387.7
1277952 31764
1294336 32139.9
1310720 32515.5
1327104 32890.8
1343488 33265.8
1359872 33640.4
1376256 34014.6
1392640 34388.4
1409024 34762
1425408 35135.2
1441792 35507.6
1458176 35878.6
1474560 36247.9
1490944 36615.5
1507328 36981.6
1523712 37346.2
1540096 37709.3
1556480 38070.9
1572864 38430.7
1589248 38789
1605632 39145.8
1622016 39501.8
1638400 39857.2
1654784 40212.3
1671168 40567.1
1687552 40921.7
1703936 41276
1720320 41630
1736704 41983.6
1753088 42337
1769472 42690.1
1785856 43042.9
1802240 43395.4
1818624 43747.6
1835008 44099.6
1851392 44451.2
1867776 44802.6
1884160 45153.6
1900544 45504.3
1916928 45854.8
1933312 46205
1949696 46554.9
1966080 46904.5
1982464 47253.7
1998848 47602.8
2015232 47951.6
2031616 48300
2048000 48648
2064384 48995.8
2080768 49343.4
2097152 49690.7
2129920 50384.3
2162688 51076.7
2195456 51768.1
2228224 52458.1
2260992 53147.1
2293760 53834.9
2326528 54521.5
2359296 55206.9
2392064 55891.1
2424832 56574.3
2457600 57256.2
2490368 57937
2523136 58616.5
2555904 59294.9
2588672 59972.1
2621440 60648.1
2654208 61323
2686976 61996.8
2719744 62669.4
2752512 63340.9
2785280 64011
2818048 64680.1
2850816 65348
2883584 66014.7
2916352 66680.5
2949120 67344.8
2981888 68008
3014656 68670
3047424 69330.9
3080192 69990.8
3112960 70649.4
3145728 71306.7
3178496 71962.9
3211264 72618
3244032 73271.9
3276800 73924.7
3309568 74576.3
3342336 75226.5
3375104 75875.7
3407872 76523.8
3440640 77170.7
3473408 77816.6
3506176 78461
3538944 79104.3
3571712 79746.5
3604480 80387.6
3637248 81027.6
3670016 81666.3
3702784 82303.8
3735552 82940.1
3768320 83575.3
3801088 84209.4
3833856 84842.4
3866624 85474
3899392 86104.5
3932160 86733.8
3964928 87362.1
3997696 87989.3
4030464 88615.4
4063232 89240.2
4096000 89863.6
4128768 90484.9
4161536 91103.9
4194304 91720.5
4259840 92945.4
4325376 94160.6
4390912 95366.3
4456448 96561.2
4521984 97746.7
4587520 98922.3
4653056 100088
4718592 101243
4784128 102389
4849664 103524
4915200 104650
4980736 105766
5046272 106872
5111808 107968
5177344 109053
5242880 110128
5308416 111194
5373952 112251
5439488 113297
5505024 114334
5570560 115359
5636096 116376
5701632 117385
5767168 118388
5832704 119386
5898240 120376
5963776 121361
6029312 122340
6094848 123313
6160384 124280
6225920 125242
6291456 126196
6356992 127145
6422528 128089
6488064 129026
6553600 129958
6619136 130883
6684672 131802
6750208 132715
6815744 133623
6881280 134525
6946816 135421
7012352 136310
7077888 137193
7143424 138071
7208960 138943
7274496 139809
7340032 140669
7405568 141523
7471104 142370
7536640 143212
7602176 144049
7667712 144880
7733248 145703
7798784 146521
7864320 147333
7929856 148139
7995392 148940
8060928 149735
8126464 150522
8192000 151305
8257536 152081
8323072 152852
8388608 153617
8519680 155128
8650752 156616
8781824 158082
8912896 159538
9043968 160989
9175040 162435
9306112 163875
9437184 165311
9568256 166740
9699328 168168
9830400 169594
9961472 171019
10092544 172444
10223616 173868
10354688 175291
10485760 176713
10616832 178135
10747904 179555
10878976 180975
11010048 182394
11141120 183811
11272192 185228
11403264 186643
11534336 188058
11665408 189472
11796480 190885
11927552 192297
12058624 193708
12189696 195119
12320768 196528
12451840 197936
12582912 199343
12713984 200750
12845056 202155
12976128 203560
13107200 204963
13238272 206366
13369344 207767
13500416 209168
13631488 210568
13762560 211967
13893632 213365
14024704 214762
14155776 216158
14286848 217553
14417920 218947
14548992 220340
14680064 221732
14811136 223124
14942208 224514
15073280 225903
15204352 227292
15335424 228679
15466496 230066
15597568 231452
15728640 232837
15859712 234221
15990784 235605
16121856 236986
16252928 238365
16384000 239743
16515072 241120
16646144 242496
16777216 243872
17039360 246620
17301504 249365
17563648 252107
17825792 254845
18087936 257581
18350080 260313
18612224 263042
18874368 265768
19136512 268490
19398656 271209
19660800 273919
19922944 276627
20185088 279331
20447232 282032
20709376 284729
20971520 287423
21233664 290114
21495808 292802
21757952 295486
22020096 298166
22282240 300842
22544384 303516
22806528 306185
23068672 308852
23330816 311515
23592960 314175
23855104 316831
24117248 319484
24379392 322134
24641536 324781
24903680 327424
25165824 330064
25427968 332700
25690112 335333
25952256 337964
26214400 340591
26476544 343213
26738688 345833
27000832 348450
27262976 351064
27525120 353673
27787264 356280
28049408 358884
28311552 361483
28573696 364080
28835840 366673
29097984 369264
29360128 371850
29622272 374433
29884416 377012
30146560 379589
30408704 382163
30670848 384732
30932992 387298
31195136 389861
31457280 392421
31719424 394977
31981568 397530
32243712 400079
32505856 402625
32768000 405168
33030144 407707
33292288 410243
33554432 412776
34078720 417830
34603008 422871
35127296 427898
35651584 432911
36175872 437911
36700160 442897
37224448 447869
37748736 452828
38273024 457772
38797312 462702
39321600 467619
39845888 472521
40370176 477410
40894464 482285
41418752 487142
41943040 491986
42467328 496816
42991616 501631
43515904 506432
44040192 511217
44564480 515988
45088768 520745
45613056 525489
46137344 530218
46661632 534936
47185920 539634
47710208 544320
48234496 548992
48758784 553650
49283072 558295
49807360 562925
50331648 567537
50855936 572137
51380224 576723
51904512 581294
52428800 585852
52953088 590394
53477376 594919
54001664 599432
54525952 603931
55050240 608414
55574528 612884
56098816 617337
56623104 621775
57147392 626199
57671680 630610
58195968 635005
58720256 639385
59244544 643749
59768832 648098
60293120 652434
60817408 656755
61341696 661060
61865984 665349
62390272 669624
62914560 673883
63438848 678129
63963136 682360
64487424 686573
65011712 690772
65536000 694955
66060288 699124
66584576 703278
67108864 707419
68157440 715646
69206016 723815
70254592 731924
71303168 739967
72351744 747950
73400320 755871
74448896 763727
75497472 771523
76546048 779254
77594624 786922
78643200 794528
79691776 802068
80740352 809545
81788928 816959
82837504 824300
83886080 831580
84934656 838800
85983232 845957
87031808 853050
88080384 860072
89128960 867023
90177536 873912
91226112 880734
92274688 887490
93323264 894179
94371840 900786
95420416 907329
96468992 913808
97517568 920224
98566144 926576
99614720 932855
100663296 939059
101711872 945198
102760448 951271
103809024 957279
104857600 963221
105906176 969083
106954752 974876
108003328 980260
109051904 984703
110100480 987977
111149056 991049
112197632 994094
113246208 997117
114294784 1.00012e+06
115343360 1.00309e+06
116391936 1.00605e+06
117440512 1.00897e+06
118489088 1.01188e+06
119537664 1.01476e+06
120586240 1.01762e+06
121634816 1.02047e+06
122683392 1.02328e+06
123731968 1.02607e+06
124780544 1.02884e+06
125829120 1.03159e+06
126877696 1.03432e+06
127926272 1.03704e+06
128974848 1.03972e+06
130023424 1.04239e+06
131072000 1.04503e+06
132120576 1.04765e+06
133169152 1.05026e+06
134217728 1.05285e+06
136314880 1.05795e+06
138412032 1.06298e+06
140509184 1.06794e+06
142606336 1.07281e+06
144703488 1.07762e+06
146800640 1.08236e+06
148897792 1.08702e+06
150994944 1.09162e+06
153092096 1.09615e+06
155189248 1.10062e+06
157286400 1.10503e+06
159383552 1.10937e+06
161480704 1.11366e+06
163577856 1.11789e+06
165675008 1.12205e+06
167772160 1.12617e+06
169869312 1.13024e+06
171966464 1.13426e+06
174063616 1.13823e+06
176160768 1.14215e+06
178257920 1.14602e+06
180355072 1.14985e+06
182452224 1.15364e+06
184549376 1.1574e+06
186646528 1.16111e+06
188743680 1.16479e+06
190840832 1.16843e+06
192937984 1.17203e+06
195035136 1.17561e+06
197132288 1.17916e+06
199229440 1.18268e+06
201326592 1.18617e+06
203423744 1.18964e+06
205520896 1.19309e+06
207618048 1.19651e+06
209715200 1.19992e+06
211812352 1.20331e+06
213909504 1.20668e+06
216006656 1.21004e+06
218103808 1.21339e+06
220200960 1.21673e+06
222298112 1.22007e+06
224395264 1.22341e+06
226492416 1.22674e+06
228589568 1.23007e+06
230686720 1.23341e+06
232783872 1.23674e+06
234881024 1.24006e+06
236978176 1.24339e+06
239075328 1.24671e+06
241172480 1.25004e+06
243269632 1.25336e+06
245366784 1.25668e+06
247463936 1.26e+06
249561088 1.26331e+06
251658240 1.26663e+06
253755392 1.26994e+06
255852544 1.27325e+06
257949696 1.27656e+06
260046848 1.27987e+06
262144000 1.28318e+06
264241152 1.28648e+06
266338304 1.28978e+06
268435456 1.29309e+06
272629760 1.29968e+06
276824064 1.30627e+06
281018368 1.31286e+06
285212672 1.31944e+06
289406976 1.32601e+06
293601280 1.33257e+06
297795584 1.33913e+06
301989888 1.34569e+06
306184192 1.35223e+06
310378496 1.35877e+06
314572800 1.3653e+06
318767104 1.37183e+06
322961408 1.37835e+06
327155712 1.38486e+06
331350016 1.39048e+06
335544320 1.39496e+06
339738624 1.39905e+06
343932928 1.40311e+06
348127232 1.40683e+06
352321536 1.40723e+06
356515840 1.40732e+06
360710144 1.40736e+06
364904448 1.40739e+06
369098752 1.40742e+06
373293056 1.40745e+06
377487360 1.40747e+06
381681664 1.40749e+06
385875968 1.40751e+06
390070272 1.40752e+06
394264576 1.40752e+06
398458880 1.40752e+06
402653184 1.40752e+06
406847488 1.40752e+06
411041792 1.40752e+06
415236096 1.40752e+06
419430400 1.40752e+06
423624704 1.40752e+06
427819008 1.40752e+06
432013312 1.40752e+06
436207616 1.40752e+06
440401920 1.40752e+06
444596224 1.40752e+06
448790528 1.40752e+06
452984832 1.40752e+06
457179136 1.40752e+06
461373440 1.40752e+06
465567744 1.40752e+06
469762048 1.40752e+06
473956352 1.40752e+06
478150656 1.40752e+06
482344960 1.40752e+06
486539264 1.40752e+06
490733568 1.40752e+06
494927872 1.40752e+06
499122176 1.40752e+06
503316480 1.40752e+06
507510784 1.40752e+06
511705088 1.40752e+06
515899392 1.40752e+06
520093696 1.40752e+06
524288000 1.40752e+06
528482304 1.40752e+06
532676608 1.40752e+06
536870912 1.40752e+06
545259520 1.40752e+06
553648128 1.40752e+06
562036736 1.40752e+06
570425344 1.40752e+06
578813952 1.40752e+06
587202560 1.40752e+06
595591168 1.40752e+06
603979776 1.40752e+06
612368384 1.40752e+06
620756992 1.40753e+06
629145600 1.40753e+06
637534208 1.40753e+06
645922816 1.40753e+06
654311424 1.40753e+06
662700032 1.40753e+06
671088640 1.40753e+06
679477248 1.40753e+06
687865856 1.40753e+06
696254464 1.40753e+06
704643072 1.40753e+06
713031680 1.40753e+06
721420288 1.40753e+06
729808896 1.40753e+06
738197504 1.40753e+06
746586112 1.40753e+06
754974720 1.40753e+06
763363328 1.40753e+06
771751936 1.40753e+06
780140544 1.40753e+06
788529152 1.40753e+06
796917760 1.40753e+06
805306368 1.40753e+06
813694976 1.40753e+06
822083584 1.40753e+06
830472192 1.40753e+06
838860800 1.40753e+06
847249408 1.40753e+06
855638016 1.40753e+06
864026624 1.40753e+06
872415232 1.40753e+06
880803840 1.40753e+06
889192448 1.40753e+06
897581056 1.40753e+06
905969664 1.40753e+06
914358272 1.40753e+06
922746880 1.40753e+06
931135488 1.40753e+06
939524096 1.40753e+06
947912704 1.40753e+06
956301312 1.40753e+06
964689920 1.40753e+06
973078528 1.40753e+06
981467136 1.40753e+06
989855744 1.40753e+06
998244352 1.40753e+06
1006632960 1.40753e+06
1015021568 1.40753e+06
1023410176 1.40753e+06
1031798784 1.40753e+06
1040187392 1.40753e+06
1048576000 1.40753e+06
1056964608 1.40753e+06
1065353216 1.40753e+06
1073741824 1.40753e+06
1090519040 1.40753e+06
1107296256 1.40753e+06
1124073472 1.40753e+06
1140850688 1.40753e+06
1157627904 1.40753e+06
1174405120 1.40753e+06
1191182336 1.40753e+06
1207959552 1.40753e+06
1224736768 1.40753e+06
1241513984 1.40753e+06
1258291200 1.40753e+06
1275068416 1.40753e+06
1291845632 1.40753e+06
1308622848 1.40753e+06
1325400064 1.40753e+06
1342177280 1.40753e+06
1358954496 1.40753e+06
1375731712 1.40753e+06
1392508928 1.40753e+06
1409286144 1.40753e+06
1426063360 1.40753e+06
1442840576 1.40753e+06
1459617792 1.40753e+06
1476395008 1.40753e+06
1493172224 1.40753e+06
1509949440 1.40753e+06
1526726656 1.40753e+06
1543503872 1.40753e+06
1560281088 1.40753e+06
1577058304 1.40753e+06
1593835520 1.40753e+06
1610612736 1.40753e+06
1627389952 1.40753e+06
1644167168 1.40753e+06
1660944384 1.40753e+06
1677721600 1.40753e+06
1694498816 1.40753e+06
1711276032 1.40753e+06
1728053248 1.40753e+06
1744830464 1.40753e+06
1761607680 1.40753e+06
1778384896 1.40753e+06
1795162112 1.40753e+06
1811939328 1.40753e+06
1828716544 1.40753e+06
1845493760 1.40753e+06
1862270976 1.40753e+06
1879048192 1.40753e+06
1895825408 1.40753e+06
1912602624 1.40753e+06
1929379840 1.40753e+06
1946157056 1.40753e+06
1962934272 1.40753e+06
1979711488 1.40753e+06
1996488704 1.40753e+06
2013265920 1.40753e+06
2030043136 1.40753e+06
2046820352 1.40753e+06
2063597568 1.40753e+06
2080374784 1.40753e+06
2097152000 1.40753e+06
2113929216 1.40753e+06
2130706432 1.40753e+06
2147483648 1.40753e+06
2181038080 1.40753e+06
2214592512 1.40753e+06
2248146944 1.40753e+06
2281701376 1.40753e+06
2315255808 1.40753e+06
2348810240 1.40753e+06
2382364672 1.40753e+06
2415919104 1.40753e+06
2449473536 1.40753e+06
2483027968 1.40753e+06
2516582400 1.40753e+06
2550136832 1.40753e+06
2583691264 1.40753e+06
2617245696 1.40753e+06
2650800128 1.40753e+06
2684354560 1.40753e+06
2717908992 1.40753e+06
2751463424 1.40753e+06
2785017856 1.40753e+06
2818572288 1.40753e+06
2852126720 1.40753e+06
2885681152 1.40753e+06
2919235584 1.40753e+06
2952790016 1.40753e+06
2986344448 1.40753e+06
3019898880 1.40753e+06
3053453312 1.40753e+06
3087007744 1.40753e+06
3120562176 1.40753e+06
3154116608 1.40753e+06
3187671040 1.40753e+06
3221225472 1.40753e+06
3254779904 1.40753e+06
3288334336 1.40753e+06
3321888768 1.40753e+06
3355443200 1.40753e+06
3388997632 1.40753e+06
3422552064 1.40753e+06
3456106496 1.40754e+06
3489660928 1.40754e+06
3523215360 1.40754e+06
3556769792 1.40754e+06
3590324224 1.40754e+06
3623878656 1.40754e+06
3657433088 1.40754e+06
3690987520 1.40754e+06
3724541952 1.40754e+06
3758096384 1.40754e+06
3791650816 1.40754e+06
3825205248 1.40754e+06
3858759680 1.40754e+06
3892314112 1.40754e+06
3925868544 1.40754e+06
3959422976 1.40754e+06
3992977408 1.40754e+06
4026531840 1.40754e+06
4060086272 1.40754e+06
4093640704 1.40754e+06
4127195136 1.40754e+06
4160749568 1.40754e+06
4194304000 1.40754e+06
4227858432 1.40754e+06
4261412864 1.40754e+06
4294967296 1.40754e+06
4362076160 1.40754e+06
4429185024 1.40754e+06
4496293888 1.40754e+06
4563402752 1.40754e+06
4630511616 1.40754e+06
4697620480 1.40754e+06
4764729344 1.40754e+06
4831838208 1.40754e+06
4898947072 1.40754e+06
4966055936 1.40754e+06
5033164800 1.40754e+06
5100273664 1.40754e+06
5167382528 1.40754e+06
5234491392 1.40754e+06
5301600256 1.40754e+06
5368709120 1.40754e+06
5435817984 1.40754e+06
5502926848 1.40754e+06
5570035712 1.40754e+06
5637144576 1.40754e+06
5704253440 1.40754e+06
5771362304 1.40754e+06
5838471168 1.40754e+06
5905580032 1.40754e+06
5972688896 1.40754e+06
6039797760 1.40755e+06
6106906624 1.40755e+06
6174015488 1.40755e+06
6241124352 1.40755e+06
6308233216 1.40755e+06
6375342080 1.40755e+06
6442450944 1.40755e+06
6509559808 1.40755e+06
6576668672 1.40755e+06
6643777536 1.40755e+06
6710886400 1.40755e+06
6777995264 1.40755e+06
6845104128 1.40755e+06
6912212992 1.40755e+06
6979321856 1.40755e+06
7046430720 1.40755e+06
7113539584 1.40755e+06
7180648448 1.40755e+06
7247757312 1.40755e+06
7314866176 1.40755e+06
7381975040 1.40755e+06
7449083904 1.40755e+06
7516192768 1.40755e+06
7583301632 1.40755e+06
7650410496 1.40755e+06
7717519360 1.40755e+06
7784628224 1.40755e+06
7851737088 1.40755e+06
7918845952 1.40755e+06
7985954816 1.40755e+06
8053063680 1.40755e+06
8120172544 1.40755e+06
8187281408 1.40755e+06
8254390272 1.40755e+06
8321499136 1.40755e+06
8388608000 1.40755e+06
8455716864 1.40755e+06
8522825728 1.40755e+06
8589934592 1.40755e+06
8724152320 1.40755e+06
8858370048 1.40755e+06
8992587776 1.40755e+06
9126805504 1.40755e+06
9261023232 1.40755e+06
9395240960 1.40755e+06
9529458688 1.40755e+06
9663676416 1.40755e+06
9797894144 1.40755e+06
9932111872 1.40755e+06
10066329600 1.40755e+06
10200547328 1.40755e+06
10334765056 1.40755e+06
10468982784 1.40755e+06
10603200512 1.40755e+06
10737418240 1.40755e+06
10871635968 1.40755e+06
11005853696 1.40755e+06
11140071424 1.40755e+06
11274289152 1.40755e+06
11408506880 1.40755e+06
11542724608 1.40755e+06
11676942336 1.40755e+06
11811160064 1.40755e+06
11945377792 1.40755e+06
12079595520 1.40755e+06
12213813248 1.40755e+06
12348030976 1.40755e+06
12482248704 1.40755e+06
12616466432 1.40755e+06
12750684160 1.40755e+06
12884901888 1.40755e+06
13019119616 1.40755e+06
13153337344 1.40755e+06
13287555072 1.40755e+06
13421772800 1.40755e+06
13555990528 1.40755e+06
13690208256 1.40755e+06
13824425984 1.40755e+06
13958643712 1.40755e+06
14092861440 1.40755e+06
14227079168 1.40755e+06
14361296896 1.40755e+06
14495514624 1.40755e+06
14629732352 1.40755e+06
14763950080 1.40755e+06
14898167808 1.40755e+06
15032385536 1.40755e+06
15166603264 1.40755e+06
15300820992 1.40755e+06
15435038720 1.40755e+06
15569256448 1.40755e+06
15703474176 1.40755e+06
15837691904 1.40755e+06
15971909632 1.40755e+06
16106127360 1.40755e+06
16240345088 1.40755e+06
16374562816 1.40755e+06
16508780544 1.40755e+06
16642998272 1.40755e+06
16777216000 1.40755e+06
16911433728 1.40755e+06
17045651456 1.40755e+06
17179869184 1.40755e+06
17448304640 1.40755e+06
17716740096 1.40755e+06
17985175552 1.40755e+06
18253611008 1.40755e+06
18522046464 1.40755e+06
18790481920 1.40755e+06
19058917376 1.40755e+06
19327352832 1.40755e+06
19595788288 1.40755e+06
19864223744 1.40755e+06
20132659200 1.40755e+06
20401094656 1.40755e+06
20669530112 1.40755e+06
20937965568 1.40755e+06
21206401024 1.40755e+06
21474836480 1.40755e+06
21743271936 1.40755e+06
22011707392 1.40755e+06
22280142848 1.40755e+06
22548578304 1.40755e+06
22817013760 1.40755e+06
23085449216 1.40755e+06
23353884672 1.40755e+06
23622320128 1.40755e+06
23890755584 1.40755e+06
24159191040 1.40755e+06
24427626496 1.40755e+06
24696061952 1.40755e+06
24964497408 1.40755e+06
25232932864 1.40755e+06
25501368320 1.40755e+06
25769803776 1.40755e+06
26038239232 1.40755e+06
26306674688 1.40755e+06
26575110144 1.40755e+06
26843545600 1.40755e+06
27111981056 1.40755e+06
27380416512 1.40755e+06
27648851968 1.40755e+06
27917287424 1.40755e+06
28185722880 1.40755e+06
28454158336 1.40755e+06
28722593792 1.40755e+06
28991029248 1.40755e+06
29259464704 1.40755e+06
29527900160 1.40755e+06
29796335616 1.40755e+06
30064771072 1.40755e+06
30333206528 1.40755e+06
30601641984 1.40755e+06
30870077440 1.40755e+06
31138512896 1.40755e+06
31406948352 1.40755e+06
31675383808 1.40755e+06
31943819264 1.40755e+06
32212254720 1.40755e+06
32480690176 1.40755e+06
32749125632 1.40755e+06
33017561088 1.40755e+06
33285996544 1.40755e+06
33554432000 1.40755e+06
33822867456 1.40755e+06
34091302912 1.40755e+06
34359738368 1.40755e+06
34896609280 1.40755e+06
35433480192 1.40755e+06
35970351104 1.40755e+06
36507222016 1.40755e+06
37044092928 1.40755e+06
37580963840 1.40755e+06
38117834752 1.40755e+06
38654705664 1.40755e+06
39191576576 1.40755e+06
39728447488 1.40755e+06
40265318400 1.40755e+06
40802189312 1.40755e+06
41339060224 1.40755e+06
41875931136 1.40755e+06
42412802048 1.40755e+06
42949672960 1.40755e+06
43486543872 1.40755e+06
44023414784 1.40755e+06
44560285696 1.40755e+06
45097156608 1.40755e+06
45634027520 1.40755e+06
46170898432 1.40755e+06
46707769344 1.40755e+06
47244640256 1.40755e+06
47781511168 1.40755e+06
48318382080 1.40755e+06
48855252992 1.40755e+06
49392123904 1.40755e+06
49928994816 1.40755e+06
50465865728 1.40755e+06
51002736640 1.40755e+06
51539607552 1.40755e+06
52076478464 1.40755e+06
52613349376 1.40755e+06
53150220288 1.40755e+06
53687091200 1.40755e+06
54223962112 1.40755e+06
54760833024 1.40755e+06
55297703936 1.40755e+06
55834574848 1.40755e+06
56371445760 1.40755e+06
56908316672 1.40755e+06
57445187584 1.40755e+06
57982058496 1.40755e+06
58518929408 1.40755e+06
59055800320 1.40755e+06
59592671232 1.40755e+06
60129542144 1.40755e+06
60666413056 1.40755e+06
61203283968 1.40755e+06
61740154880 1.40755e+06
62277025792 1.40755e+06
62813896704 1.40755e+06
63350767616 1.40755e+06
63887638528 1.40755e+06
64424509440 1.40756e+06
64961380352 1.40756e+06
65498251264 1.40756e+06
66035122176 1.40756e+06
66571993088 1.40756e+06
67108864000 1.40756e+06
67645734912 1.40756e+06
68182605824 1.40757e+06
68719476736 1.40758e+06
69793218560 1.40765e+06
70866960384 1.40905e+06
71940702208 1.40905e+06
73014444032 1.40905e+06
74088185856 1.40905e+06
75161927680 1.40905e+06
76235669504 1.40905e+06
77309411328 1.40905e+06
78383153152 1.40905e+06
79456894976 1.40905e+06
80530636800 1.40905e+06
81604378624 1.40905e+06
82678120448 1.40905e+06
83751862272 1.40905e+06
84825604096 1.40905e+06
85899345920 1.40905e+06
86973087744 1.40905e+06
88046829568 1.40905e+06
89120571392 1.40905e+06
90194313216 1.40905e+06
91268055040 1.40905e+06
92341796864 1.40905e+06
93415538688 1.40905e+06
94489280512 1.40905e+06
95563022336 1.40905e+06
96636764160 1.40905e+06
97710505984 1.40905e+06
98784247808 1.40905e+06
99857989632 1.40905e+06
100931731456 1.40905e+06
102005473280 1.40905e+06
103079215104 1.40905e+06
104152956928 1.40905e+06
105226698752 1.40905e+06
106300440576 1.40905e+06
107374182400 1.40905e+06
108447924224 1.40905e+06
109521666048 1.40905e+06
110595407872 1.40905e+06
111669149696 1.40905e+06
112742891520 1.40905e+06
113816633344 1.40905e+06
114890375168 1.40905e+06
115964116992 1.40905e+06
117037858816 1.40905e+06
118111600640 1.40905e+06
119185342464 1.40905e+06
120259084288 1.40905e+06
121332826112 1.40905e+06
122406567936 1.40905e+06
123480309760 1.40905e+06
124554051584 1.40905e+06
125627793408 1.40905e+06
126701535232 1.40905e+06
127775277056 1.40905e+06
128849018880 1.40905e+06
129922760704 1.40905e+06
130996502528 1.40905e+06
132070244352 1.40905e+06
133143986176 1.40905e+06
134217728000 1.40905e+06
135291469824 1.40905e+06
136365211648 1.40905e+06
137438953472 1.40905e+06
139586437120 1.40905e+06
141733920768 1.40905e+06
143881404416 1.40905e+06
146028888064 1.40905e+06
148176371712 1.40905e+06
150323855360 1.40905e+06
152471339008 1.40905e+06
154618822656 1.40905e+06
156766306304 1.40905e+06
158913789952 1.40905e+06
161061273600 1.40905e+06
163208757248 1.40905e+06
165356240896 1.40905e+06
167503724544 1.40905e+06
169651208192 1.40905e+06
171798691840 1.40905e+06
173946175488 1.40905e+06
176093659136 1.40905e+06
178241142784 1.40905e+06
180388626432 1.40905e+06
182536110080 1.40905e+06
184683593728 1.40905e+06
186831077376 1.40905e+06
188978561024 1.40905e+06
191126044672 1.40905e+06
193273528320 1.40905e+06
195421011968 1.40905e+06
197568495616 1.40905e+06
199715979264 1.40905e+06
201863462912 1.40905e+06
204010946560 1.40905e+06
206158430208 1.40905e+06
208305913856 1.40905e+06
210453397504 1.40905e+06
212600881152 1.40905e+06
214748364800 1.40905e+06
216895848448 1.40905e+06
219043332096 1.40905e+06
221190815744 1.40905e+06
223338299392 1.40905e+06
225485783040 1.40905e+06
227633266688 1.40905e+06
229780750336 1.40905e+06
231928233984 1.40905e+06
234075717632 1.40905e+06
236223201280 1.40905e+06
238370684928 1.40905e+06
240518168576 1.40905e+06
242665652224 1.40905e+06
244813135872 1.40905e+06
246960619520 1.40905e+06
249108103168 1.40905e+06
251255586816 1.40905e+06
253403070464 1.40905e+06
255550554112 1.40905e+06
257698037760 1.40905e+06
259845521408 1.40905e+06
261993005056 1.40905e+06
264140488704 1.40905e+06
266287972352 1.40905e+06
268435456000 1.40905e+06
270582939648 1.40905e+06
272730423296 1.40905e+06
274877906944 1.40905e+06
279172874240 1.40905e+06
283467841536 1.40905e+06
287762808832 1.40905e+06
292057776128 1.40905e+06
296352743424 1.40905e+06
300647710720 1.40905e+06
304942678016 1.40905e+06
309237645312 1.40905e+06
313532612608 1.40905e+06
317827579904 1.40905e+06
322122547200 1.40905e+06
326417514496 1.40905e+06
330712481792 1.40905e+06
335007449088 1.40905e+06
339302416384 1.40905e+06
343597383680 1.40905e+06
347892350976 1.40905e+06
352187318272 1.40905e+06
356482285568 1.40905e+06
360777252864 1.40905e+06
365072220160 1.40905e+06
369367187456 1.40905e+06
373662154752 1.40905e+06
377957122048 1.40905e+06
382252089344 1.40905e+06
386547056640 1.40905e+06
390842023936 1.40905e+06
395136991232 1.40905e+06
399431958528 1.40905e+06
403726925824 1.40905e+06
408021893120 1.40905e+06
412316860416 1.40905e+06
416611827712 1.40905e+06
420906795008 1.40905e+06
425201762304 1.40905e+06
429496729600 1.40905e+06
433791696896 1.40905e+06
438086664192 1.40905e+06
442381631488 1.40905e+06
446676598784 1.40905e+06
450971566080 1.40905e+06
455266533376 1.40905e+06
459561500672 1.40905e+06
463856467968 1.40905e+06
468151435264 1.40905e+06
472446402560 1.40905e+06
476741369856 1.40905e+06
481036337152 1.40905e+06
485331304448 1.40905e+06
489626271744 1.40905e+06
493921239040 1.40905e+06
498216206336 1.40905e+06
502511173632 1.40905e+06
506806140928 1.40905e+06
511101108224 1.40905e+06
515396075520 1.40905e+06
519691042816 1.40905e+06
523986010112 1.40905e+06
528280977408 1.40905e+06
532575944704 1.40905e+06
536870912000 1.40905e+06
541165879296 1.40905e+06
545460846592 1.40905e+06
549755813888 1.40905e+06
558345748480 1.40905e+06
566935683072 1.40905e+06
575525617664 1.40905e+06
584115552256 1.40905e+06
592705486848 1.40905e+06
601295421440 1.40905e+06
609885356032 1.40905e+06
618475290624 1.40905e+06
627065225216 1.40905e+06
635655159808 1.40905e+06
644245094400 1.40905e+06
652835028992 1.40905e+06
661424963584 1.40905e+06
670014898176 1.40905e+06
678604832768 1.40905e+06
687194767360 1.40905e+06
695784701952 1.40905e+06
704374636544 1.40905e+06
712964571136 1.40905e+06
721554505728 1.40905e+06
730144440320 1.40905e+06
738734374912 1.40905e+06
747324309504 1.40905e+06
755914244096 1.40905e+06
764504178688 1.40905e+06
773094113280 1.40905e+06
781684047872 1.40905e+06
790273982464 1.40905e+06
798863917056 1.40905e+06
807453851648 1.40905e+06
816043786240 1.40905e+06
824633720832 1.40905e+06
833223655424 1.40905e+06
841813590016 1.40905e+06
850403524608 1.40905e+06
858993459200 1.40905e+06
867583393792 1.40905e+06
876173328384 1.40905e+06
884763262976 1.40905e+06
893353197568 1.40905e+06
901943132160 1.40905e+06
910533066752 1.40905e+06
919123001344 1.40905e+06
927712935936 1.40905e+06
936302870528 1.40905e+06
944892805120 1.40905e+06
953482739712 1.40905e+06
962072674304 1.40905e+06
970662608896 1.40905e+06
979252543488 1.40905e+06
987842478080 1.40905e+06
996432412672 1.40905e+06
1005022347264 1.40905e+06
1013612281856 1.40905e+06
1022202216448 1.40905e+06
1030792151040 1.40905e+06
1039382085632 1.40905e+06
1047972020224 1.40905e+06
1056561954816 1.40905e+06
1065151889408 1.40905e+06
1073741824000 1.40905e+06
1082331758592 1.40905e+06
1090921693184 1.40905e+06
1099511627776 1.40905e+06
1116691496960 1.40905e+06
1133871366144 1.40905e+06
1151051235328 1.40905e+06
1168231104512 1.40905e+06
1185410973696 1.40905e+06
1202590842880 1.40905e+06
1219770712064 1.40905e+06
1236950581248 1.40905e+06
1254130450432 1.40905e+06
1271310319616 1.40905e+06
1288490188800 1.40905e+06
1305670057984 1.40905e+06
1322849927168 1.40905e+06
1340029796352 1.40905e+06
1357209665536 1.40905e+06
1374389534720 1.40905e+06
1391569403904 1.40905e+06
1408749273088 1.40905e+06
1425929142272 1.40905e+06
1443109011456 1.40905e+06
1460288880640 1.40905e+06
1477468749824 1.40905e+06
1494648619008 1.40905e+06
1511828488192 1.40905e+06
1529008357376 1.40905e+06
1546188226560 1.40905e+06
1563368095744 1.40905e+06
1580547964928 1.40905e+06
1597727834112 1.40905e+06
1614907703296 1.40905e+06
1632087572480 1.40905e+06
1649267441664 1.40905e+06
1666447310848 1.40905e+06
1683627180032 1.40905e+06
1700807049216 1.40905e+06
1717986918400 1.40905e+06
1735166787584 1.40905e+06
1752346656768 1.40905e+06
1769526525952 1.40905e+06
1786706395136 1.40905e+06
1803886264320 1.40905e+06
1821066133504 1.40905e+06
1838246002688 1.40905e+06
1855425871872 1.40905e+06
1872605741056 1.40905e+06
1889785610240 1.40905e+06
1906965479424 1.40905e+06
1924145348608 1.40905e+06
1941325217792 1.40905e+06
1958505086976 1.40905e+06
1975684956160 1.40905e+06
1992864825344 1.40905e+06
2010044694528 1.40905e+06
2027224563712 1.40905e+06
2044404432896 1.40905e+06
2061584302080 1.40905e+06
2078764171264 1.40905e+06
2095944040448 1.40905e+06
2113123909632 1.40905e+06
2130303778816 1.40905e+06
2147483648000 1.40905e+06
2164663517184 1.40905e+06
2181843386368 1.40905e+06
2199023255552 1.40905e+06
2233382993920 1.40905e+06
2267742732288 1.40905e+06
2302102470656 1.40905e+06
2336462209024 1.40905e+06
2370821947392 1.40905e+06
2405181685760 1.40905e+06
2439541424128 1.40905e+06
2473901162496 1.40905e+06
2508260900864 1.40905e+06
2542620639232 1.40905e+06
2576980377600 1.40905e+06
2611340115968 1.40905e+06
2645699854336 1.40905e+06
2680059592704 1.40905e+06
2714419331072 1.40905e+06
2748779069440 1.40905e+06
2783138807808 1.40905e+06
2817498546176 1.40905e+06
2851858284544 1.40905e+06
2886218022912 1.40905e+06
2920577761280 1.40905e+06
2954937499648 1.40905e+06
2989297238016 1.40905e+06
3023656976384 1.40905e+06
3058016714752 1.40905e+06
3092376453120 1.40905e+06
3126736191488 1.40905e+06
3161095929856 1.40905e+06
3195455668224 1.40905e+06
3229815406592 1.40905e+06
3264175144960 1.40905e+06
3298534883328 1.40905e+06
3332894621696 1.40905e+06
3367254360064 1.40905e+06
3401614098432 1.40905e+06
3435973836800 1.40905e+06
3470333575168 1.40905e+06
3504693313536 1.40905e+06
3539053051904 1.40905e+06
3573412790272 1.40905e+06
3607772528640 1.40905e+06
3642132267008 1.40905e+06
3676492005376 1.40905e+06
3710851743744 1.40905e+06
3745211482112 1.40905e+06
3779571220480 1.40905e+06
3813930958848 1.40905e+06
3848290697216 1.40905e+06
3882650435584 1.40905e+06
3917010173952 1.40905e+06
3951369912320 1.40905e+06
3985729650688 1.40905e+06
4020089389056 1.40905e+06
4054449127424 1.40905e+06
4088808865792 1.40905e+06
4123168604160 1.40905e+06
4157528342528 1.40905e+06
4191888080896 1.40905e+06
4226247819264 1.40905e+06
4260607557632 1.40905e+06
4294967296000 1.40905e+06
4329327034368 1.40905e+06
4363686772736 1.40905e+06
4398046511104 1.40905e+06
4466765987840 1.40905e+06
4535485464576 1.40905e+06
4604204941312 1.40905e+06
4672924418048 1.40905e+06
4741643894784 1.40905e+06
4810363371520 1.40905e+06
4879082848256 1.40905e+06
4947802324992 1.40905e+06
5016521801728 1.40905e+06
5085241278464 1.40905e+06
5153960755200 1.40905e+06
5222680231936 1.40905e+06
5291399708672 1.40905e+06
5360119185408 1.40905e+06
5428838662144 1.40905e+06
5497558138880 1.40905e+06
5566277615616 1.40905e+06
5634997092352 1.40905e+06
5703716569088 1.40905e+06
5772436045824 1.40905e+06
5841155522560 1.40905e+06
5909874999296 1.40905e+06
5978594476032 1.40905e+06
6047313952768 1.40905e+06
6116033429504 1.40905e+06
6184752906240 1.40905e+06
6253472382976 1.40905e+06
6322191859712 1.40905e+06
6390911336448 1.40905e+06
6459630813184 1.40905e+06
6528350289920 1.40905e+06
6597069766656 1.40905e+06
6665789243392 1.40905e+06
6734508720128 1.40905e+06
6803228196864 1.40905e+06
6871947673600 1.40905e+06
6940667150336 1.40905e+06
7009386627072 1.40905e+06
7078106103808 1.40905e+06
7146825580544 1.40905e+06
7215545057280 1.40905e+06
7284264534016 1.40905e+06
7352984010752 1.40905e+06
7421703487488 1.40905e+06
7490422964224 1.40905e+06
7559142440960 1.40905e+06
7627861917696 1.40905e+06
7696581394432 1.40905e+06
7765300871168 1.40905e+06
7834020347904 1.40905e+06
7902739824640 1.40905e+06
7971459301376 1.40905e+06
8040178778112 1.40905e+06
8108898254848 1.40905e+06
8177617731584 1.40905e+06
8246337208320 1.40905e+06
8315056685056 1.40905e+06
8383776161792 1.40905e+06
8452495638528 1.40905e+06
8521215115264 1.40905e+06
8589934592000 1.40905e+06
8658654068736 1.40905e+06
8727373545472 1.40905e+06
8796093022208 1.40905e+06
8933531975680 1.40905e+06
9070970929152 1.40905e+06
9208409882624 1.40905e+06
9345848836096 1.40905e+06
9483287789568 1.40905e+06
9620726743040 1.40905e+06
9758165696512 1.40905e+06
9895604649984 1.40905e+06
10033043603456 1.40905e+06
10170482556928 1.40905e+06
10307921510400 1.40905e+06
10445360463872 1.40905e+06
10582799417344 1.40905e+06
10720238370816 1.40905e+06
10857677324288 1.40905e+06
10995116277760 1.40905e+06
11132555231232 1.40905e+06
11269994184704 1.40905e+06
11407433138176 1.40905e+06
11544872091648 1.40905e+06
11682311045120 1.40905e+06
11819749998592 1.40905e+06
11957188952064 1.40905e+06
12094627905536 1.40905e+06
12232066859008 1.40905e+06
12369505812480 1.40905e+06
12506944765952 1.40905e+06
12644383719424 1.40905e+06
12781822672896 1.40905e+06
12919261626368 1.40905e+06
13056700579840 1.40905e+06
13194139533312 1.40905e+06
13331578486784 1.40905e+06
13469017440256 1.40905e+06
13606456393728 1.40905e+06
13743895347200 1.40905e+06
13881334300672 1.40905e+06
14018773254144 1.40905e+06
14156212207616 1.40905e+06
14293651161088 1.40905e+06
14431090114560 1.40905e+06
14568529068032 1.40905e+06
14705968021504 1.40905e+06
14843406974976 1.40905e+06
14980845928448 1.40905e+06
15118284881920 1.40905e+06
15255723835392 1.40905e+06
15393162788864 1.40905e+06
15530601742336 1.40905e+06
15668040695808 1.40905e+06
15805479649280 1.40905e+06
15942918602752 1.40905e+06
16080357556224 1.40905e+06
16217796509696 1.40905e+06
16355235463168 1.40905e+06
16492674416640 1.40905e+06
16630113370112 1.40905e+06
16767552323584 1.40905e+06
16904991277056 1.40905e+06
17042430230528 1.40905e+06
17179869184000 1.40905e+06
17317308137472 1.40905e+06
17454747090944 1.40905e+06
17592186044416 1.40905e+06
17867063951360 1.40905e+06
18141941858304 1.40905e+06
18416819765248 1.40905e+06
18691697672192 1.40905e+06
18966575579136 1.40905e+06
19241453486080 1.40905e+06
19516331393024 1.40905e+06
19791209299968 1.40905e+06
20066087206912 1.40905e+06
20340965113856 1.40905e+06
20615843020800 1.40905e+06
20890720927744 1.40905e+06
21165598834688 1.40905e+06
21440476741632 1.40905e+06
21715354648576 1.40905e+06
21990232555520 1.40905e+06
22265110462464 1.40905e+06
22539988369408 1.40905e+06
22814866276352 1.40905e+06
23089744183296 1.40905e+06
23364622090240 1.40905e+06
23639499997184 1.40905e+06
23914377904128 1.40905e+06
24189255811072 1.40905e+06
24464133718016 1.40905e+06
24739011624960 1.40905e+06
25013889531904 1.40905e+06
25288767438848 1.40905e+06
25563645345792 1.40905e+06
25838523252736 1.40905e+06
26113401159680 1.40905e+06
26388279066624 1.40905e+06
26663156973568 1.40905e+06
26938034880512 1.40905e+06
27212912787456 1.40905e+06
27487790694400 1.40905e+06
27762668601344 1.40905e+06
28037546508288 1.40905e+06
28312424415232 1.40905e+06
28587302322176 1.40905e+06
28862180229120 1.40905e+06
29137058136064 1.40905e+06
29411936043008 1.40905e+06
29686813949952 1.40905e+06
29961691856896 1.40905e+06
30236569763840 1.40905e+06
30511447670784 1.40905e+06
30786325577728 1.40905e+06
31061203484672 1.40905e+06
31336081391616 1.40905e+06
31610959298560 1.40905e+06
31885837205504 1.40905e+06
32160715112448 1.40905e+06
32435593019392 1.40905e+06
32710470926336 1.40905e+06
32985348833280 1.40905e+06
33260226740224 1.40905e+06
33535104647168 1.40905e+06
33809982554112 1.40905e+06
34084860461056 1.40905e+06
34359738368000 1.40905e+06
34634616274944 1.40905e+06
34909494181888 1.40905e+06
35184372088832 1.40905e+06
35734127902720 1.40905e+06
36283883716608 1.40905e+06
36833639530496 1.40905e+06
37383395344384 1.40905e+06
37933151158272 1.40905e+06
38482906972160 1.40905e+06
39032662786048 1.40905e+06
39582418599936 1.40905e+06
40132174413824 1.40905e+06
40681930227712 1.40905e+06
41231686041600 1.40905e+06
41781441855488 1.40905e+06
42331197669376 1.40905e+06
42880953483264 1.40905e+06
43430709297152 1.40905e+06
43980465111040 1.40905e+06
44530220924928 1.40905e+06
45079976738816 1.40905e+06
45629732552704 1.40905e+06
46179488366592 1.40905e+06
46729244180480 1.40905e+06
47278999994368 1.40905e+06
47828755808256 1.40905e+06
48378511622144 1.40905e+06
48928267436032 1.40905e+06
49478023249920 1.40905e+06
50027779063808 1.40905e+06
50577534877696 1.40905e+06
51127290691584 1.40905e+06
51677046505472 1.40905e+06
52226802319360 1.40905e+06
52776558133248 1.40905e+06
53326313947136 1.40905e+06
53876069761024 1.40905e+06
54425825574912 1.40905e+06
54975581388800 1.40905e+06
55525337202688 1.40905e+06
56075093016576 1.40905e+06
56624848830464 1.40905e+06
57174604644352 1.40905e+06
57724360458240 1.40905e+06
58274116272128 1.40905e+06
58823872086016 1.40905e+06
59373627899904 1.40905e+06
59923383713792 1.40905e+06
60473139527680 1.40905e+06
61022895341568 1.40905e+06
61572651155456 1.40905e+06
62122406969344 1.40905e+06
62672162783232 1.40905e+06
63221918597120 1.40905e+06
63771674411008 1.40905e+06
64321430224896 1.40905e+06
64871186038784 1.40905e+06
65420941852672 1.40905e+06
65970697666560 1.40905e+06
66520453480448 1.40905e+06
67070209294336 1.40905e+06
67619965108224 1.40905e+06
68169720922112 1.40905e+06
68719476736000 1.40905e+06
69269232549888 1.40905e+06
69818988363776 1.40905e+06
70368744177664 1.40905e+06
71468255805440 1.40905e+06
72567767433216 1.40905e+06
73667279060992 1.40905e+06
74766790688768 1.40905e+06
75866302316544 1.40905e+06
76965813944320 1.40905e+06
78065325572096 1.40905e+06
79164837199872 1.40905e+06
80264348827648 1.40905e+06
81363860455424 1.40905e+06
82463372083200 1.40905e+06
83562883710976 1.40905e+06
84662395338752 1.40905e+06
85761906966528 1.40905e+06
86861418594304 1.40905e+06
87960930222080 1.40905e+06
89060441849856 1.40905e+06
90159953477632 1.40905e+06
91259465105408 1.40905e+06
92358976733184 1.40905e+06
93458488360960 1.40905e+06
94557999988736 1.40905e+06
95657511616512 1.40905e+06
96757023244288 1.40905e+06
97856534872064 1.40905e+06
98956046499840 1.40905e+06
100055558127616 1.40905e+06
101155069755392 1.40905e+06
102254581383168 1.40905e+06
103354093010944 1.40905e+06
104453604638720 1.40905e+06
105553116266496 1.40905e+06
106652627894272 1.40905e+06
107752139522048 1.40905e+06
108851651149824 1.40905e+06
109951162777600 1.40905e+06
111050674405376 1.40905e+06
112150186033152 1.40905e+06
113249697660928 1.40905e+06
114349209288704 1.40905e+06
115448720916480 1.40905e+06
116548232544256 1.40905e+06
117647744172032 1.40905e+06
118747255799808 1.40905e+06
119846767427584 1.40905e+06
120946279055360 1.40905e+06
122045790683136 1.40905e+06
123145302310912 1.40905e+06
124244813938688 1.40905e+06
125344325566464 1.40905e+06
126443837194240 1.40905e+06
127543348822016 1.40905e+06
128642860449792 1.40905e+06
129742372077568 1.40905e+06
130841883705344 1.40905e+06
131941395333120 1.40905e+06
133040906960896 1.40905e+06
134140418588672 1.40905e+06
135239930216448 1.40905e+06
136339441844224 1.40905e+06
137438953472000 1.40905e+06
138538465099776 1.40905e+06
139637976727552 1.40905e+06
140737488355328 1.40905e+06
142936511610880 1.40905e+06
145135534866432 1.40905e+06
147334558121984 1.40905e+06
149533581377536 1.40905e+06
151732604633088 1.40905e+06
153931627888640 1.40905e+06
156130651144192 1.40905e+06
158329674399744 1.40905e+06
160528697655296 1.40905e+06
162727720910848 1.40905e+06
164926744166400 1.40905e+06
167125767421952 1.40905e+06
169324790677504 1.40905e+06
171523813933056 1.40905e+06
173722837188608 1.40905e+06
175921860444160 1.40905e+06
178120883699712 1.40905e+06
180319906955264 1.40905e+06
182518930210816 1.40905e+06
184717953466368 1.40905e+06
186916976721920 1.40905e+06
189115999977472 1.40905e+06
191315023233024 1.40905e+06
193514046488576 1.40905e+06
195713069744128 1.40905e+06
197912092999680 1.40905e+06
200111116255232 1.40905e+06
202310139510784 1.40905e+06
204509162766336 1.40905e+06
206708186021888 1.40905e+06
208907209277440 1.40905e+06
211106232532992 1.40905e+06
213305255788544 1.40905e+06
215504279044096 1.40905e+06
217703302299648 1.40905e+06
219902325555200 1.40905e+06
222101348810752 1.40905e+06
224300372066304 1.40905e+06
226499395321856 1.40905e+06
228698418577408 1.40905e+06
230897441832960 1.40905e+06
233096465088512 1.40905e+06
235295488344064 1.40905e+06
237494511599616 1.40905e+06
239693534855168 1.40905e+06
241892558110720 1.40905e+06
244091581366272 1.40905e+06
246290604621824 1.40905e+06
248489627877376 1.40905e+06
250688651132928 1.40905e+06
252887674388480 1.40905e+06
255086697644032 1.40905e+06
257285720899584 1.40905e+06
259484744155136 1.40905e+06
261683767410688 1.40905e+06
263882790666240 1.40905e+06
266081813921792 1.40905e+06
268280837177344 1.40905e+06
270479860432896 1.40905e+06
272678883688448 1.40905e+06
274877906944000 1.40905e+06
277076930199552 1.40905e+06
279275953455104 1.40905e+06
281474976710656 1.40905e+06
285873023221760 1.40905e+06
290271069732864 1.40905e+06
294669116243968 1.40905e+06
299067162755072 1.40905e+06
303465209266176 1.40905e+06
307863255777280 1.40905e+06
312261302288384 1.40905e+06
316659348799488 1.40905e+06
321057395310592 1.40905e+06
325455441821696 1.40905e+06
329853488332800 1.40905e+06
334251534843904 1.40905e+06
338649581355008 1.40905e+06
343047627866112 1.40905e+06
347445674377216 1.40905e+06
351843720888320 1.40905e+06
356241767399424 1.40905e+06
360639813910528 1.40905e+06
365037860421632 1.40905e+06
369435906932736 1.40905e+06
373833953443840 1.40905e+06
378231999954944 1.40905e+06
382630046466048 1.40905e+06
387028092977152 1.40905e+06
391426139488256 1.40905e+06
395824185999360 1.40905e+06
400222232510464 1.40905e+06
404620279021568 1.40905e+06
409018325532672 1.40905e+06
413416372043776 1.40905e+06
417814418554880 1.40905e+06
422212465065984 1.40905e+06
426610511577088 1.40905e+06
431008558088192 1.40905e+06
435406604599296 1.40905e+06
439804651110400 1.40905e+06
444202697621504 1.40905e+06
448600744132608 1.40905e+06
452998790643712 1.40905e+06
457396837154816 1.40905e+06
461794883665920 1.40905e+06
466192930177024 1.40905e+06
470590976688128 1.40905e+06
474989023199232 1.40905e+06
479387069710336 1.40905e+06
483785116221440 1.40905e+06
488183162732544 1.40905e+06
492581209243648 1.40905e+06
496979255754752 1.40905e+06
501377302265856 1.40905e+06
505775348776960 1.40905e+06
510173395288064 1.40905e+06
514571441799168 1.40905e+06
518969488310272 1.40905e+06
523367534821376 1.40905e+06
527765581332480 1.40905e+06
532163627843584 1.40905e+06
536561674354688 1.40905e+06
540959720865792 1.40905e+06
545357767376896 1.40905e+06
549755813888000 1.40905e+06
554153860399104 1.40905e+06
558551906910208 1.40905e+06
562949953421312 1.40905e+06
571746046443520 1.40905e+06
580542139465728 1.40905e+06
589338232487936 1.40905e+06
598134325510144 1.40905e+06
606930418532352 1.40905e+06
615726511554560 1.40905e+06
624522604576768 1.40905e+06
633318697598976 1.40905e+06
642114790621184 1.40905e+06
650910883643392 1.40905e+06
659706976665600 1.40905e+06
668503069687808 1.40905e+06
677299162710016 1.40905e+06
686095255732224 1.40905e+06
694891348754432 1.40905e+06
703687441776640 1.40905e+06
712483534798848 1.40905e+06
721279627821056 1.40905e+06
730075720843264 1.40905e+06
738871813865472 1.40905e+06
747667906887680 1.40905e+06
756463999909888 1.40905e+06
765260092932096 1.40905e+06
774056185954304 1.40905e+06
782852278976512 1.40905e+06
791648371998720 1.40905e+06
800444465020928 1.40905e+06
809240558043136 1.40905e+06
818036651065344 1.40905e+06
826832744087552 1.40905e+06
835628837109760 1.40905e+06
844424930131968 1.40905e+06
853221023154176 1.40905e+06
862017116176384 1.40905e+06
870813209198592 1.40905e+06
879609302220800 1.40905e+06
888405395243008 1.40905e+06
897201488265216 1.40905e+06
905997581287424 1.40905e+06
914793674309632 1.40905e+06
923589767331840 1.40905e+06
932385860354048 1.40905e+06
941181953376256 1.40905e+06
949978046398464 1.40905e+06
958774139420672 1.40905e+06
967570232442880 1.40905e+06
976366325465088 1.40905e+06
985162418487296 1.40905e+06
993958511509504 1.40905e+06
1002754604531712 1.40905e+06
1011550697553920 1.40905e+06
1020346790576128 1.40905e+06
1029142883598336 1.40905e+06
1037938976620544 1.40905e+06
1046735069642752 1.40905e+06
1055531162664960 1.40905e+06
1064327255687168 1.40905e+06
1073123348709376 1.40905e+06
1081919441731584 1.40905e+06
1090715534753792 1.40905e+06
1099511627776000 1.40905e+06
1108307720798208 1.40905e+06
1117103813820416 1.40905e+06
1125899906842624 1.40905e+06
1143492092887040 1.40905e+06
1161084278931456 1.40905e+06
1178676464975872 1.40905e+06
1196268651020288 1.40905e+06
1213860837064704 1.40905e+06
1231453023109120 1.40905e+06
1249045209153536 1.40905e+06
1266637395197952 1.40905e+06
1284229581242368 1.40905e+06
1301821767286784 1.40905e+06
1319413953331200 1.40905e+06
1337006139375616 1.40905e+06
1354598325420032 1.40905e+06
1372190511464448 1.40905e+06
1389782697508864 1.40905e+06
1407374883553280 1.40905e+06
1424967069597696 1.40905e+06
1442559255642112 1.40905e+06
1460151441686528 1.40905e+06
1477743627730944 1.40905e+06
1495335813775360 1.40905e+06
1512927999819776 1.40905e+06
1530520185864192 1.40905e+06
1548112371908608 1.40905e+06
1565704557953024 1.40905e+06
1583296743997440 1.40905e+06
1600888930041856 1.40905e+06
1618481116086272 1.40905e+06
1636073302130688 1.40905e+06
1653665488175104 1.40905e+06
1671257674219520 1.40905e+06
1688849860263936 1.40905e+06
1706442046308352 1.40905e+06
1724034232352768 1.40905e+06
1741626418397184 1.40905e+06
1759218604441600 1.40905e+06
1776810790486016 1.40905e+06
1794402976530432 1.40905e+06
1811995162574848 1.40905e+06
1829587348619264 1.40905e+06
1847179534663680 1.40905e+06
1864771720708096 1.40905e+06
1882363906752512 1.40905e+06
1899956092796928 1.40905e+06
1917548278841344 1.40905e+06
1935140464885760 1.40905e+06
1952732650930176 1.40905e+06
1970324836974592 1.40905e+06
1987917023019008 1.40905e+06
2005509209063424 1.40905e+06
2023101395107840 1.40905e+06
2040693581152256 1.40905e+06
2058285767196672 1.40905e+06
2075877953241088 1.40905e+06
2093470139285504 1.40905e+06
2111062325329920 1.40905e+06
2128654511374336 1.40905e+06
2146246697418752 1.40905e+06
2163838883463168 1.40905e+06
2181431069507584 1.40905e+06
2199023255552000 1.40905e+06
2216615441596416 1.40905e+06
2234207627640832 1.40905e+06
2251799813685248 1.40905e+06
2286984185774080 1.40905e+06
2322168557862912 1.40905e+06
2357352929951744 1.40905e+06
2392537302040576 1.40905e+06
2427721674129408 1.40905e+06
2462906046218240 1.40905e+06
2498090418307072 1.40905e+06
2533274790395904 1.40905e+06
2568459162484736 1.40905e+06
2603643534573568 1.40905e+06
2638827906662400 1.40905e+06
2674012278751232 1.40905e+06
2709196650840064 1.40905e+06
2744381022928896 1.40905e+06
2779565395017728 1.40905e+06
2814749767106560 1.40905e+06
2849934139195392 1.40905e+06
2885118511284224 1.40905e+06
2920302883373056 1.40905e+06
2955487255461888 1.40905e+06
2990671627550720 1.40905e+06
3025855999639552 1.40905e+06
3061040371728384 1.40905e+06
3096224743817216 1.40905e+06
3131409115906048 1.40905e+06
3166593487994880 1.40905e+06
3201777860083712 1.40905e+06
3236962232172544 1.40905e+06
3272146604261376 1.40905e+06
3307330976350208 1.40905e+06
3342515348439040 1.40905e+06
3377699720527872 1.40905e+06
3412884092616704 1.40905e+06
3448068464705536 1.40905e+06
3483252836794368 1.40905e+06
3518437208883200 1.40905e+06
3553621580972032 1.40905e+06
3588805953060864 1.40905e+06
3623990325149696 1.40905e+06
3659174697238528 1.40905e+06
3694359069327360 1.40905e+06
3729543441416192 1.40905e+06
3764727813505024 1.40905e+06
3799912185593856 1.40905e+06
3835096557682688 1.40905e+06
3870280929771520 1.40905e+06
3905465301860352 1.40905e+06
3940649673949184 1.40905e+06
3975834046038016 1.40905e+06
4011018418126848 1.40905e+06
4046202790215680 1.40905e+06
4081387162304512 1.40905e+06
4116571534393344 1.40905e+06
4151755906482176 1.40905e+06
4186940278571008 1.40905e+06
4222124650659840 1.40905e+06
4257309022748672 1.40905e+06
4292493394837504 1.40905e+06
4327677766926336 1.40905e+06
4362862139015168 1.40905e+06
4398046511104000 1.40905e+06
4433230883192832 1.40905e+06
4468415255281664 1.40905e+06
4503599627370496 1.40905e+06
4573968371548160 1.40905e+06
4644337115725824 1.40905e+06
4714705859903488 1.40905e+06
4785074604081152 1.40905e+06
4855443348258816 1.40905e+06
4925812092436480 1.40905e+06
4996180836614144 1.40905e+06
5066549580791808 1.40905e+06
5136918324969472 1.40905e+06
5207287069147136 1.40905e+06
5277655813324800 1.40905e+06
5348024557502464 1.40905e+06
5418393301680128 1.40905e+06
5488762045857792 1.40905e+06
5559130790035456 1.40905e+06
5629499534213120 1.40905e+06
5699868278390784 1.40905e+06
5770237022568448 1.40905e+06
5840605766746112 1.40905e+06
5910974510923776 1.40905e+06
5981343255101440 1.40905e+06
6051711999279104 1.40905e+06
6122080743456768 1.40905e+06
6192449487634432 1.40905e+06
6262818231812096 1.40905e+06
6333186975989760 1.40905e+06
6403555720167424 1.40905e+06
6473924464345088 1.40905e+06
6544293208522752 1.40905e+06
6614661952700416 1.40905e+06
6685030696878080 1.40905e+06
6755399441055744 1.40905e+06
6825768185233408 1.40905e+06
6896136929411072 1.40905e+06
6966505673588736 1.40905e+06
7036874417766400 1.40905e+06
7107243161944064 1.40905e+06
7177611906121728 1.40905e+06
7247980650299392 1.40905e+06
7318349394477056 1.40905e+06
7388718138654720 1.40905e+06
7459086882832384 1.40905e+06
7529455627010048 1.40905e+06
7599824371187712 1.40905e+06
7670193115365376 1.40905e+06
7740561859543040 1.40905e+06
7810930603720704 1.40905e+06
7881299347898368 1.40905e+06
7951668092076032 1.40905e+06
8022036836253696 1.40905e+06
8092405580431360 1.40905e+06
8162774324609024 1.40905e+06
8233143068786688 1.40905e+06
8303511812964352 1.40905e+06
8373880557142016 1.40905e+06
8444249301319680 1.40905e+06
8514618045497344 1.40905e+06
8584986789675008 1.40905e+06
8655355533852672 1.40905e+06
8725724278030336 1.40905e+06
8796093022208000 1.40905e+06
8866461766385664 1.40905e+06
8936830510563328 1.40905e+06
9007199254740992 1.40905e+06
9147936743096320 1.40905e+06
9288674231451648 1.40905e+06
9429411719806976 1.40905e+06
9570149208162304 1.40905e+06
9710886696517632 1.40905e+06
9851624184872960 1.40905e+06
9992361673228288 1.40905e+06
10133099161583616 1.40905e+06
10273836649938944 1.40905e+06
10414574138294272 1.40905e+06
10555311626649600 1.40905e+06
10696049115004928 1.40905e+06
10836786603360256 1.40905e+06
10977524091715584 1.40905e+06
11118261580070912 1.40905e+06
11258999068426240 1.40905e+06
11399736556781568 1.40905e+06
11540474045136896 1.40905e+06
11681211533492224 1.40905e+06
11821949021847552 1.40905e+06
11962686510202880 1.40905e+06
12103423998558208 1.40905e+06
12244161486913536 1.40905e+06
12384898975268864 1.40905e+06
12525636463624192 1.40905e+06
12666373951979520 1.40905e+06
12807111440334848 1.40905e+06
12947848928690176 1.40905e+06
13088586417045504 1.40905e+06
13229323905400832 1.40905e+06
13370061393756160 1.40905e+06
13510798882111488 1.40905e+06
13651536370466816 1.40905e+06
13792273858822144 1.40905e+06
13933011347177472 1.40905e+06
14073748835532800 1.40905e+06
14214486323888128 1.40905e+06
14355223812243456 1.40905e+06
14495961300598784 1.40905e+06
14636698788954112 1.40905e+06
14777436277309440 1.40905e+06
14918173765664768 1.40905e+06
15058911254020096 1.40905e+06
15199648742375424 1.40905e+06
15340386230730752 1.40905e+06
15481123719086080 1.40905e+06
15621861207441408 1.40905e+06
15762598695796736 1.40905e+06
15903336184152064 1.40905e+06
16044073672507392 1.40905e+06
16184811160862720 1.40905e+06
16325548649218048 1.40905e+06
16466286137573376 1.40905e+06
16607023625928704 1.40905e+06
16747761114284032 1.40905e+06
16888498602639360 1.40905e+06
17029236090994688 1.40905e+06
17169973579350016 1.40905e+06
17310711067705344 1.40905e+06
17451448556060672 1.40905e+06
17592186044416000 1.40905e+06
17732923532771328 1.40905e+06
17873661021126656 1.40905e+06
18014398509481984 1.40905e+06
18295873486192640 1.40905e+06
18577348462903296 1.40905e+06
18858823439613952 1.40905e+06
19140298416324608 1.40905e+06
19421773393035264 1.40905e+06
19703248369745920 1.40905e+06
19984723346456576 1.40905e+06
20266198323167232 1.40905e+06
20547673299877888 1.40905e+06
20829148276588544 1.40905e+06
21110623253299200 1.40905e+06
21392098230009856 1.40905e+06
21673573206720512 1.40905e+06
21955048183431168 1.40905e+06
22236523160141824 1.40905e+06
22517998136852480 1.40905e+06
22799473113563136 1.40905e+06
23080948090273792 1.40905e+06
23362423066984448 1.40905e+06
23643898043695104 1.40905e+06
23925373020405760 1.40905e+06
24206847997116416 1.40905e+06
24488322973827072 1.40905e+06
24769797950537728 1.40905e+06
25051272927248384 1.40905e+06
25332747903959040 1.40905e+06
25614222880669696 1.40905e+06
25895697857380352 1.40905e+06
26177172834091008 1.40905e+06
26458647810801664 1.40905e+06
26740122787512320 1.40905e+06
27021597764222976 1.40905e+06
27303072740933632 1.40905e+06
27584547717644288 1.40905e+06
27866022694354944 1.40905e+06
28147497671065600 1.40905e+06
28428972647776256 1.40905e+06
28710447624486912 1.40905e+06
28991922601197568 1.40905e+06
29273397577908224 1.40905e+06
29554872554618880 1.40905e+06
29836347531329536 1.40905e+06
30117822508040192 1.40905e+06
30399297484750848 1.40905e+06
30680772461461504 1.40905e+06
30962247438172160 1.40905e+06
31243722414882816 1.40905e+06
31525197391593472 1.40905e+06
31806672368304128 1.40905e+06
32088147345014784 1.40905e+06
32369622321725440 1.40905e+06
32651097298436096 1.40905e+06
32932572275146752 1.40905e+06
33214047251857408 1.40905e+06
33495522228568064 1.40905e+06
33776997205278720 1.40905e+06
34058472181989376 1.40905e+06
34339947158700032 1.40905e+06
34621422135410688 1.40905e+06
34902897112121344 1.40905e+06
35184372088832000 1.40905e+06
35465847065542656 1.40905e+06
35747322042253312 1.40905e+06
36028797018963968 1.40905e+06
36591746972385280 1.40905e+06
37154696925806592 1.40905e+06
37717646879227904 1.40905e+06
38280596832649216 1.40905e+06
38843546786070528 1.40905e+06
39406496739491840 1.40905e+06
39969446692913152 1.40905e+06
40532396646334464 1.40905e+06
41095346599755776 1.40905e+06
41658296553177088 1.40905e+06
42221246506598400 1.40905e+06
42784196460019712 1.40905e+06
43347146413441024 1.40905e+06
43910096366862336 1.40905e+06
44473046320283648 1.40905e+06
45035996273704960 1.40905e+06
45598946227126272 1.40905e+06
46161896180547584 1.40905e+06
46724846133968896 1.40905e+06
47287796087390208 1.40905e+06
47850746040811520 1.40905e+06
48413695994232832 1.40905e+06
48976645947654144 1.40905e+06
49539595901075456 1.40905e+06
50102545854496768 1.40905e+06
50665495807918080 1.40905e+06
51228445761339392 1.40905e+06
51791395714760704 1.40905e+06
52354345668182016 1.40905e+06
52917295621603328 1.40905e+06
53480245575024640 1.40905e+06
54043195528445952 1.40905e+06
54606145481867264 1.40905e+06
55169095435288576 1.40905e+06
55732045388709888 1.40905e+06
56294995342131200 1.40905e+06
56857945295552512 1.40905e+06
57420895248973824 1.40905e+06
57983845202395136 1.40905e+06
58546795155816448 1.40905e+06
59109745109237760 1.40905e+06
59672695062659072 1.40905e+06
60235645016080384 1.40905e+06
60798594969501696 1.40905e+06
61361544922923008 1.40905e+06
61924494876344320 1.40905e+06
62487444829765632 1.40905e+06
63050394783186944 1.40905e+06
63613344736608256 1.40905e+06
64176294690029568 1.40905e+06
64739244643450880 1.40905e+06
65302194596872192 1.40905e+06
65865144550293504 1.40905e+06
66428094503714816 1.40905e+06
66991044457136128 1.40905e+06
67553994410557440 1.40905e+06
68116944363978752 1.40905e+06
68679894317400064 1.40905e+06
69242844270821376 1.40905e+06
69805794224242688 1.40905e+06
70368744177664000 1.40905e+06
70931694131085312 1.40905e+06
71494644084506624 1.40905e+06
72057594037927936 1.40905e+06
73183493944770560 1.40905e+06
74309393851613184 1.40905e+06
75435293758455808 1.40905e+06
76561193665298432 1.40905e+06
77687093572141056 1.40905e+06
78812993478983680 1.40905e+06
79938893385826304 1.40905e+06
81064793292668928 1.40905e+06
82190693199511552 1.40905e+06
83316593106354176 1.40905e+06
84442493013196800 1.40905e+06
85568392920039424 1.40905e+06
86694292826882048 1.40905e+06
87820192733724672 1.40905e+06
88946092640567296 1.40905e+06
90071992547409920 1.40905e+06
91197892454252544 1.40905e+06
92323792361095168 1.40905e+06
93449692267937792 1.40905e+06
94575592174780416 1.40905e+06
95701492081623040 1.40905e+06
96827391988465664 1.40905e+06
97953291895308288 1.40905e+06
99079191802150912 1.40905e+06
100205091708993536 1.40905e+06
101330991615836160 1.40905e+06
102456891522678784 1.40905e+06
103582791429521408 1.40905e+06
104708691336364032 1.40905e+06
105834591243206656 1.40905e+06
106960491150049280 1.40905e+06
108086391056891904 1.40905e+06
109212290963734528 1.40905e+06
110338190870577152 1.40905e+06
111464090777419776 1.40905e+06
112589990684262400 1.40905e+06
113715890591105024 1.40905e+06
114841790497947648 1.40905e+06
115967690404790272 1.40905e+06
117093590311632896 1.40905e+06
118219490218475520 1.40905e+06
119345390125318144 1.40905e+06
120471290032160768 1.40905e+06
121597189939003392 1.40905e+06
122723089845846016 1.40905e+06
123848989752688640 1.40905e+06
124974889659531264 1.40905e+06
126100789566373888 1.40905e+06
127226689473216512 1.40905e+06
128352589380059136 1.40905e+06
129478489286901760 1.40905e+06
130604389193744384 1.40905e+06
131730289100587008 1.40905e+06
132856189007429632 1.40905e+06
133982088914272256 1.40905e+06
135107988821114880 1.40905e+06
136233888727957504 1.40905e+06
137359788634800128 1.40905e+06
138485688541642752 1.40905e+06
139611588448485376 1.40905e+06
140737488355328000 1.40905e+06
141863388262170624 1.40905e+06
142989288169013248 1.40905e+06
144115188075855872 1.40905e+06
146366987889541120 1.40905e+06
148618787703226368 1.40905e+06
150870587516911616 1.40905e+06
153122387330596864 1.40905e+06
155374187144282112 1.40905e+06
157625986957967360 1.40905e+06
159877786771652608 1.40905e+06
162129586585337856 1.40905e+06
164381386399023104 1.40905e+06
166633186212708352 1.40905e+06
168884986026393600 1.40905e+06
171136785840078848 1.40905e+06
173388585653764096 1.40905e+06
175640385467449344 1.40905e+06
177892185281134592 1.40905e+06
180143985094819840 1.40905e+06
182395784908505088 1.40905e+06
184647584722190336 1.40905e+06
186899384535875584 1.40905e+06
189151184349560832 1.40905e+06
191402984163246080 1.40905e+06
193654783976931328 1.40905e+06
195906583790616576 1.40905e+06
198158383604301824 1.40905e+06
200410183417987072 1.40905e+06
202661983231672320 1.40905e+06
204913783045357568 1.40905e+06
207165582859042816 1.40905e+06
209417382672728064 1.40905e+06
211669182486413312 1.40905e+06
213920982300098560 1.40905e+06
216172782113783808 1.40905e+06
218424581927469056 1.40905e+06
220676381741154304 1.40905e+06
222928181554839552 1.40905e+06
225179981368524800 1.40905e+06
227431781182210048 1.40905e+06
229683580995895296 1.40905e+06
231935380809580544 1.40905e+06
234187180623265792 1.40905e+06
236438980436951040 1.40905e+06
238690780250636288 1.40905e+06
240942580064321536 1.40905e+06
243194379878006784 1.40905e+06
245446179691692032 1.40905e+06
247697979505377280 1.40905e+06
249949779319062528 1.40905e+06
252201579132747776 1.40905e+06
254453378946433024 1.40905e+06
256705178760118272 1.40905e+06
258956978573803520 1.40905e+06
261208778387488768 1.40905e+06
263460578201174016 1.40905e+06
265712378014859264 1.40905e+06
267964177828544512 1.40905e+06
270215977642229760 1.40905e+06
272467777455915008 1.40905e+06
274719577269600256 1.40905e+06
276971377083285504 1.40905e+06
279223176896970752 1.40905e+06
281474976710656000 1.40905e+06
283726776524341248 1.40905e+06
285978576338026496 1.40905e+06
288230376151711744 1.40905e+06
292733975779082240 1.40905e+06
297237575406452736 1.40905e+06
301741175033823232 1.40905e+06
306244774661193728 1.40905e+06
310748374288564224 1.40905e+06
315251973915934720 1.40905e+06
319755573543305216 1.40905e+06
324259173170675712 1.40905e+06
328762772798046208 1.40905e+06
333266372425416704 1.40905e+06
337769972052787200 1.40905e+06
342273571680157696 1.40905e+06
346777171307528192 1.40905e+06
351280770934898688 1.40905e+06
355784370562269184 1.40905e+06
360287970189639680 1.40905e+06
364791569817010176 1.40905e+06
369295169444380672 1.40905e+06
373798769071751168 1.40905e+06
378302368699121664 1.40905e+06
382805968326492160 1.40905e+06
387309567953862656 1.40905e+06
391813167581233152 1.40905e+06
396316767208603648 1.40905e+06
400820366835974144 1.40905e+06
405323966463344640 1.40905e+06
409827566090715136 1.40905e+06
414331165718085632 1.40905e+06
418834765345456128 1.40905e+06
423338364972826624 1.40905e+06
427841964600197120 1.40905e+06
432345564227567616 1.40905e+06
436849163854938112 1.40905e+06
441352763482308608 1.40905e+06
445856363109679104 1.40905e+06
450359962737049600 1.40905e+06
454863562364420096 1.40905e+06
459367161991790592 1.40905e+06
463870761619161088 1.40905e+06
468374361246531584 1.40905e+06
472877960873902080 1.40905e+06
477381560501272576 1.40905e+06
481885160128643072 1.40905e+06
486388759756013568 1.40905e+06
490892359383384064 1.40905e+06
495395959010754560 1.40905e+06
499899558638125056 1.40905e+06
504403158265495552 1.40905e+06
508906757892866048 1.40905e+06
513410357520236544 1.40905e+06
517913957147607040 1.40905e+06
522417556774977536 1.40905e+06
526921156402348032 1.40905e+06
531424756029718528 1.40905e+06
535928355657089024 1.40905e+06
540431955284459520 1.40905e+06
544935554911830016 1.40905e+06
549439154539200512 1.40905e+06
553942754166571008 1.40905e+06
558446353793941504 1.40905e+06
562949953421312000 1.40905e+06
567453553048682496 1.40905e+06
571957152676052992 1.40905e+06
576460752303423488 1.40905e+06
585467951558164480 1.40905e+06
594475150812905472 1.40905e+06
603482350067646464 1.40905e+06
612489549322387456 1.40905e+06
621496748577128448 1.40905e+06
630503947831869440 1.40905e+06
639511147086610432 1.40905e+06
648518346341351424 1.40905e+06
657525545596092416 1.40905e+06
666532744850833408 1.40905e+06
675539944105574400 1.40905e+06
684547143360315392 1.40905e+06
693554342615056384 1.40905e+06
702561541869797376 1.40905e+06
711568741124538368 1.40905e+06
720575940379279360 1.40905e+06
729583139634020352 1.40905e+06
738590338888761344 1.40905e+06
747597538143502336 1.40905e+06
756604737398243328 1.40905e+06
765611936652984320 1.40905e+06
774619135907725312 1.40905e+06
783626335162466304 1.40905e+06
792633534417207296 1.40905e+06
801640733671948288 1.40905e+06
810647932926689280 1.40905e+06
819655132181430272 1.40905e+06
828662331436171264 1.40905e+06
837669530690912256 1.40905e+06
846676729945653248 1.40905e+06
855683929200394240 1.40905e+06
864691128455135232 1.40905e+06
873698327709876224 1.40905e+06
882705526964617216 1.40905e+06
891712726219358208 1.40905e+06
900719925474099200 1.40905e+06
909727124728840192 1.40905e+06
918734323983581184 1.40905e+06
927741523238322176 1.40905e+06
936748722493063168 1.40905e+06
945755921747804160 1.40905e+06
954763121002545152 1.40905e+06
963770320257286144 1.40905e+06
972777519512027136 1.40905e+06
981784718766768128 1.40905e+06
990791918021509120 1.40905e+06
999799117276250112 1.40905e+06
1008806316530991104 1.40905e+06
1017813515785732096 1.40905e+06
1026820715040473088 1.40905e+06
1035827914295214080 1.40905e+06
1044835113549955072 1.40905e+06
1053842312804696064 1.40905e+06
1062849512059437056 1.40905e+06
1071856711314178048 1.40905e+06
1080863910568919040 1.40905e+06
1089871109823660032 1.40905e+06
1098878309078401024 1.40905e+06
1107885508333142016 1.40905e+06
1116892707587883008 1.40905e+06
1125899906842624000 1.40905e+06
1134907106097364992 1.40905e+06
1143914305352105984 1.40905e+06
1152921504606846976 1.40905e+06
1170935903116328960 1.40905e+06
1188950301625810944 1.40905e+06
1206964700135292928 1.40905e+06
1224979098644774912 1.40905e+06
1242993497154256896 1.40905e+06
1261007895663738880 1.40905e+06
1279022294173220864 1.40905e+06
1297036692682702848 1.40905e+06
1315051091192184832 1.40905e+06
1333065489701666816 1.40905e+06
1351079888211148800 1.40905e+06
1369094286720630784 1.40905e+06
1387108685230112768 1.40905e+06
1405123083739594752 1.40905e+06
1423137482249076736 1.40905e+06
1441151880758558720 1.40905e+06
1459166279268040704 1.40905e+06
1477180677777522688 1.40905e+06
1495195076287004672 1.40905e+06
1513209474796486656 1.40905e+06
1531223873305968640 1.40905e+06
1549238271815450624 1.40905e+06
1567252670324932608 1.40905e+06
1585267068834414592 1.40905e+06
1603281467343896576 1.40905e+06
1621295865853378560 1.40905e+06
1639310264362860544 1.40905e+06
1657324662872342528 1.40905e+06
1675339061381824512 1.40905e+06
1693353459891306496 1.40905e+06
1711367858400788480 1.40905e+06
1729382256910270464 1.40905e+06
1747396655419752448 1.40905e+06
1765411053929234432 1.40905e+06
1783425452438716416 1.40905e+06
1801439850948198400 1.40905e+06
1819454249457680384 1.40905e+06
1837468647967162368 1.40905e+06
1855483046476644352 1.40905e+06
1873497444986126336 1.40905e+06
1891511843495608320 1.40905e+06
1909526242005090304 1.40905e+06
1927540640514572288 1.40905e+06
1945555039024054272 1.40905e+06
1963569437533536256 1.40905e+06
1981583836043018240 1.40905e+06
1999598234552500224 1.40905e+06
2017612633061982208 1.40905e+06
2035627031571464192 1.40905e+06
2053641430080946176 1.40905e+06
2071655828590428160 1.40905e+06
2089670227099910144 1.40905e+06
2107684625609392128 1.40905e+06
2125699024118874112 1.40905e+06
2143713422628356096 1.40905e+06
2161727821137838080 1.40905e+06
2179742219647320064 1.40905e+06
2197756618156802048 1.40905e+06
2215771016666284032 1.40905e+06
2233785415175766016 1.40905e+06
2251799813685248000 1.40905e+06
2269814212194729984 1.40905e+06
2287828610704211968 1.40905e+06
2305843009213693952 1.40905e+06
2341871806232657920 1.40905e+06
2377900603251621888 1.40905e+06
2413929400270585856 1.40905e+06
2449958197289549824 1.40905e+06
2485986994308513792 1.40905e+06
2522015791327477760 1.40905e+06
2558044588346441728 1.40905e+06
2594073385365405696 1.40905e+06
2630102182384369664 1.40905e+06
2666130979403333632 1.40905e+06
2702159776422297600 1.40905e+06
2738188573441261568 1.40905e+06
2774217370460225536 1.40905e+06
2810246167479189504 1.40905e+06
2846274964498153472 1.40905e+06
2882303761517117440 1.40905e+06
2918332558536081408 1.40905e+06
2954361355555045376 1.40905e+06
2990390152574009344 1.40905e+06
3026418949592973312 1.40905e+06
3062447746611937280 1.40905e+06
3098476543630901248 1.40905e+06
3134505340649865216 1.40905e+06
3170534137668829184 1.40905e+06
3206562934687793152 1.40905e+06
3242591731706757120 1.40905e+06
3278620528725721088 1.40905e+06
3314649325744685056 1.40905e+06
3350678122763649024 1.40905e+06
3386706919782612992 1.40905e+06
3422735716801576960 1.40905e+06
3458764513820540928 1.40905e+06
3494793310839504896 1.40905e+06
3530822107858468864 1.40905e+06
3566850904877432832 1.40905e+06
3602879701896396800 1.40905e+06
3638908498915360768 1.40905e+06
3674937295934324736 1.40905e+06
3710966092953288704 1.40905e+06
3746994889972252672 1.40905e+06
3783023686991216640 1.40905e+06
3819052484010180608 1.40905e+06
3855081281029144576 1.40905e+06
3891110078048108544 1.40905e+06
3927138875067072512 1.40905e+06
3963167672086036480 1.40905e+06
3999196469105000448 1.40905e+06
4035225266123964416 1.40905e+06
4071254063142928384 1.40905e+06
4107282860161892352 1.40905e+06
4143311657180856320 1.40905e+06
4179340454199820288 1.40905e+06
4215369251218784256 1.40905e+06
4251398048237748224 1.40905e+06
4287426845256712192 1.40905e+06
4323455642275676160 1.40905e+06
4359484439294640128 1.40905e+06
4395513236313604096 1.40905e+06
4431542033332568064 1.40905e+06
4467570830351532032 1.40905e+06
4503599627370496000 1.40905e+06
4539628424389459968 1.40905e+06
4575657221408423936 1.40905e+06
4611686018427387904 1.40905e+06
4683743612465315840 1.40905e+06
4755801206503243776 1.40905e+06
4827858800541171712 1.40905e+06
4899916394579099648 1.40905e+06
4971973988617027584 1.40905e+06
5044031582654955520 1.40905e+06
5116089176692883456 1.40905e+06
5188146770730811392 1.40905e+06
5260204364768739328 1.40905e+06
5332261958806667264 1.40905e+06
5404319552844595200 1.40905e+06
5476377146882523136 1.40905e+06
5548434740920451072 1.40905e+06
5620492334958379008 1.40905e+06
5692549928996306944 1.40905e+06
5764607523034234880 1.40905e+06
5836665117072162816 1.40905e+06
5908722711110090752 1.40905e+06
5980780305148018688 1.40905e+06
6052837899185946624 1.40905e+06
6124895493223874560 1.40905e+06
6196953087261802496 1.40905e+06
6269010681299730432 1.40905e+06
6341068275337658368 1.40905e+06
6413125869375586304 1.40905e+06
6485183463413514240 1.40905e+06
6557241057451442176 1.40905e+06
6629298651489370112 1.40905e+06
6701356245527298048 1.40905e+06
6773413839565225984 1.40905e+06
6845471433603153920 1.40905e+06
6917529027641081856 1.40905e+06
6989586621679009792 1.40905e+06
7061644215716937728 1.40905e+06
7133701809754865664 1.40905e+06
7205759403792793600 1.40905e+06
7277816997830721536 1.40905e+06
7349874591868649472 1.40905e+06
7421932185906577408 1.40905e+06
7493989779944505344 1.40905e+06
7566047373982433280 1.40905e+06
7638104968020361216 1.40905e+06
7710162562058289152 1.40905e+06
7782220156096217088 1.40905e+06
7854277750134145024 1.40905e+06
7926335344172072960 1.40905e+06
7998392938210000896 1.40905e+06
8070450532247928832 1.40905e+06
8142508126285856768 1.40905e+06
8214565720323784704 1.40905e+06
8286623314361712640 1.40905e+06
8358680908399640576 1.40905e+06
8430738502437568512 1.40905e+06
8502796096475496448 1.40905e+06
8574853690513424384 1.40905e+06
8646911284551352320 1.40905e+06
8718968878589280256 1.40905e+06
8791026472627208192 1.40905e+06
8863084066665136128 1.40905e+06
8935141660703064064 1.40905e+06
9007199254740992000 1.40905e+06
9079256848778919936 1.40905e+06
9151314442816847872 1.40905e+06
9223372036854775808 1.40905e+06
9367487224930631680 1.40905e+06
9511602413006487552 1.40905e+06
9655717601082343424 1.40905e+06
9799832789158199296 1.40905e+06
9943947977234055168 1.40905e+06
10088063165309911040 1.40905e+06
10232178353385766912 1.40905e+06
10376293541461622784 1.40905e+06
10520408729537478656 1.40905e+06
10664523917613334528 1.40905e+06
10808639105689190400 1.40905e+06
10952754293765046272 1.40905e+06
11096869481840902144 1.40905e+06
11240984669916758016 1.40905e+06
11385099857992613888 1.40905e+06
11529215046068469760 1.40905e+06
11673330234144325632 1.40905e+06
11817445422220181504 1.40905e+06
11961560610296037376 1.40905e+06
12105675798371893248 1.40905e+06
12249790986447749120 1.40905e+06
12393906174523604992 1.40905e+06
12538021362599460864 1.40905e+06
12682136550675316736 1.40905e+06
12826251738751172608 1.40905e+06
12970366926827028480 1.40905e+06
13114482114902884352 1.40905e+06
13258597302978740224 1.40905e+06
13402712491054596096 1.40905e+06
13546827679130451968 1.40905e+06
13690942867206307840 1.40905e+06
13835058055282163712 1.40905e+06
13979173243358019584 1.40905e+06
14123288431433875456 1.40905e+06
14267403619509731328 1.40905e+06
14411518807585587200 1.40905e+06
14555633995661443072 1.40905e+06
14699749183737298944 1.40905e+06
14843864371813154816 1.40905e+06
14987979559889010688 1.40905e+06
15132094747964866560 1.40905e+06
15276209936040722432 1.40905e+06
15420325124116578304 1.40905e+06
15564440312192434176 1.40905e+06
15708555500268290048 1.40905e+06
15852670688344145920 1.40905e+06
15996785876420001792 1.40905e+06
16140901064495857664 1.40905e+06
16285016252571713536 1.40905e+06
16429131440647569408 1.40905e+06
16573246628723425280 1.40905e+06
16717361816799281152 1.40905e+06
16861477004875137024 1.40905e+06
17005592192950992896 1.40905e+06
17149707381026848768 1.40905e+06
17293822569102704640 1.40905e+06
17437937757178560512 1.40905e+06
17582052945254416384 1.40905e+06
17726168133330272256 1.40905e+06
17870283321406128128 1.40905e+06
18014398509481984000 1.40905e+06
18158513697557839872 1.40905e+06
18302628885633695744 1.40905e+06
