0	0
1	1
2	1.99917
3	2.99832
4	3.99746
5	4.99659
6	5.99537
7	6.99408
8	7.99274
9	8.99136
10	9.97928
11	10.9546
12	11.9261
13	12.8752
14	13.781
15	14.6867
16	15.5923
17	16.4979
18	17.4034
19	18.3087
20	19.1939
21	20.0718
22	20.9496
23	21.8271
24	22.7044
25	23.5751
26	24.4385
27	25.2994
28	26.1603
29	27.0203
30	27.8789
31	28.7367
32	29.5944
33	30.4518
34	31.309
35	32.1662
36	33.0234
37	33.8781
38	34.6981
39	35.5091
40	36.3133
41	37.117
42	37.9201
43	38.7228
44	39.5252
45	40.3276
46	41.1299
47	41.9322
48	42.7338
49	43.534
50	44.3247
51	45.0841
52	45.8417
53	46.5986
54	47.3551
55	48.1113
56	48.8672
57	49.623
58	50.3772
59	51.1263
60	51.8752
61	52.6239
62	53.3711
63	54.1121
64	54.8384
65	55.564
66	56.2891
67	57.0137
68	57.7367
69	58.4582
70	59.1795
71	59.9005
72	60.6213
73	61.342
74	62.0612
75	62.7725
76	63.4793
77	64.1807
78	64.8777
79	65.574
80	66.2697
81	66.9649
82	67.6599
83	68.3548
84	69.0496
85	69.7444
86	70.439
87	71.1269
88	71.8064
89	72.482
90	73.156
91	73.8293
92	74.502
93	75.1743
94	75.8464
95	76.5184
96	77.1903
97	77.8601
98	78.5289
99	79.197
100	79.8616
101	80.521
102	81.1784
103	81.8354
104	82.4919
105	83.1478
106	83.803
107	84.4571
108	85.1106
109	85.764
110	86.417
111	87.0692
112	87.7187
113	88.3666
114	89.0096
115	89.6521
116	90.2933
117	90.9329
118	91.5719
119	92.2107
120	92.8492
121	93.4875
122	94.1258
123	94.764
124	95.399
125	96.0313
126	96.6605
127	97.2866
128	97.9122
130	99.1616
132	100.41
134	101.657
136	102.903
138	104.139
140	105.368
142	106.594
144	107.82
146	109.043
148	110.264
150	111.481
152	112.693
154	113.902
156	115.107
158	116.311
160	117.514
162	118.713
164	119.908
166	121.098
168	122.285
170	123.472
172	124.659
174	125.842
176	127.02
178	128.194
180	129.367
182	130.539
184	131.709
186	132.878
188	134.043
190	135.205
192	136.365
194	137.523
196	138.681
198	139.837
200	140.99
202	142.141
204	143.29
206	144.436
208	145.582
210	146.728
212	147.871
214	149.011
216	150.149
218	151.285
220	152.421
222	153.557
224	154.69
226	155.821
228	156.95
230	158.078
232	159.205
234	160.331
236	161.455
238	162.578
240	163.699
242	164.818
244	165.937
246	167.054
248	168.171
250	169.286
252	170.4
254	171.512
256	172.623
260	174.843
264	177.057
268	179.267
272	181.473
276	183.675
280	185.873
284	188.067
288	190.257
292	192.443
296	194.626
300	196.805
304	198.981
308	201.154
312	203.324
316	205.49
320	207.653
324	209.814
328	211.971
332	214.126
336	216.278
340	218.427
344	220.574
348	222.718
352	224.86
356	226.999
360	229.136
364	231.271
368	233.403
372	235.533
376	237.661
380	239.787
384	241.911
388	244.033
392	246.153
396	248.271
400	250.387
404	252.502
408	254.614
412	256.724
416	258.833
420	260.941
424	263.046
428	265.15
432	267.252
436	269.353
440	271.452
444	273.55
448	275.646
452	277.739
456	279.832
460	281.923
464	284.012
468	286.101
472	288.188
476	290.273
480	292.357
484	294.44
488	296.522
492	298.603
496	300.682
500	302.76
504	304.837
508	306.913
512	308.988
520	313.134
528	317.276
536	321.414
544	325.549
552	329.679
560	333.805
568	337.928
576	342.047
584	346.164
592	350.276
600	354.385
608	358.492
616	362.595
624	366.695
632	370.792
640	374.886
648	378.977
656	383.066
664	387.151
672	391.234
680	395.315
688	399.392
696	403.468
704	407.541
712	411.611
720	415.68
728	419.745
736	423.809
744	427.871
752	431.93
760	435.988
768	440.044
776	444.097
784	448.149
792	452.199
800	456.247
808	460.293
816	464.337
824	468.379
832	472.42
840	476.459
848	480.496
856	484.532
864	488.566
872	492.599
880	496.63
888	500.659
896	504.687
904	508.713
912	512.737
920	516.759
928	520.78
936	524.799
944	528.817
952	532.834
960	536.85
968	540.864
976	544.877
984	548.888
992	552.899
1000	556.908
1008	560.916
1016	564.923
1024	568.928
1040	576.936
1056	584.94
1072	592.939
1088	600.934
1104	608.925
1120	616.911
1136	624.894
1152	632.874
1168	640.849
1184	648.821
1200	656.789
1216	664.754
1232	672.715
1248	680.673
1264	688.627
1280	696.579
1296	704.527
1312	712.473
1328	720.415
1344	728.354
1360	736.289
1376	744.222
1392	752.15
1408	760.077
1424	768
1440	775.921
1456	783.84
1472	791.756
1488	799.67
1504	807.581
1520	815.49
1536	823.396
1552	831.3
1568	839.202
1584	847.102
1600	855
1616	862.895
1632	870.789
1648	878.68
1664	886.569
1680	894.456
1696	902.341
1712	910.224
1728	918.105
1744	925.985
1760	933.862
1776	941.738
1792	949.611
1808	957.482
1824	965.351
1840	973.217
1856	981.082
1872	988.945
1888	996.806
1904	1004.67
1920	1012.52
1936	1020.38
1952	1028.23
1968	1036.09
1984	1043.94
2000	1051.79
2016	1059.64
2032	1067.48
2048	1075.33
2080	1091.02
2112	1106.7
2144	1122.37
2176	1138.04
2208	1153.7
2240	1169.36
2272	1185.01
2304	1200.66
2336	1216.3
2368	1231.93
2400	1247.56
2432	1263.19
2464	1278.81
2496	1294.43
2528	1310.04
2560	1325.64
2592	1341.25
2624	1356.85
2656	1372.44
2688	1388.03
2720	1403.61
2752	1419.19
2784	1434.77
2816	1450.34
2848	1465.91
2880	1481.47
2912	1497.03
2944	1512.58
2976	1528.13
3008	1543.67
3040	1559.21
3072	1574.75
3104	1590.29
3136	1605.82
3168	1621.34
3200	1636.86
3232	1652.38
3264	1667.89
3296	1683.4
3328	1698.91
3360	1714.41
3392	1729.91
3424	1745.41
3456	1760.91
3488	1776.4
3520	1791.89
3552	1807.37
3584	1822.85
3616	1838.33
3648	1853.81
3680	1869.28
3712	1884.75
3744	1900.22
3776	1915.68
3808	1931.14
3840	1946.6
3872	1962.06
3904	1977.51
3936	1992.96
3968	2008.41
4000	2023.85
4032	2039.3
4064	2054.74
4096	2070.17
4160	2101.04
4224	2131.89
4288	2162.73
4352	2193.57
4416	2224.4
4480	2255.21
4544	2286.02
4608	2316.82
4672	2347.61
4736	2378.39
4800	2409.16
4864	2439.92
4928	2470.68
4992	2501.43
5056	2532.17
5120	2562.9
5184	2593.62
5248	2624.33
5312	2655.04
5376	2685.74
5440	2716.44
5504	2747.12
5568	2777.8
5632	2808.47
5696	2839.14
5760	2869.8
5824	2900.45
5888	2931.1
5952	2961.74
6016	2992.37
6080	3022.99
6144	3053.61
6208	3084.23
6272	3114.84
6336	3145.44
6400	3176.03
6464	3206.62
6528	3237.21
6592	3267.79
6656	3298.36
6720	3328.93
6784	3359.5
6848	3390.05
6912	3420.61
6976	3451.15
7040	3481.69
7104	3512.23
7168	3542.76
7232	3573.29
7296	3603.81
7360	3634.32
7424	3664.83
7488	3695.33
7552	3725.83
7616	3756.33
7680	3786.82
7744	3817.3
7808	3847.79
7872	3878.26
7936	3908.73
8000	3939.2
8064	3969.67
8128	4000.12
8192	4030.58
8320	4091.47
8448	4152.35
8576	4213.21
8704	4274.05
8832	4334.88
8960	4395.69
9088	4456.49
9216	4517.26
9344	4578.02
9472	4638.77
9600	4699.51
9728	4760.23
9856	4820.94
9984	4881.63
10112	4942.31
10240	5002.98
10368	5063.62
10496	5124.24
10624	5184.85
10752	5245.45
10880	5306.04
11008	5366.61
11136	5427.17
11264	5487.72
11392	5548.26
11520	5608.79
11648	5669.31
11776	5729.81
11904	5790.31
12032	5850.79
12160	5911.26
12288	5971.73
12416	6032.18
12544	6092.62
12672	6153.05
12800	6213.47
12928	6273.88
13056	6334.28
13184	6394.67
13312	6455.04
13440	6515.41
13568	6575.76
13696	6636.11
13824	6696.45
13952	6756.78
14080	6817.1
14208	6877.41
14336	6937.71
14464	6998
14592	7058.28
14720	7118.56
14848	7178.82
14976	7239.08
15104	7299.33
15232	7359.57
15360	7419.8
15488	7480.03
15616	7540.24
15744	7600.45
15872	7660.65
16000	7720.84
16128	7781.02
16256	7841.19
16384	7901.35
16640	8021.65
16896	8141.92
17152	8262.16
17408	8382.36
17664	8502.54
17920	8622.68
18176	8742.8
18432	8862.88
18688	8982.93
18944	9102.94
19200	9222.91
19456	9342.85
19712	9462.77
19968	9582.65
20224	9702.5
20480	9822.33
20736	9942.13
20992	10061.9
21248	10181.6
21504	10301.4
21760	10421.1
22016	10540.7
22272	10660.4
22528	10780
22784	10899.5
23040	11019.1
23296	11138.6
23552	11258.1
23808	11377.6
24064	11497.1
24320	11616.5
24576	11735.9
24832	11855.2
25088	11974.5
25344	12093.8
25600	12213.1
25856	12332.3
26112	12451.5
26368	12570.7
26624	12689.9
26880	12809
27136	12928.1
27392	13047.2
27648	13166.3
27904	13285.3
28160	13404.3
28416	13523.3
28672	13642.3
28928	13761.2
29184	13880.1
29440	13999
29696	14117.8
29952	14236.6
30208	14355.4
30464	14474.2
30720	14593
30976	14711.7
31232	14830.4
31488	14949.1
31744	15067.7
32000	15186.4
32256	15305
32512	15423.5
32768	15542.1
33280	15779.1
33792	16016
34304	16252.8
34816	16489.5
35328	16726.1
35840	16962.6
36352	17199
36864	17435.3
37376	17671.5
37888	17907.6
38400	18143.6
38912	18379.4
39424	18615.2
39936	18850.8
40448	19086.3
40960	19321.7
41472	19557
41984	19792.2
42496	20027.3
43008	20262.3
43520	20497.1
44032	20731.9
44544	20966.5
45056	21201
45568	21435.4
46080	21669.7
46592	21903.8
47104	22137.9
47616	22371.8
48128	22605.6
48640	22839.3
49152	23072.8
49664	23306.2
50176	23539.6
50688	23772.7
51200	24005.8
51712	24238.7
52224	24471.5
52736	24704.2
53248	24936.7
53760	25169
54272	25400.6
54784	25631.6
55296	25862
55808	26091.9
56320	26321
56832	26549.6
57344	26777.6
57856	27004.9
58368	27231.6
58880	27457.7
59392	27683.2
59904	27908
60416	28132.3
60928	28356
61440	28579.6
61952	28803
62464	29026.2
62976	29249.4
63488	29472.3
64000	29695.2
64512	29917.9
65024	30140.4
65536	30362.8
66560	30807.2
67584	31251
68608	31694.3
69632	32137
70656	32579.1
71680	33020.7
72704	33461.8
73728	33902.3
74752	34342.2
75776	34781.7
76800	35220.5
77824	35658.8
78848	36096.6
79872	36533.9
80896	36970.6
81920	37406.7
82944	37842.4
83968	38277.5
84992	38712
86016	39146
87040	39579.5
88064	40012.5
89088	40444.9
90112	40876.8
91136	41308.2
92160	41739
93184	42169.4
94208	42599.2
95232	43028.5
96256	43457.1
97280	43885.3
98304	44312.8
99328	44739.8
100352	45166.2
101376	45592.1
102400	46017.4
103424	46442.2
104448	46866.6
105472	47290.4
106496	47713.7
107520	48136.6
108544	48558.9
109568	48980.8
110592	49402.2
111616	49823
112640	50243.4
113664	50663.3
114688	51082.8
115712	51501.7
116736	51919.4
117760	52335.1
118784	52748.7
119808	53160.3
120832	53569.7
121856	53977.1
122880	54382.4
123904	54786.2
124928	55189.6
125952	55592.4
126976	55994.8
128000	56396.8
129024	56798.3
130048	57199.5
131072	57600.3
133120	58400.9
135168	59200.1
137216	59997.9
139264	60794.6
141312	61590
143360	62384.4
145408	63177.7
147456	63970
149504	64761.4
151552	65551.9
153600	66341.6
155648	67130.5
157696	67918.8
159744	68706.5
161792	69493.6
163840	70280.2
165888	71066.4
167936	71852.3
169984	72637.9
172032	73423.2
174080	74208.4
176128	74992.1
178176	75711.9
180224	76423.4
182272	77133.3
184320	77842.5
186368	78551.5
188416	79260.2
190464	79968.6
192512	80676.7
194560	81384.4
196608	82091.6
198656	82798.3
200704	83504.6
202752	84210.2
204800	84915.3
206848	85619.7
208896	86323.3
210944	87026.1
212992	87728
215040	88429
217088	89129.2
219136	89828.3
221184	90526.4
223232	91223.3
225280	91919.2
227328	92613.9
229376	93307.4
231424	93998
233472	94682.7
235520	95361.3
237568	96033.9
239616	96703.8
241664	97372.2
243712	98039.2
245760	98704.9
247808	99369.3
249856	100032
251904	100694
253952	101355
256000	102014
258048	102672
260096	103328
262144	103983
266240	105290
270336	106591
274432	107888
278528	109179
282624	110465
286720	111747
290816	113024
294912	114292
299008	115540
303104	116774
307200	118003
311296	119228
315392	120449
319488	121667
323584	122880
327680	124091
331776	125301
335872	126508
339968	127715
344064	128920
348160	130124
352256	131328
356352	132481
360448	133628
364544	134771
368640	135912
372736	137052
376832	138191
380928	139328
385024	140464
389120	141597
393216	142728
397312	143856
401408	144981
405504	146103
409600	147216
413696	148311
417792	149396
421888	150477
425984	151554
430080	152626
434176	153695
438272	154760
442368	155821
446464	156878
450560	157932
454656	158982
458752	160028
462848	161070
466944	162109
471040	163142
475136	164160
479232	165168
483328	166172
487424	167174
491520	168172
495616	169169
499712	170163
503808	171156
507904	172147
512000	173137
516096	174126
520192	175114
524288	176101
532480	178010
540672	179826
548864	181636
557056	183443
565248	185245
573440	187041
581632	188829
589824	190594
598016	192332
606208	194059
614400	195776
622592	197483
630784	199180
638976	200867
647168	202544
655360	204190
663552	205821
671744	207446
679936	209065
688128	210681
696320	212293
704512	213904
712704	215398
720896	216876
729088	218350
737280	219821
745472	221288
753664	222751
761856	224207
770048	225642
778240	227067
786432	228485
794624	229897
802816	231303
811008	232703
819200	234096
827392	235478
835584	236842
843776	238201
851968	239556
860160	240908
868352	242258
876544	243606
884736	244930
892928	246211
901120	247490
909312	248767
917504	250040
925696	251311
933888	252579
942080	253836
950272	255080
958464	256319
966656	257554
974848	258783
983040	260008
991232	261229
999424	262444
1007616	263646
1015808	264841
1024000	266032
1032192	267221
1040384	268407
1048576	269593
1064960	271927
1081344	274207
1097728	276479
1114112	278741
1130496	280970
1146880	283181
1163264	285378
1179648	287558
1196032	289707
1212416	291847
1228800	293981
1245184	296060
1261568	298105
1277952	300143
1294336	302170
1310720	304171
1327104	306160
1343488	308138
1359872	310099
1376256	312040
1392640	313975
1409024	315905
1425408	317769
1441792	319619
1458176	321462
1474560	323293
1490944	325107
1507328	326912
1523712	328708
1540096	330487
1556480	332254
1572864	334016
1589248	335768
1605632	337469
1622016	339165
1638400	340856
1654784	342532
1671168	344198
1687552	345855
1703936	347505
1720320	349139
1736704	350766
1753088	352390
1769472	353998
1785856	355578
1802240	357153
1818624	358724
1835008	360280
1851392	361829
1867776	363372
1884160	364907
1900544	366428
1916928	367944
1933312	369458
1949696	370948
1966080	372421
1982464	373890
1998848	375353
2015232	376804
2031616	378249
2048000	379688
2064384	381120
2080768	382541
2097152	383958
2129920	386756
2162688	389500
2195456	392219
2228224	394913
2260992	397579
2293760	400229
2326528	402813
2359296	405381
2392064	407925
2424832	410446
2457600	412947
2490368	415412
2523136	417851
2555904	420266
2588672	422665
2621440	425039
2654208	427392
2686976	429701
2719744	431993
2752512	434268
2785280	436523
2818048	438765
2850816	440961
2883584	443141
2916352	445302
2949120	447448
2981888	449577
3014656	451682
3047424	453763
3080192	455828
3112960	457879
3145728	459913
3178496	461935
3211264	463921
3244032	465896
3276800	467857
3309568	469804
3342336	471739
3375104	473644
3407872	475532
3440640	477406
3473408	479269
3506176	481117
3538944	482951
3571712	484759
3604480	486558
3637248	488345
3670016	490118
3702784	491886
3735552	493622
3768320	495350
3801088	497066
3833856	498772
3866624	500469
3899392	502146
3932160	503807
3964928	505457
3997696	507099
4030464	508729
4063232	510349
4096000	511946
4128768	513535
4161536	515115
4194304	516685
4259840	519789
4325376	522842
4390912	525861
4456448	528829
4521984	531757
4587520	534655
4653056	537498
4718592	540314
4784128	543094
4849664	545833
4915200	548544
4980736	551213
5046272	553848
5111808	556458
5177344	559020
5242880	561557
5308416	564068
5373952	566543
5439488	568997
5505024	571421
5570560	573817
5636096	576193
5701632	578530
5767168	580846
5832704	583139
5898240	585395
5963776	587635
6029312	589850
6094848	592040
6160384	594213
6225920	596359
6291456	598485
6356992	600595
6422528	602674
6488064	604738
6553600	606781
6619136	608799
6684672	610803
6750208	612785
6815744	614750
6881280	616702
6946816	618628
7012352	620541
7077888	622438
7143424	624311
7208960	626174
7274496	628015
7340032	629841
7405568	631657
7471104	633450
7536640	635232
7602176	637002
7667712	638755
7733248	640497
7798784	642223
7864320	643933
7929856	645634
7995392	647314
8060928	648984
8126464	650644
8192000	652286
8257536	653921
8323072	655543
8388608	657151
8519680	660335
8650752	663474
8781824	666564
8912896	669613
9043968	672622
9175040	675591
9306112	678516
9437184	681405
9568256	684260
9699328	687081
9830400	689860
9961472	692609
10092544	695328
10223616	698015
10354688	700665
10485760	703287
10616832	705883
10747904	708451
10878976	710988
11010048	713499
11141120	715986
11272192	718445
11403264	720878
11534336	723289
11665408	725679
11796480	728043
11927552	730383
12058624	732701
12189696	734998
12320768	737273
12451840	739527
12582912	741762
12713984	743980
12845056	746176
12976128	748354
13107200	750513
13238272	752656
13369344	754780
13500416	756887
13631488	758977
13762560	761049
13893632	763102
14024704	765142
14155776	767168
14286848	769178
14417920	771167
14548992	773143
14680064	775106
14811136	777055
14942208	778985
15073280	780901
15204352	782806
15335424	784696
15466496	786571
15597568	788433
15728640	790282
15859712	792115
15990784	793935
16121856	795745
16252928	797544
16384000	799326
16515072	801097
16646144	802859
16777216	804612
17039360	808074
17301504	811492
17563648	814867
17825792	818200
18087936	821490
18350080	824742
18612224	827951
18874368	831129
19136512	834260
19398656	837358
19660800	840418
19922944	843447
20185088	846441
20447232	849403
20709376	852331
20971520	855229
21233664	858090
21495808	860925
21757952	863724
22020096	866494
22282240	869238
22544384	871949
22806528	874635
23068672	877291
23330816	879921
23592960	882530
23855104	885121
24117248	887683
24379392	890225
24641536	892743
24903680	895236
25165824	897710
25427968	900166
25690112	902598
25952256	905016
26214400	907410
26476544	909783
26738688	912136
27000832	914469
27262976	916780
27525120	919084
27787264	921363
28049408	923629
28311552	925874
28573696	928113
28835840	930339
29097984	932559
29360128	934773
29622272	936989
29884416	939189
30146560	941396
30408704	943603
30670848	945811
30932992	948031
31195136	950247
31457280	952476
31719424	954725
31981568	956987
32243712	959292
32505856	961642
32768000	964030
33030144	966517
33292288	969088
33554432	971828
34078720	977784
34603008	983561
35127296	988864
35651584	993325
36175872	1.00479e+06
36700160	1.00479e+06
37224448	1.00479e+06
37748736	1.00479e+06
38273024	1.00479e+06
38797312	1.00479e+06
39321600	1.00479e+06
39845888	1.00479e+06
40370176	1.00479e+06
40894464	1.00479e+06
41418752	1.00479e+06
41943040	1.00479e+06
42467328	1.00479e+06
42991616	1.00479e+06
43515904	1.00479e+06
44040192	1.00479e+06
44564480	1.00479e+06
45088768	1.00479e+06
45613056	1.00479e+06
46137344	1.00479e+06
46661632	1.00479e+06
47185920	1.00479e+06
47710208	1.00479e+06
48234496	1.00479e+06
48758784	1.00479e+06
49283072	1.00479e+06
49807360	1.00479e+06
50331648	1.00479e+06
50855936	1.00479e+06
51380224	1.00479e+06
51904512	1.00479e+06
52428800	1.00479e+06
52953088	1.00479e+06
53477376	1.00479e+06
54001664	1.00479e+06
54525952	1.00479e+06
55050240	1.00479e+06
55574528	1.00479e+06
56098816	1.00479e+06
56623104	1.00479e+06
57147392	1.00479e+06
57671680	1.00479e+06
58195968	1.00479e+06
58720256	1.00479e+06
59244544	1.00479e+06
59768832	1.00479e+06
60293120	1.00479e+06
60817408	1.00479e+06
61341696	1.00479e+06
61865984	1.00479e+06
62390272	1.00479e+06
62914560	1.00479e+06
63438848	1.00479e+06
63963136	1.00479e+06
64487424	1.00479e+06
65011712	1.00479e+06
65536000	1.00479e+06
66060288	1.00479e+06
66584576	1.00479e+06
67108864	1.00479e+06
68157440	1.00479e+06
69206016	1.00479e+06
70254592	1.00479e+06
71303168	1.00479e+06
72351744	1.00479e+06
73400320	1.00479e+06
74448896	1.00479e+06
75497472	1.00479e+06
76546048	1.00479e+06
77594624	1.00479e+06
78643200	1.00479e+06
79691776	1.00479e+06
80740352	1.00479e+06
81788928	1.00479e+06
82837504	1.00479e+06
83886080	1.00479e+06
84934656	1.00479e+06
85983232	1.00479e+06
87031808	1.00479e+06
88080384	1.00479e+06
89128960	1.00479e+06
90177536	1.00479e+06
91226112	1.00479e+06
92274688	1.00479e+06
93323264	1.00479e+06
94371840	1.00479e+06
95420416	1.00479e+06
96468992	1.00479e+06
97517568	1.00479e+06
98566144	1.00479e+06
99614720	1.00479e+06
100663296	1.00479e+06
101711872	1.00479e+06
102760448	1.00479e+06
103809024	1.00479e+06
104857600	1.00479e+06
105906176	1.00479e+06
106954752	1.00479e+06
108003328	1.00479e+06
109051904	1.00479e+06
110100480	1.00479e+06
111149056	1.00479e+06
112197632	1.00479e+06
113246208	1.00479e+06
114294784	1.00479e+06
115343360	1.00479e+06
116391936	1.00479e+06
117440512	1.00479e+06
118489088	1.00479e+06
119537664	1.00479e+06
120586240	1.00479e+06
121634816	1.00479e+06
122683392	1.00479e+06
123731968	1.00479e+06
124780544	1.00479e+06
125829120	1.00479e+06
126877696	1.00479e+06
127926272	1.00479e+06
128974848	1.00479e+06
130023424	1.00479e+06
131072000	1.00479e+06
132120576	1.00479e+06
133169152	1.00479e+06
134217728	1.00479e+06
136314880	1.00479e+06
138412032	1.00479e+06
140509184	1.00479e+06
142606336	1.00479e+06
144703488	1.00479e+06
146800640	1.00479e+06
148897792	1.00479e+06
150994944	1.00479e+06
153092096	1.00479e+06
155189248	1.00479e+06
157286400	1.00479e+06
159383552	1.00479e+06
161480704	1.00479e+06
163577856	1.00479e+06
165675008	1.00479e+06
167772160	1.00479e+06
169869312	1.00479e+06
171966464	1.00479e+06
174063616	1.00479e+06
176160768	1.00479e+06
178257920	1.00479e+06
180355072	1.00479e+06
182452224	1.00479e+06
184549376	1.00479e+06
186646528	1.00479e+06
188743680	1.00479e+06
190840832	1.00479e+06
192937984	1.00479e+06
195035136	1.00479e+06
197132288	1.00479e+06
199229440	1.00479e+06
201326592	1.00479e+06
203423744	1.00479e+06
205520896	1.00479e+06
207618048	1.00479e+06
209715200	1.00479e+06
211812352	1.00479e+06
213909504	1.00479e+06
216006656	1.00479e+06
218103808	1.00479e+06
220200960	1.00479e+06
222298112	1.00479e+06
224395264	1.00479e+06
226492416	1.00479e+06
228589568	1.00479e+06
230686720	1.00479e+06
232783872	1.00479e+06
234881024	1.00479e+06
236978176	1.00479e+06
239075328	1.00479e+06
241172480	1.00479e+06
243269632	1.00479e+06
245366784	1.00479e+06
247463936	1.00479e+06
249561088	1.00479e+06
251658240	1.00479e+06
253755392	1.00479e+06
255852544	1.00479e+06
257949696	1.00479e+06
260046848	1.00479e+06
262144000	1.00479e+06
264241152	1.00479e+06
266338304	1.00479e+06
268435456	1.00479e+06
272629760	1.00479e+06
276824064	1.00479e+06
281018368	1.00479e+06
285212672	1.00479e+06
289406976	1.00479e+06
293601280	1.00479e+06
297795584	1.00479e+06
301989888	1.00479e+06
306184192	1.00479e+06
310378496	1.00479e+06
314572800	1.00479e+06
318767104	1.00479e+06
322961408	1.00479e+06
327155712	1.00479e+06
331350016	1.00479e+06
335544320	1.00479e+06
339738624	1.00479e+06
343932928	1.00479e+06
348127232	1.00479e+06
352321536	1.00479e+06
356515840	1.00479e+06
360710144	1.00479e+06
364904448	1.00479e+06
369098752	1.00479e+06
373293056	1.00479e+06
377487360	1.00479e+06
381681664	1.00479e+06
385875968	1.00479e+06
390070272	1.00479e+06
394264576	1.00479e+06
398458880	1.00479e+06
402653184	1.00479e+06
406847488	1.00479e+06
411041792	1.00479e+06
415236096	1.00479e+06
419430400	1.00479e+06
423624704	1.00479e+06
427819008	1.00479e+06
432013312	1.00479e+06
436207616	1.00479e+06
440401920	1.00479e+06
444596224	1.00479e+06
448790528	1.00479e+06
452984832	1.00479e+06
457179136	1.00479e+06
461373440	1.00479e+06
465567744	1.00479e+06
469762048	1.00479e+06
473956352	1.00479e+06
478150656	1.00479e+06
482344960	1.00479e+06
486539264	1.00479e+06
490733568	1.00479e+06
494927872	1.00479e+06
499122176	1.00479e+06
503316480	1.00479e+06
507510784	1.00479e+06
511705088	1.00479e+06
515899392	1.00479e+06
520093696	1.00479e+06
524288000	1.00479e+06
528482304	1.00479e+06
532676608	1.00479e+06
536870912	1.00479e+06
545259520	1.00479e+06
553648128	1.00479e+06
562036736	1.00479e+06
570425344	1.00479e+06
578813952	1.00479e+06
587202560	1.00479e+06
595591168	1.00479e+06
603979776	1.00479e+06
612368384	1.00479e+06
620756992	1.00479e+06
629145600	1.00479e+06
637534208	1.00479e+06
645922816	1.00479e+06
654311424	1.00479e+06
662700032	1.00479e+06
671088640	1.00479e+06
679477248	1.00479e+06
687865856	1.00479e+06
696254464	1.00479e+06
704643072	1.00479e+06
713031680	1.00479e+06
721420288	1.00479e+06
729808896	1.00479e+06
738197504	1.00479e+06
746586112	1.00479e+06
754974720	1.00479e+06
763363328	1.00479e+06
771751936	1.00479e+06
780140544	1.00479e+06
788529152	1.00479e+06
796917760	1.00479e+06
805306368	1.00479e+06
813694976	1.00479e+06
822083584	1.00479e+06
830472192	1.00479e+06
838860800	1.00479e+06
847249408	1.00479e+06
855638016	1.00479e+06
864026624	1.00479e+06
872415232	1.00479e+06
880803840	1.00479e+06
889192448	1.00479e+06
897581056	1.00479e+06
905969664	1.00479e+06
914358272	1.00479e+06
922746880	1.00479e+06
931135488	1.00479e+06
939524096	1.00479e+06
947912704	1.00479e+06
956301312	1.00479e+06
964689920	1.00479e+06
973078528	1.00479e+06
981467136	1.00479e+06
989855744	1.00479e+06
998244352	1.00479e+06
1006632960	1.00479e+06
1015021568	1.00479e+06
1023410176	1.00479e+06
1031798784	1.00479e+06
1040187392	1.00479e+06
1048576000	1.00479e+06
1056964608	1.00479e+06
1065353216	1.00479e+06
1073741824	1.00479e+06
1090519040	1.00479e+06
1107296256	1.00479e+06
1124073472	1.00479e+06
1140850688	1.00479e+06
1157627904	1.00479e+06
1174405120	1.00479e+06
1191182336	1.00479e+06
1207959552	1.00479e+06
1224736768	1.00479e+06
1241513984	1.00479e+06
1258291200	1.00479e+06
1275068416	1.00479e+06
1291845632	1.00479e+06
1308622848	1.00479e+06
1325400064	1.00479e+06
1342177280	1.00479e+06
1358954496	1.00479e+06
1375731712	1.00479e+06
1392508928	1.00479e+06
1409286144	1.00479e+06
1426063360	1.00479e+06
1442840576	1.00479e+06
1459617792	1.00479e+06
1476395008	1.00479e+06
1493172224	1.00479e+06
1509949440	1.00479e+06
1526726656	1.00479e+06
1543503872	1.00479e+06
1560281088	1.00479e+06
1577058304	1.00479e+06
1593835520	1.00479e+06
1610612736	1.00479e+06
1627389952	1.00479e+06
1644167168	1.00479e+06
1660944384	1.00479e+06
1677721600	1.00479e+06
1694498816	1.00479e+06
1711276032	1.00479e+06
1728053248	1.00479e+06
1744830464	1.00479e+06
1761607680	1.00479e+06
1778384896	1.00479e+06
1795162112	1.00479e+06
1811939328	1.00479e+06
1828716544	1.00479e+06
1845493760	1.00479e+06
1862270976	1.00479e+06
1879048192	1.00479e+06
1895825408	1.00479e+06
1912602624	1.00479e+06
1929379840	1.00479e+06
1946157056	1.00479e+06
1962934272	1.00479e+06
1979711488	1.00479e+06
1996488704	1.00479e+06
2013265920	1.00479e+06
2030043136	1.00479e+06
2046820352	1.00479e+06
2063597568	1.00479e+06
2080374784	1.00479e+06
2097152000	1.00479e+06
2113929216	1.00479e+06
2130706432	1.00479e+06
2147483648	1.00479e+06
2181038080	1.00479e+06
2214592512	1.00479e+06
2248146944	1.00479e+06
2281701376	1.00479e+06
2315255808	1.00479e+06
2348810240	1.00479e+06
2382364672	1.00479e+06
2415919104	1.00479e+06
2449473536	1.00479e+06
2483027968	1.00479e+06
2516582400	1.00479e+06
2550136832	1.00479e+06
2583691264	1.00479e+06
2617245696	1.00479e+06
2650800128	1.00479e+06
2684354560	1.00479e+06
2717908992	1.00479e+06
2751463424	1.00479e+06
2785017856	1.00479e+06
2818572288	1.00479e+06
2852126720	1.00479e+06
2885681152	1.00479e+06
2919235584	1.00479e+06
2952790016	1.00479e+06
2986344448	1.00479e+06
3019898880	1.00479e+06
3053453312	1.00479e+06
3087007744	1.00479e+06
3120562176	1.00479e+06
3154116608	1.00479e+06
3187671040	1.00479e+06
3221225472	1.00479e+06
3254779904	1.00479e+06
3288334336	1.00479e+06
3321888768	1.00479e+06
3355443200	1.00479e+06
3388997632	1.00479e+06
3422552064	1.00479e+06
3456106496	1.00479e+06
3489660928	1.00479e+06
3523215360	1.00479e+06
3556769792	1.00479e+06
3590324224	1.00479e+06
3623878656	1.00479e+06
3657433088	1.00479e+06
3690987520	1.00479e+06
3724541952	1.00479e+06
3758096384	1.00479e+06
3791650816	1.00479e+06
3825205248	1.00479e+06
3858759680	1.00479e+06
3892314112	1.00479e+06
3925868544	1.00479e+06
3959422976	1.00479e+06
3992977408	1.00479e+06
4026531840	1.00479e+06
4060086272	1.00479e+06
4093640704	1.00479e+06
4127195136	1.00479e+06
4160749568	1.00479e+06
4194304000	1.00479e+06
4227858432	1.00479e+06
4261412864	1.00479e+06
4294967296	1.00479e+06
4362076160	1.00479e+06
4429185024	1.00479e+06
4496293888	1.00479e+06
4563402752	1.00479e+06
4630511616	1.00479e+06
4697620480	1.00479e+06
4764729344	1.00479e+06
4831838208	1.00479e+06
4898947072	1.00479e+06
4966055936	1.00479e+06
5033164800	1.00479e+06
5100273664	1.00479e+06
5167382528	1.00479e+06
5234491392	1.00479e+06
5301600256	1.00479e+06
5368709120	1.00479e+06
5435817984	1.00479e+06
5502926848	1.00479e+06
5570035712	1.00479e+06
5637144576	1.00479e+06
5704253440	1.00479e+06
5771362304	1.00479e+06
5838471168	1.00479e+06
5905580032	1.00479e+06
5972688896	1.00479e+06
6039797760	1.00479e+06
6106906624	1.00479e+06
6174015488	1.00479e+06
6241124352	1.00479e+06
6308233216	1.00479e+06
6375342080	1.00479e+06
6442450944	1.00479e+06
6509559808	1.00479e+06
6576668672	1.00479e+06
6643777536	1.00479e+06
6710886400	1.00479e+06
6777995264	1.00479e+06
6845104128	1.00479e+06
6912212992	1.00479e+06
6979321856	1.00479e+06
7046430720	1.00479e+06
7113539584	1.00479e+06
7180648448	1.00479e+06
7247757312	1.00479e+06
7314866176	1.00479e+06
7381975040	1.00479e+06
7449083904	1.00479e+06
7516192768	1.00479e+06
7583301632	1.00479e+06
7650410496	1.00479e+06
7717519360	1.00479e+06
7784628224	1.00479e+06
7851737088	1.00479e+06
7918845952	1.00479e+06
7985954816	1.00479e+06
8053063680	1.00479e+06
8120172544	1.00479e+06
8187281408	1.00479e+06
8254390272	1.00479e+06
8321499136	1.00479e+06
8388608000	1.00479e+06
8455716864	1.00479e+06
8522825728	1.00479e+06
8589934592	1.00479e+06
8724152320	1.00479e+06
8858370048	1.00479e+06
8992587776	1.00479e+06
9126805504	1.00479e+06
9261023232	1.00479e+06
9395240960	1.00479e+06
9529458688	1.00479e+06
9663676416	1.00479e+06
9797894144	1.00479e+06
9932111872	1.00479e+06
10066329600	1.00479e+06
10200547328	1.00479e+06
10334765056	1.00479e+06
10468982784	1.00479e+06
10603200512	1.00479e+06
10737418240	1.00479e+06
10871635968	1.00479e+06
11005853696	1.00479e+06
11140071424	1.00479e+06
11274289152	1.00479e+06
11408506880	1.00479e+06
11542724608	1.00479e+06
11676942336	1.00479e+06
11811160064	1.00479e+06
11945377792	1.00479e+06
12079595520	1.00479e+06
12213813248	1.00479e+06
12348030976	1.00479e+06
12482248704	1.00479e+06
12616466432	1.00479e+06
12750684160	1.00479e+06
12884901888	1.00479e+06
13019119616	1.00479e+06
13153337344	1.00479e+06
13287555072	1.00479e+06
13421772800	1.00479e+06
13555990528	1.00479e+06
13690208256	1.00479e+06
13824425984	1.00479e+06
13958643712	1.00479e+06
14092861440	1.00479e+06
14227079168	1.00479e+06
14361296896	1.00479e+06
14495514624	1.00479e+06
14629732352	1.00479e+06
14763950080	1.00479e+06
14898167808	1.00479e+06
15032385536	1.00479e+06
15166603264	1.00479e+06
15300820992	1.00479e+06
15435038720	1.00479e+06
15569256448	1.00479e+06
15703474176	1.00479e+06
15837691904	1.00479e+06
15971909632	1.00479e+06
16106127360	1.00479e+06
16240345088	1.00479e+06
16374562816	1.00479e+06
16508780544	1.00479e+06
16642998272	1.00479e+06
16777216000	1.00479e+06
16911433728	1.00479e+06
17045651456	1.00479e+06
17179869184	1.00479e+06
17448304640	1.00479e+06
17716740096	1.00479e+06
17985175552	1.00479e+06
18253611008	1.00479e+06
18522046464	1.00479e+06
18790481920	1.00479e+06
19058917376	1.00479e+06
19327352832	1.00479e+06
19595788288	1.00479e+06
19864223744	1.00479e+06
20132659200	1.00479e+06
20401094656	1.00479e+06
20669530112	1.00479e+06
20937965568	1.00479e+06
21206401024	1.00479e+06
21474836480	1.00479e+06
21743271936	1.00479e+06
22011707392	1.00479e+06
22280142848	1.00479e+06
22548578304	1.00479e+06
22817013760	1.00479e+06
23085449216	1.00479e+06
23353884672	1.00479e+06
23622320128	1.00479e+06
23890755584	1.00479e+06
24159191040	1.00479e+06
24427626496	1.00479e+06
24696061952	1.00479e+06
24964497408	1.00479e+06
25232932864	1.00479e+06
25501368320	1.00479e+06
25769803776	1.00479e+06
26038239232	1.00479e+06
26306674688	1.00479e+06
26575110144	1.00479e+06
26843545600	1.00479e+06
27111981056	1.00479e+06
27380416512	1.00479e+06
27648851968	1.00479e+06
27917287424	1.00479e+06
28185722880	1.00479e+06
28454158336	1.00479e+06
28722593792	1.00479e+06
28991029248	1.00479e+06
29259464704	1.00479e+06
29527900160	1.00479e+06
29796335616	1.00479e+06
30064771072	1.00479e+06
30333206528	1.00479e+06
30601641984	1.00479e+06
30870077440	1.00479e+06
31138512896	1.00479e+06
31406948352	1.00479e+06
31675383808	1.00479e+06
31943819264	1.00479e+06
32212254720	1.00479e+06
32480690176	1.00479e+06
32749125632	1.00479e+06
33017561088	1.00479e+06
33285996544	1.00479e+06
33554432000	1.00479e+06
33822867456	1.00479e+06
34091302912	1.00479e+06
34359738368	1.00479e+06
34896609280	1.00479e+06
35433480192	1.00479e+06
35970351104	1.00479e+06
36507222016	1.00479e+06
37044092928	1.00479e+06
37580963840	1.00479e+06
38117834752	1.00479e+06
38654705664	1.00479e+06
39191576576	1.00479e+06
39728447488	1.00479e+06
40265318400	1.00479e+06
40802189312	1.00479e+06
41339060224	1.00479e+06
41875931136	1.00479e+06
42412802048	1.00479e+06
42949672960	1.00479e+06
43486543872	1.00479e+06
44023414784	1.00479e+06
44560285696	1.00479e+06
45097156608	1.00479e+06
45634027520	1.00479e+06
46170898432	1.00479e+06
46707769344	1.00479e+06
47244640256	1.00479e+06
47781511168	1.00479e+06
48318382080	1.00479e+06
48855252992	1.00479e+06
49392123904	1.00479e+06
49928994816	1.00479e+06
50465865728	1.00479e+06
51002736640	1.00479e+06
51539607552	1.00479e+06
52076478464	1.00479e+06
52613349376	1.00479e+06
53150220288	1.00479e+06
53687091200	1.00479e+06
54223962112	1.00479e+06
54760833024	1.00479e+06
55297703936	1.00479e+06
55834574848	1.00479e+06
56371445760	1.00479e+06
56908316672	1.00479e+06
57445187584	1.00479e+06
57982058496	1.00479e+06
58518929408	1.00479e+06
59055800320	1.00479e+06
59592671232	1.00479e+06
60129542144	1.00479e+06
60666413056	1.00479e+06
61203283968	1.00479e+06
61740154880	1.00479e+06
62277025792	1.00479e+06
62813896704	1.00479e+06
63350767616	1.00479e+06
63887638528	1.00479e+06
64424509440	1.00479e+06
64961380352	1.00479e+06
65498251264	1.00479e+06
66035122176	1.00479e+06
66571993088	1.00479e+06
67108864000	1.00479e+06
67645734912	1.00479e+06
68182605824	1.00479e+06
68719476736	1.00479e+06
69793218560	1.00479e+06
70866960384	1.00479e+06
71940702208	1.00479e+06
73014444032	1.00479e+06
74088185856	1.00479e+06
75161927680	1.00479e+06
76235669504	1.00479e+06
77309411328	1.00479e+06
78383153152	1.00479e+06
79456894976	1.00479e+06
80530636800	1.00479e+06
81604378624	1.00479e+06
82678120448	1.00479e+06
83751862272	1.00479e+06
84825604096	1.00479e+06
85899345920	1.00479e+06
86973087744	1.00479e+06
88046829568	1.00479e+06
89120571392	1.00479e+06
90194313216	1.00479e+06
91268055040	1.00479e+06
92341796864	1.00479e+06
93415538688	1.00479e+06
94489280512	1.00479e+06
95563022336	1.00479e+06
96636764160	1.00479e+06
97710505984	1.00479e+06
98784247808	1.00479e+06
99857989632	1.00479e+06
100931731456	1.00479e+06
102005473280	1.00479e+06
103079215104	1.00479e+06
104152956928	1.00479e+06
105226698752	1.00479e+06
106300440576	1.00479e+06
107374182400	1.00479e+06
108447924224	1.00479e+06
109521666048	1.00479e+06
110595407872	1.00479e+06
111669149696	1.00479e+06
112742891520	1.00479e+06
113816633344	1.00479e+06
114890375168	1.00479e+06
115964116992	1.00479e+06
117037858816	1.00479e+06
118111600640	1.00479e+06
119185342464	1.00479e+06
120259084288	1.00479e+06
121332826112	1.00479e+06
122406567936	1.00479e+06
123480309760	1.00479e+06
124554051584	1.00479e+06
125627793408	1.00479e+06
126701535232	1.00479e+06
127775277056	1.00479e+06
128849018880	1.00479e+06
129922760704	1.00479e+06
130996502528	1.00479e+06
132070244352	1.00479e+06
133143986176	1.00479e+06
134217728000	1.00479e+06
135291469824	1.00479e+06
136365211648	1.00479e+06
137438953472	1.00479e+06
139586437120	1.00479e+06
141733920768	1.00479e+06
143881404416	1.00479e+06
146028888064	1.00479e+06
148176371712	1.00479e+06
150323855360	1.00479e+06
152471339008	1.00479e+06
154618822656	1.00479e+06
156766306304	1.00479e+06
158913789952	1.00479e+06
161061273600	1.00479e+06
163208757248	1.00479e+06
165356240896	1.00479e+06
167503724544	1.00479e+06
169651208192	1.00479e+06
171798691840	1.00479e+06
173946175488	1.00479e+06
176093659136	1.00479e+06
178241142784	1.00479e+06
180388626432	1.00479e+06
182536110080	1.00479e+06
184683593728	1.00479e+06
186831077376	1.00479e+06
188978561024	1.00479e+06
191126044672	1.00479e+06
193273528320	1.00479e+06
195421011968	1.00479e+06
197568495616	1.00479e+06
199715979264	1.00479e+06
201863462912	1.00479e+06
204010946560	1.00479e+06
206158430208	1.00479e+06
208305913856	1.00479e+06
210453397504	1.00479e+06
212600881152	1.00479e+06
214748364800	1.00479e+06
216895848448	1.00479e+06
219043332096	1.00479e+06
221190815744	1.00479e+06
223338299392	1.00479e+06
225485783040	1.00479e+06
227633266688	1.00479e+06
229780750336	1.00479e+06
231928233984	1.00479e+06
234075717632	1.00479e+06
236223201280	1.00479e+06
238370684928	1.00479e+06
240518168576	1.00479e+06
242665652224	1.00479e+06
244813135872	1.00479e+06
246960619520	1.00479e+06
249108103168	1.00479e+06
251255586816	1.00479e+06
253403070464	1.00479e+06
255550554112	1.00479e+06
257698037760	1.00479e+06
259845521408	1.00479e+06
261993005056	1.00479e+06
264140488704	1.00479e+06
266287972352	1.00479e+06
268435456000	1.00479e+06
270582939648	1.00479e+06
272730423296	1.00479e+06
274877906944	1.00479e+06
279172874240	1.00479e+06
283467841536	1.00479e+06
287762808832	1.00479e+06
292057776128	1.00479e+06
296352743424	1.00479e+06
300647710720	1.00479e+06
304942678016	1.00479e+06
309237645312	1.00479e+06
313532612608	1.00479e+06
317827579904	1.00479e+06
322122547200	1.00479e+06
326417514496	1.00479e+06
330712481792	1.00479e+06
335007449088	1.00479e+06
339302416384	1.00479e+06
343597383680	1.00479e+06
347892350976	1.00479e+06
352187318272	1.00479e+06
356482285568	1.00479e+06
360777252864	1.00479e+06
365072220160	1.00479e+06
369367187456	1.00479e+06
373662154752	1.00479e+06
377957122048	1.00479e+06
382252089344	1.00479e+06
386547056640	1.00479e+06
390842023936	1.00479e+06
395136991232	1.00479e+06
399431958528	1.00479e+06
403726925824	1.00479e+06
408021893120	1.00479e+06
412316860416	1.00479e+06
416611827712	1.00479e+06
420906795008	1.00479e+06
425201762304	1.00479e+06
429496729600	1.00479e+06
433791696896	1.00479e+06
438086664192	1.00479e+06
442381631488	1.00479e+06
446676598784	1.00479e+06
450971566080	1.00479e+06
455266533376	1.00479e+06
459561500672	1.00479e+06
463856467968	1.00479e+06
468151435264	1.00479e+06
472446402560	1.00479e+06
476741369856	1.00479e+06
481036337152	1.00479e+06
485331304448	1.00479e+06
489626271744	1.00479e+06
493921239040	1.00479e+06
498216206336	1.00479e+06
502511173632	1.00479e+06
506806140928	1.00479e+06
511101108224	1.00479e+06
515396075520	1.00479e+06
519691042816	1.00479e+06
523986010112	1.00479e+06
528280977408	1.00479e+06
532575944704	1.00479e+06
536870912000	1.00479e+06
541165879296	1.00479e+06
545460846592	1.00479e+06
549755813888	1.00479e+06
558345748480	1.00479e+06
566935683072	1.00479e+06
575525617664	1.00479e+06
584115552256	1.00479e+06
592705486848	1.00479e+06
601295421440	1.00479e+06
609885356032	1.00479e+06
618475290624	1.00479e+06
627065225216	1.00479e+06
635655159808	1.00479e+06
644245094400	1.00479e+06
652835028992	1.00479e+06
661424963584	1.00479e+06
670014898176	1.00479e+06
678604832768	1.00479e+06
687194767360	1.00479e+06
695784701952	1.00479e+06
704374636544	1.00479e+06
712964571136	1.00479e+06
721554505728	1.00479e+06
730144440320	1.00479e+06
738734374912	1.00479e+06
747324309504	1.00479e+06
755914244096	1.00479e+06
764504178688	1.00479e+06
773094113280	1.00479e+06
781684047872	1.00479e+06
790273982464	1.00479e+06
798863917056	1.00479e+06
807453851648	1.00479e+06
816043786240	1.00479e+06
824633720832	1.00479e+06
833223655424	1.00479e+06
841813590016	1.00479e+06
850403524608	1.00479e+06
858993459200	1.00479e+06
867583393792	1.00479e+06
876173328384	1.00479e+06
884763262976	1.00479e+06
893353197568	1.00479e+06
901943132160	1.00479e+06
910533066752	1.00479e+06
919123001344	1.00479e+06
927712935936	1.00479e+06
936302870528	1.00479e+06
944892805120	1.00479e+06
953482739712	1.00479e+06
962072674304	1.00479e+06
970662608896	1.00479e+06
979252543488	1.00479e+06
987842478080	1.00479e+06
996432412672	1.00479e+06
1005022347264	1.00479e+06
1013612281856	1.00479e+06
1022202216448	1.00479e+06
1030792151040	1.00479e+06
1039382085632	1.00479e+06
1047972020224	1.00479e+06
1056561954816	1.00479e+06
1065151889408	1.00479e+06
1073741824000	1.00479e+06
1082331758592	1.00479e+06
1090921693184	1.00479e+06
1099511627776	1.00479e+06
1116691496960	1.00479e+06
1133871366144	1.00479e+06
1151051235328	1.00479e+06
1168231104512	1.00479e+06
1185410973696	1.00479e+06
1202590842880	1.00479e+06
1219770712064	1.00479e+06
1236950581248	1.00479e+06
1254130450432	1.00479e+06
1271310319616	1.00479e+06
1288490188800	1.00479e+06
1305670057984	1.00479e+06
1322849927168	1.00479e+06
1340029796352	1.00479e+06
1357209665536	1.00479e+06
1374389534720	1.00479e+06
1391569403904	1.00479e+06
1408749273088	1.00479e+06
1425929142272	1.00479e+06
1443109011456	1.00479e+06
1460288880640	1.00479e+06
1477468749824	1.00479e+06
1494648619008	1.00479e+06
1511828488192	1.00479e+06
1529008357376	1.00479e+06
1546188226560	1.00479e+06
1563368095744	1.00479e+06
1580547964928	1.00479e+06
1597727834112	1.00479e+06
1614907703296	1.00479e+06
1632087572480	1.00479e+06
1649267441664	1.00479e+06
1666447310848	1.00479e+06
1683627180032	1.00479e+06
1700807049216	1.00479e+06
1717986918400	1.00479e+06
1735166787584	1.00479e+06
1752346656768	1.00479e+06
1769526525952	1.00479e+06
1786706395136	1.00479e+06
1803886264320	1.00479e+06
1821066133504	1.00479e+06
1838246002688	1.00479e+06
1855425871872	1.00479e+06
1872605741056	1.00479e+06
1889785610240	1.00479e+06
1906965479424	1.00479e+06
1924145348608	1.00479e+06
1941325217792	1.00479e+06
1958505086976	1.00479e+06
1975684956160	1.00479e+06
1992864825344	1.00479e+06
2010044694528	1.00479e+06
2027224563712	1.00479e+06
2044404432896	1.00479e+06
2061584302080	1.00479e+06
2078764171264	1.00479e+06
2095944040448	1.00479e+06
2113123909632	1.00479e+06
2130303778816	1.00479e+06
2147483648000	1.00479e+06
2164663517184	1.00479e+06
2181843386368	1.00479e+06
2199023255552	1.00479e+06
2233382993920	1.00479e+06
2267742732288	1.00479e+06
2302102470656	1.00479e+06
2336462209024	1.00479e+06
2370821947392	1.00479e+06
2405181685760	1.00479e+06
2439541424128	1.00479e+06
2473901162496	1.00479e+06
2508260900864	1.00479e+06
2542620639232	1.00479e+06
2576980377600	1.00479e+06
2611340115968	1.00479e+06
2645699854336	1.00479e+06
2680059592704	1.00479e+06
2714419331072	1.00479e+06
2748779069440	1.00479e+06
2783138807808	1.00479e+06
2817498546176	1.00479e+06
2851858284544	1.00479e+06
2886218022912	1.00479e+06
2920577761280	1.00479e+06
2954937499648	1.00479e+06
2989297238016	1.00479e+06
3023656976384	1.00479e+06
3058016714752	1.00479e+06
3092376453120	1.00479e+06
3126736191488	1.00479e+06
3161095929856	1.00479e+06
3195455668224	1.00479e+06
3229815406592	1.00479e+06
3264175144960	1.00479e+06
3298534883328	1.00479e+06
3332894621696	1.00479e+06
3367254360064	1.00479e+06
3401614098432	1.00479e+06
3435973836800	1.00479e+06
3470333575168	1.00479e+06
3504693313536	1.00479e+06
3539053051904	1.00479e+06
3573412790272	1.00479e+06
3607772528640	1.00479e+06
3642132267008	1.00479e+06
3676492005376	1.00479e+06
3710851743744	1.00479e+06
3745211482112	1.00479e+06
3779571220480	1.00479e+06
3813930958848	1.00479e+06
3848290697216	1.00479e+06
3882650435584	1.00479e+06
3917010173952	1.00479e+06
3951369912320	1.00479e+06
3985729650688	1.00479e+06
4020089389056	1.00479e+06
4054449127424	1.00479e+06
4088808865792	1.00479e+06
4123168604160	1.00479e+06
4157528342528	1.00479e+06
4191888080896	1.00479e+06
4226247819264	1.00479e+06
4260607557632	1.00479e+06
4294967296000	1.00479e+06
4329327034368	1.00479e+06
4363686772736	1.00479e+06
4398046511104	1.00479e+06
4466765987840	1.00479e+06
4535485464576	1.00479e+06
4604204941312	1.00479e+06
4672924418048	1.00479e+06
4741643894784	1.00479e+06
4810363371520	1.00479e+06
4879082848256	1.00479e+06
4947802324992	1.00479e+06
5016521801728	1.00479e+06
5085241278464	1.00479e+06
5153960755200	1.00479e+06
5222680231936	1.00479e+06
5291399708672	1.00479e+06
5360119185408	1.00479e+06
5428838662144	1.00479e+06
5497558138880	1.00479e+06
5566277615616	1.00479e+06
5634997092352	1.00479e+06
5703716569088	1.00479e+06
5772436045824	1.00479e+06
5841155522560	1.00479e+06
5909874999296	1.00479e+06
5978594476032	1.00479e+06
6047313952768	1.00479e+06
6116033429504	1.00479e+06
6184752906240	1.00479e+06
6253472382976	1.00479e+06
6322191859712	1.00479e+06
6390911336448	1.00479e+06
6459630813184	1.00479e+06
6528350289920	1.00479e+06
6597069766656	1.00479e+06
6665789243392	1.00479e+06
6734508720128	1.00479e+06
6803228196864	1.00479e+06
6871947673600	1.00479e+06
6940667150336	1.00479e+06
7009386627072	1.00479e+06
7078106103808	1.00479e+06
7146825580544	1.00479e+06
7215545057280	1.00479e+06
7284264534016	1.00479e+06
7352984010752	1.00479e+06
7421703487488	1.00479e+06
7490422964224	1.00479e+06
7559142440960	1.00479e+06
7627861917696	1.00479e+06
7696581394432	1.00479e+06
7765300871168	1.00479e+06
7834020347904	1.00479e+06
7902739824640	1.00479e+06
7971459301376	1.00479e+06
8040178778112	1.00479e+06
8108898254848	1.00479e+06
8177617731584	1.00479e+06
8246337208320	1.00479e+06
8315056685056	1.00479e+06
8383776161792	1.00479e+06
8452495638528	1.00479e+06
8521215115264	1.00479e+06
8589934592000	1.00479e+06
8658654068736	1.00479e+06
8727373545472	1.00479e+06
8796093022208	1.00479e+06
8933531975680	1.00479e+06
9070970929152	1.00479e+06
9208409882624	1.00479e+06
9345848836096	1.00479e+06
9483287789568	1.00479e+06
9620726743040	1.00479e+06
9758165696512	1.00479e+06
9895604649984	1.00479e+06
10033043603456	1.00479e+06
10170482556928	1.00479e+06
10307921510400	1.00479e+06
10445360463872	1.00479e+06
10582799417344	1.00479e+06
10720238370816	1.00479e+06
10857677324288	1.00479e+06
10995116277760	1.00479e+06
11132555231232	1.00479e+06
11269994184704	1.00479e+06
11407433138176	1.00479e+06
11544872091648	1.00479e+06
11682311045120	1.00479e+06
11819749998592	1.00479e+06
11957188952064	1.00479e+06
12094627905536	1.00479e+06
12232066859008	1.00479e+06
12369505812480	1.00479e+06
12506944765952	1.00479e+06
12644383719424	1.00479e+06
12781822672896	1.00479e+06
12919261626368	1.00479e+06
13056700579840	1.00479e+06
13194139533312	1.00479e+06
13331578486784	1.00479e+06
13469017440256	1.00479e+06
13606456393728	1.00479e+06
13743895347200	1.00479e+06
13881334300672	1.00479e+06
14018773254144	1.00479e+06
14156212207616	1.00479e+06
14293651161088	1.00479e+06
14431090114560	1.00479e+06
14568529068032	1.00479e+06
14705968021504	1.00479e+06
14843406974976	1.00479e+06
14980845928448	1.00479e+06
15118284881920	1.00479e+06
15255723835392	1.00479e+06
15393162788864	1.00479e+06
15530601742336	1.00479e+06
15668040695808	1.00479e+06
15805479649280	1.00479e+06
15942918602752	1.00479e+06
16080357556224	1.00479e+06
16217796509696	1.00479e+06
16355235463168	1.00479e+06
16492674416640	1.00479e+06
16630113370112	1.00479e+06
16767552323584	1.00479e+06
16904991277056	1.00479e+06
17042430230528	1.00479e+06
17179869184000	1.00479e+06
17317308137472	1.00479e+06
17454747090944	1.00479e+06
17592186044416	1.00479e+06
17867063951360	1.00479e+06
18141941858304	1.00479e+06
18416819765248	1.00479e+06
18691697672192	1.00479e+06
18966575579136	1.00479e+06
19241453486080	1.00479e+06
19516331393024	1.00479e+06
19791209299968	1.00479e+06
20066087206912	1.00479e+06
20340965113856	1.00479e+06
20615843020800	1.00479e+06
20890720927744	1.00479e+06
21165598834688	1.00479e+06
21440476741632	1.00479e+06
21715354648576	1.00479e+06
21990232555520	1.00479e+06
22265110462464	1.00479e+06
22539988369408	1.00479e+06
22814866276352	1.00479e+06
23089744183296	1.00479e+06
23364622090240	1.00479e+06
23639499997184	1.00479e+06
23914377904128	1.00479e+06
24189255811072	1.00479e+06
24464133718016	1.00479e+06
24739011624960	1.00479e+06
25013889531904	1.00479e+06
25288767438848	1.00479e+06
25563645345792	1.00479e+06
25838523252736	1.00479e+06
26113401159680	1.00479e+06
26388279066624	1.00479e+06
26663156973568	1.00479e+06
26938034880512	1.00479e+06
27212912787456	1.00479e+06
27487790694400	1.00479e+06
27762668601344	1.00479e+06
28037546508288	1.00479e+06
28312424415232	1.00479e+06
28587302322176	1.00479e+06
28862180229120	1.00479e+06
29137058136064	1.00479e+06
29411936043008	1.00479e+06
29686813949952	1.00479e+06
29961691856896	1.00479e+06
30236569763840	1.00479e+06
30511447670784	1.00479e+06
30786325577728	1.00479e+06
31061203484672	1.00479e+06
31336081391616	1.00479e+06
31610959298560	1.00479e+06
31885837205504	1.00479e+06
32160715112448	1.00479e+06
32435593019392	1.00479e+06
32710470926336	1.00479e+06
32985348833280	1.00479e+06
33260226740224	1.00479e+06
33535104647168	1.00479e+06
33809982554112	1.00479e+06
34084860461056	1.00479e+06
34359738368000	1.00479e+06
34634616274944	1.00479e+06
34909494181888	1.00479e+06
35184372088832	1.00479e+06
35734127902720	1.00479e+06
36283883716608	1.00479e+06
36833639530496	1.00479e+06
37383395344384	1.00479e+06
37933151158272	1.00479e+06
38482906972160	1.00479e+06
39032662786048	1.00479e+06
39582418599936	1.00479e+06
40132174413824	1.00479e+06
40681930227712	1.00479e+06
41231686041600	1.00479e+06
41781441855488	1.00479e+06
42331197669376	1.00479e+06
42880953483264	1.00479e+06
43430709297152	1.00479e+06
43980465111040	1.00479e+06
44530220924928	1.00479e+06
45079976738816	1.00479e+06
45629732552704	1.00479e+06
46179488366592	1.00479e+06
46729244180480	1.00479e+06
47278999994368	1.00479e+06
47828755808256	1.00479e+06
48378511622144	1.00479e+06
48928267436032	1.00479e+06
49478023249920	1.00479e+06
50027779063808	1.00479e+06
50577534877696	1.00479e+06
51127290691584	1.00479e+06
51677046505472	1.00479e+06
52226802319360	1.00479e+06
52776558133248	1.00479e+06
53326313947136	1.00479e+06
53876069761024	1.00479e+06
54425825574912	1.00479e+06
54975581388800	1.00479e+06
55525337202688	1.00479e+06
56075093016576	1.00479e+06
56624848830464	1.00479e+06
57174604644352	1.00479e+06
57724360458240	1.00479e+06
58274116272128	1.00479e+06
58823872086016	1.00479e+06
59373627899904	1.00479e+06
59923383713792	1.00479e+06
60473139527680	1.00479e+06
61022895341568	1.00479e+06
61572651155456	1.00479e+06
62122406969344	1.00479e+06
62672162783232	1.00479e+06
63221918597120	1.00479e+06
63771674411008	1.00479e+06
64321430224896	1.00479e+06
64871186038784	1.00479e+06
65420941852672	1.00479e+06
65970697666560	1.00479e+06
66520453480448	1.00479e+06
67070209294336	1.00479e+06
67619965108224	1.00479e+06
68169720922112	1.00479e+06
68719476736000	1.00479e+06
69269232549888	1.00479e+06
69818988363776	1.00479e+06
70368744177664	1.00479e+06
71468255805440	1.00479e+06
72567767433216	1.00479e+06
73667279060992	1.00479e+06
74766790688768	1.00479e+06
75866302316544	1.00479e+06
76965813944320	1.00479e+06
78065325572096	1.00479e+06
79164837199872	1.00479e+06
80264348827648	1.00479e+06
81363860455424	1.00479e+06
82463372083200	1.00479e+06
83562883710976	1.00479e+06
84662395338752	1.00479e+06
85761906966528	1.00479e+06
86861418594304	1.00479e+06
87960930222080	1.00479e+06
89060441849856	1.00479e+06
90159953477632	1.00479e+06
91259465105408	1.00479e+06
92358976733184	1.00479e+06
93458488360960	1.00479e+06
94557999988736	1.00479e+06
95657511616512	1.00479e+06
96757023244288	1.00479e+06
97856534872064	1.00479e+06
98956046499840	1.00479e+06
100055558127616	1.00479e+06
101155069755392	1.00479e+06
102254581383168	1.00479e+06
103354093010944	1.00479e+06
104453604638720	1.00479e+06
105553116266496	1.00479e+06
106652627894272	1.00479e+06
107752139522048	1.00479e+06
108851651149824	1.00479e+06
109951162777600	1.00479e+06
111050674405376	1.00479e+06
112150186033152	1.00479e+06
113249697660928	1.00479e+06
114349209288704	1.00479e+06
115448720916480	1.00479e+06
116548232544256	1.00479e+06
117647744172032	1.00479e+06
118747255799808	1.00479e+06
119846767427584	1.00479e+06
120946279055360	1.00479e+06
122045790683136	1.00479e+06
123145302310912	1.00479e+06
124244813938688	1.00479e+06
125344325566464	1.00479e+06
126443837194240	1.00479e+06
127543348822016	1.00479e+06
128642860449792	1.00479e+06
129742372077568	1.00479e+06
130841883705344	1.00479e+06
131941395333120	1.00479e+06
133040906960896	1.00479e+06
134140418588672	1.00479e+06
135239930216448	1.00479e+06
136339441844224	1.00479e+06
137438953472000	1.00479e+06
138538465099776	1.00479e+06
139637976727552	1.00479e+06
140737488355328	1.00479e+06
142936511610880	1.00479e+06
145135534866432	1.00479e+06
147334558121984	1.00479e+06
149533581377536	1.00479e+06
151732604633088	1.00479e+06
153931627888640	1.00479e+06
156130651144192	1.00479e+06
158329674399744	1.00479e+06
160528697655296	1.00479e+06
162727720910848	1.00479e+06
164926744166400	1.00479e+06
167125767421952	1.00479e+06
169324790677504	1.00479e+06
171523813933056	1.00479e+06
173722837188608	1.00479e+06
175921860444160	1.00479e+06
178120883699712	1.00479e+06
180319906955264	1.00479e+06
182518930210816	1.00479e+06
184717953466368	1.00479e+06
186916976721920	1.00479e+06
189115999977472	1.00479e+06
191315023233024	1.00479e+06
193514046488576	1.00479e+06
195713069744128	1.00479e+06
197912092999680	1.00479e+06
200111116255232	1.00479e+06
202310139510784	1.00479e+06
204509162766336	1.00479e+06
206708186021888	1.00479e+06
208907209277440	1.00479e+06
211106232532992	1.00479e+06
213305255788544	1.00479e+06
215504279044096	1.00479e+06
217703302299648	1.00479e+06
219902325555200	1.00479e+06
222101348810752	1.00479e+06
224300372066304	1.00479e+06
226499395321856	1.00479e+06
228698418577408	1.00479e+06
230897441832960	1.00479e+06
233096465088512	1.00479e+06
235295488344064	1.00479e+06
237494511599616	1.00479e+06
239693534855168	1.00479e+06
241892558110720	1.00479e+06
244091581366272	1.00479e+06
246290604621824	1.00479e+06
248489627877376	1.00479e+06
250688651132928	1.00479e+06
252887674388480	1.00479e+06
255086697644032	1.00479e+06
257285720899584	1.00479e+06
259484744155136	1.00479e+06
261683767410688	1.00479e+06
263882790666240	1.00479e+06
266081813921792	1.00479e+06
268280837177344	1.00479e+06
270479860432896	1.00479e+06
272678883688448	1.00479e+06
274877906944000	1.00479e+06
277076930199552	1.00479e+06
279275953455104	1.00479e+06
281474976710656	1.00479e+06
285873023221760	1.00479e+06
290271069732864	1.00479e+06
294669116243968	1.00479e+06
299067162755072	1.00479e+06
303465209266176	1.00479e+06
307863255777280	1.00479e+06
312261302288384	1.00479e+06
316659348799488	1.00479e+06
321057395310592	1.00479e+06
325455441821696	1.00479e+06
329853488332800	1.00479e+06
334251534843904	1.00479e+06
338649581355008	1.00479e+06
343047627866112	1.00479e+06
347445674377216	1.00479e+06
351843720888320	1.00479e+06
356241767399424	1.00479e+06
360639813910528	1.00479e+06
365037860421632	1.00479e+06
369435906932736	1.00479e+06
373833953443840	1.00479e+06
378231999954944	1.00479e+06
382630046466048	1.00479e+06
387028092977152	1.00479e+06
391426139488256	1.00479e+06
395824185999360	1.00479e+06
400222232510464	1.00479e+06
404620279021568	1.00479e+06
409018325532672	1.00479e+06
413416372043776	1.00479e+06
417814418554880	1.00479e+06
422212465065984	1.00479e+06
426610511577088	1.00479e+06
431008558088192	1.00479e+06
435406604599296	1.00479e+06
439804651110400	1.00479e+06
444202697621504	1.00479e+06
448600744132608	1.00479e+06
452998790643712	1.00479e+06
457396837154816	1.00479e+06
461794883665920	1.00479e+06
466192930177024	1.00479e+06
470590976688128	1.00479e+06
474989023199232	1.00479e+06
479387069710336	1.00479e+06
483785116221440	1.00479e+06
488183162732544	1.00479e+06
492581209243648	1.00479e+06
496979255754752	1.00479e+06
501377302265856	1.00479e+06
505775348776960	1.00479e+06
510173395288064	1.00479e+06
514571441799168	1.00479e+06
518969488310272	1.00479e+06
523367534821376	1.00479e+06
527765581332480	1.00479e+06
532163627843584	1.00479e+06
536561674354688	1.00479e+06
540959720865792	1.00479e+06
545357767376896	1.00479e+06
549755813888000	1.00479e+06
554153860399104	1.00479e+06
558551906910208	1.00479e+06
562949953421312	1.00479e+06
571746046443520	1.00479e+06
580542139465728	1.00479e+06
589338232487936	1.00479e+06
598134325510144	1.00479e+06
606930418532352	1.00479e+06
615726511554560	1.00479e+06
624522604576768	1.00479e+06
633318697598976	1.00479e+06
642114790621184	1.00479e+06
650910883643392	1.00479e+06
659706976665600	1.00479e+06
668503069687808	1.00479e+06
677299162710016	1.00479e+06
686095255732224	1.00479e+06
694891348754432	1.00479e+06
703687441776640	1.00479e+06
712483534798848	1.00479e+06
721279627821056	1.00479e+06
730075720843264	1.00479e+06
738871813865472	1.00479e+06
747667906887680	1.00479e+06
756463999909888	1.00479e+06
765260092932096	1.00479e+06
774056185954304	1.00479e+06
782852278976512	1.00479e+06
791648371998720	1.00479e+06
800444465020928	1.00479e+06
809240558043136	1.00479e+06
818036651065344	1.00479e+06
826832744087552	1.00479e+06
835628837109760	1.00479e+06
844424930131968	1.00479e+06
853221023154176	1.00479e+06
862017116176384	1.00479e+06
870813209198592	1.00479e+06
879609302220800	1.00479e+06
888405395243008	1.00479e+06
897201488265216	1.00479e+06
905997581287424	1.00479e+06
914793674309632	1.00479e+06
923589767331840	1.00479e+06
932385860354048	1.00479e+06
941181953376256	1.00479e+06
949978046398464	1.00479e+06
958774139420672	1.00479e+06
967570232442880	1.00479e+06
976366325465088	1.00479e+06
985162418487296	1.00479e+06
993958511509504	1.00479e+06
1002754604531712	1.00479e+06
1011550697553920	1.00479e+06
1020346790576128	1.00479e+06
1029142883598336	1.00479e+06
1037938976620544	1.00479e+06
1046735069642752	1.00479e+06
1055531162664960	1.00479e+06
1064327255687168	1.00479e+06
1073123348709376	1.00479e+06
1081919441731584	1.00479e+06
1090715534753792	1.00479e+06
1099511627776000	1.00479e+06
1108307720798208	1.00479e+06
1117103813820416	1.00479e+06
1125899906842624	1.00479e+06
1143492092887040	1.00479e+06
1161084278931456	1.00479e+06
1178676464975872	1.00479e+06
1196268651020288	1.00479e+06
1213860837064704	1.00479e+06
1231453023109120	1.00479e+06
1249045209153536	1.00479e+06
1266637395197952	1.00479e+06
1284229581242368	1.00479e+06
1301821767286784	1.00479e+06
1319413953331200	1.00479e+06
1337006139375616	1.00479e+06
1354598325420032	1.00479e+06
1372190511464448	1.00479e+06
1389782697508864	1.00479e+06
1407374883553280	1.00479e+06
1424967069597696	1.00479e+06
1442559255642112	1.00479e+06
1460151441686528	1.00479e+06
1477743627730944	1.00479e+06
1495335813775360	1.00479e+06
1512927999819776	1.00479e+06
1530520185864192	1.00479e+06
1548112371908608	1.00479e+06
1565704557953024	1.00479e+06
1583296743997440	1.00479e+06
1600888930041856	1.00479e+06
1618481116086272	1.00479e+06
1636073302130688	1.00479e+06
1653665488175104	1.00479e+06
1671257674219520	1.00479e+06
1688849860263936	1.00479e+06
1706442046308352	1.00479e+06
1724034232352768	1.00479e+06
1741626418397184	1.00479e+06
1759218604441600	1.00479e+06
1776810790486016	1.00479e+06
1794402976530432	1.00479e+06
1811995162574848	1.00479e+06
1829587348619264	1.00479e+06
1847179534663680	1.00479e+06
1864771720708096	1.00479e+06
1882363906752512	1.00479e+06
1899956092796928	1.00479e+06
1917548278841344	1.00479e+06
1935140464885760	1.00479e+06
1952732650930176	1.00479e+06
1970324836974592	1.00479e+06
1987917023019008	1.00479e+06
2005509209063424	1.00479e+06
2023101395107840	1.00479e+06
2040693581152256	1.00479e+06
2058285767196672	1.00479e+06
2075877953241088	1.00479e+06
2093470139285504	1.00479e+06
2111062325329920	1.00479e+06
2128654511374336	1.00479e+06
2146246697418752	1.00479e+06
2163838883463168	1.00479e+06
2181431069507584	1.00479e+06
2199023255552000	1.00479e+06
2216615441596416	1.00479e+06
2234207627640832	1.00479e+06
2251799813685248	1.00479e+06
2286984185774080	1.00479e+06
2322168557862912	1.00479e+06
2357352929951744	1.00479e+06
2392537302040576	1.00479e+06
2427721674129408	1.00479e+06
2462906046218240	1.00479e+06
2498090418307072	1.00479e+06
2533274790395904	1.00479e+06
2568459162484736	1.00479e+06
2603643534573568	1.00479e+06
2638827906662400	1.00479e+06
2674012278751232	1.00479e+06
2709196650840064	1.00479e+06
2744381022928896	1.00479e+06
2779565395017728	1.00479e+06
2814749767106560	1.00479e+06
2849934139195392	1.00479e+06
2885118511284224	1.00479e+06
2920302883373056	1.00479e+06
2955487255461888	1.00479e+06
2990671627550720	1.00479e+06
3025855999639552	1.00479e+06
3061040371728384	1.00479e+06
3096224743817216	1.00479e+06
3131409115906048	1.00479e+06
3166593487994880	1.00479e+06
3201777860083712	1.00479e+06
3236962232172544	1.00479e+06
3272146604261376	1.00479e+06
3307330976350208	1.00479e+06
3342515348439040	1.00479e+06
3377699720527872	1.00479e+06
3412884092616704	1.00479e+06
3448068464705536	1.00479e+06
3483252836794368	1.00479e+06
3518437208883200	1.00479e+06
3553621580972032	1.00479e+06
3588805953060864	1.00479e+06
3623990325149696	1.00479e+06
3659174697238528	1.00479e+06
3694359069327360	1.00479e+06
3729543441416192	1.00479e+06
3764727813505024	1.00479e+06
3799912185593856	1.00479e+06
3835096557682688	1.00479e+06
3870280929771520	1.00479e+06
3905465301860352	1.00479e+06
3940649673949184	1.00479e+06
3975834046038016	1.00479e+06
4011018418126848	1.00479e+06
4046202790215680	1.00479e+06
4081387162304512	1.00479e+06
4116571534393344	1.00479e+06
4151755906482176	1.00479e+06
4186940278571008	1.00479e+06
4222124650659840	1.00479e+06
4257309022748672	1.00479e+06
4292493394837504	1.00479e+06
4327677766926336	1.00479e+06
4362862139015168	1.00479e+06
4398046511104000	1.00479e+06
4433230883192832	1.00479e+06
4468415255281664	1.00479e+06
4503599627370496	1.00479e+06
4573968371548160	1.00479e+06
4644337115725824	1.00479e+06
4714705859903488	1.00479e+06
4785074604081152	1.00479e+06
4855443348258816	1.00479e+06
4925812092436480	1.00479e+06
4996180836614144	1.00479e+06
5066549580791808	1.00479e+06
5136918324969472	1.00479e+06
5207287069147136	1.00479e+06
5277655813324800	1.00479e+06
5348024557502464	1.00479e+06
5418393301680128	1.00479e+06
5488762045857792	1.00479e+06
5559130790035456	1.00479e+06
5629499534213120	1.00479e+06
5699868278390784	1.00479e+06
5770237022568448	1.00479e+06
5840605766746112	1.00479e+06
5910974510923776	1.00479e+06
5981343255101440	1.00479e+06
6051711999279104	1.00479e+06
6122080743456768	1.00479e+06
6192449487634432	1.00479e+06
6262818231812096	1.00479e+06
6333186975989760	1.00479e+06
6403555720167424	1.00479e+06
6473924464345088	1.00479e+06
6544293208522752	1.00479e+06
6614661952700416	1.00479e+06
6685030696878080	1.00479e+06
6755399441055744	1.00479e+06
6825768185233408	1.00479e+06
6896136929411072	1.00479e+06
6966505673588736	1.00479e+06
7036874417766400	1.00479e+06
7107243161944064	1.00479e+06
7177611906121728	1.00479e+06
7247980650299392	1.00479e+06
7318349394477056	1.00479e+06
7388718138654720	1.00479e+06
7459086882832384	1.00479e+06
7529455627010048	1.00479e+06
7599824371187712	1.00479e+06
7670193115365376	1.00479e+06
7740561859543040	1.00479e+06
7810930603720704	1.00479e+06
7881299347898368	1.00479e+06
7951668092076032	1.00479e+06
8022036836253696	1.00479e+06
8092405580431360	1.00479e+06
8162774324609024	1.00479e+06
8233143068786688	1.00479e+06
8303511812964352	1.00479e+06
8373880557142016	1.00479e+06
8444249301319680	1.00479e+06
8514618045497344	1.00479e+06
8584986789675008	1.00479e+06
8655355533852672	1.00479e+06
8725724278030336	1.00479e+06
8796093022208000	1.00479e+06
8866461766385664	1.00479e+06
8936830510563328	1.00479e+06
9007199254740992	1.00479e+06
9147936743096320	1.00479e+06
9288674231451648	1.00479e+06
9429411719806976	1.00479e+06
9570149208162304	1.00479e+06
9710886696517632	1.00479e+06
9851624184872960	1.00479e+06
9992361673228288	1.00479e+06
10133099161583616	1.00479e+06
10273836649938944	1.00479e+06
10414574138294272	1.00479e+06
10555311626649600	1.00479e+06
10696049115004928	1.00479e+06
10836786603360256	1.00479e+06
10977524091715584	1.00479e+06
11118261580070912	1.00479e+06
11258999068426240	1.00479e+06
11399736556781568	1.00479e+06
11540474045136896	1.00479e+06
11681211533492224	1.00479e+06
11821949021847552	1.00479e+06
11962686510202880	1.00479e+06
12103423998558208	1.00479e+06
12244161486913536	1.00479e+06
12384898975268864	1.00479e+06
12525636463624192	1.00479e+06
12666373951979520	1.00479e+06
12807111440334848	1.00479e+06
12947848928690176	1.00479e+06
13088586417045504	1.00479e+06
13229323905400832	1.00479e+06
13370061393756160	1.00479e+06
13510798882111488	1.00479e+06
13651536370466816	1.00479e+06
13792273858822144	1.00479e+06
13933011347177472	1.00479e+06
14073748835532800	1.00479e+06
14214486323888128	1.00479e+06
14355223812243456	1.00479e+06
14495961300598784	1.00479e+06
14636698788954112	1.00479e+06
14777436277309440	1.00479e+06
14918173765664768	1.00479e+06
15058911254020096	1.00479e+06
15199648742375424	1.00479e+06
15340386230730752	1.00479e+06
15481123719086080	1.00479e+06
15621861207441408	1.00479e+06
15762598695796736	1.00479e+06
15903336184152064	1.00479e+06
16044073672507392	1.00479e+06
16184811160862720	1.00479e+06
16325548649218048	1.00479e+06
16466286137573376	1.00479e+06
16607023625928704	1.00479e+06
16747761114284032	1.00479e+06
16888498602639360	1.00479e+06
17029236090994688	1.00479e+06
17169973579350016	1.00479e+06
17310711067705344	1.00479e+06
17451448556060672	1.00479e+06
17592186044416000	1.00479e+06
17732923532771328	1.00479e+06
17873661021126656	1.00479e+06
18014398509481984	1.00479e+06
18295873486192640	1.00479e+06
18577348462903296	1.00479e+06
18858823439613952	1.00479e+06
19140298416324608	1.00479e+06
19421773393035264	1.00479e+06
19703248369745920	1.00479e+06
19984723346456576	1.00479e+06
20266198323167232	1.00479e+06
20547673299877888	1.00479e+06
20829148276588544	1.00479e+06
21110623253299200	1.00479e+06
21392098230009856	1.00479e+06
21673573206720512	1.00479e+06
21955048183431168	1.00479e+06
22236523160141824	1.00479e+06
22517998136852480	1.00479e+06
22799473113563136	1.00479e+06
23080948090273792	1.00479e+06
23362423066984448	1.00479e+06
23643898043695104	1.00479e+06
23925373020405760	1.00479e+06
24206847997116416	1.00479e+06
24488322973827072	1.00479e+06
24769797950537728	1.00479e+06
25051272927248384	1.00479e+06
25332747903959040	1.00479e+06
25614222880669696	1.00479e+06
25895697857380352	1.00479e+06
26177172834091008	1.00479e+06
26458647810801664	1.00479e+06
26740122787512320	1.00479e+06
27021597764222976	1.00479e+06
27303072740933632	1.00479e+06
27584547717644288	1.00479e+06
27866022694354944	1.00479e+06
28147497671065600	1.00479e+06
28428972647776256	1.00479e+06
28710447624486912	1.00479e+06
28991922601197568	1.00479e+06
29273397577908224	1.00479e+06
29554872554618880	1.00479e+06
29836347531329536	1.00479e+06
30117822508040192	1.00479e+06
30399297484750848	1.00479e+06
30680772461461504	1.00479e+06
30962247438172160	1.00479e+06
31243722414882816	1.00479e+06
31525197391593472	1.00479e+06
31806672368304128	1.00479e+06
32088147345014784	1.00479e+06
32369622321725440	1.00479e+06
32651097298436096	1.00479e+06
32932572275146752	1.00479e+06
33214047251857408	1.00479e+06
33495522228568064	1.00479e+06
33776997205278720	1.00479e+06
34058472181989376	1.00479e+06
34339947158700032	1.00479e+06
34621422135410688	1.00479e+06
34902897112121344	1.00479e+06
35184372088832000	1.00479e+06
35465847065542656	1.00479e+06
35747322042253312	1.00479e+06
36028797018963968	1.00479e+06
36591746972385280	1.00479e+06
37154696925806592	1.00479e+06
37717646879227904	1.00479e+06
38280596832649216	1.00479e+06
38843546786070528	1.00479e+06
39406496739491840	1.00479e+06
39969446692913152	1.00479e+06
40532396646334464	1.00479e+06
41095346599755776	1.00479e+06
41658296553177088	1.00479e+06
42221246506598400	1.00479e+06
42784196460019712	1.00479e+06
43347146413441024	1.00479e+06
43910096366862336	1.00479e+06
44473046320283648	1.00479e+06
45035996273704960	1.00479e+06
45598946227126272	1.00479e+06
46161896180547584	1.00479e+06
46724846133968896	1.00479e+06
47287796087390208	1.00479e+06
47850746040811520	1.00479e+06
48413695994232832	1.00479e+06
48976645947654144	1.00479e+06
49539595901075456	1.00479e+06
50102545854496768	1.00479e+06
50665495807918080	1.00479e+06
51228445761339392	1.00479e+06
51791395714760704	1.00479e+06
52354345668182016	1.00479e+06
52917295621603328	1.00479e+06
53480245575024640	1.00479e+06
54043195528445952	1.00479e+06
54606145481867264	1.00479e+06
55169095435288576	1.00479e+06
55732045388709888	1.00479e+06
56294995342131200	1.00479e+06
56857945295552512	1.00479e+06
57420895248973824	1.00479e+06
57983845202395136	1.00479e+06
58546795155816448	1.00479e+06
59109745109237760	1.00479e+06
59672695062659072	1.00479e+06
60235645016080384	1.00479e+06
60798594969501696	1.00479e+06
61361544922923008	1.00479e+06
61924494876344320	1.00479e+06
62487444829765632	1.00479e+06
63050394783186944	1.00479e+06
63613344736608256	1.00479e+06
64176294690029568	1.00479e+06
64739244643450880	1.00479e+06
65302194596872192	1.00479e+06
65865144550293504	1.00479e+06
66428094503714816	1.00479e+06
66991044457136128	1.00479e+06
67553994410557440	1.00479e+06
68116944363978752	1.00479e+06
68679894317400064	1.00479e+06
69242844270821376	1.00479e+06
69805794224242688	1.00479e+06
70368744177664000	1.00479e+06
70931694131085312	1.00479e+06
71494644084506624	1.00479e+06
72057594037927936	1.00479e+06
73183493944770560	1.00479e+06
74309393851613184	1.00479e+06
75435293758455808	1.00479e+06
76561193665298432	1.00479e+06
77687093572141056	1.00479e+06
78812993478983680	1.00479e+06
79938893385826304	1.00479e+06
81064793292668928	1.00479e+06
82190693199511552	1.00479e+06
83316593106354176	1.00479e+06
84442493013196800	1.00479e+06
85568392920039424	1.00479e+06
86694292826882048	1.00479e+06
87820192733724672	1.00479e+06
88946092640567296	1.00479e+06
90071992547409920	1.00479e+06
91197892454252544	1.00479e+06
92323792361095168	1.00479e+06
93449692267937792	1.00479e+06
94575592174780416	1.00479e+06
95701492081623040	1.00479e+06
96827391988465664	1.00479e+06
97953291895308288	1.00479e+06
99079191802150912	1.00479e+06
100205091708993536	1.00479e+06
101330991615836160	1.00479e+06
102456891522678784	1.00479e+06
103582791429521408	1.00479e+06
104708691336364032	1.00479e+06
105834591243206656	1.00479e+06
106960491150049280	1.00479e+06
108086391056891904	1.00479e+06
109212290963734528	1.00479e+06
110338190870577152	1.00479e+06
111464090777419776	1.00479e+06
112589990684262400	1.00479e+06
113715890591105024	1.00479e+06
114841790497947648	1.00479e+06
115967690404790272	1.00479e+06
117093590311632896	1.00479e+06
118219490218475520	1.00479e+06
119345390125318144	1.00479e+06
120471290032160768	1.00479e+06
121597189939003392	1.00479e+06
122723089845846016	1.00479e+06
123848989752688640	1.00479e+06
124974889659531264	1.00479e+06
126100789566373888	1.00479e+06
127226689473216512	1.00479e+06
128352589380059136	1.00479e+06
129478489286901760	1.00479e+06
130604389193744384	1.00479e+06
131730289100587008	1.00479e+06
132856189007429632	1.00479e+06
133982088914272256	1.00479e+06
135107988821114880	1.00479e+06
136233888727957504	1.00479e+06
137359788634800128	1.00479e+06
138485688541642752	1.00479e+06
139611588448485376	1.00479e+06
140737488355328000	1.00479e+06
141863388262170624	1.00479e+06
142989288169013248	1.00479e+06
144115188075855872	1.00479e+06
146366987889541120	1.00479e+06
148618787703226368	1.00479e+06
150870587516911616	1.00479e+06
153122387330596864	1.00479e+06
155374187144282112	1.00479e+06
157625986957967360	1.00479e+06
159877786771652608	1.00479e+06
162129586585337856	1.00479e+06
164381386399023104	1.00479e+06
166633186212708352	1.00479e+06
168884986026393600	1.00479e+06
171136785840078848	1.00479e+06
173388585653764096	1.00479e+06
175640385467449344	1.00479e+06
177892185281134592	1.00479e+06
180143985094819840	1.00479e+06
182395784908505088	1.00479e+06
184647584722190336	1.00479e+06
186899384535875584	1.00479e+06
189151184349560832	1.00479e+06
191402984163246080	1.00479e+06
193654783976931328	1.00479e+06
195906583790616576	1.00479e+06
198158383604301824	1.00479e+06
200410183417987072	1.00479e+06
202661983231672320	1.00479e+06
204913783045357568	1.00479e+06
207165582859042816	1.00479e+06
209417382672728064	1.00479e+06
211669182486413312	1.00479e+06
213920982300098560	1.00479e+06
216172782113783808	1.00479e+06
218424581927469056	1.00479e+06
220676381741154304	1.00479e+06
222928181554839552	1.00479e+06
225179981368524800	1.00479e+06
227431781182210048	1.00479e+06
229683580995895296	1.00479e+06
231935380809580544	1.00479e+06
234187180623265792	1.00479e+06
236438980436951040	1.00479e+06
238690780250636288	1.00479e+06
240942580064321536	1.00479e+06
243194379878006784	1.00479e+06
245446179691692032	1.00479e+06
247697979505377280	1.00479e+06
249949779319062528	1.00479e+06
252201579132747776	1.00479e+06
254453378946433024	1.00479e+06
256705178760118272	1.00479e+06
258956978573803520	1.00479e+06
261208778387488768	1.00479e+06
263460578201174016	1.00479e+06
265712378014859264	1.00479e+06
267964177828544512	1.00479e+06
270215977642229760	1.00479e+06
272467777455915008	1.00479e+06
274719577269600256	1.00479e+06
276971377083285504	1.00479e+06
279223176896970752	1.00479e+06
281474976710656000	1.00479e+06
283726776524341248	1.00479e+06
285978576338026496	1.00479e+06
288230376151711744	1.00479e+06
292733975779082240	1.00479e+06
297237575406452736	1.00479e+06
301741175033823232	1.00479e+06
306244774661193728	1.00479e+06
310748374288564224	1.00479e+06
315251973915934720	1.00479e+06
319755573543305216	1.00479e+06
324259173170675712	1.00479e+06
328762772798046208	1.00479e+06
333266372425416704	1.00479e+06
337769972052787200	1.00479e+06
342273571680157696	1.00479e+06
346777171307528192	1.00479e+06
351280770934898688	1.00479e+06
355784370562269184	1.00479e+06
360287970189639680	1.00479e+06
364791569817010176	1.00479e+06
369295169444380672	1.00479e+06
373798769071751168	1.00479e+06
378302368699121664	1.00479e+06
382805968326492160	1.00479e+06
387309567953862656	1.00479e+06
391813167581233152	1.00479e+06
396316767208603648	1.00479e+06
400820366835974144	1.00479e+06
405323966463344640	1.00479e+06
409827566090715136	1.00479e+06
414331165718085632	1.00479e+06
418834765345456128	1.00479e+06
423338364972826624	1.00479e+06
427841964600197120	1.00479e+06
432345564227567616	1.00479e+06
436849163854938112	1.00479e+06
441352763482308608	1.00479e+06
445856363109679104	1.00479e+06
450359962737049600	1.00479e+06
454863562364420096	1.00479e+06
459367161991790592	1.00479e+06
463870761619161088	1.00479e+06
468374361246531584	1.00479e+06
472877960873902080	1.00479e+06
477381560501272576	1.00479e+06
481885160128643072	1.00479e+06
486388759756013568	1.00479e+06
490892359383384064	1.00479e+06
495395959010754560	1.00479e+06
499899558638125056	1.00479e+06
504403158265495552	1.00479e+06
508906757892866048	1.00479e+06
513410357520236544	1.00479e+06
517913957147607040	1.00479e+06
522417556774977536	1.00479e+06
526921156402348032	1.00479e+06
531424756029718528	1.00479e+06
535928355657089024	1.00479e+06
540431955284459520	1.00479e+06
544935554911830016	1.00479e+06
549439154539200512	1.00479e+06
553942754166571008	1.00479e+06
558446353793941504	1.00479e+06
562949953421312000	1.00479e+06
567453553048682496	1.00479e+06
571957152676052992	1.00479e+06
576460752303423488	1.00479e+06
585467951558164480	1.00479e+06
594475150812905472	1.00479e+06
603482350067646464	1.00479e+06
612489549322387456	1.00479e+06
621496748577128448	1.00479e+06
630503947831869440	1.00479e+06
639511147086610432	1.00479e+06
648518346341351424	1.00479e+06
657525545596092416	1.00479e+06
666532744850833408	1.00479e+06
675539944105574400	1.00479e+06
684547143360315392	1.00479e+06
693554342615056384	1.00479e+06
702561541869797376	1.00479e+06
711568741124538368	1.00479e+06
720575940379279360	1.00479e+06
729583139634020352	1.00479e+06
738590338888761344	1.00479e+06
747597538143502336	1.00479e+06
756604737398243328	1.00479e+06
765611936652984320	1.00479e+06
774619135907725312	1.00479e+06
783626335162466304	1.00479e+06
792633534417207296	1.00479e+06
801640733671948288	1.00479e+06
810647932926689280	1.00479e+06
819655132181430272	1.00479e+06
828662331436171264	1.00479e+06
837669530690912256	1.00479e+06
846676729945653248	1.00479e+06
855683929200394240	1.00479e+06
864691128455135232	1.00479e+06
873698327709876224	1.00479e+06
882705526964617216	1.00479e+06
891712726219358208	1.00479e+06
900719925474099200	1.00479e+06
909727124728840192	1.00479e+06
918734323983581184	1.00479e+06
927741523238322176	1.00479e+06
936748722493063168	1.00479e+06
945755921747804160	1.00479e+06
954763121002545152	1.00479e+06
963770320257286144	1.00479e+06
972777519512027136	1.00479e+06
981784718766768128	1.00479e+06
990791918021509120	1.00479e+06
999799117276250112	1.00479e+06
1008806316530991104	1.00479e+06
1017813515785732096	1.00479e+06
1026820715040473088	1.00479e+06
1035827914295214080	1.00479e+06
1044835113549955072	1.00479e+06
1053842312804696064	1.00479e+06
1062849512059437056	1.00479e+06
1071856711314178048	1.00479e+06
1080863910568919040	1.00479e+06
1089871109823660032	1.00479e+06
1098878309078401024	1.00479e+06
1107885508333142016	1.00479e+06
1116892707587883008	1.00479e+06
1125899906842624000	1.00479e+06
1134907106097364992	1.00479e+06
1143914305352105984	1.00479e+06
1152921504606846976	1.00479e+06
1170935903116328960	1.00479e+06
1188950301625810944	1.00479e+06
1206964700135292928	1.00479e+06
1224979098644774912	1.00479e+06
1242993497154256896	1.00479e+06
1261007895663738880	1.00479e+06
1279022294173220864	1.00479e+06
1297036692682702848	1.00479e+06
1315051091192184832	1.00479e+06
1333065489701666816	1.00479e+06
1351079888211148800	1.00479e+06
1369094286720630784	1.00479e+06
1387108685230112768	1.00479e+06
1405123083739594752	1.00479e+06
1423137482249076736	1.00479e+06
1441151880758558720	1.00479e+06
1459166279268040704	1.00479e+06
1477180677777522688	1.00479e+06
1495195076287004672	1.00479e+06
1513209474796486656	1.00479e+06
1531223873305968640	1.00479e+06
1549238271815450624	1.00479e+06
1567252670324932608	1.00479e+06
1585267068834414592	1.00479e+06
1603281467343896576	1.00479e+06
1621295865853378560	1.00479e+06
1639310264362860544	1.00479e+06
1657324662872342528	1.00479e+06
1675339061381824512	1.00479e+06
1693353459891306496	1.00479e+06
1711367858400788480	1.00479e+06
1729382256910270464	1.00479e+06
1747396655419752448	1.00479e+06
1765411053929234432	1.00479e+06
1783425452438716416	1.00479e+06
1801439850948198400	1.00479e+06
1819454249457680384	1.00479e+06
1837468647967162368	1.00479e+06
1855483046476644352	1.00479e+06
1873497444986126336	1.00479e+06
1891511843495608320	1.00479e+06
1909526242005090304	1.00479e+06
1927540640514572288	1.00479e+06
1945555039024054272	1.00479e+06
1963569437533536256	1.00479e+06
1981583836043018240	1.00479e+06
1999598234552500224	1.00479e+06
2017612633061982208	1.00479e+06
2035627031571464192	1.00479e+06
2053641430080946176	1.00479e+06
2071655828590428160	1.00479e+06
2089670227099910144	1.00479e+06
2107684625609392128	1.00479e+06
2125699024118874112	1.00479e+06
2143713422628356096	1.00479e+06
2161727821137838080	1.00479e+06
2179742219647320064	1.00479e+06
2197756618156802048	1.00479e+06
2215771016666284032	1.00479e+06
2233785415175766016	1.00479e+06
2251799813685248000	1.00479e+06
2269814212194729984	1.00479e+06
2287828610704211968	1.00479e+06
2305843009213693952	1.00479e+06
2341871806232657920	1.00479e+06
2377900603251621888	1.00479e+06
2413929400270585856	1.00479e+06
2449958197289549824	1.00479e+06
2485986994308513792	1.00479e+06
2522015791327477760	1.00479e+06
2558044588346441728	1.00479e+06
2594073385365405696	1.00479e+06
2630102182384369664	1.00479e+06
2666130979403333632	1.00479e+06
2702159776422297600	1.00479e+06
2738188573441261568	1.00479e+06
2774217370460225536	1.00479e+06
2810246167479189504	1.00479e+06
2846274964498153472	1.00479e+06
2882303761517117440	1.00479e+06
2918332558536081408	1.00479e+06
2954361355555045376	1.00479e+06
2990390152574009344	1.00479e+06
3026418949592973312	1.00479e+06
3062447746611937280	1.00479e+06
3098476543630901248	1.00479e+06
3134505340649865216	1.00479e+06
3170534137668829184	1.00479e+06
3206562934687793152	1.00479e+06
3242591731706757120	1.00479e+06
3278620528725721088	1.00479e+06
3314649325744685056	1.00479e+06
3350678122763649024	1.00479e+06
3386706919782612992	1.00479e+06
3422735716801576960	1.00479e+06
3458764513820540928	1.00479e+06
3494793310839504896	1.00479e+06
3530822107858468864	1.00479e+06
3566850904877432832	1.00479e+06
3602879701896396800	1.00479e+06
3638908498915360768	1.00479e+06
3674937295934324736	1.00479e+06
3710966092953288704	1.00479e+06
3746994889972252672	1.00479e+06
3783023686991216640	1.00479e+06
3819052484010180608	1.00479e+06
3855081281029144576	1.00479e+06
3891110078048108544	1.00479e+06
3927138875067072512	1.00479e+06
3963167672086036480	1.00479e+06
3999196469105000448	1.00479e+06
4035225266123964416	1.00479e+06
4071254063142928384	1.00479e+06
4107282860161892352	1.00479e+06
4143311657180856320	1.00479e+06
4179340454199820288	1.00479e+06
4215369251218784256	1.00479e+06
4251398048237748224	1.00479e+06
4287426845256712192	1.00479e+06
4323455642275676160	1.00479e+06
4359484439294640128	1.00479e+06
4395513236313604096	1.00479e+06
4431542033332568064	1.00479e+06
4467570830351532032	1.00479e+06
4503599627370496000	1.00479e+06
4539628424389459968	1.00479e+06
4575657221408423936	1.00479e+06
4611686018427387904	1.00479e+06
4683743612465315840	1.00479e+06
4755801206503243776	1.00479e+06
4827858800541171712	1.00479e+06
4899916394579099648	1.00479e+06
4971973988617027584	1.00479e+06
5044031582654955520	1.00479e+06
5116089176692883456	1.00479e+06
5188146770730811392	1.00479e+06
5260204364768739328	1.00479e+06
5332261958806667264	1.00479e+06
5404319552844595200	1.00479e+06
5476377146882523136	1.00479e+06
5548434740920451072	1.00479e+06
5620492334958379008	1.00479e+06
5692549928996306944	1.00479e+06
5764607523034234880	1.00479e+06
5836665117072162816	1.00479e+06
5908722711110090752	1.00479e+06
5980780305148018688	1.00479e+06
6052837899185946624	1.00479e+06
6124895493223874560	1.00479e+06
6196953087261802496	1.00479e+06
6269010681299730432	1.00479e+06
6341068275337658368	1.00479e+06
6413125869375586304	1.00479e+06
6485183463413514240	1.00479e+06
6557241057451442176	1.00479e+06
6629298651489370112	1.00479e+06
6701356245527298048	1.00479e+06
6773413839565225984	1.00479e+06
6845471433603153920	1.00479e+06
6917529027641081856	1.00479e+06
6989586621679009792	1.00479e+06
7061644215716937728	1.00479e+06
7133701809754865664	1.00479e+06
7205759403792793600	1.00479e+06
7277816997830721536	1.00479e+06
7349874591868649472	1.00479e+06
7421932185906577408	1.00479e+06
7493989779944505344	1.00479e+06
7566047373982433280	1.00479e+06
7638104968020361216	1.00479e+06
7710162562058289152	1.00479e+06
7782220156096217088	1.00479e+06
7854277750134145024	1.00479e+06
7926335344172072960	1.00479e+06
7998392938210000896	1.00479e+06
8070450532247928832	1.00479e+06
8142508126285856768	1.00479e+06
8214565720323784704	1.00479e+06
8286623314361712640	1.00479e+06
8358680908399640576	1.00479e+06
8430738502437568512	1.00479e+06
8502796096475496448	1.00479e+06
8574853690513424384	1.00479e+06
8646911284551352320	1.00479e+06
8718968878589280256	1.00479e+06
8791026472627208192	1.00479e+06
8863084066665136128	1.00479e+06
8935141660703064064	1.00479e+06
9007199254740992000	1.00479e+06
9079256848778919936	1.00479e+06
9151314442816847872	1.00479e+06
9223372036854775808	1.00479e+06
9367487224930631680	1.00479e+06
9511602413006487552	1.00479e+06
9655717601082343424	1.00479e+06
9799832789158199296	1.00479e+06
9943947977234055168	1.00479e+06
10088063165309911040	1.00479e+06
10232178353385766912	1.00479e+06
10376293541461622784	1.00479e+06
10520408729537478656	1.00479e+06
10664523917613334528	1.00479e+06
10808639105689190400	1.00479e+06
10952754293765046272	1.00479e+06
11096869481840902144	1.00479e+06
11240984669916758016	1.00479e+06
11385099857992613888	1.00479e+06
11529215046068469760	1.00479e+06
11673330234144325632	1.00479e+06
11817445422220181504	1.00479e+06
11961560610296037376	1.00479e+06
12105675798371893248	1.00479e+06
12249790986447749120	1.00479e+06
12393906174523604992	1.00479e+06
12538021362599460864	1.00479e+06
12682136550675316736	1.00479e+06
12826251738751172608	1.00479e+06
12970366926827028480	1.00479e+06
13114482114902884352	1.00479e+06
13258597302978740224	1.00479e+06
13402712491054596096	1.00479e+06
13546827679130451968	1.00479e+06
13690942867206307840	1.00479e+06
13835058055282163712	1.00479e+06
13979173243358019584	1.00479e+06
14123288431433875456	1.00479e+06
14267403619509731328	1.00479e+06
14411518807585587200	1.00479e+06
14555633995661443072	1.00479e+06
14699749183737298944	1.00479e+06
14843864371813154816	1.00479e+06
14987979559889010688	1.00479e+06
15132094747964866560	1.00479e+06
15276209936040722432	1.00479e+06
15420325124116578304	1.00479e+06
15564440312192434176	1.00479e+06
15708555500268290048	1.00479e+06
15852670688344145920	1.00479e+06
15996785876420001792	1.00479e+06
16140901064495857664	1.00479e+06
16285016252571713536	1.00479e+06
16429131440647569408	1.00479e+06
16573246628723425280	1.00479e+06
16717361816799281152	1.00479e+06
16861477004875137024	1.00479e+06
17005592192950992896	1.00479e+06
17149707381026848768	1.00479e+06
17293822569102704640	1.00479e+06
17437937757178560512	1.00479e+06
17582052945254416384	1.00479e+06
17726168133330272256	1.00479e+06
17870283321406128128	1.00479e+06
18014398509481984000	1.00479e+06
18158513697557839872	1.00479e+06
18302628885633695744	0
