0	0
1	1
2	1.96052
3	2.92065
4	3.88058
5	4.84028
6	5.79977
7	6.75887
8	7.71774
9	8.67638
10	9.63482
11	10.5931
12	11.5511
13	12.509
14	13.4659
15	14.4225
16	15.3756
17	16.3286
18	17.2814
19	18.234
20	19.1832
21	20.1323
22	21.0812
23	22.0295
24	22.9776
25	23.9256
26	24.8731
27	25.8202
28	26.7673
29	27.7144
30	28.6613
31	29.6066
32	30.5518
33	31.4958
34	32.4398
35	33.3837
36	34.3276
37	35.2714
38	36.2145
39	37.1561
40	38.0977
41	39.0392
42	39.9806
43	40.922
44	41.8634
45	42.8042
46	43.7437
47	44.683
48	45.6223
49	46.5615
50	47.5006
51	48.4397
52	49.3779
53	50.3154
54	51.2527
55	52.19
56	53.1273
57	54.0645
58	55.001
59	55.9373
60	56.8734
61	57.8091
62	58.7447
63	59.6803
64	60.6155
65	61.5503
66	62.485
67	63.4197
68	64.3538
69	65.2878
70	66.2217
71	67.155
72	68.0883
73	69.0215
74	69.9546
75	70.8875
76	71.8198
77	72.7517
78	73.6834
79	74.615
80	75.5465
81	76.478
82	77.4093
83	78.34
84	79.2696
85	80.1968
86	81.1197
87	82.0381
88	82.9535
89	83.8671
90	84.7796
91	85.6914
92	86.603
93	87.5144
94	88.4257
95	89.3369
96	90.2478
97	91.1584
98	92.0687
99	92.9789
100	93.889
101	94.7991
102	95.709
103	96.6186
104	97.5281
105	98.437
106	99.344
107	100.245
108	101.135
109	102.005
110	102.857
111	103.697
112	104.531
113	105.364
114	106.196
115	107.028
116	107.859
117	108.689
118	109.52
119	110.35
120	111.18
121	112.01
122	112.839
123	113.668
124	114.497
125	115.325
126	116.153
127	116.981
128	117.809
130	119.464
132	121.118
134	122.772
136	124.425
138	126.077
140	127.73
142	129.381
144	131.032
146	132.683
148	134.333
150	135.982
152	137.632
154	139.28
156	140.928
158	142.576
160	144.223
162	145.869
164	147.515
166	149.161
168	150.805
170	152.448
172	154.085
174	155.716
176	157.343
178	158.969
180	160.593
182	162.217
184	163.841
186	165.464
188	167.087
190	168.71
192	170.332
194	171.953
196	173.575
198	175.195
200	176.816
202	178.435
204	180.054
206	181.672
208	183.289
210	184.903
212	186.515
214	188.122
216	189.72
218	191.299
220	192.859
222	194.411
224	195.961
226	197.508
228	199.056
230	200.603
232	202.149
234	203.695
236	205.241
238	206.786
240	208.331
242	209.875
244	211.419
246	212.962
248	214.505
250	216.048
252	217.59
254	219.132
256	220.672
260	223.745
264	226.811
268	229.875
272	232.937
276	235.998
280	239.058
284	242.116
288	245.173
292	248.228
296	251.275
300	254.316
304	257.354
308	260.39
312	263.425
316	266.458
320	269.489
324	272.514
328	275.523
332	278.518
336	281.508
340	284.496
344	287.481
348	290.463
352	293.443
356	296.422
360	299.4
364	302.376
368	305.352
372	308.326
376	311.299
380	314.268
384	317.229
388	320.185
392	323.14
396	326.094
400	329.046
404	331.997
408	334.947
412	337.895
416	340.841
420	343.786
424	346.729
428	349.669
432	352.607
436	355.542
440	358.475
444	361.405
448	364.333
452	367.258
456	370.179
460	373.098
464	376.011
468	378.916
472	381.808
476	384.679
480	387.532
484	390.376
488	393.214
492	396.05
496	398.883
500	401.714
504	404.542
508	407.368
512	410.191
520	415.831
528	421.461
536	427.082
544	432.693
552	438.291
560	443.871
568	449.439
576	454.997
584	460.521
592	465.971
600	471.394
608	476.809
616	482.214
624	487.61
632	492.997
640	498.371
648	503.729
656	509.078
664	514.417
672	519.747
680	525.065
688	530.369
696	535.616
704	540.815
712	546.003
720	551.183
728	556.352
736	561.511
744	566.661
752	571.802
760	576.933
768	582.051
776	587.159
784	592.259
792	597.351
800	602.421
808	607.433
816	612.423
824	617.406
832	622.381
840	627.351
848	632.311
856	637.26
864	642.201
872	647.136
880	652.066
888	656.99
896	661.908
904	666.819
912	671.708
920	676.571
928	681.426
936	686.271
944	691.106
952	695.935
960	700.759
968	705.578
976	710.393
984	715.204
992	720.012
1000	724.817
1008	729.62
1016	734.417
1024	739.197
1040	748.741
1056	758.276
1072	767.8
1088	777.317
1104	786.827
1120	796.325
1136	805.81
1152	815.282
1168	824.749
1184	834.212
1200	843.669
1216	853.121
1232	862.566
1248	872.002
1264	881.433
1280	890.85
1296	900.244
1312	909.629
1328	919.001
1344	928.364
1360	937.719
1376	947.063
1392	956.375
1408	965.652
1424	974.913
1440	984.161
1456	993.397
1472	1002.62
1488	1011.84
1504	1021.01
1520	1030.16
1536	1039.31
1552	1048.44
1568	1057.56
1584	1066.66
1600	1075.75
1616	1084.8
1632	1093.84
1648	1102.86
1664	1111.88
1680	1120.89
1696	1129.88
1712	1138.87
1728	1147.83
1744	1156.78
1760	1165.73
1776	1174.68
1792	1183.61
1808	1192.54
1824	1201.46
1840	1210.37
1856	1219.28
1872	1228.17
1888	1237.06
1904	1245.95
1920	1254.83
1936	1263.7
1952	1272.57
1968	1281.44
1984	1290.31
2000	1299.17
2016	1308.03
2032	1316.89
2048	1325.75
2080	1343.45
2112	1361.14
2144	1378.8
2176	1396.46
2208	1414.08
2240	1431.67
2272	1449.25
2304	1466.8
2336	1484.3
2368	1501.78
2400	1519.23
2432	1536.64
2464	1554.02
2496	1571.39
2528	1588.74
2560	1606.06
2592	1623.38
2624	1640.68
2656	1657.97
2688	1675.25
2720	1692.52
2752	1709.78
2784	1727.04
2816	1744.28
2848	1761.52
2880	1778.75
2912	1795.98
2944	1813.19
2976	1830.4
3008	1847.59
3040	1864.77
3072	1881.94
3104	1899.1
3136	1916.24
3168	1933.36
3200	1950.48
3232	1967.57
3264	1984.64
3296	2001.7
3328	2018.75
3360	2035.78
3392	2052.81
3424	2069.83
3456	2086.84
3488	2103.84
3520	2120.84
3552	2137.83
3584	2154.82
3616	2171.81
3648	2188.79
3680	2205.77
3712	2222.74
3744	2239.71
3776	2256.67
3808	2273.62
3840	2290.55
3872	2307.49
3904	2324.41
3936	2341.32
3968	2358.23
4000	2375.13
4032	2392.01
4064	2408.88
4096	2425.74
4160	2459.44
4224	2493.12
4288	2526.76
4352	2560.4
4416	2594.02
4480	2627.64
4544	2661.24
4608	2694.83
4672	2728.4
4736	2761.94
4800	2795.46
4864	2828.94
4928	2862.41
4992	2895.86
5056	2929.29
5120	2962.71
5184	2996.11
5248	3029.51
5312	3062.9
5376	3096.28
5440	3129.64
5504	3162.99
5568	3196.32
5632	3229.63
5696	3262.91
5760	3296.17
5824	3329.42
5888	3362.65
5952	3395.88
6016	3429.11
6080	3462.33
6144	3495.53
6208	3528.73
6272	3561.92
6336	3595.1
6400	3628.26
6464	3661.4
6528	3694.54
6592	3727.66
6656	3760.77
6720	3793.88
6784	3826.98
6848	3860.07
6912	3893.17
6976	3926.25
7040	3959.33
7104	3992.4
7168	4025.45
7232	4058.49
7296	4091.52
7360	4124.54
7424	4157.55
7488	4190.55
7552	4223.55
7616	4256.54
7680	4289.53
7744	4322.52
7808	4355.5
7872	4388.47
7936	4421.43
8000	4454.39
8064	4487.33
8128	4520.26
8192	4553.19
8320	4619.02
8448	4684.85
8576	4750.65
8704	4816.44
8832	4882.21
8960	4947.94
9088	5013.64
9216	5079.34
9344	5145.02
9472	5210.68
9600	5276.31
9728	5341.92
9856	5407.5
9984	5473.07
10112	5538.62
10240	5604.17
10368	5669.69
10496	5735.19
10624	5800.68
10752	5866.15
10880	5931.61
11008	5997.06
11136	6062.5
11264	6127.91
11392	6193.3
11520	6258.68
11648	6324.04
11776	6389.4
11904	6454.75
12032	6520.08
12160	6585.39
12288	6650.7
12416	6715.99
12544	6781.27
12672	6846.54
12800	6911.8
12928	6977.03
13056	7042.25
13184	7107.46
13312	7172.65
13440	7237.84
13568	7303.01
13696	7368.16
13824	7433.3
13952	7498.42
14080	7563.54
14208	7628.65
14336	7693.75
14464	7758.84
14592	7823.92
14720	7888.99
14848	7954.05
14976	8019.1
15104	8084.14
15232	8149.17
15360	8214.2
15488	8279.21
15616	8344.21
15744	8409.21
15872	8474.2
16000	8539.18
16128	8604.15
16256	8669.12
16384	8734.07
16640	8863.97
16896	8993.85
17152	9123.68
17408	9253.49
17664	9383.27
17920	9513.03
18176	9642.77
18432	9772.49
18688	9902.17
18944	10031.8
19200	10161.5
19456	10291.1
19712	10420.7
19968	10550.3
20224	10679.9
20480	10809.4
20736	10938.9
20992	11068.4
21248	11197.9
21504	11327.4
21760	11456.8
22016	11586.2
22272	11715.7
22528	11845.1
22784	11974.4
23040	12103.8
23296	12233.2
23552	12362.5
23808	12491.8
24064	12621.1
24320	12750.4
24576	12879.7
24832	13008.9
25088	13138.2
25344	13267.4
25600	13396.7
25856	13525.9
26112	13655.1
26368	13784.3
26624	13913.4
26880	14042.6
27136	14171.7
27392	14300.9
27648	14430
27904	14559.1
28160	14688.2
28416	14817.3
28672	14946.4
28928	15075.5
29184	15204.5
29440	15333.6
29696	15462.6
29952	15591.6
30208	15720.6
30464	15849.6
30720	15978.6
30976	16107.6
31232	16236.5
31488	16365.5
31744	16494.4
32000	16623.4
32256	16752.3
32512	16881.2
32768	17010.1
33280	17267.9
33792	17525.6
34304	17783.3
34816	18040.9
35328	18298.5
35840	18556.1
36352	18813.6
36864	19071
37376	19328.4
37888	19585.8
38400	19843.1
38912	20100.4
39424	20357.6
39936	20614.8
40448	20872
40960	21129.1
41472	21386.1
41984	21643.1
42496	21900.1
43008	22157.1
43520	22413.9
44032	22670.8
44544	22927.5
45056	23184.3
45568	23441
46080	23697.7
46592	23954.3
47104	24210.9
47616	24467.4
48128	24723.9
48640	24980.4
49152	25236.8
49664	25493.1
50176	25749.4
50688	26005.7
51200	26261.9
51712	26518
52224	26774.1
52736	27030.2
53248	27286.2
53760	27542.2
54272	27798.1
54784	28054
55296	28309.8
55808	28565.6
56320	28821.3
56832	29077
57344	29332.5
57856	29588.1
58368	29843.6
58880	30099
59392	30354.4
59904	30609.7
60416	30865
60928	31120.3
61440	31375.4
61952	31630.5
62464	31885.6
62976	32140.5
63488	32395.3
64000	32650.1
64512	32904.7
65024	33159.3
65536	33413.7
66560	33922.4
67584	34430.7
68608	34938.6
69632	35446.2
70656	35953.4
71680	36460.1
72704	36966.5
73728	37472.5
74752	37978.1
75776	38483.2
76800	38988
77824	39492.5
78848	39996.5
79872	40500.1
80896	41003.3
81920	41506.1
82944	42008.5
83968	42510.6
84992	43012.2
86016	43513.3
87040	44014
88064	44514.2
89088	45014
90112	45513.4
91136	46012.2
92160	46510.7
93184	47008.6
94208	47506
95232	48003
96256	48499.6
97280	48995.7
98304	49491.3
99328	49986.4
100352	50481.1
101376	50975.2
102400	51468.9
103424	51962
104448	52454.7
105472	52946.9
106496	53438.6
107520	53929.7
108544	54420.3
109568	54910.4
110592	55400
111616	55889.1
112640	56377.7
113664	56865.7
114688	57353.2
115712	57840.4
116736	58327.1
117760	58813.4
118784	59299.3
119808	59784.8
120832	60269.8
121856	60754.4
122880	61238.6
123904	61722.3
124928	62205.7
125952	62688.6
126976	63171.1
128000	63653.1
129024	64134.8
130048	64616
131072	65096.9
133120	66057.5
135168	67016.5
137216	67973.9
139264	68929.7
141312	69883.9
143360	70836.4
145408	71787.2
147456	72736.4
149504	73683.9
151552	74629.8
153600	75574
155648	76516.6
157696	77457.5
159744	78396.7
161792	79334.3
163840	80270.3
165888	81204.6
167936	82137.5
169984	83068.8
172032	83998.5
174080	84926.7
176128	85853.4
178176	86778.3
180224	87701.6
182272	88623.3
184320	89543.3
186368	90461.7
188416	91378.3
190464	92293.1
192512	93205.9
194560	94116.8
196608	95025.9
198656	95933.2
200704	96838.6
202752	97742.3
204800	98644.2
206848	99544.5
208896	100443
210944	101340
212992	102235
215040	103129
217088	104021
219136	104911
221184	105800
223232	106688
225280	107574
227328	108459
229376	109343
231424	110225
233472	111106
235520	111986
237568	112864
239616	113741
241664	114618
243712	115493
245760	116368
247808	117242
249856	118116
251904	118989
253952	119861
256000	120733
258048	121604
260096	122475
262144	123345
266240	125084
270336	126821
274432	128557
278528	130292
282624	132025
286720	133758
290816	135489
294912	137221
299008	138946
303104	140572
307200	142124
311296	143676
315392	145227
319488	146777
323584	148327
327680	149876
331776	151424
335872	152970
339968	154516
344064	156058
348160	157599
352256	159139
356352	160677
360448	162213
364544	163746
368640	165276
372736	166802
376832	168325
380928	169843
385024	171358
389120	172868
393216	174374
397312	175875
401408	177371
405504	178862
409600	180348
413696	181829
417792	183304
421888	184775
425984	186242
430080	187705
434176	189164
438272	190618
442368	192069
446464	193516
450560	194958
454656	196397
458752	197831
462848	199261
466944	200687
471040	202110
475136	203528
479232	204943
483328	206353
487424	207760
491520	209161
495616	210558
499712	211950
503808	213337
507904	214720
512000	216099
516096	217473
520192	218843
524288	220210
532480	222932
540672	225641
548864	228340
557056	231032
565248	233719
573440	236401
581632	239080
589824	241756
598016	244422
606208	246958
614400	249396
622592	251833
630784	254268
638976	256700
647168	259127
655360	261548
663552	263965
671744	266373
679936	268771
688128	271158
696320	273532
704512	275893
712704	278241
720896	280574
729088	282897
737280	285208
745472	287510
753664	289802
761856	292082
770048	294353
778240	296613
786432	298863
794624	301102
802816	303327
811008	305541
819200	307743
827392	309934
835584	312115
843776	314288
851968	316455
860160	318617
868352	320776
876544	322932
884736	325086
892928	327237
901120	329360
909312	331336
917504	333240
925696	335143
933888	337044
942080	338943
950272	340839
958464	342731
966656	344620
974848	346503
983040	348379
991232	350248
999424	352110
1007616	353963
1015808	355808
1024000	357644
1032192	359474
1040384	361297
1048576	363114
1064960	366728
1081344	370317
1097728	373878
1114112	377408
1130496	380909
1146880	384388
1163264	387852
1179648	391308
1196032	394752
1212416	398073
1228800	401290
1245184	404501
1261568	407704
1277952	410893
1294336	414062
1310720	417207
1327104	420328
1343488	423427
1359872	426507
1376256	429568
1392640	432609
1409024	435627
1425408	438622
1441792	441598
1458176	444561
1474560	447516
1490944	450466
1507328	453341
1523712	456086
1540096	458826
1556480	461560
1572864	464286
1589248	466999
1605632	469694
1622016	472371
1638400	475030
1654784	477675
1671168	480305
1687552	482920
1703936	485519
1720320	488100
1736704	490665
1753088	493219
1769472	495765
1785856	498307
1802240	500822
1818624	503222
1835008	505565
1851392	507904
1867776	510237
1884160	512562
1900544	514874
1916928	517173
1933312	519458
1949696	521731
1966080	523994
1982464	526245
1998848	528484
2015232	530710
2031616	532924
2048000	535128
2064384	537326
2080768	539520
2097152	541695
2129920	545901
2162688	550038
2195456	554149
2228224	558218
2260992	562246
2293760	566237
2326528	570186
2359296	574100
2392064	577992
2424832	581775
2457600	585472
2490368	589150
2523136	592796
2555904	596406
2588672	599986
2621440	603533
2654208	607048
2686976	610546
2719744	613968
2752512	617277
2785280	620571
2818048	623839
2850816	627077
2883584	630289
2916352	633473
2949120	636631
2981888	639772
3014656	642869
3047424	645866
3080192	648851
3112960	651817
3145728	654756
3178496	657672
3211264	660565
3244032	663435
3276800	666289
3309568	669115
3342336	671859
3375104	674580
3407872	677286
3440640	679968
3473408	682630
3506176	685271
3538944	687890
3571712	690496
3604480	693074
3637248	695582
3670016	698054
3702784	700515
3735552	702957
3768320	705380
3801088	707787
3833856	710175
3866624	712550
3899392	714903
3932160	717205
3964928	719464
3997696	721713
4030464	723947
4063232	726164
4096000	728366
4128768	730553
4161536	732727
4194304	734886
4259840	739094
4325376	743228
4390912	747303
4456448	751326
4521984	755287
4587520	759096
4653056	762866
4718592	766585
4784128	770260
4849664	773848
4915200	777362
4980736	780831
5046272	784256
5111808	787633
5177344	790906
5242880	794140
5308416	797333
5373952	800495
5439488	803592
5505024	806618
5570560	809613
5636096	812575
5701632	815504
5767168	818357
5832704	821165
5898240	823942
5963776	826692
6029312	829405
6094848	832048
6160384	834670
6225920	837261
6291456	839827
6356992	842342
6422528	844810
6488064	847254
6553600	849677
6619136	852074
6684672	854413
6750208	856730
6815744	859023
6881280	861296
6946816	863534
7012352	865732
7077888	867912
7143424	870072
7208960	872211
7274496	874309
7340032	876382
7405568	878437
7471104	880476
7536640	882490
7602176	884458
7667712	886413
7733248	888351
7798784	890273
7864320	892166
7929856	894033
7995392	895883
8060928	897721
8126464	899539
8192000	901323
8257536	903094
8323072	904850
8388608	906591
8519680	910000
8650752	913343
8781824	916618
8912896	919827
9043968	922986
9175040	926067
9306112	929106
9437184	932074
9568256	934993
9699328	937851
9830400	940659
9961472	943425
10092544	946136
10223616	948813
10354688	951432
10485760	954013
10616832	956549
10747904	959049
10878976	961508
11010048	963926
11141120	966315
11272192	968659
11403264	970975
11534336	973253
11665408	975501
11796480	977718
11927552	979904
12058624	982063
12189696	984182
12320768	986282
12451840	988352
12582912	990398
12713984	992415
12845056	994408
12976128	996378
13107200	998323
13238272	1.00025e+06
13369344	1.00215e+06
13500416	1.00403e+06
13631488	1.00589e+06
13762560	1.00773e+06
13893632	1.00955e+06
14024704	1.01135e+06
14155776	1.01314e+06
14286848	1.0149e+06
14417920	1.01664e+06
14548992	1.01837e+06
14680064	1.02008e+06
14811136	1.02177e+06
14942208	1.02345e+06
15073280	1.02511e+06
15204352	1.02676e+06
15335424	1.02839e+06
15466496	1.03e+06
15597568	1.0316e+06
15728640	1.03318e+06
15859712	1.03475e+06
15990784	1.03631e+06
16121856	1.03785e+06
16252928	1.03938e+06
16384000	1.04089e+06
16515072	1.0424e+06
16646144	1.04389e+06
16777216	1.04537e+06
17039360	1.04829e+06
17301504	1.05116e+06
17563648	1.05398e+06
17825792	1.05676e+06
18087936	1.05949e+06
18350080	1.06217e+06
18612224	1.06481e+06
18874368	1.06742e+06
19136512	1.06998e+06
19398656	1.07251e+06
19660800	1.07498e+06
19922944	1.07743e+06
20185088	1.07983e+06
20447232	1.0822e+06
20709376	1.08454e+06
20971520	1.08684e+06
21233664	1.08911e+06
21495808	1.09135e+06
21757952	1.09355e+06
22020096	1.09573e+06
22282240	1.09788e+06
22544384	1.1e+06
22806528	1.10209e+06
23068672	1.10416e+06
23330816	1.1062e+06
23592960	1.10822e+06
23855104	1.11021e+06
24117248	1.11218e+06
24379392	1.11412e+06
24641536	1.11604e+06
24903680	1.11794e+06
25165824	1.11983e+06
25427968	1.12168e+06
25690112	1.12352e+06
25952256	1.12534e+06
26214400	1.12714e+06
26476544	1.12893e+06
26738688	1.1307e+06
27000832	1.13245e+06
27262976	1.13418e+06
27525120	1.13589e+06
27787264	1.13758e+06
28049408	1.13925e+06
28311552	1.14091e+06
28573696	1.14256e+06
28835840	1.14419e+06
29097984	1.14581e+06
29360128	1.14741e+06
29622272	1.14899e+06
29884416	1.15055e+06
30146560	1.1521e+06
30408704	1.15363e+06
30670848	1.15515e+06
30932992	1.15665e+06
31195136	1.15815e+06
31457280	1.15963e+06
31719424	1.16109e+06
31981568	1.16255e+06
32243712	1.16399e+06
32505856	1.16542e+06
32768000	1.16685e+06
33030144	1.16826e+06
33292288	1.16966e+06
33554432	1.17105e+06
34078720	1.17378e+06
34603008	1.17647e+06
35127296	1.17912e+06
35651584	1.18173e+06
36175872	1.18429e+06
36700160	1.1868e+06
37224448	1.18928e+06
37748736	1.19172e+06
38273024	1.19412e+06
38797312	1.1965e+06
39321600	1.19883e+06
39845888	1.20114e+06
40370176	1.20341e+06
40894464	1.20564e+06
41418752	1.20786e+06
41943040	1.21005e+06
42467328	1.21221e+06
42991616	1.21435e+06
43515904	1.21648e+06
44040192	1.21858e+06
44564480	1.22067e+06
45088768	1.22273e+06
45613056	1.22475e+06
46137344	1.22674e+06
46661632	1.22872e+06
47185920	1.23069e+06
47710208	1.23263e+06
48234496	1.23455e+06
48758784	1.23645e+06
49283072	1.23833e+06
49807360	1.2402e+06
50331648	1.24203e+06
50855936	1.24383e+06
51380224	1.24562e+06
51904512	1.24737e+06
52428800	1.24908e+06
52953088	1.25073e+06
53477376	1.25239e+06
54001664	1.25405e+06
54525952	1.25572e+06
55050240	1.25738e+06
55574528	1.25905e+06
56098816	1.26067e+06
56623104	1.26229e+06
57147392	1.26385e+06
57671680	1.26544e+06
58195968	1.267e+06
58720256	1.26862e+06
59244544	1.27044e+06
59768832	1.27239e+06
60293120	1.27553e+06
60817408	1.28714e+06
61341696	1.28714e+06
61865984	1.28714e+06
62390272	1.28714e+06
62914560	1.28714e+06
63438848	1.28714e+06
63963136	1.28714e+06
64487424	1.28714e+06
65011712	1.28714e+06
65536000	1.28714e+06
66060288	1.28714e+06
66584576	1.28714e+06
67108864	1.28714e+06
68157440	1.28714e+06
69206016	1.28714e+06
70254592	1.28714e+06
71303168	1.28714e+06
72351744	1.28714e+06
73400320	1.28714e+06
74448896	1.28714e+06
75497472	1.28714e+06
76546048	1.28714e+06
77594624	1.28714e+06
78643200	1.28714e+06
79691776	1.28714e+06
80740352	1.28714e+06
81788928	1.28714e+06
82837504	1.28714e+06
83886080	1.28714e+06
84934656	1.28714e+06
85983232	1.28714e+06
87031808	1.28714e+06
88080384	1.28714e+06
89128960	1.28714e+06
90177536	1.28714e+06
91226112	1.28714e+06
92274688	1.28714e+06
93323264	1.28714e+06
94371840	1.28714e+06
95420416	1.28714e+06
96468992	1.28714e+06
97517568	1.28714e+06
98566144	1.28714e+06
99614720	1.28714e+06
100663296	1.28714e+06
101711872	1.28714e+06
102760448	1.28714e+06
103809024	1.28714e+06
104857600	1.28714e+06
105906176	1.28714e+06
106954752	1.28714e+06
108003328	1.28714e+06
109051904	1.28714e+06
110100480	1.28714e+06
111149056	1.28714e+06
112197632	1.28714e+06
113246208	1.28714e+06
114294784	1.28714e+06
115343360	1.28714e+06
116391936	1.28714e+06
117440512	1.28714e+06
118489088	1.28714e+06
119537664	1.28714e+06
120586240	1.28714e+06
121634816	1.28714e+06
122683392	1.28714e+06
123731968	1.28714e+06
124780544	1.28714e+06
125829120	1.28714e+06
126877696	1.28714e+06
127926272	1.28714e+06
128974848	1.28714e+06
130023424	1.28714e+06
131072000	1.28714e+06
132120576	1.28714e+06
133169152	1.28714e+06
134217728	1.28714e+06
136314880	1.28714e+06
138412032	1.28714e+06
140509184	1.28714e+06
142606336	1.28714e+06
144703488	1.28714e+06
146800640	1.28714e+06
148897792	1.28714e+06
150994944	1.28714e+06
153092096	1.28714e+06
155189248	1.28714e+06
157286400	1.28714e+06
159383552	1.28714e+06
161480704	1.28714e+06
163577856	1.28714e+06
165675008	1.28714e+06
167772160	1.28714e+06
169869312	1.28714e+06
171966464	1.28714e+06
174063616	1.28714e+06
176160768	1.28714e+06
178257920	1.28714e+06
180355072	1.28714e+06
182452224	1.28714e+06
184549376	1.28714e+06
186646528	1.28714e+06
188743680	1.28714e+06
190840832	1.28714e+06
192937984	1.28714e+06
195035136	1.28714e+06
197132288	1.28714e+06
199229440	1.28714e+06
201326592	1.28714e+06
203423744	1.28714e+06
205520896	1.28714e+06
207618048	1.28714e+06
209715200	1.28714e+06
211812352	1.28714e+06
213909504	1.28714e+06
216006656	1.28714e+06
218103808	1.28714e+06
220200960	1.28714e+06
222298112	1.28714e+06
224395264	1.28714e+06
226492416	1.28714e+06
228589568	1.28714e+06
230686720	1.28714e+06
232783872	1.28714e+06
234881024	1.28714e+06
236978176	1.28714e+06
239075328	1.28714e+06
241172480	1.28714e+06
243269632	1.28714e+06
245366784	1.28714e+06
247463936	1.28714e+06
249561088	1.28714e+06
251658240	1.28714e+06
253755392	1.28714e+06
255852544	1.28714e+06
257949696	1.28714e+06
260046848	1.28714e+06
262144000	1.28714e+06
264241152	1.28714e+06
266338304	1.28714e+06
268435456	1.28714e+06
272629760	1.28714e+06
276824064	1.28714e+06
281018368	1.28714e+06
285212672	1.28714e+06
289406976	1.28714e+06
293601280	1.28714e+06
297795584	1.28714e+06
301989888	1.28714e+06
306184192	1.28714e+06
310378496	1.28714e+06
314572800	1.28714e+06
318767104	1.28714e+06
322961408	1.28714e+06
327155712	1.28714e+06
331350016	1.28714e+06
335544320	1.28714e+06
339738624	1.28714e+06
343932928	1.28714e+06
348127232	1.28714e+06
352321536	1.28714e+06
356515840	1.28714e+06
360710144	1.28714e+06
364904448	1.28714e+06
369098752	1.28714e+06
373293056	1.28714e+06
377487360	1.28714e+06
381681664	1.28714e+06
385875968	1.28714e+06
390070272	1.28714e+06
394264576	1.28714e+06
398458880	1.28714e+06
402653184	1.28714e+06
406847488	1.28714e+06
411041792	1.28714e+06
415236096	1.28714e+06
419430400	1.28714e+06
423624704	1.28714e+06
427819008	1.28714e+06
432013312	1.28714e+06
436207616	1.28714e+06
440401920	1.28714e+06
444596224	1.28714e+06
448790528	1.28714e+06
452984832	1.28714e+06
457179136	1.28714e+06
461373440	1.28714e+06
465567744	1.28714e+06
469762048	1.28714e+06
473956352	1.28714e+06
478150656	1.28714e+06
482344960	1.28714e+06
486539264	1.28714e+06
490733568	1.28714e+06
494927872	1.28714e+06
499122176	1.28714e+06
503316480	1.28714e+06
507510784	1.28714e+06
511705088	1.28714e+06
515899392	1.28714e+06
520093696	1.28714e+06
524288000	1.28714e+06
528482304	1.28714e+06
532676608	1.28714e+06
536870912	1.28714e+06
545259520	1.28714e+06
553648128	1.28714e+06
562036736	1.28714e+06
570425344	1.28714e+06
578813952	1.28714e+06
587202560	1.28714e+06
595591168	1.28714e+06
603979776	1.28714e+06
612368384	1.28714e+06
620756992	1.28714e+06
629145600	1.28714e+06
637534208	1.28714e+06
645922816	1.28714e+06
654311424	1.28714e+06
662700032	1.28714e+06
671088640	1.28714e+06
679477248	1.28714e+06
687865856	1.28714e+06
696254464	1.28714e+06
704643072	1.28714e+06
713031680	1.28714e+06
721420288	1.28714e+06
729808896	1.28714e+06
738197504	1.28714e+06
746586112	1.28714e+06
754974720	1.28714e+06
763363328	1.28714e+06
771751936	1.28714e+06
780140544	1.28714e+06
788529152	1.28714e+06
796917760	1.28714e+06
805306368	1.28714e+06
813694976	1.28714e+06
822083584	1.28714e+06
830472192	1.28714e+06
838860800	1.28714e+06
847249408	1.28714e+06
855638016	1.28714e+06
864026624	1.28714e+06
872415232	1.28714e+06
880803840	1.28714e+06
889192448	1.28714e+06
897581056	1.28714e+06
905969664	1.28714e+06
914358272	1.28714e+06
922746880	1.28714e+06
931135488	1.28714e+06
939524096	1.28714e+06
947912704	1.28714e+06
956301312	1.28714e+06
964689920	1.28714e+06
973078528	1.28714e+06
981467136	1.28714e+06
989855744	1.28714e+06
998244352	1.28714e+06
1006632960	1.28714e+06
1015021568	1.28714e+06
1023410176	1.28714e+06
1031798784	1.28714e+06
1040187392	1.28714e+06
1048576000	1.28714e+06
1056964608	1.28714e+06
1065353216	1.28714e+06
1073741824	1.28714e+06
1090519040	1.28714e+06
1107296256	1.28714e+06
1124073472	1.28714e+06
1140850688	1.28714e+06
1157627904	1.28714e+06
1174405120	1.28714e+06
1191182336	1.28714e+06
1207959552	1.28714e+06
1224736768	1.28714e+06
1241513984	1.28714e+06
1258291200	1.28714e+06
1275068416	1.28714e+06
1291845632	1.28714e+06
1308622848	1.28714e+06
1325400064	1.28714e+06
1342177280	1.28714e+06
1358954496	1.28714e+06
1375731712	1.28714e+06
1392508928	1.28714e+06
1409286144	1.28714e+06
1426063360	1.28714e+06
1442840576	1.28714e+06
1459617792	1.28714e+06
1476395008	1.28714e+06
1493172224	1.28714e+06
1509949440	1.28714e+06
1526726656	1.28714e+06
1543503872	1.28714e+06
1560281088	1.28714e+06
1577058304	1.28714e+06
1593835520	1.28714e+06
1610612736	1.28714e+06
1627389952	1.28714e+06
1644167168	1.28714e+06
1660944384	1.28714e+06
1677721600	1.28714e+06
1694498816	1.28714e+06
1711276032	1.28714e+06
1728053248	1.28714e+06
1744830464	1.28714e+06
1761607680	1.28714e+06
1778384896	1.28714e+06
1795162112	1.28714e+06
1811939328	1.28714e+06
1828716544	1.28714e+06
1845493760	1.28714e+06
1862270976	1.28714e+06
1879048192	1.28714e+06
1895825408	1.28714e+06
1912602624	1.28714e+06
1929379840	1.28714e+06
1946157056	1.28714e+06
1962934272	1.28714e+06
1979711488	1.28714e+06
1996488704	1.28714e+06
2013265920	1.28714e+06
2030043136	1.28714e+06
2046820352	1.28714e+06
2063597568	1.28714e+06
2080374784	1.28714e+06
2097152000	1.28714e+06
2113929216	1.28714e+06
2130706432	1.28714e+06
2147483648	1.28714e+06
2181038080	1.28714e+06
2214592512	1.28714e+06
2248146944	1.28714e+06
2281701376	1.28714e+06
2315255808	1.28714e+06
2348810240	1.28714e+06
2382364672	1.28714e+06
2415919104	1.28714e+06
2449473536	1.28714e+06
2483027968	1.28714e+06
2516582400	1.28714e+06
2550136832	1.28714e+06
2583691264	1.28714e+06
2617245696	1.28714e+06
2650800128	1.28714e+06
2684354560	1.28714e+06
2717908992	1.28714e+06
2751463424	1.28714e+06
2785017856	1.28714e+06
2818572288	1.28714e+06
2852126720	1.28714e+06
2885681152	1.28714e+06
2919235584	1.28714e+06
2952790016	1.28714e+06
2986344448	1.28714e+06
3019898880	1.28714e+06
3053453312	1.28714e+06
3087007744	1.28714e+06
3120562176	1.28714e+06
3154116608	1.28714e+06
3187671040	1.28714e+06
3221225472	1.28714e+06
3254779904	1.28714e+06
3288334336	1.28714e+06
3321888768	1.28714e+06
3355443200	1.28714e+06
3388997632	1.28714e+06
3422552064	1.28714e+06
3456106496	1.28714e+06
3489660928	1.28714e+06
3523215360	1.28714e+06
3556769792	1.28714e+06
3590324224	1.28714e+06
3623878656	1.28714e+06
3657433088	1.28714e+06
3690987520	1.28714e+06
3724541952	1.28714e+06
3758096384	1.28714e+06
3791650816	1.28714e+06
3825205248	1.28714e+06
3858759680	1.28714e+06
3892314112	1.28714e+06
3925868544	1.28714e+06
3959422976	1.28714e+06
3992977408	1.28714e+06
4026531840	1.28714e+06
4060086272	1.28714e+06
4093640704	1.28714e+06
4127195136	1.28714e+06
4160749568	1.28714e+06
4194304000	1.28714e+06
4227858432	1.28714e+06
4261412864	1.28714e+06
4294967296	1.28714e+06
4362076160	1.28714e+06
4429185024	1.28714e+06
4496293888	1.28714e+06
4563402752	1.28714e+06
4630511616	1.28714e+06
4697620480	1.28714e+06
4764729344	1.28714e+06
4831838208	1.28714e+06
4898947072	1.28714e+06
4966055936	1.28714e+06
5033164800	1.28714e+06
5100273664	1.28714e+06
5167382528	1.28714e+06
5234491392	1.28714e+06
5301600256	1.28714e+06
5368709120	1.28714e+06
5435817984	1.28714e+06
5502926848	1.28714e+06
5570035712	1.28714e+06
5637144576	1.28714e+06
5704253440	1.28714e+06
5771362304	1.28714e+06
5838471168	1.28714e+06
5905580032	1.28714e+06
5972688896	1.28714e+06
6039797760	1.28714e+06
6106906624	1.28714e+06
6174015488	1.28714e+06
6241124352	1.28714e+06
6308233216	1.28714e+06
6375342080	1.28714e+06
6442450944	1.28714e+06
6509559808	1.28714e+06
6576668672	1.28714e+06
6643777536	1.28714e+06
6710886400	1.28714e+06
6777995264	1.28714e+06
6845104128	1.28714e+06
6912212992	1.28714e+06
6979321856	1.28714e+06
7046430720	1.28714e+06
7113539584	1.28714e+06
7180648448	1.28714e+06
7247757312	1.28714e+06
7314866176	1.28714e+06
7381975040	1.28714e+06
7449083904	1.28714e+06
7516192768	1.28714e+06
7583301632	1.28714e+06
7650410496	1.28714e+06
7717519360	1.28714e+06
7784628224	1.28714e+06
7851737088	1.28714e+06
7918845952	1.28714e+06
7985954816	1.28714e+06
8053063680	1.28714e+06
8120172544	1.28714e+06
8187281408	1.28714e+06
8254390272	1.28714e+06
8321499136	1.28714e+06
8388608000	1.28714e+06
8455716864	1.28714e+06
8522825728	1.28714e+06
8589934592	1.28714e+06
8724152320	1.28714e+06
8858370048	1.28714e+06
8992587776	1.28714e+06
9126805504	1.28714e+06
9261023232	1.28714e+06
9395240960	1.28714e+06
9529458688	1.28714e+06
9663676416	1.28714e+06
9797894144	1.28714e+06
9932111872	1.28714e+06
10066329600	1.28714e+06
10200547328	1.28714e+06
10334765056	1.28714e+06
10468982784	1.28714e+06
10603200512	1.28714e+06
10737418240	1.28714e+06
10871635968	1.28714e+06
11005853696	1.28714e+06
11140071424	1.28714e+06
11274289152	1.28714e+06
11408506880	1.28714e+06
11542724608	1.28714e+06
11676942336	1.28714e+06
11811160064	1.28714e+06
11945377792	1.28714e+06
12079595520	1.28714e+06
12213813248	1.28714e+06
12348030976	1.28714e+06
12482248704	1.28714e+06
12616466432	1.28714e+06
12750684160	1.28714e+06
12884901888	1.28714e+06
13019119616	1.28714e+06
13153337344	1.28714e+06
13287555072	1.28714e+06
13421772800	1.28714e+06
13555990528	1.28714e+06
13690208256	1.28714e+06
13824425984	1.28714e+06
13958643712	1.28714e+06
14092861440	1.28714e+06
14227079168	1.28714e+06
14361296896	1.28714e+06
14495514624	1.28714e+06
14629732352	1.28714e+06
14763950080	1.28714e+06
14898167808	1.28714e+06
15032385536	1.28714e+06
15166603264	1.28714e+06
15300820992	1.28714e+06
15435038720	1.28714e+06
15569256448	1.28714e+06
15703474176	1.28714e+06
15837691904	1.28714e+06
15971909632	1.28714e+06
16106127360	1.28714e+06
16240345088	1.28714e+06
16374562816	1.28714e+06
16508780544	1.28714e+06
16642998272	1.28714e+06
16777216000	1.28714e+06
16911433728	1.28714e+06
17045651456	1.28714e+06
17179869184	1.28714e+06
17448304640	1.28714e+06
17716740096	1.28714e+06
17985175552	1.28714e+06
18253611008	1.28714e+06
18522046464	1.28714e+06
18790481920	1.28714e+06
19058917376	1.28714e+06
19327352832	1.28714e+06
19595788288	1.28714e+06
19864223744	1.28714e+06
20132659200	1.28714e+06
20401094656	1.28714e+06
20669530112	1.28714e+06
20937965568	1.28714e+06
21206401024	1.28714e+06
21474836480	1.28714e+06
21743271936	1.28714e+06
22011707392	1.28714e+06
22280142848	1.28714e+06
22548578304	1.28714e+06
22817013760	1.28714e+06
23085449216	1.28714e+06
23353884672	1.28714e+06
23622320128	1.28714e+06
23890755584	1.28714e+06
24159191040	1.28714e+06
24427626496	1.28714e+06
24696061952	1.28714e+06
24964497408	1.28714e+06
25232932864	1.28714e+06
25501368320	1.28714e+06
25769803776	1.28714e+06
26038239232	1.28714e+06
26306674688	1.28714e+06
26575110144	1.28714e+06
26843545600	1.28714e+06
27111981056	1.28714e+06
27380416512	1.28714e+06
27648851968	1.28714e+06
27917287424	1.28714e+06
28185722880	1.28714e+06
28454158336	1.28714e+06
28722593792	1.28714e+06
28991029248	1.28714e+06
29259464704	1.28714e+06
29527900160	1.28714e+06
29796335616	1.28714e+06
30064771072	1.28714e+06
30333206528	1.28714e+06
30601641984	1.28714e+06
30870077440	1.28714e+06
31138512896	1.28714e+06
31406948352	1.28714e+06
31675383808	1.28714e+06
31943819264	1.28714e+06
32212254720	1.28714e+06
32480690176	1.28714e+06
32749125632	1.28714e+06
33017561088	1.28714e+06
33285996544	1.28714e+06
33554432000	1.28714e+06
33822867456	1.28714e+06
34091302912	1.28714e+06
34359738368	1.28714e+06
34896609280	1.28714e+06
35433480192	1.28714e+06
35970351104	1.28714e+06
36507222016	1.28714e+06
37044092928	1.28714e+06
37580963840	1.28714e+06
38117834752	1.28714e+06
38654705664	1.28714e+06
39191576576	1.28714e+06
39728447488	1.28714e+06
40265318400	1.28714e+06
40802189312	1.28714e+06
41339060224	1.28714e+06
41875931136	1.28714e+06
42412802048	1.28714e+06
42949672960	1.28714e+06
43486543872	1.28714e+06
44023414784	1.28714e+06
44560285696	1.28714e+06
45097156608	1.28714e+06
45634027520	1.28714e+06
46170898432	1.28714e+06
46707769344	1.28714e+06
47244640256	1.28714e+06
47781511168	1.28714e+06
48318382080	1.28714e+06
48855252992	1.28714e+06
49392123904	1.28714e+06
49928994816	1.28714e+06
50465865728	1.28714e+06
51002736640	1.28714e+06
51539607552	1.28714e+06
52076478464	1.28714e+06
52613349376	1.28714e+06
53150220288	1.28714e+06
53687091200	1.28714e+06
54223962112	1.28714e+06
54760833024	1.28714e+06
55297703936	1.28714e+06
55834574848	1.28714e+06
56371445760	1.28714e+06
56908316672	1.28714e+06
57445187584	1.28714e+06
57982058496	1.28714e+06
58518929408	1.28714e+06
59055800320	1.28714e+06
59592671232	1.28714e+06
60129542144	1.28714e+06
60666413056	1.28714e+06
61203283968	1.28714e+06
61740154880	1.28714e+06
62277025792	1.28714e+06
62813896704	1.28714e+06
63350767616	1.28714e+06
63887638528	1.28714e+06
64424509440	1.28714e+06
64961380352	1.28714e+06
65498251264	1.28714e+06
66035122176	1.28714e+06
66571993088	1.28714e+06
67108864000	1.28714e+06
67645734912	1.28714e+06
68182605824	1.28714e+06
68719476736	1.28714e+06
69793218560	1.28714e+06
70866960384	1.28714e+06
71940702208	1.28714e+06
73014444032	1.28714e+06
74088185856	1.28714e+06
75161927680	1.28714e+06
76235669504	1.28714e+06
77309411328	1.28714e+06
78383153152	1.28714e+06
79456894976	1.28714e+06
80530636800	1.28714e+06
81604378624	1.28714e+06
82678120448	1.28714e+06
83751862272	1.28714e+06
84825604096	1.28714e+06
85899345920	1.28714e+06
86973087744	1.28714e+06
88046829568	1.28714e+06
89120571392	1.28714e+06
90194313216	1.28714e+06
91268055040	1.28714e+06
92341796864	1.28714e+06
93415538688	1.28714e+06
94489280512	1.28714e+06
95563022336	1.28714e+06
96636764160	1.28714e+06
97710505984	1.28714e+06
98784247808	1.28714e+06
99857989632	1.28714e+06
100931731456	1.28714e+06
102005473280	1.28714e+06
103079215104	1.28714e+06
104152956928	1.28714e+06
105226698752	1.28714e+06
106300440576	1.28714e+06
107374182400	1.28714e+06
108447924224	1.28714e+06
109521666048	1.28714e+06
110595407872	1.28714e+06
111669149696	1.28714e+06
112742891520	1.28714e+06
113816633344	1.28714e+06
114890375168	1.28714e+06
115964116992	1.28714e+06
117037858816	1.28714e+06
118111600640	1.28714e+06
119185342464	1.28714e+06
120259084288	1.28714e+06
121332826112	1.28714e+06
122406567936	1.28714e+06
123480309760	1.28714e+06
124554051584	1.28714e+06
125627793408	1.28714e+06
126701535232	1.28714e+06
127775277056	1.28714e+06
128849018880	1.28714e+06
129922760704	1.28714e+06
130996502528	1.28714e+06
132070244352	1.28714e+06
133143986176	1.28714e+06
134217728000	1.28714e+06
135291469824	1.28714e+06
136365211648	1.28714e+06
137438953472	1.28714e+06
139586437120	1.28714e+06
141733920768	1.28714e+06
143881404416	1.28714e+06
146028888064	1.28714e+06
148176371712	1.28714e+06
150323855360	1.28714e+06
152471339008	1.28714e+06
154618822656	1.28714e+06
156766306304	1.28714e+06
158913789952	1.28714e+06
161061273600	1.28714e+06
163208757248	1.28714e+06
165356240896	1.28714e+06
167503724544	1.28714e+06
169651208192	1.28714e+06
171798691840	1.28714e+06
173946175488	1.28714e+06
176093659136	1.28714e+06
178241142784	1.28714e+06
180388626432	1.28714e+06
182536110080	1.28714e+06
184683593728	1.28714e+06
186831077376	1.28714e+06
188978561024	1.28714e+06
191126044672	1.28714e+06
193273528320	1.28714e+06
195421011968	1.28714e+06
197568495616	1.28714e+06
199715979264	1.28714e+06
201863462912	1.28714e+06
204010946560	1.28714e+06
206158430208	1.28714e+06
208305913856	1.28714e+06
210453397504	1.28714e+06
212600881152	1.28714e+06
214748364800	1.28714e+06
216895848448	1.28714e+06
219043332096	1.28714e+06
221190815744	1.28714e+06
223338299392	1.28714e+06
225485783040	1.28714e+06
227633266688	1.28714e+06
229780750336	1.28714e+06
231928233984	1.28714e+06
234075717632	1.28714e+06
236223201280	1.28714e+06
238370684928	1.28714e+06
240518168576	1.28714e+06
242665652224	1.28714e+06
244813135872	1.28714e+06
246960619520	1.28714e+06
249108103168	1.28714e+06
251255586816	1.28714e+06
253403070464	1.28714e+06
255550554112	1.28714e+06
257698037760	1.28714e+06
259845521408	1.28714e+06
261993005056	1.28714e+06
264140488704	1.28714e+06
266287972352	1.28714e+06
268435456000	1.28714e+06
270582939648	1.28714e+06
272730423296	1.28714e+06
274877906944	1.28714e+06
279172874240	1.28714e+06
283467841536	1.28714e+06
287762808832	1.28714e+06
292057776128	1.28714e+06
296352743424	1.28714e+06
300647710720	1.28714e+06
304942678016	1.28714e+06
309237645312	1.28714e+06
313532612608	1.28714e+06
317827579904	1.28714e+06
322122547200	1.28714e+06
326417514496	1.28714e+06
330712481792	1.28714e+06
335007449088	1.28714e+06
339302416384	1.28714e+06
343597383680	1.28714e+06
347892350976	1.28714e+06
352187318272	1.28714e+06
356482285568	1.28714e+06
360777252864	1.28714e+06
365072220160	1.28714e+06
369367187456	1.28714e+06
373662154752	1.28714e+06
377957122048	1.28714e+06
382252089344	1.28714e+06
386547056640	1.28714e+06
390842023936	1.28714e+06
395136991232	1.28714e+06
399431958528	1.28714e+06
403726925824	1.28714e+06
408021893120	1.28714e+06
412316860416	1.28714e+06
416611827712	1.28714e+06
420906795008	1.28714e+06
425201762304	1.28714e+06
429496729600	1.28714e+06
433791696896	1.28714e+06
438086664192	1.28714e+06
442381631488	1.28714e+06
446676598784	1.28714e+06
450971566080	1.28714e+06
455266533376	1.28714e+06
459561500672	1.28714e+06
463856467968	1.28714e+06
468151435264	1.28714e+06
472446402560	1.28714e+06
476741369856	1.28714e+06
481036337152	1.28714e+06
485331304448	1.28714e+06
489626271744	1.28714e+06
493921239040	1.28714e+06
498216206336	1.28714e+06
502511173632	1.28714e+06
506806140928	1.28714e+06
511101108224	1.28714e+06
515396075520	1.28714e+06
519691042816	1.28714e+06
523986010112	1.28714e+06
528280977408	1.28714e+06
532575944704	1.28714e+06
536870912000	1.28714e+06
541165879296	1.28714e+06
545460846592	1.28714e+06
549755813888	1.28714e+06
558345748480	1.28714e+06
566935683072	1.28714e+06
575525617664	1.28714e+06
584115552256	1.28714e+06
592705486848	1.28714e+06
601295421440	1.28714e+06
609885356032	1.28714e+06
618475290624	1.28714e+06
627065225216	1.28714e+06
635655159808	1.28714e+06
644245094400	1.28714e+06
652835028992	1.28714e+06
661424963584	1.28714e+06
670014898176	1.28714e+06
678604832768	1.28714e+06
687194767360	1.28714e+06
695784701952	1.28714e+06
704374636544	1.28714e+06
712964571136	1.28714e+06
721554505728	1.28714e+06
730144440320	1.28714e+06
738734374912	1.28714e+06
747324309504	1.28714e+06
755914244096	1.28714e+06
764504178688	1.28714e+06
773094113280	1.28714e+06
781684047872	1.28714e+06
790273982464	1.28714e+06
798863917056	1.28714e+06
807453851648	1.28714e+06
816043786240	1.28714e+06
824633720832	1.28714e+06
833223655424	1.28714e+06
841813590016	1.28714e+06
850403524608	1.28714e+06
858993459200	1.28714e+06
867583393792	1.28714e+06
876173328384	1.28714e+06
884763262976	1.28714e+06
893353197568	1.28714e+06
901943132160	1.28714e+06
910533066752	1.28714e+06
919123001344	1.28714e+06
927712935936	1.28714e+06
936302870528	1.28714e+06
944892805120	1.28714e+06
953482739712	1.28714e+06
962072674304	1.28714e+06
970662608896	1.28714e+06
979252543488	1.28714e+06
987842478080	1.28714e+06
996432412672	1.28714e+06
1005022347264	1.28714e+06
1013612281856	1.28714e+06
1022202216448	1.28714e+06
1030792151040	1.28714e+06
1039382085632	1.28714e+06
1047972020224	1.28714e+06
1056561954816	1.28714e+06
1065151889408	1.28714e+06
1073741824000	1.28714e+06
1082331758592	1.28714e+06
1090921693184	1.28714e+06
1099511627776	1.28714e+06
1116691496960	1.28714e+06
1133871366144	1.28714e+06
1151051235328	1.28714e+06
1168231104512	1.28714e+06
1185410973696	1.28714e+06
1202590842880	1.28714e+06
1219770712064	1.28714e+06
1236950581248	1.28714e+06
1254130450432	1.28714e+06
1271310319616	1.28714e+06
1288490188800	1.28714e+06
1305670057984	1.28714e+06
1322849927168	1.28714e+06
1340029796352	1.28714e+06
1357209665536	1.28714e+06
1374389534720	1.28714e+06
1391569403904	1.28714e+06
1408749273088	1.28714e+06
1425929142272	1.28714e+06
1443109011456	1.28714e+06
1460288880640	1.28714e+06
1477468749824	1.28714e+06
1494648619008	1.28714e+06
1511828488192	1.28714e+06
1529008357376	1.28714e+06
1546188226560	1.28714e+06
1563368095744	1.28714e+06
1580547964928	1.28714e+06
1597727834112	1.28714e+06
1614907703296	1.28714e+06
1632087572480	1.28714e+06
1649267441664	1.28714e+06
1666447310848	1.28714e+06
1683627180032	1.28714e+06
1700807049216	1.28714e+06
1717986918400	1.28714e+06
1735166787584	1.28714e+06
1752346656768	1.28714e+06
1769526525952	1.28714e+06
1786706395136	1.28714e+06
1803886264320	1.28714e+06
1821066133504	1.28714e+06
1838246002688	1.28714e+06
1855425871872	1.28714e+06
1872605741056	1.28714e+06
1889785610240	1.28714e+06
1906965479424	1.28714e+06
1924145348608	1.28714e+06
1941325217792	1.28714e+06
1958505086976	1.28714e+06
1975684956160	1.28714e+06
1992864825344	1.28714e+06
2010044694528	1.28714e+06
2027224563712	1.28714e+06
2044404432896	1.28714e+06
2061584302080	1.28714e+06
2078764171264	1.28714e+06
2095944040448	1.28714e+06
2113123909632	1.28714e+06
2130303778816	1.28714e+06
2147483648000	1.28714e+06
2164663517184	1.28714e+06
2181843386368	1.28714e+06
2199023255552	1.28714e+06
2233382993920	1.28714e+06
2267742732288	1.28714e+06
2302102470656	1.28714e+06
2336462209024	1.28714e+06
2370821947392	1.28714e+06
2405181685760	1.28714e+06
2439541424128	1.28714e+06
2473901162496	1.28714e+06
2508260900864	1.28714e+06
2542620639232	1.28714e+06
2576980377600	1.28714e+06
2611340115968	1.28714e+06
2645699854336	1.28714e+06
2680059592704	1.28714e+06
2714419331072	1.28714e+06
2748779069440	1.28714e+06
2783138807808	1.28714e+06
2817498546176	1.28714e+06
2851858284544	1.28714e+06
2886218022912	1.28714e+06
2920577761280	1.28714e+06
2954937499648	1.28714e+06
2989297238016	1.28714e+06
3023656976384	1.28714e+06
3058016714752	1.28714e+06
3092376453120	1.28714e+06
3126736191488	1.28714e+06
3161095929856	1.28714e+06
3195455668224	1.28714e+06
3229815406592	1.28714e+06
3264175144960	1.28714e+06
3298534883328	1.28714e+06
3332894621696	1.28714e+06
3367254360064	1.28714e+06
3401614098432	1.28714e+06
3435973836800	1.28714e+06
3470333575168	1.28714e+06
3504693313536	1.28714e+06
3539053051904	1.28714e+06
3573412790272	1.28714e+06
3607772528640	1.28714e+06
3642132267008	1.28714e+06
3676492005376	1.28714e+06
3710851743744	1.28714e+06
3745211482112	1.28714e+06
3779571220480	1.28714e+06
3813930958848	1.28714e+06
3848290697216	1.28714e+06
3882650435584	1.28714e+06
3917010173952	1.28714e+06
3951369912320	1.28714e+06
3985729650688	1.28714e+06
4020089389056	1.28714e+06
4054449127424	1.28714e+06
4088808865792	1.28714e+06
4123168604160	1.28714e+06
4157528342528	1.28714e+06
4191888080896	1.28714e+06
4226247819264	1.28714e+06
4260607557632	1.28714e+06
4294967296000	1.28714e+06
4329327034368	1.28714e+06
4363686772736	1.28714e+06
4398046511104	1.28714e+06
4466765987840	1.28714e+06
4535485464576	1.28714e+06
4604204941312	1.28714e+06
4672924418048	1.28714e+06
4741643894784	1.28714e+06
4810363371520	1.28714e+06
4879082848256	1.28714e+06
4947802324992	1.28714e+06
5016521801728	1.28714e+06
5085241278464	1.28714e+06
5153960755200	1.28714e+06
5222680231936	1.28714e+06
5291399708672	1.28714e+06
5360119185408	1.28714e+06
5428838662144	1.28714e+06
5497558138880	1.28714e+06
5566277615616	1.28714e+06
5634997092352	1.28714e+06
5703716569088	1.28714e+06
5772436045824	1.28714e+06
5841155522560	1.28714e+06
5909874999296	1.28714e+06
5978594476032	1.28714e+06
6047313952768	1.28714e+06
6116033429504	1.28714e+06
6184752906240	1.28714e+06
6253472382976	1.28714e+06
6322191859712	1.28714e+06
6390911336448	1.28714e+06
6459630813184	1.28714e+06
6528350289920	1.28714e+06
6597069766656	1.28714e+06
6665789243392	1.28714e+06
6734508720128	1.28714e+06
6803228196864	1.28714e+06
6871947673600	1.28714e+06
6940667150336	1.28714e+06
7009386627072	1.28714e+06
7078106103808	1.28714e+06
7146825580544	1.28714e+06
7215545057280	1.28714e+06
7284264534016	1.28714e+06
7352984010752	1.28714e+06
7421703487488	1.28714e+06
7490422964224	1.28714e+06
7559142440960	1.28714e+06
7627861917696	1.28714e+06
7696581394432	1.28714e+06
7765300871168	1.28714e+06
7834020347904	1.28714e+06
7902739824640	1.28714e+06
7971459301376	1.28714e+06
8040178778112	1.28714e+06
8108898254848	1.28714e+06
8177617731584	1.28714e+06
8246337208320	1.28714e+06
8315056685056	1.28714e+06
8383776161792	1.28714e+06
8452495638528	1.28714e+06
8521215115264	1.28714e+06
8589934592000	1.28714e+06
8658654068736	1.28714e+06
8727373545472	1.28714e+06
8796093022208	1.28714e+06
8933531975680	1.28714e+06
9070970929152	1.28714e+06
9208409882624	1.28714e+06
9345848836096	1.28714e+06
9483287789568	1.28714e+06
9620726743040	1.28714e+06
9758165696512	1.28714e+06
9895604649984	1.28714e+06
10033043603456	1.28714e+06
10170482556928	1.28714e+06
10307921510400	1.28714e+06
10445360463872	1.28714e+06
10582799417344	1.28714e+06
10720238370816	1.28714e+06
10857677324288	1.28714e+06
10995116277760	1.28714e+06
11132555231232	1.28714e+06
11269994184704	1.28714e+06
11407433138176	1.28714e+06
11544872091648	1.28714e+06
11682311045120	1.28714e+06
11819749998592	1.28714e+06
11957188952064	1.28714e+06
12094627905536	1.28714e+06
12232066859008	1.28714e+06
12369505812480	1.28714e+06
12506944765952	1.28714e+06
12644383719424	1.28714e+06
12781822672896	1.28714e+06
12919261626368	1.28714e+06
13056700579840	1.28714e+06
13194139533312	1.28714e+06
13331578486784	1.28714e+06
13469017440256	1.28714e+06
13606456393728	1.28714e+06
13743895347200	1.28714e+06
13881334300672	1.28714e+06
14018773254144	1.28714e+06
14156212207616	1.28714e+06
14293651161088	1.28714e+06
14431090114560	1.28714e+06
14568529068032	1.28714e+06
14705968021504	1.28714e+06
14843406974976	1.28714e+06
14980845928448	1.28714e+06
15118284881920	1.28714e+06
15255723835392	1.28714e+06
15393162788864	1.28714e+06
15530601742336	1.28714e+06
15668040695808	1.28714e+06
15805479649280	1.28714e+06
15942918602752	1.28714e+06
16080357556224	1.28714e+06
16217796509696	1.28714e+06
16355235463168	1.28714e+06
16492674416640	1.28714e+06
16630113370112	1.28714e+06
16767552323584	1.28714e+06
16904991277056	1.28714e+06
17042430230528	1.28714e+06
17179869184000	1.28714e+06
17317308137472	1.28714e+06
17454747090944	1.28714e+06
17592186044416	1.28714e+06
17867063951360	1.28714e+06
18141941858304	1.28714e+06
18416819765248	1.28714e+06
18691697672192	1.28714e+06
18966575579136	1.28714e+06
19241453486080	1.28714e+06
19516331393024	1.28714e+06
19791209299968	1.28714e+06
20066087206912	1.28714e+06
20340965113856	1.28714e+06
20615843020800	1.28714e+06
20890720927744	1.28714e+06
21165598834688	1.28714e+06
21440476741632	1.28714e+06
21715354648576	1.28714e+06
21990232555520	1.28714e+06
22265110462464	1.28714e+06
22539988369408	1.28714e+06
22814866276352	1.28714e+06
23089744183296	1.28714e+06
23364622090240	1.28714e+06
23639499997184	1.28714e+06
23914377904128	1.28714e+06
24189255811072	1.28714e+06
24464133718016	1.28714e+06
24739011624960	1.28714e+06
25013889531904	1.28714e+06
25288767438848	1.28714e+06
25563645345792	1.28714e+06
25838523252736	1.28714e+06
26113401159680	1.28714e+06
26388279066624	1.28714e+06
26663156973568	1.28714e+06
26938034880512	1.28714e+06
27212912787456	1.28714e+06
27487790694400	1.28714e+06
27762668601344	1.28714e+06
28037546508288	1.28714e+06
28312424415232	1.28714e+06
28587302322176	1.28714e+06
28862180229120	1.28714e+06
29137058136064	1.28714e+06
29411936043008	1.28714e+06
29686813949952	1.28714e+06
29961691856896	1.28714e+06
30236569763840	1.28714e+06
30511447670784	1.28714e+06
30786325577728	1.28714e+06
31061203484672	1.28714e+06
31336081391616	1.28714e+06
31610959298560	1.28714e+06
31885837205504	1.28714e+06
32160715112448	1.28714e+06
32435593019392	1.28714e+06
32710470926336	1.28714e+06
32985348833280	1.28714e+06
33260226740224	1.28714e+06
33535104647168	1.28714e+06
33809982554112	1.28714e+06
34084860461056	1.28714e+06
34359738368000	1.28714e+06
34634616274944	1.28714e+06
34909494181888	1.28714e+06
35184372088832	1.28714e+06
35734127902720	1.28714e+06
36283883716608	1.28714e+06
36833639530496	1.28714e+06
37383395344384	1.28714e+06
37933151158272	1.28714e+06
38482906972160	1.28714e+06
39032662786048	1.28714e+06
39582418599936	1.28714e+06
40132174413824	1.28714e+06
40681930227712	1.28714e+06
41231686041600	1.28714e+06
41781441855488	1.28714e+06
42331197669376	1.28714e+06
42880953483264	1.28714e+06
43430709297152	1.28714e+06
43980465111040	1.28714e+06
44530220924928	1.28714e+06
45079976738816	1.28714e+06
45629732552704	1.28714e+06
46179488366592	1.28714e+06
46729244180480	1.28714e+06
47278999994368	1.28714e+06
47828755808256	1.28714e+06
48378511622144	1.28714e+06
48928267436032	1.28714e+06
49478023249920	1.28714e+06
50027779063808	1.28714e+06
50577534877696	1.28714e+06
51127290691584	1.28714e+06
51677046505472	1.28714e+06
52226802319360	1.28714e+06
52776558133248	1.28714e+06
53326313947136	1.28714e+06
53876069761024	1.28714e+06
54425825574912	1.28714e+06
54975581388800	1.28714e+06
55525337202688	1.28714e+06
56075093016576	1.28714e+06
56624848830464	1.28714e+06
57174604644352	1.28714e+06
57724360458240	1.28714e+06
58274116272128	1.28714e+06
58823872086016	1.28714e+06
59373627899904	1.28714e+06
59923383713792	1.28714e+06
60473139527680	1.28714e+06
61022895341568	1.28714e+06
61572651155456	1.28714e+06
62122406969344	1.28714e+06
62672162783232	1.28714e+06
63221918597120	1.28714e+06
63771674411008	1.28714e+06
64321430224896	1.28714e+06
64871186038784	1.28714e+06
65420941852672	1.28714e+06
65970697666560	1.28714e+06
66520453480448	1.28714e+06
67070209294336	1.28714e+06
67619965108224	1.28714e+06
68169720922112	1.28714e+06
68719476736000	1.28714e+06
69269232549888	1.28714e+06
69818988363776	1.28714e+06
70368744177664	1.28714e+06
71468255805440	1.28714e+06
72567767433216	1.28714e+06
73667279060992	1.28714e+06
74766790688768	1.28714e+06
75866302316544	1.28714e+06
76965813944320	1.28714e+06
78065325572096	1.28714e+06
79164837199872	1.28714e+06
80264348827648	1.28714e+06
81363860455424	1.28714e+06
82463372083200	1.28714e+06
83562883710976	1.28714e+06
84662395338752	1.28714e+06
85761906966528	1.28714e+06
86861418594304	1.28714e+06
87960930222080	1.28714e+06
89060441849856	1.28714e+06
90159953477632	1.28714e+06
91259465105408	1.28714e+06
92358976733184	1.28714e+06
93458488360960	1.28714e+06
94557999988736	1.28714e+06
95657511616512	1.28714e+06
96757023244288	1.28714e+06
97856534872064	1.28714e+06
98956046499840	1.28714e+06
100055558127616	1.28714e+06
101155069755392	1.28714e+06
102254581383168	1.28714e+06
103354093010944	1.28714e+06
104453604638720	1.28714e+06
105553116266496	1.28714e+06
106652627894272	1.28714e+06
107752139522048	1.28714e+06
108851651149824	1.28714e+06
109951162777600	1.28714e+06
111050674405376	1.28714e+06
112150186033152	1.28714e+06
113249697660928	1.28714e+06
114349209288704	1.28714e+06
115448720916480	1.28714e+06
116548232544256	1.28714e+06
117647744172032	1.28714e+06
118747255799808	1.28714e+06
119846767427584	1.28714e+06
120946279055360	1.28714e+06
122045790683136	1.28714e+06
123145302310912	1.28714e+06
124244813938688	1.28714e+06
125344325566464	1.28714e+06
126443837194240	1.28714e+06
127543348822016	1.28714e+06
128642860449792	1.28714e+06
129742372077568	1.28714e+06
130841883705344	1.28714e+06
131941395333120	1.28714e+06
133040906960896	1.28714e+06
134140418588672	1.28714e+06
135239930216448	1.28714e+06
136339441844224	1.28714e+06
137438953472000	1.28714e+06
138538465099776	1.28714e+06
139637976727552	1.28714e+06
140737488355328	1.28714e+06
142936511610880	1.28714e+06
145135534866432	1.28714e+06
147334558121984	1.28714e+06
149533581377536	1.28714e+06
151732604633088	1.28714e+06
153931627888640	1.28714e+06
156130651144192	1.28714e+06
158329674399744	1.28714e+06
160528697655296	1.28714e+06
162727720910848	1.28714e+06
164926744166400	1.28714e+06
167125767421952	1.28714e+06
169324790677504	1.28714e+06
171523813933056	1.28714e+06
173722837188608	1.28714e+06
175921860444160	1.28714e+06
178120883699712	1.28714e+06
180319906955264	1.28714e+06
182518930210816	1.28714e+06
184717953466368	1.28714e+06
186916976721920	1.28714e+06
189115999977472	1.28714e+06
191315023233024	1.28714e+06
193514046488576	1.28714e+06
195713069744128	1.28714e+06
197912092999680	1.28714e+06
200111116255232	1.28714e+06
202310139510784	1.28714e+06
204509162766336	1.28714e+06
206708186021888	1.28714e+06
208907209277440	1.28714e+06
211106232532992	1.28714e+06
213305255788544	1.28714e+06
215504279044096	1.28714e+06
217703302299648	1.28714e+06
219902325555200	1.28714e+06
222101348810752	1.28714e+06
224300372066304	1.28714e+06
226499395321856	1.28714e+06
228698418577408	1.28714e+06
230897441832960	1.28714e+06
233096465088512	1.28714e+06
235295488344064	1.28714e+06
237494511599616	1.28714e+06
239693534855168	1.28714e+06
241892558110720	1.28714e+06
244091581366272	1.28714e+06
246290604621824	1.28714e+06
248489627877376	1.28714e+06
250688651132928	1.28714e+06
252887674388480	1.28714e+06
255086697644032	1.28714e+06
257285720899584	1.28714e+06
259484744155136	1.28714e+06
261683767410688	1.28714e+06
263882790666240	1.28714e+06
266081813921792	1.28714e+06
268280837177344	1.28714e+06
270479860432896	1.28714e+06
272678883688448	1.28714e+06
274877906944000	1.28714e+06
277076930199552	1.28714e+06
279275953455104	1.28714e+06
281474976710656	1.28714e+06
285873023221760	1.28714e+06
290271069732864	1.28714e+06
294669116243968	1.28714e+06
299067162755072	1.28714e+06
303465209266176	1.28714e+06
307863255777280	1.28714e+06
312261302288384	1.28714e+06
316659348799488	1.28714e+06
321057395310592	1.28714e+06
325455441821696	1.28714e+06
329853488332800	1.28714e+06
334251534843904	1.28714e+06
338649581355008	1.28714e+06
343047627866112	1.28714e+06
347445674377216	1.28714e+06
351843720888320	1.28714e+06
356241767399424	1.28714e+06
360639813910528	1.28714e+06
365037860421632	1.28714e+06
369435906932736	1.28714e+06
373833953443840	1.28714e+06
378231999954944	1.28714e+06
382630046466048	1.28714e+06
387028092977152	1.28714e+06
391426139488256	1.28714e+06
395824185999360	1.28714e+06
400222232510464	1.28714e+06
404620279021568	1.28714e+06
409018325532672	1.28714e+06
413416372043776	1.28714e+06
417814418554880	1.28714e+06
422212465065984	1.28714e+06
426610511577088	1.28714e+06
431008558088192	1.28714e+06
435406604599296	1.28714e+06
439804651110400	1.28714e+06
444202697621504	1.28714e+06
448600744132608	1.28714e+06
452998790643712	1.28714e+06
457396837154816	1.28714e+06
461794883665920	1.28714e+06
466192930177024	1.28714e+06
470590976688128	1.28714e+06
474989023199232	1.28714e+06
479387069710336	1.28714e+06
483785116221440	1.28714e+06
488183162732544	1.28714e+06
492581209243648	1.28714e+06
496979255754752	1.28714e+06
501377302265856	1.28714e+06
505775348776960	1.28714e+06
510173395288064	1.28714e+06
514571441799168	1.28714e+06
518969488310272	1.28714e+06
523367534821376	1.28714e+06
527765581332480	1.28714e+06
532163627843584	1.28714e+06
536561674354688	1.28714e+06
540959720865792	1.28714e+06
545357767376896	1.28714e+06
549755813888000	1.28714e+06
554153860399104	1.28714e+06
558551906910208	1.28714e+06
562949953421312	1.28714e+06
571746046443520	1.28714e+06
580542139465728	1.28714e+06
589338232487936	1.28714e+06
598134325510144	1.28714e+06
606930418532352	1.28714e+06
615726511554560	1.28714e+06
624522604576768	1.28714e+06
633318697598976	1.28714e+06
642114790621184	1.28714e+06
650910883643392	1.28714e+06
659706976665600	1.28714e+06
668503069687808	1.28714e+06
677299162710016	1.28714e+06
686095255732224	1.28714e+06
694891348754432	1.28714e+06
703687441776640	1.28714e+06
712483534798848	1.28714e+06
721279627821056	1.28714e+06
730075720843264	1.28714e+06
738871813865472	1.28714e+06
747667906887680	1.28714e+06
756463999909888	1.28714e+06
765260092932096	1.28714e+06
774056185954304	1.28714e+06
782852278976512	1.28714e+06
791648371998720	1.28714e+06
800444465020928	1.28714e+06
809240558043136	1.28714e+06
818036651065344	1.28714e+06
826832744087552	1.28714e+06
835628837109760	1.28714e+06
844424930131968	1.28714e+06
853221023154176	1.28714e+06
862017116176384	1.28714e+06
870813209198592	1.28714e+06
879609302220800	1.28714e+06
888405395243008	1.28714e+06
897201488265216	1.28714e+06
905997581287424	1.28714e+06
914793674309632	1.28714e+06
923589767331840	1.28714e+06
932385860354048	1.28714e+06
941181953376256	1.28714e+06
949978046398464	1.28714e+06
958774139420672	1.28714e+06
967570232442880	1.28714e+06
976366325465088	1.28714e+06
985162418487296	1.28714e+06
993958511509504	1.28714e+06
1002754604531712	1.28714e+06
1011550697553920	1.28714e+06
1020346790576128	1.28714e+06
1029142883598336	1.28714e+06
1037938976620544	1.28714e+06
1046735069642752	1.28714e+06
1055531162664960	1.28714e+06
1064327255687168	1.28714e+06
1073123348709376	1.28714e+06
1081919441731584	1.28714e+06
1090715534753792	1.28714e+06
1099511627776000	1.28714e+06
1108307720798208	1.28714e+06
1117103813820416	1.28714e+06
1125899906842624	1.28714e+06
1143492092887040	1.28714e+06
1161084278931456	1.28714e+06
1178676464975872	1.28714e+06
1196268651020288	1.28714e+06
1213860837064704	1.28714e+06
1231453023109120	1.28714e+06
1249045209153536	1.28714e+06
1266637395197952	1.28714e+06
1284229581242368	1.28714e+06
1301821767286784	1.28714e+06
1319413953331200	1.28714e+06
1337006139375616	1.28714e+06
1354598325420032	1.28714e+06
1372190511464448	1.28714e+06
1389782697508864	1.28714e+06
1407374883553280	1.28714e+06
1424967069597696	1.28714e+06
1442559255642112	1.28714e+06
1460151441686528	1.28714e+06
1477743627730944	1.28714e+06
1495335813775360	1.28714e+06
1512927999819776	1.28714e+06
1530520185864192	1.28714e+06
1548112371908608	1.28714e+06
1565704557953024	1.28714e+06
1583296743997440	1.28714e+06
1600888930041856	1.28714e+06
1618481116086272	1.28714e+06
1636073302130688	1.28714e+06
1653665488175104	1.28714e+06
1671257674219520	1.28714e+06
1688849860263936	1.28714e+06
1706442046308352	1.28714e+06
1724034232352768	1.28714e+06
1741626418397184	1.28714e+06
1759218604441600	1.28714e+06
1776810790486016	1.28714e+06
1794402976530432	1.28714e+06
1811995162574848	1.28714e+06
1829587348619264	1.28714e+06
1847179534663680	1.28714e+06
1864771720708096	1.28714e+06
1882363906752512	1.28714e+06
1899956092796928	1.28714e+06
1917548278841344	1.28714e+06
1935140464885760	1.28714e+06
1952732650930176	1.28714e+06
1970324836974592	1.28714e+06
1987917023019008	1.28714e+06
2005509209063424	1.28714e+06
2023101395107840	1.28714e+06
2040693581152256	1.28714e+06
2058285767196672	1.28714e+06
2075877953241088	1.28714e+06
2093470139285504	1.28714e+06
2111062325329920	1.28714e+06
2128654511374336	1.28714e+06
2146246697418752	1.28714e+06
2163838883463168	1.28714e+06
2181431069507584	1.28714e+06
2199023255552000	1.28714e+06
2216615441596416	1.28714e+06
2234207627640832	1.28714e+06
2251799813685248	1.28714e+06
2286984185774080	1.28714e+06
2322168557862912	1.28714e+06
2357352929951744	1.28714e+06
2392537302040576	1.28714e+06
2427721674129408	1.28714e+06
2462906046218240	1.28714e+06
2498090418307072	1.28714e+06
2533274790395904	1.28714e+06
2568459162484736	1.28714e+06
2603643534573568	1.28714e+06
2638827906662400	1.28714e+06
2674012278751232	1.28714e+06
2709196650840064	1.28714e+06
2744381022928896	1.28714e+06
2779565395017728	1.28714e+06
2814749767106560	1.28714e+06
2849934139195392	1.28714e+06
2885118511284224	1.28714e+06
2920302883373056	1.28714e+06
2955487255461888	1.28714e+06
2990671627550720	1.28714e+06
3025855999639552	1.28714e+06
3061040371728384	1.28714e+06
3096224743817216	1.28714e+06
3131409115906048	1.28714e+06
3166593487994880	1.28714e+06
3201777860083712	1.28714e+06
3236962232172544	1.28714e+06
3272146604261376	1.28714e+06
3307330976350208	1.28714e+06
3342515348439040	1.28714e+06
3377699720527872	1.28714e+06
3412884092616704	1.28714e+06
3448068464705536	1.28714e+06
3483252836794368	1.28714e+06
3518437208883200	1.28714e+06
3553621580972032	1.28714e+06
3588805953060864	1.28714e+06
3623990325149696	1.28714e+06
3659174697238528	1.28714e+06
3694359069327360	1.28714e+06
3729543441416192	1.28714e+06
3764727813505024	1.28714e+06
3799912185593856	1.28714e+06
3835096557682688	1.28714e+06
3870280929771520	1.28714e+06
3905465301860352	1.28714e+06
3940649673949184	1.28714e+06
3975834046038016	1.28714e+06
4011018418126848	1.28714e+06
4046202790215680	1.28714e+06
4081387162304512	1.28714e+06
4116571534393344	1.28714e+06
4151755906482176	1.28714e+06
4186940278571008	1.28714e+06
4222124650659840	1.28714e+06
4257309022748672	1.28714e+06
4292493394837504	1.28714e+06
4327677766926336	1.28714e+06
4362862139015168	1.28714e+06
4398046511104000	1.28714e+06
4433230883192832	1.28714e+06
4468415255281664	1.28714e+06
4503599627370496	1.28714e+06
4573968371548160	1.28714e+06
4644337115725824	1.28714e+06
4714705859903488	1.28714e+06
4785074604081152	1.28714e+06
4855443348258816	1.28714e+06
4925812092436480	1.28714e+06
4996180836614144	1.28714e+06
5066549580791808	1.28714e+06
5136918324969472	1.28714e+06
5207287069147136	1.28714e+06
5277655813324800	1.28714e+06
5348024557502464	1.28714e+06
5418393301680128	1.28714e+06
5488762045857792	1.28714e+06
5559130790035456	1.28714e+06
5629499534213120	1.28714e+06
5699868278390784	1.28714e+06
5770237022568448	1.28714e+06
5840605766746112	1.28714e+06
5910974510923776	1.28714e+06
5981343255101440	1.28714e+06
6051711999279104	1.28714e+06
6122080743456768	1.28714e+06
6192449487634432	1.28714e+06
6262818231812096	1.28714e+06
6333186975989760	1.28714e+06
6403555720167424	1.28714e+06
6473924464345088	1.28714e+06
6544293208522752	1.28714e+06
6614661952700416	1.28714e+06
6685030696878080	1.28714e+06
6755399441055744	1.28714e+06
6825768185233408	1.28714e+06
6896136929411072	1.28714e+06
6966505673588736	1.28714e+06
7036874417766400	1.28714e+06
7107243161944064	1.28714e+06
7177611906121728	1.28714e+06
7247980650299392	1.28714e+06
7318349394477056	1.28714e+06
7388718138654720	1.28714e+06
7459086882832384	1.28714e+06
7529455627010048	1.28714e+06
7599824371187712	1.28714e+06
7670193115365376	1.28714e+06
7740561859543040	1.28714e+06
7810930603720704	1.28714e+06
7881299347898368	1.28714e+06
7951668092076032	1.28714e+06
8022036836253696	1.28714e+06
8092405580431360	1.28714e+06
8162774324609024	1.28714e+06
8233143068786688	1.28714e+06
8303511812964352	1.28714e+06
8373880557142016	1.28714e+06
8444249301319680	1.28714e+06
8514618045497344	1.28714e+06
8584986789675008	1.28714e+06
8655355533852672	1.28714e+06
8725724278030336	1.28714e+06
8796093022208000	1.28714e+06
8866461766385664	1.28714e+06
8936830510563328	1.28714e+06
9007199254740992	1.28714e+06
9147936743096320	1.28714e+06
9288674231451648	1.28714e+06
9429411719806976	1.28714e+06
9570149208162304	1.28714e+06
9710886696517632	1.28714e+06
9851624184872960	1.28714e+06
9992361673228288	1.28714e+06
10133099161583616	1.28714e+06
10273836649938944	1.28714e+06
10414574138294272	1.28714e+06
10555311626649600	1.28714e+06
10696049115004928	1.28714e+06
10836786603360256	1.28714e+06
10977524091715584	1.28714e+06
11118261580070912	1.28714e+06
11258999068426240	1.28714e+06
11399736556781568	1.28714e+06
11540474045136896	1.28714e+06
11681211533492224	1.28714e+06
11821949021847552	1.28714e+06
11962686510202880	1.28714e+06
12103423998558208	1.28714e+06
12244161486913536	1.28714e+06
12384898975268864	1.28714e+06
12525636463624192	1.28714e+06
12666373951979520	1.28714e+06
12807111440334848	1.28714e+06
12947848928690176	1.28714e+06
13088586417045504	1.28714e+06
13229323905400832	1.28714e+06
13370061393756160	1.28714e+06
13510798882111488	1.28714e+06
13651536370466816	1.28714e+06
13792273858822144	1.28714e+06
13933011347177472	1.28714e+06
14073748835532800	1.28714e+06
14214486323888128	1.28714e+06
14355223812243456	1.28714e+06
14495961300598784	1.28714e+06
14636698788954112	1.28714e+06
14777436277309440	1.28714e+06
14918173765664768	1.28714e+06
15058911254020096	1.28714e+06
15199648742375424	1.28714e+06
15340386230730752	1.28714e+06
15481123719086080	1.28714e+06
15621861207441408	1.28714e+06
15762598695796736	1.28714e+06
15903336184152064	1.28714e+06
16044073672507392	1.28714e+06
16184811160862720	1.28714e+06
16325548649218048	1.28714e+06
16466286137573376	1.28714e+06
16607023625928704	1.28714e+06
16747761114284032	1.28714e+06
16888498602639360	1.28714e+06
17029236090994688	1.28714e+06
17169973579350016	1.28714e+06
17310711067705344	1.28714e+06
17451448556060672	1.28714e+06
17592186044416000	1.28714e+06
17732923532771328	1.28714e+06
17873661021126656	1.28714e+06
18014398509481984	1.28714e+06
18295873486192640	1.28714e+06
18577348462903296	1.28714e+06
18858823439613952	1.28714e+06
19140298416324608	1.28714e+06
19421773393035264	1.28714e+06
19703248369745920	1.28714e+06
19984723346456576	1.28714e+06
20266198323167232	1.28714e+06
20547673299877888	1.28714e+06
20829148276588544	1.28714e+06
21110623253299200	1.28714e+06
21392098230009856	1.28714e+06
21673573206720512	1.28714e+06
21955048183431168	1.28714e+06
22236523160141824	1.28714e+06
22517998136852480	1.28714e+06
22799473113563136	1.28714e+06
23080948090273792	1.28714e+06
23362423066984448	1.28714e+06
23643898043695104	1.28714e+06
23925373020405760	1.28714e+06
24206847997116416	1.28714e+06
24488322973827072	1.28714e+06
24769797950537728	1.28714e+06
25051272927248384	1.28714e+06
25332747903959040	1.28714e+06
25614222880669696	1.28714e+06
25895697857380352	1.28714e+06
26177172834091008	1.28714e+06
26458647810801664	1.28714e+06
26740122787512320	1.28714e+06
27021597764222976	1.28714e+06
27303072740933632	1.28714e+06
27584547717644288	1.28714e+06
27866022694354944	1.28714e+06
28147497671065600	1.28714e+06
28428972647776256	1.28714e+06
28710447624486912	1.28714e+06
28991922601197568	1.28714e+06
29273397577908224	1.28714e+06
29554872554618880	1.28714e+06
29836347531329536	1.28714e+06
30117822508040192	1.28714e+06
30399297484750848	1.28714e+06
30680772461461504	1.28714e+06
30962247438172160	1.28714e+06
31243722414882816	1.28714e+06
31525197391593472	1.28714e+06
31806672368304128	1.28714e+06
32088147345014784	1.28714e+06
32369622321725440	1.28714e+06
32651097298436096	1.28714e+06
32932572275146752	1.28714e+06
33214047251857408	1.28714e+06
33495522228568064	1.28714e+06
33776997205278720	1.28714e+06
34058472181989376	1.28714e+06
34339947158700032	1.28714e+06
34621422135410688	1.28714e+06
34902897112121344	1.28714e+06
35184372088832000	1.28714e+06
35465847065542656	1.28714e+06
35747322042253312	1.28714e+06
36028797018963968	1.28714e+06
36591746972385280	1.28714e+06
37154696925806592	1.28714e+06
37717646879227904	1.28714e+06
38280596832649216	1.28714e+06
38843546786070528	1.28714e+06
39406496739491840	1.28714e+06
39969446692913152	1.28714e+06
40532396646334464	1.28714e+06
41095346599755776	1.28714e+06
41658296553177088	1.28714e+06
42221246506598400	1.28714e+06
42784196460019712	1.28714e+06
43347146413441024	1.28714e+06
43910096366862336	1.28714e+06
44473046320283648	1.28714e+06
45035996273704960	1.28714e+06
45598946227126272	1.28714e+06
46161896180547584	1.28714e+06
46724846133968896	1.28714e+06
47287796087390208	1.28714e+06
47850746040811520	1.28714e+06
48413695994232832	1.28714e+06
48976645947654144	1.28714e+06
49539595901075456	1.28714e+06
50102545854496768	1.28714e+06
50665495807918080	1.28714e+06
51228445761339392	1.28714e+06
51791395714760704	1.28714e+06
52354345668182016	1.28714e+06
52917295621603328	1.28714e+06
53480245575024640	1.28714e+06
54043195528445952	1.28714e+06
54606145481867264	1.28714e+06
55169095435288576	1.28714e+06
55732045388709888	1.28714e+06
56294995342131200	1.28714e+06
56857945295552512	1.28714e+06
57420895248973824	1.28714e+06
57983845202395136	1.28714e+06
58546795155816448	1.28714e+06
59109745109237760	1.28714e+06
59672695062659072	1.28714e+06
60235645016080384	1.28714e+06
60798594969501696	1.28714e+06
61361544922923008	1.28714e+06
61924494876344320	1.28714e+06
62487444829765632	1.28714e+06
63050394783186944	1.28714e+06
63613344736608256	1.28714e+06
64176294690029568	1.28714e+06
64739244643450880	1.28714e+06
65302194596872192	1.28714e+06
65865144550293504	1.28714e+06
66428094503714816	1.28714e+06
66991044457136128	1.28714e+06
67553994410557440	1.28714e+06
68116944363978752	1.28714e+06
68679894317400064	1.28714e+06
69242844270821376	1.28714e+06
69805794224242688	1.28714e+06
70368744177664000	1.28714e+06
70931694131085312	1.28714e+06
71494644084506624	1.28714e+06
72057594037927936	1.28714e+06
73183493944770560	1.28714e+06
74309393851613184	1.28714e+06
75435293758455808	1.28714e+06
76561193665298432	1.28714e+06
77687093572141056	1.28714e+06
78812993478983680	1.28714e+06
79938893385826304	1.28714e+06
81064793292668928	1.28714e+06
82190693199511552	1.28714e+06
83316593106354176	1.28714e+06
84442493013196800	1.28714e+06
85568392920039424	1.28714e+06
86694292826882048	1.28714e+06
87820192733724672	1.28714e+06
88946092640567296	1.28714e+06
90071992547409920	1.28714e+06
91197892454252544	1.28714e+06
92323792361095168	1.28714e+06
93449692267937792	1.28714e+06
94575592174780416	1.28714e+06
95701492081623040	1.28714e+06
96827391988465664	1.28714e+06
97953291895308288	1.28714e+06
99079191802150912	1.28714e+06
100205091708993536	1.28714e+06
101330991615836160	1.28714e+06
102456891522678784	1.28714e+06
103582791429521408	1.28714e+06
104708691336364032	1.28714e+06
105834591243206656	1.28714e+06
106960491150049280	1.28714e+06
108086391056891904	1.28714e+06
109212290963734528	1.28714e+06
110338190870577152	1.28714e+06
111464090777419776	1.28714e+06
112589990684262400	1.28714e+06
113715890591105024	1.28714e+06
114841790497947648	1.28714e+06
115967690404790272	1.28714e+06
117093590311632896	1.28714e+06
118219490218475520	1.28714e+06
119345390125318144	1.28714e+06
120471290032160768	1.28714e+06
121597189939003392	1.28714e+06
122723089845846016	1.28714e+06
123848989752688640	1.28714e+06
124974889659531264	1.28714e+06
126100789566373888	1.28714e+06
127226689473216512	1.28714e+06
128352589380059136	1.28714e+06
129478489286901760	1.28714e+06
130604389193744384	1.28714e+06
131730289100587008	1.28714e+06
132856189007429632	1.28714e+06
133982088914272256	1.28714e+06
135107988821114880	1.28714e+06
136233888727957504	1.28714e+06
137359788634800128	1.28714e+06
138485688541642752	1.28714e+06
139611588448485376	1.28714e+06
140737488355328000	1.28714e+06
141863388262170624	1.28714e+06
142989288169013248	1.28714e+06
144115188075855872	1.28714e+06
146366987889541120	1.28714e+06
148618787703226368	1.28714e+06
150870587516911616	1.28714e+06
153122387330596864	1.28714e+06
155374187144282112	1.28714e+06
157625986957967360	1.28714e+06
159877786771652608	1.28714e+06
162129586585337856	1.28714e+06
164381386399023104	1.28714e+06
166633186212708352	1.28714e+06
168884986026393600	1.28714e+06
171136785840078848	1.28714e+06
173388585653764096	1.28714e+06
175640385467449344	1.28714e+06
177892185281134592	1.28714e+06
180143985094819840	1.28714e+06
182395784908505088	1.28714e+06
184647584722190336	1.28714e+06
186899384535875584	1.28714e+06
189151184349560832	1.28714e+06
191402984163246080	1.28714e+06
193654783976931328	1.28714e+06
195906583790616576	1.28714e+06
198158383604301824	1.28714e+06
200410183417987072	1.28714e+06
202661983231672320	1.28714e+06
204913783045357568	1.28714e+06
207165582859042816	1.28714e+06
209417382672728064	1.28714e+06
211669182486413312	1.28714e+06
213920982300098560	1.28714e+06
216172782113783808	1.28714e+06
218424581927469056	1.28714e+06
220676381741154304	1.28714e+06
222928181554839552	1.28714e+06
225179981368524800	1.28714e+06
227431781182210048	1.28714e+06
229683580995895296	1.28714e+06
231935380809580544	1.28714e+06
234187180623265792	1.28714e+06
236438980436951040	1.28714e+06
238690780250636288	1.28714e+06
240942580064321536	1.28714e+06
243194379878006784	1.28714e+06
245446179691692032	1.28714e+06
247697979505377280	1.28714e+06
249949779319062528	1.28714e+06
252201579132747776	1.28714e+06
254453378946433024	1.28714e+06
256705178760118272	1.28714e+06
258956978573803520	1.28714e+06
261208778387488768	1.28714e+06
263460578201174016	1.28714e+06
265712378014859264	1.28714e+06
267964177828544512	1.28714e+06
270215977642229760	1.28714e+06
272467777455915008	1.28714e+06
274719577269600256	1.28714e+06
276971377083285504	1.28714e+06
279223176896970752	1.28714e+06
281474976710656000	1.28714e+06
283726776524341248	1.28714e+06
285978576338026496	1.28714e+06
288230376151711744	1.28714e+06
292733975779082240	1.28714e+06
297237575406452736	1.28714e+06
301741175033823232	1.28714e+06
306244774661193728	1.28714e+06
310748374288564224	1.28714e+06
315251973915934720	1.28714e+06
319755573543305216	1.28714e+06
324259173170675712	1.28714e+06
328762772798046208	1.28714e+06
333266372425416704	1.28714e+06
337769972052787200	1.28714e+06
342273571680157696	1.28714e+06
346777171307528192	1.28714e+06
351280770934898688	1.28714e+06
355784370562269184	1.28714e+06
360287970189639680	1.28714e+06
364791569817010176	1.28714e+06
369295169444380672	1.28714e+06
373798769071751168	1.28714e+06
378302368699121664	1.28714e+06
382805968326492160	1.28714e+06
387309567953862656	1.28714e+06
391813167581233152	1.28714e+06
396316767208603648	1.28714e+06
400820366835974144	1.28714e+06
405323966463344640	1.28714e+06
409827566090715136	1.28714e+06
414331165718085632	1.28714e+06
418834765345456128	1.28714e+06
423338364972826624	1.28714e+06
427841964600197120	1.28714e+06
432345564227567616	1.28714e+06
436849163854938112	1.28714e+06
441352763482308608	1.28714e+06
445856363109679104	1.28714e+06
450359962737049600	1.28714e+06
454863562364420096	1.28714e+06
459367161991790592	1.28714e+06
463870761619161088	1.28714e+06
468374361246531584	1.28714e+06
472877960873902080	1.28714e+06
477381560501272576	1.28714e+06
481885160128643072	1.28714e+06
486388759756013568	1.28714e+06
490892359383384064	1.28714e+06
495395959010754560	1.28714e+06
499899558638125056	1.28714e+06
504403158265495552	1.28714e+06
508906757892866048	1.28714e+06
513410357520236544	1.28714e+06
517913957147607040	1.28714e+06
522417556774977536	1.28714e+06
526921156402348032	1.28714e+06
531424756029718528	1.28714e+06
535928355657089024	1.28714e+06
540431955284459520	1.28714e+06
544935554911830016	1.28714e+06
549439154539200512	1.28714e+06
553942754166571008	1.28714e+06
558446353793941504	1.28714e+06
562949953421312000	1.28714e+06
567453553048682496	1.28714e+06
571957152676052992	1.28714e+06
576460752303423488	1.28714e+06
585467951558164480	1.28714e+06
594475150812905472	1.28714e+06
603482350067646464	1.28714e+06
612489549322387456	1.28714e+06
621496748577128448	1.28714e+06
630503947831869440	1.28714e+06
639511147086610432	1.28714e+06
648518346341351424	1.28714e+06
657525545596092416	1.28714e+06
666532744850833408	1.28714e+06
675539944105574400	1.28714e+06
684547143360315392	1.28714e+06
693554342615056384	1.28714e+06
702561541869797376	1.28714e+06
711568741124538368	1.28714e+06
720575940379279360	1.28714e+06
729583139634020352	1.28714e+06
738590338888761344	1.28714e+06
747597538143502336	1.28714e+06
756604737398243328	1.28714e+06
765611936652984320	1.28714e+06
774619135907725312	1.28714e+06
783626335162466304	1.28714e+06
792633534417207296	1.28714e+06
801640733671948288	1.28714e+06
810647932926689280	1.28714e+06
819655132181430272	1.28714e+06
828662331436171264	1.28714e+06
837669530690912256	1.28714e+06
846676729945653248	1.28714e+06
855683929200394240	1.28714e+06
864691128455135232	1.28714e+06
873698327709876224	1.28714e+06
882705526964617216	1.28714e+06
891712726219358208	1.28714e+06
900719925474099200	1.28714e+06
909727124728840192	1.28714e+06
918734323983581184	1.28714e+06
927741523238322176	1.28714e+06
936748722493063168	1.28714e+06
945755921747804160	1.28714e+06
954763121002545152	1.28714e+06
963770320257286144	1.28714e+06
972777519512027136	1.28714e+06
981784718766768128	1.28714e+06
990791918021509120	1.28714e+06
999799117276250112	1.28714e+06
1008806316530991104	1.28714e+06
1017813515785732096	1.28714e+06
1026820715040473088	1.28714e+06
1035827914295214080	1.28714e+06
1044835113549955072	1.28714e+06
1053842312804696064	1.28714e+06
1062849512059437056	1.28714e+06
1071856711314178048	1.28714e+06
1080863910568919040	1.28714e+06
1089871109823660032	1.28714e+06
1098878309078401024	1.28714e+06
1107885508333142016	1.28714e+06
1116892707587883008	1.28714e+06
1125899906842624000	1.28714e+06
1134907106097364992	1.28714e+06
1143914305352105984	1.28714e+06
1152921504606846976	1.28714e+06
1170935903116328960	1.28714e+06
1188950301625810944	1.28714e+06
1206964700135292928	1.28714e+06
1224979098644774912	1.28714e+06
1242993497154256896	1.28714e+06
1261007895663738880	1.28714e+06
1279022294173220864	1.28714e+06
1297036692682702848	1.28714e+06
1315051091192184832	1.28714e+06
1333065489701666816	1.28714e+06
1351079888211148800	1.28714e+06
1369094286720630784	1.28714e+06
1387108685230112768	1.28714e+06
1405123083739594752	1.28714e+06
1423137482249076736	1.28714e+06
1441151880758558720	1.28714e+06
1459166279268040704	1.28714e+06
1477180677777522688	1.28714e+06
1495195076287004672	1.28714e+06
1513209474796486656	1.28714e+06
1531223873305968640	1.28714e+06
1549238271815450624	1.28714e+06
1567252670324932608	1.28714e+06
1585267068834414592	1.28714e+06
1603281467343896576	1.28714e+06
1621295865853378560	1.28714e+06
1639310264362860544	1.28714e+06
1657324662872342528	1.28714e+06
1675339061381824512	1.28714e+06
1693353459891306496	1.28714e+06
1711367858400788480	1.28714e+06
1729382256910270464	1.28714e+06
1747396655419752448	1.28714e+06
1765411053929234432	1.28714e+06
1783425452438716416	1.28714e+06
1801439850948198400	1.28714e+06
1819454249457680384	1.28714e+06
1837468647967162368	1.28714e+06
1855483046476644352	1.28714e+06
1873497444986126336	1.28714e+06
1891511843495608320	1.28714e+06
1909526242005090304	1.28714e+06
1927540640514572288	1.28714e+06
1945555039024054272	1.28714e+06
1963569437533536256	1.28714e+06
1981583836043018240	1.28714e+06
1999598234552500224	1.28714e+06
2017612633061982208	1.28714e+06
2035627031571464192	1.28714e+06
2053641430080946176	1.28714e+06
2071655828590428160	1.28714e+06
2089670227099910144	1.28714e+06
2107684625609392128	1.28714e+06
2125699024118874112	1.28714e+06
2143713422628356096	1.28714e+06
2161727821137838080	1.28714e+06
2179742219647320064	1.28714e+06
2197756618156802048	1.28714e+06
2215771016666284032	1.28714e+06
2233785415175766016	1.28714e+06
2251799813685248000	1.28714e+06
2269814212194729984	1.28714e+06
2287828610704211968	1.28714e+06
2305843009213693952	1.28714e+06
2341871806232657920	1.28714e+06
2377900603251621888	1.28714e+06
2413929400270585856	1.28714e+06
2449958197289549824	1.28714e+06
2485986994308513792	1.28714e+06
2522015791327477760	1.28714e+06
2558044588346441728	1.28714e+06
2594073385365405696	1.28714e+06
2630102182384369664	1.28714e+06
2666130979403333632	1.28714e+06
2702159776422297600	1.28714e+06
2738188573441261568	1.28714e+06
2774217370460225536	1.28714e+06
2810246167479189504	1.28714e+06
2846274964498153472	1.28714e+06
2882303761517117440	1.28714e+06
2918332558536081408	1.28714e+06
2954361355555045376	1.28714e+06
2990390152574009344	1.28714e+06
3026418949592973312	1.28714e+06
3062447746611937280	1.28714e+06
3098476543630901248	1.28714e+06
3134505340649865216	1.28714e+06
3170534137668829184	1.28714e+06
3206562934687793152	1.28714e+06
3242591731706757120	1.28714e+06
3278620528725721088	1.28714e+06
3314649325744685056	1.28714e+06
3350678122763649024	1.28714e+06
3386706919782612992	1.28714e+06
3422735716801576960	1.28714e+06
3458764513820540928	1.28714e+06
3494793310839504896	1.28714e+06
3530822107858468864	1.28714e+06
3566850904877432832	1.28714e+06
3602879701896396800	1.28714e+06
3638908498915360768	1.28714e+06
3674937295934324736	1.28714e+06
3710966092953288704	1.28714e+06
3746994889972252672	1.28714e+06
3783023686991216640	1.28714e+06
3819052484010180608	1.28714e+06
3855081281029144576	1.28714e+06
3891110078048108544	1.28714e+06
3927138875067072512	1.28714e+06
3963167672086036480	1.28714e+06
3999196469105000448	1.28714e+06
4035225266123964416	1.28714e+06
4071254063142928384	1.28714e+06
4107282860161892352	1.28714e+06
4143311657180856320	1.28714e+06
4179340454199820288	1.28714e+06
4215369251218784256	1.28714e+06
4251398048237748224	1.28714e+06
4287426845256712192	1.28714e+06
4323455642275676160	1.28714e+06
4359484439294640128	1.28714e+06
4395513236313604096	1.28714e+06
4431542033332568064	1.28714e+06
4467570830351532032	1.28714e+06
4503599627370496000	1.28714e+06
4539628424389459968	1.28714e+06
4575657221408423936	1.28714e+06
4611686018427387904	1.28714e+06
4683743612465315840	1.28714e+06
4755801206503243776	1.28714e+06
4827858800541171712	1.28714e+06
4899916394579099648	1.28714e+06
4971973988617027584	1.28714e+06
5044031582654955520	1.28714e+06
5116089176692883456	1.28714e+06
5188146770730811392	1.28714e+06
5260204364768739328	1.28714e+06
5332261958806667264	1.28714e+06
5404319552844595200	1.28714e+06
5476377146882523136	1.28714e+06
5548434740920451072	1.28714e+06
5620492334958379008	1.28714e+06
5692549928996306944	1.28714e+06
5764607523034234880	1.28714e+06
5836665117072162816	1.28714e+06
5908722711110090752	1.28714e+06
5980780305148018688	1.28714e+06
6052837899185946624	1.28714e+06
6124895493223874560	1.28714e+06
6196953087261802496	1.28714e+06
6269010681299730432	1.28714e+06
6341068275337658368	1.28714e+06
6413125869375586304	1.28714e+06
6485183463413514240	1.28714e+06
6557241057451442176	1.28714e+06
6629298651489370112	1.28714e+06
6701356245527298048	1.28714e+06
6773413839565225984	1.28714e+06
6845471433603153920	1.28714e+06
6917529027641081856	1.28714e+06
6989586621679009792	1.28714e+06
7061644215716937728	1.28714e+06
7133701809754865664	1.28714e+06
7205759403792793600	1.28714e+06
7277816997830721536	1.28714e+06
7349874591868649472	1.28714e+06
7421932185906577408	1.28714e+06
7493989779944505344	1.28714e+06
7566047373982433280	1.28714e+06
7638104968020361216	1.28714e+06
7710162562058289152	1.28714e+06
7782220156096217088	1.28714e+06
7854277750134145024	1.28714e+06
7926335344172072960	1.28714e+06
7998392938210000896	1.28714e+06
8070450532247928832	1.28714e+06
8142508126285856768	1.28714e+06
8214565720323784704	1.28714e+06
8286623314361712640	1.28714e+06
8358680908399640576	1.28714e+06
8430738502437568512	1.28714e+06
8502796096475496448	1.28714e+06
8574853690513424384	1.28714e+06
8646911284551352320	1.28714e+06
8718968878589280256	1.28714e+06
8791026472627208192	1.28714e+06
8863084066665136128	1.28714e+06
8935141660703064064	1.28714e+06
9007199254740992000	1.28714e+06
9079256848778919936	1.28714e+06
9151314442816847872	1.28714e+06
9223372036854775808	1.28714e+06
9367487224930631680	1.28714e+06
9511602413006487552	1.28714e+06
9655717601082343424	1.28714e+06
9799832789158199296	1.28714e+06
9943947977234055168	1.28714e+06
10088063165309911040	1.28714e+06
10232178353385766912	1.28714e+06
10376293541461622784	1.28714e+06
10520408729537478656	1.28714e+06
10664523917613334528	1.28714e+06
10808639105689190400	1.28714e+06
10952754293765046272	1.28714e+06
11096869481840902144	1.28714e+06
11240984669916758016	1.28714e+06
11385099857992613888	1.28714e+06
11529215046068469760	1.28714e+06
11673330234144325632	1.28714e+06
11817445422220181504	1.28714e+06
11961560610296037376	1.28714e+06
12105675798371893248	1.28714e+06
12249790986447749120	1.28714e+06
12393906174523604992	1.28714e+06
12538021362599460864	1.28714e+06
12682136550675316736	1.28714e+06
12826251738751172608	1.28714e+06
12970366926827028480	1.28714e+06
13114482114902884352	1.28714e+06
13258597302978740224	1.28714e+06
13402712491054596096	1.28714e+06
13546827679130451968	1.28714e+06
13690942867206307840	1.28714e+06
13835058055282163712	1.28714e+06
13979173243358019584	1.28714e+06
14123288431433875456	1.28714e+06
14267403619509731328	1.28714e+06
14411518807585587200	1.28714e+06
14555633995661443072	1.28714e+06
14699749183737298944	1.28714e+06
14843864371813154816	1.28714e+06
14987979559889010688	1.28714e+06
15132094747964866560	1.28714e+06
15276209936040722432	1.28714e+06
15420325124116578304	1.28714e+06
15564440312192434176	1.28714e+06
15708555500268290048	1.28714e+06
15852670688344145920	1.28714e+06
15996785876420001792	1.28714e+06
16140901064495857664	1.28714e+06
16285016252571713536	1.28714e+06
16429131440647569408	1.28714e+06
16573246628723425280	1.28714e+06
16717361816799281152	1.28714e+06
16861477004875137024	1.28714e+06
17005592192950992896	1.28714e+06
17149707381026848768	1.28714e+06
17293822569102704640	1.28714e+06
17437937757178560512	1.28714e+06
17582052945254416384	1.28714e+06
17726168133330272256	1.28714e+06
17870283321406128128	1.28714e+06
18014398509481984000	1.28714e+06
18158513697557839872	1.28714e+06
18302628885633695744	0
