0 0.288223
1 1.19852
2 2.10882
3 3.32255
4 4.23195
5 5.14135
6 6.35388
7 7.26328
8 8.17269
9 9.38392
10 10.2923
11 11.2008
12 12.412
13 13.3201
14 14.2276
15 15.4376
16 16.3451
17 17.2525
18 18.4619
19 19.3684
20 20.5771
21 21.4836
22 22.3901
23 23.5978
24 24.5034
25 25.4089
26 26.6163
27 27.5219
28 28.4265
29 29.6326
30 30.5372
31 31.4417
32 32.6475
33 33.5511
34 34.4546
35 35.6594
36 36.563
37 37.4662
38 38.6697
39 39.5723
40 40.7758
41 41.6784
42 42.5803
43 43.7824
44 44.684
45 45.5856
46 46.7877
47 47.6884
48 48.589
49 49.7898
50 50.6905
51 51.5911
52 52.7907
53 53.6903
54 54.59
55 55.7896
56 56.6889
57 57.8872
58 58.7858
59 59.6845
60 60.8827
61 61.7808
62 62.6785
63 63.8755
64 64.7732
65 65.6709
66 66.8669
67 67.7637
68 68.6604
69 69.8561
70 70.7528
71 71.6486
72 72.843
73 73.7388
74 74.6346
75 75.8287
76 76.7236
77 77.9168
78 78.8116
79 79.7065
80 80.899
81 81.793
82 82.6869
83 83.8788
84 84.7728
85 85.6661
86 86.8568
87 87.7498
88 88.6429
89 89.8336
90 90.7256
91 91.6177
92 92.8072
93 93.6992
94 94.8884
95 95.7796
96 96.6707
97 97.859
98 98.7501
99 99.641
100 100.828
101 101.718
102 102.609
103 103.796
104 104.685
105 105.575
106 106.76
107 107.65
108 108.539
109 109.724
110 110.612
111 111.501
112 112.686
113 113.574
114 114.757
115 115.645
116 116.533
117 117.716
118 118.603
119 119.49
120 120.672
121 121.559
122 122.446
123 123.628
124 124.514
125 125.399
126 126.581
127 127.467
128 128.352
130 130.417
132 132.482
134 134.545
136 136.313
138 138.375
140 140.435
142 142.201
144 144.261
146 146.321
148 148.084
150 150.14
152 152.196
154 154.252
156 156.014
158 158.066
160 160.118
162 161.877
164 163.929
166 165.979
168 168.027
170 169.783
172 171.831
174 173.879
176 175.632
178 177.676
180 179.72
182 181.472
184 183.516
186 185.557
188 187.596
190 189.345
192 191.385
194 193.424
196 195.169
198 197.205
200 199.24
202 200.985
204 203.02
206 205.051
208 207.083
210 208.824
212 210.855
214 212.885
216 214.622
218 216.65
220 218.677
222 220.414
224 222.439
226 224.462
228 226.485
230 228.219
232 230.242
234 232.262
236 233.992
238 236.011
240 238.03
242 239.76
244 241.775
246 243.789
248 245.804
250 247.531
252 249.544
254 251.555
256 253.278
260 257.299
264 261.027
268 265.04
272 268.763
276 272.482
280 276.486
284 280.197
288 284.194
292 287.9
296 291.604
300 295.591
304 299.287
308 303.268
312 306.958
316 310.647
320 314.616
324 318.298
328 322.262
332 325.937
336 329.894
340 333.563
344 337.23
348 341.177
352 344.837
356 348.778
360 352.431
364 356.084
368 360.013
372 363.658
376 367.582
380 371.22
384 374.858
388 378.77
392 382.4
396 386.307
400 389.93
404 393.553
408 397.447
412 401.063
416 404.952
420 408.561
424 412.168
428 416.046
432 419.647
436 423.519
440 427.112
444 430.703
448 434.565
452 438.152
456 442.006
460 445.585
464 449.16
468 453.007
472 456.578
476 460.417
480 463.982
484 467.541
488 471.372
492 474.927
496 478.751
500 482.301
504 486.117
508 489.661
512 493.2
520 500.543
528 507.873
536 515.189
544 522.494
552 529.516
560 536.797
568 544.065
576 551.322
584 558.564
592 565.526
600 572.745
608 579.951
616 587.147
624 594.33
632 601.234
640 608.392
648 615.539
656 622.674
664 629.797
672 636.909
680 643.745
688 650.832
696 657.907
704 664.971
712 672.022
720 678.802
728 685.83
736 692.846
744 699.849
752 706.838
760 713.558
768 720.533
776 727.484
784 734.434
792 741.364
800 748.031
808 754.944
816 761.84
824 768.735
832 775.604
840 782.472
848 789.071
856 795.912
864 802.748
872 809.562
880 816.376
888 822.916
896 829.703
904 836.479
912 843.238
920 849.997
928 856.48
936 863.212
944 869.928
952 876.634
960 883.333
968 889.764
976 896.444
984 903.101
992 909.754
1000 916.394
1008 923.02
1016 929.399
1024 935.999
1040 949.181
1056 962.079
1072 975.176
1088 988.224
1104 1000.99
1120 1013.95
1136 1026.64
1152 1039.52
1168 1052.36
1184 1064.91
1200 1077.66
1216 1090.37
1232 1102.81
1248 1115.43
1264 1127.79
1280 1140.33
1296 1152.84
1312 1165.07
1328 1177.49
1344 1189.87
1360 1201.98
1376 1214.28
1392 1226.31
1408 1238.52
1424 1250.7
1440 1262.62
1456 1274.72
1472 1286.56
1488 1298.57
1504 1310.55
1520 1322.27
1536 1334.18
1552 1346.04
1568 1357.65
1584 1369.43
1600 1380.96
1616 1392.67
1632 1404.34
1648 1415.76
1664 1427.36
1680 1438.91
1696 1450.22
1712 1461.7
1728 1472.93
1744 1484.34
1760 1495.72
1776 1506.84
1792 1518.13
1808 1529.19
1824 1540.41
1840 1551.6
1856 1562.55
1872 1573.66
1888 1584.74
1904 1595.57
1920 1606.58
1936 1617.36
1952 1628.3
1968 1639.2
1984 1649.85
2000 1660.68
2016 1671.48
2032 1682.04
2048 1692.79
2080 1713.94
2112 1734.95
2144 1755.84
2176 1776.79
2208 1797.42
2240 1817.93
2272 1838.29
2304 1858.7
2336 1878.8
2368 1898.78
2400 1918.64
2432 1938.56
2464 1958.16
2496 1977.62
2528 1996.98
2560 2016.39
2592 2035.51
2624 2054.51
2656 2073.39
2688 2092.31
2720 2110.94
2752 2129.46
2784 2147.88
2816 2166.18
2848 2184.54
2880 2202.59
2912 2220.54
2944 2238.38
2976 2256.29
3008 2273.92
3040 2291.45
3072 2308.85
3104 2326.3
3136 2343.5
3168 2360.59
3200 2377.58
3232 2394.63
3264 2411.41
3296 2428.08
3328 2444.65
3360 2461.28
3392 2477.66
3424 2493.94
3456 2510.12
3488 2526.34
3520 2542.32
3552 2558.21
3584 2574.01
3616 2589.72
3648 2605.47
3680 2620.97
3712 2636.39
3744 2651.72
3776 2667.1
3808 2682.26
3840 2697.32
3872 2712.28
3904 2727.29
3936 2742.09
3968 2756.8
4000 2771.42
4032 2786.1
4064 2800.54
4096 2814.9
4160 2843.51
4224 2871.67
4288 2899.49
4352 2927.12
4416 2954.32
4480 2981.3
4544 3007.85
4608 3034.24
4672 3060.22
4736 3086.03
4800 3111.45
4864 3136.66
4928 3161.47
4992 3186.12
5056 3210.4
5120 3234.54
5184 3258.31
5248 3281.9
5312 3305.12
5376 3328.2
5440 3350.94
5504 3373.54
5568 3395.81
5632 3417.83
5696 3439.7
5760 3461.25
5824 3482.68
5888 3503.8
5952 3524.8
6016 3545.48
6080 3566.02
6144 3586.26
6208 3606.4
6272 3626.24
6336 3645.99
6400 3665.45
6464 3684.76
6528 3703.81
6592 3722.76
6656 3741.45
6720 3760.04
6784 3778.38
6848 3796.59
6912 3814.55
6976 3832.42
7040 3850.04
7104 3867.51
7168 3884.9
7232 3902.02
7296 3919.06
7360 3935.87
7424 3952.61
7488 3969.12
7552 3985.57
7616 4001.77
7680 4017.9
7744 4033.81
7808 4049.67
7872 4065.31
7936 4080.9
8000 4096.27
8064 4111.56
8128 4126.66
8192 4141.7
8320 4171.35
8448 4200.42
8576 4229.08
8704 4257.29
8832 4285.04
8960 4312.34
9088 4339.23
9216 4365.71
9344 4391.73
9472 4417.44
9600 4442.75
9728 4467.66
9856 4492.22
9984 4516.45
10112 4540.37
10240 4563.96
10368 4587.24
10496 4610.18
10624 4632.82
10752 4655.19
10880 4677.29
11008 4699.13
11136 4720.71
11264 4741.94
11392 4762.98
11520 4783.79
11648 4804.38
11776 4824.75
11904 4844.91
12032 4864.82
12160 4884.53
12288 4904.05
12416 4923.38
12544 4942.52
12672 4961.5
12800 4980.26
12928 4998.86
13056 5017.29
13184 5035.57
13312 5053.69
13440 5071.67
13568 5089.49
13696 5107.15
13824 5124.68
13952 5142.07
14080 5159.31
14208 5176.46
14336 5193.47
14464 5210.36
14592 5227.14
14720 5243.8
14848 5260.37
14976 5276.82
15104 5293.18
15232 5309.41
15360 5325.56
15488 5341.61
15616 5357.57
15744 5373.45
15872 5389.24
16000 5404.93
16128 5420.54
16256 5436.08
16384 5451.54
16640 5482.26
16896 5512.63
17152 5542.79
17408 5572.71
17664 5602.38
17920 5631.83
18176 5661.08
18432 5690.13
18688 5718.99
18944 5747.69
19200 5776.2
19456 5804.58
19712 5832.79
19968 5860.88
20224 5888.84
20480 5916.68
20736 5944.41
20992 5972.03
21248 5999.56
21504 6026.98
21760 6054.3
22016 6081.54
22272 6108.7
22528 6135.75
22784 6162.77
23040 6189.72
23296 6216.59
23552 6243.4
23808 6270.16
24064 6296.87
24320 6323.52
24576 6350.13
24832 6376.68
25088 6403.2
25344 6429.64
25600 6456.07
25856 6482.47
26112 6508.84
26368 6535.16
26624 6561.46
26880 6587.73
27136 6613.97
27392 6640.18
27648 6666.37
27904 6692.53
28160 6718.64
28416 6744.76
28672 6770.85
28928 6796.93
29184 6823
29440 6849.04
29696 6875.06
29952 6901.07
30208 6927.07
30464 6953.05
30720 6979.02
30976 7004.94
31232 7030.88
31488 7056.81
31744 7082.73
32000 7108.64
32256 7134.54
32512 7160.43
32768 7186.31
33280 7238.05
33792 7289.72
34304 7341.39
34816 7393.04
35328 7444.66
35840 7496.25
36352 7547.82
36864 7599.34
37376 7650.87
37888 7702.38
38400 7753.87
38912 7805.35
39424 7856.78
39936 7908.23
40448 7959.65
40960 8011.07
41472 8062.47
41984 8113.85
42496 8165.2
43008 8216.56
43520 8267.91
44032 8319.25
44544 8370.57
45056 8421.84
45568 8473.14
46080 8524.42
46592 8575.69
47104 8626.95
47616 8678.2
48128 8729.41
48640 8780.65
49152 8831.87
49664 8883.09
50176 8934.29
50688 8985.46
51200 9036.65
51712 9087.84
52224 9139.01
52736 9190.18
53248 9241.34
53760 9292.46
54272 9343.6
54784 9394.74
55296 9445.87
55808 9496.99
56320 9548.07
56832 9599.18
57344 9650.28
57856 9701.37
58368 9752.46
58880 9803.53
59392 9854.58
59904 9905.64
60416 9956.69
60928 10007.7
61440 10058.8
61952 10109.8
62464 10160.8
62976 10211.8
63488 10262.9
64000 10313.9
64512 10364.9
65024 10415.8
65536 10466.8
66560 10568.8
67584 10670.6
68608 10772.5
69632 10874.4
70656 10976.1
71680 11077.9
72704 11179.6
73728 11281.3
74752 11382.9
75776 11484.5
76800 11586.1
77824 11687.6
78848 11789.1
79872 11890.6
80896 11992.1
81920 12093.5
82944 12195
83968 12296.4
84992 12397.8
86016 12499.2
87040 12600.7
88064 12702
89088 12803.4
90112 12904.8
91136 13006.2
92160 13107.5
93184 13208.8
94208 13310.2
95232 13411.5
96256 13512.8
97280 13614.1
98304 13715.4
99328 13816.6
100352 13917.9
101376 14019.1
102400 14120.4
103424 14221.7
104448 14322.9
105472 14424.2
106496 14525.4
107520 14626.7
108544 14728
109568 14829.2
110592 14930.4
111616 15031.7
112640 15132.9
113664 15234.2
114688 15335.5
115712 15436.7
116736 15538
117760 15639.2
118784 15740.5
119808 15841.7
120832 15943
121856 16044.2
122880 16145.5
123904 16246.7
124928 16348
125952 16449.2
126976 16550.4
128000 16651.7
129024 16753
130048 16854.2
131072 16955.5
133120 17157.9
135168 17360.4
137216 17562.9
139264 17765.4
141312 17967.9
143360 18170.4
145408 18372.9
147456 18575.3
149504 18777.8
151552 18980.3
153600 19182.8
155648 19385.3
157696 19587.7
159744 19790.2
161792 19992.7
163840 20195.1
165888 20397.6
167936 20600.1
169984 20802.6
172032 21005
174080 21207.5
176128 21410
178176 21612.4
180224 21814.9
182272 22017.4
184320 22219.9
186368 22422.3
188416 22624.8
190464 22827.3
192512 23029.7
194560 23232.2
196608 23434.6
198656 23637.1
200704 23839.6
202752 24042
204800 24244.5
206848 24446.9
208896 24649.4
210944 24851.8
212992 25054.3
215040 25256.7
217088 25459.2
219136 25661.6
221184 25864.1
223232 26066.5
225280 26269
227328 26471.4
229376 26673.9
231424 26876.3
233472 27078.7
235520 27281.2
237568 27483.6
239616 27686.1
241664 27888.5
243712 28091
245760 28293.4
247808 28495.8
249856 28698.3
251904 28900.7
253952 29103.1
256000 29305.5
258048 29508
260096 29710.4
262144 29912.8
266240 30317.7
270336 30722.5
274432 31127.3
278528 31532.2
282624 31937
286720 32341.8
290816 32746.6
294912 33151.4
299008 33556.3
303104 33961.1
307200 34365.9
311296 34770.7
315392 35175.5
319488 35580.3
323584 35985
327680 36389.8
331776 36794.6
335872 37199.4
339968 37604.1
344064 38008.9
348160 38413.6
352256 38818.4
356352 39223.1
360448 39627.8
364544 40032.5
368640 40437.2
372736 40841.9
376832 41246.5
380928 41651.2
385024 42055.9
389120 42460.5
393216 42865.2
397312 43269.8
401408 43674.5
405504 44079.1
409600 44483.8
413696 44888.4
417792 45293.1
421888 45697.7
425984 46102.3
430080 46506.9
434176 46911.6
438272 47316.2
442368 47720.8
446464 48125.4
450560 48530
454656 48934.6
458752 49339.2
462848 49743.8
466944 50148.4
471040 50552.9
475136 50957.5
479232 51362.1
483328 51766.7
487424 52171.2
491520 52575.8
495616 52980.3
499712 53384.9
503808 53789.4
507904 54194
512000 54598.5
516096 55003.1
520192 55407.6
524288 55812.1
532480 56621.1
540672 57430.2
548864 58239.2
557056 59048.1
565248 59857.1
573440 60666
581632 61475
589824 62283.9
598016 63092.8
606208 63901.6
614400 64710.5
622592 65519.3
630784 66328.1
638976 67136.9
647168 67945.7
655360 68754.5
663552 69563.2
671744 70371.9
679936 71180.6
688128 71989.3
696320 72798
704512 73606.7
712704 74415.4
720896 75224
729088 76032.7
737280 76841.3
745472 77649.9
753664 78458.5
761856 79267.1
770048 80075.7
778240 80884.3
786432 81692.9
794624 82501.5
802816 83310.1
811008 84118.6
819200 84927.2
827392 85735.7
835584 86544.3
843776 87352.8
851968 88161.4
860160 88969.9
868352 89778.4
876544 90586.9
884736 91395.5
892928 92204
901120 93012.5
909312 93821
917504 94629.5
925696 95438
933888 96246.5
942080 97055
950272 97863.5
958464 98671.9
966656 99480.4
974848 100289
983040 101097
991232 101906
999424 102714
1007616 103523
1015808 104331
1024000 105140
1032192 105948
1040384 106756
1048576 107565
1064960 109182
1081344 110798
1097728 112415
1114112 114032
1130496 115649
1146880 117265
1163264 118882
1179648 120499
1196032 122115
1212416 123732
1228800 125349
1245184 126965
1261568 128582
1277952 130198
1294336 131815
1310720 133432
1327104 135048
1343488 136664
1359872 138281
1376256 139897
1392640 141514
1409024 143130
1425408 144747
1441792 146363
1458176 147979
1474560 149596
1490944 151212
1507328 152828
1523712 154444
1540096 156061
1556480 157677
1572864 159293
1589248 160909
1605632 162525
1622016 164141
1638400 165758
1654784 167374
1671168 168990
1687552 170606
1703936 172222
1720320 173838
1736704 175454
1753088 177070
1769472 178686
1785856 180302
1802240 181918
1818624 183534
1835008 185149
1851392 186765
1867776 188381
1884160 189997
1900544 191613
1916928 193229
1933312 194844
1949696 196460
1966080 198076
1982464 199692
1998848 201307
2015232 202923
2031616 204539
2048000 206154
2064384 207770
2080768 209385
2097152 211001
2129920 214232
2162688 217463
2195456 220694
2228224 223925
2260992 227156
2293760 230386
2326528 233617
2359296 236847
2392064 240078
2424832 243308
2457600 246539
2490368 249769
2523136 252999
2555904 256229
2588672 259459
2621440 262689
2654208 265919
2686976 269148
2719744 272378
2752512 275608
2785280 278837
2818048 282067
2850816 285296
2883584 288525
2916352 291755
2949120 294984
2981888 298213
3014656 301442
3047424 304671
3080192 307900
3112960 311128
3145728 314357
3178496 317586
3211264 320814
3244032 324043
3276800 327271
3309568 330499
3342336 333728
3375104 336956
3407872 340184
3440640 343412
3473408 346640
3506176 349868
3538944 353095
3571712 356323
3604480 359551
3637248 362778
3670016 366006
3702784 369233
3735552 372460
3768320 375688
3801088 378915
3833856 382142
3866624 385369
3899392 388596
3932160 391823
3964928 395050
3997696 398276
4030464 401503
4063232 404730
4096000 407956
4128768 411182
4161536 414409
4194304 417635
4259840 424087
4325376 430539
4390912 436991
4456448 443442
4521984 449894
4587520 456344
4653056 462795
4718592 469245
4784128 475695
4849664 482145
4915200 488594
4980736 495043
5046272 501492
5111808 507940
5177344 514388
5242880 520836
5308416 527283
5373952 533731
5439488 540178
5505024 546624
5570560 553071
5636096 559517
5701632 565962
5767168 572408
5832704 578853
5898240 585298
5963776 591743
6029312 598187
6094848 604631
6160384 611075
6225920 617518
6291456 623961
6356992 630404
6422528 636847
6488064 643289
6553600 649731
6619136 656172
6684672 662614
6750208 669055
6815744 675496
6881280 681936
6946816 688376
7012352 694816
7077888 701256
7143424 707695
7208960 714134
7274496 720573
7340032 727012
7405568 733450
7471104 739888
7536640 746326
7602176 752763
7667712 759200
7733248 765637
7798784 772073
7864320 778509
7929856 784945
7995392 791381
8060928 797816
8126464 804252
8192000 810686
8257536 817121
8323072 823555
8388608 829989
8519680 842856
8650752 855722
8781824 868587
8912896 881450
9043968 894313
9175040 907174
9306112 920034
9437184 932893
9568256 945751
9699328 958608
9830400 971464
9961472 984319
10092544 997172
10223616 1.01002e+06
10354688 1.02288e+06
10485760 1.03573e+06
10616832 1.04858e+06
10747904 1.06142e+06
10878976 1.07427e+06
11010048 1.08712e+06
11141120 1.09996e+06
11272192 1.11281e+06
11403264 1.12565e+06
11534336 1.13849e+06
11665408 1.15133e+06
11796480 1.16417e+06
11927552 1.17701e+06
12058624 1.18985e+06
12189696 1.20268e+06
12320768 1.21552e+06
12451840 1.22834e+06
12582912 1.23536e+06
12713984 1.23662e+06
12845056 1.23719e+06
12976128 1.23776e+06
13107200 1.23833e+06
13238272 1.2389e+06
13369344 1.23947e+06
13500416 1.23997e+06
13631488 1.24029e+06
13762560 1.24038e+06
13893632 1.24046e+06
14024704 1.24055e+06
14155776 1.24063e+06
14286848 1.24071e+06
14417920 1.2408e+06
14548992 1.24088e+06
14680064 1.24096e+06
14811136 1.24104e+06
14942208 1.24113e+06
15073280 1.24121e+06
15204352 1.24129e+06
15335424 1.24137e+06
15466496 1.24145e+06
15597568 1.24153e+06
15728640 1.24161e+06
15859712 1.24169e+06
15990784 1.24177e+06
16121856 1.24185e+06
16252928 1.24193e+06
16384000 1.242e+06
16515072 1.24208e+06
16646144 1.24216e+06
16777216 1.24223e+06
17039360 1.24238e+06
17301504 1.24253e+06
17563648 1.24268e+06
17825792 1.24282e+06
18087936 1.24296e+06
18350080 1.2431e+06
18612224 1.24324e+06
18874368 1.24338e+06
19136512 1.24352e+06
19398656 1.24366e+06
19660800 1.24379e+06
19922944 1.24393e+06
20185088 1.24407e+06
20447232 1.24421e+06
20709376 1.24434e+06
20971520 1.24448e+06
21233664 1.24461e+06
21495808 1.24475e+06
21757952 1.24489e+06
22020096 1.24502e+06
22282240 1.24515e+06
22544384 1.24529e+06
22806528 1.24542e+06
23068672 1.24555e+06
23330816 1.24569e+06
23592960 1.24582e+06
23855104 1.24595e+06
24117248 1.24608e+06
24379392 1.24622e+06
24641536 1.24635e+06
24903680 1.24648e+06
25165824 1.24661e+06
25427968 1.24674e+06
25690112 1.24687e+06
25952256 1.247e+06
26214400 1.24713e+06
26476544 1.24725e+06
26738688 1.24738e+06
27000832 1.24751e+06
27262976 1.24764e+06
27525120 1.24777e+06
27787264 1.24789e+06
28049408 1.24802e+06
28311552 1.24815e+06
28573696 1.24827e+06
28835840 1.2484e+06
29097984 1.24852e+06
29360128 1.24865e+06
29622272 1.24877e+06
29884416 1.2489e+06
30146560 1.24902e+06
30408704 1.24915e+06
30670848 1.24927e+06
30932992 1.24939e+06
31195136 1.24951e+06
31457280 1.24964e+06
31719424 1.24976e+06
31981568 1.24988e+06
32243712 1.25e+06
32505856 1.25012e+06
32768000 1.25024e+06
33030144 1.25036e+06
33292288 1.25048e+06
33554432 1.2506e+06
34078720 1.25084e+06
34603008 1.25108e+06
35127296 1.25132e+06
35651584 1.25155e+06
36175872 1.25179e+06
36700160 1.25202e+06
37224448 1.25225e+06
37748736 1.25248e+06
38273024 1.25271e+06
38797312 1.25294e+06
39321600 1.25317e+06
39845888 1.25339e+06
40370176 1.25362e+06
40894464 1.25384e+06
41418752 1.25406e+06
41943040 1.25429e+06
42467328 1.25451e+06
42991616 1.25472e+06
43515904 1.25494e+06
44040192 1.25516e+06
44564480 1.25537e+06
45088768 1.25559e+06
45613056 1.2558e+06
46137344 1.25602e+06
46661632 1.25623e+06
47185920 1.25644e+06
47710208 1.25665e+06
48234496 1.25686e+06
48758784 1.25706e+06
49283072 1.25727e+06
49807360 1.25747e+06
50331648 1.25768e+06
50855936 1.25788e+06
51380224 1.25808e+06
51904512 1.25828e+06
52428800 1.25848e+06
52953088 1.25868e+06
53477376 1.25888e+06
54001664 1.25908e+06
54525952 1.25928e+06
55050240 1.25947e+06
55574528 1.25967e+06
56098816 1.25986e+06
56623104 1.26005e+06
57147392 1.26024e+06
57671680 1.26043e+06
58195968 1.26062e+06
58720256 1.26081e+06
59244544 1.261e+06
59768832 1.26119e+06
60293120 1.26137e+06
60817408 1.26156e+06
61341696 1.26174e+06
61865984 1.26193e+06
62390272 1.26211e+06
62914560 1.26229e+06
63438848 1.26247e+06
63963136 1.26265e+06
64487424 1.26283e+06
65011712 1.26301e+06
65536000 1.26319e+06
66060288 1.26336e+06
66584576 1.26354e+06
67108864 1.26371e+06
68157440 1.26406e+06
69206016 1.2644e+06
70254592 1.26474e+06
71303168 1.26508e+06
72351744 1.26542e+06
73400320 1.26575e+06
74448896 1.26607e+06
75497472 1.2664e+06
76546048 1.26672e+06
77594624 1.26704e+06
78643200 1.26736e+06
79691776 1.26767e+06
80740352 1.26798e+06
81788928 1.26829e+06
82837504 1.26859e+06
83886080 1.26889e+06
84934656 1.26919e+06
85983232 1.26949e+06
87031808 1.26978e+06
88080384 1.27007e+06
89128960 1.27036e+06
90177536 1.27065e+06
91226112 1.27093e+06
92274688 1.27121e+06
93323264 1.27149e+06
94371840 1.27176e+06
95420416 1.27204e+06
96468992 1.27231e+06
97517568 1.27258e+06
98566144 1.27284e+06
99614720 1.2731e+06
100663296 1.27337e+06
101711872 1.27362e+06
102760448 1.27388e+06
103809024 1.27414e+06
104857600 1.27439e+06
105906176 1.27464e+06
106954752 1.27489e+06
108003328 1.27513e+06
109051904 1.27538e+06
110100480 1.27562e+06
111149056 1.27586e+06
112197632 1.27609e+06
113246208 1.27633e+06
114294784 1.27656e+06
115343360 1.27679e+06
116391936 1.27702e+06
117440512 1.27725e+06
118489088 1.27748e+06
119537664 1.2777e+06
120586240 1.27792e+06
121634816 1.27814e+06
122683392 1.27836e+06
123731968 1.27858e+06
124780544 1.27879e+06
125829120 1.279e+06
126877696 1.27921e+06
127926272 1.27942e+06
128974848 1.27963e+06
130023424 1.27984e+06
131072000 1.28004e+06
132120576 1.28024e+06
133169152 1.28044e+06
134217728 1.28064e+06
136314880 1.28104e+06
138412032 1.28142e+06
140509184 1.28181e+06
142606336 1.28218e+06
144703488 1.28255e+06
146800640 1.28291e+06
148897792 1.28327e+06
150994944 1.28362e+06
153092096 1.28397e+06
155189248 1.28431e+06
157286400 1.28465e+06
159383552 1.28498e+06
161480704 1.28531e+06
163577856 1.28563e+06
165675008 1.28594e+06
167772160 1.28626e+06
169869312 1.28656e+06
171966464 1.28687e+06
174063616 1.28717e+06
176160768 1.28746e+06
178257920 1.28775e+06
180355072 1.28804e+06
182452224 1.28832e+06
184549376 1.2886e+06
186646528 1.28887e+06
188743680 1.28914e+06
190840832 1.28941e+06
192937984 1.28967e+06
195035136 1.28993e+06
197132288 1.29019e+06
199229440 1.29044e+06
201326592 1.29069e+06
203423744 1.29094e+06
205520896 1.29118e+06
207618048 1.29142e+06
209715200 1.29166e+06
211812352 1.29189e+06
213909504 1.29212e+06
216006656 1.29235e+06
218103808 1.29257e+06
220200960 1.2928e+06
222298112 1.29302e+06
224395264 1.29323e+06
226492416 1.29345e+06
228589568 1.29366e+06
230686720 1.29387e+06
232783872 1.29407e+06
234881024 1.29428e+06
236978176 1.29448e+06
239075328 1.29468e+06
241172480 1.29487e+06
243269632 1.29507e+06
245366784 1.29526e+06
247463936 1.29545e+06
249561088 1.29564e+06
251658240 1.29583e+06
253755392 1.29601e+06
255852544 1.29619e+06
257949696 1.29637e+06
260046848 1.29655e+06
262144000 1.29673e+06
264241152 1.2969e+06
266338304 1.29707e+06
268435456 1.29724e+06
272629760 1.29758e+06
276824064 1.29791e+06
281018368 1.29823e+06
285212672 1.29855e+06
289406976 1.29886e+06
293601280 1.29917e+06
297795584 1.29947e+06
301989888 1.29976e+06
306184192 1.30005e+06
310378496 1.30033e+06
314572800 1.30061e+06
318767104 1.30089e+06
322961408 1.30116e+06
327155712 1.3014e+06
331350016 1.30161e+06
335544320 1.30181e+06
339738624 1.302e+06
343932928 1.30219e+06
348127232 1.30238e+06
352321536 1.30256e+06
356515840 1.30275e+06
360710144 1.30292e+06
364904448 1.3031e+06
369098752 1.30327e+06
373293056 1.30344e+06
377487360 1.3036e+06
381681664 1.30377e+06
385875968 1.30393e+06
390070272 1.30408e+06
394264576 1.30424e+06
398458880 1.30439e+06
402653184 1.30454e+06
406847488 1.30469e+06
411041792 1.30484e+06
415236096 1.30498e+06
419430400 1.30512e+06
423624704 1.30526e+06
427819008 1.3054e+06
432013312 1.30553e+06
436207616 1.30567e+06
440401920 1.3058e+06
444596224 1.30593e+06
448790528 1.30606e+06
452984832 1.30619e+06
457179136 1.30631e+06
461373440 1.30644e+06
465567744 1.30656e+06
469762048 1.30668e+06
473956352 1.3068e+06
478150656 1.30692e+06
482344960 1.30703e+06
486539264 1.30715e+06
490733568 1.30727e+06
494927872 1.30738e+06
499122176 1.30749e+06
503316480 1.3076e+06
507510784 1.30771e+06
511705088 1.30782e+06
515899392 1.30793e+06
520093696 1.30803e+06
524288000 1.30814e+06
528482304 1.30824e+06
532676608 1.30834e+06
536870912 1.30845e+06
545259520 1.30865e+06
553648128 1.30885e+06
562036736 1.30904e+06
570425344 1.30923e+06
578813952 1.30942e+06
587202560 1.3096e+06
595591168 1.30979e+06
603979776 1.30996e+06
612368384 1.31014e+06
620756992 1.31031e+06
629145600 1.31048e+06
637534208 1.31065e+06
645922816 1.31082e+06
654311424 1.31098e+06
662700032 1.31114e+06
671088640 1.3113e+06
679477248 1.31146e+06
687865856 1.31161e+06
696254464 1.31176e+06
704643072 1.31191e+06
713031680 1.31206e+06
721420288 1.31221e+06
729808896 1.31235e+06
738197504 1.31249e+06
746586112 1.31263e+06
754974720 1.31277e+06
763363328 1.31291e+06
771751936 1.31304e+06
780140544 1.31317e+06
788529152 1.31331e+06
796917760 1.31343e+06
805306368 1.31356e+06
813694976 1.31369e+06
822083584 1.31381e+06
830472192 1.31393e+06
838860800 1.31406e+06
847249408 1.31417e+06
855638016 1.31429e+06
864026624 1.31441e+06
872415232 1.31452e+06
880803840 1.31463e+06
889192448 1.31475e+06
897581056 1.31485e+06
905969664 1.31496e+06
914358272 1.31507e+06
922746880 1.31517e+06
931135488 1.31528e+06
939524096 1.31538e+06
947912704 1.31548e+06
956301312 1.31557e+06
964689920 1.31567e+06
973078528 1.31577e+06
981467136 1.31586e+06
989855744 1.31595e+06
998244352 1.31604e+06
1006632960 1.31613e+06
1015021568 1.31622e+06
1023410176 1.31631e+06
1031798784 1.31639e+06
1040187392 1.31648e+06
1048576000 1.31656e+06
1056964608 1.31664e+06
1065353216 1.31672e+06
1073741824 1.31679e+06
1090519040 1.31694e+06
1107296256 1.31709e+06
1124073472 1.31723e+06
1140850688 1.31736e+06
1157627904 1.31749e+06
1174405120 1.31761e+06
1191182336 1.31773e+06
1207959552 1.31784e+06
1224736768 1.31794e+06
1241513984 1.31804e+06
1258291200 1.31814e+06
1275068416 1.31823e+06
1291845632 1.31831e+06
1308622848 1.31839e+06
1325400064 1.31846e+06
1342177280 1.31853e+06
1358954496 1.31859e+06
1375731712 1.31865e+06
1392508928 1.3187e+06
1409286144 1.31875e+06
1426063360 1.31879e+06
1442840576 1.31883e+06
1459617792 1.31886e+06
1476395008 1.31889e+06
1493172224 1.31891e+06
1509949440 1.31893e+06
1526726656 1.31894e+06
1543503872 1.31895e+06
1560281088 1.31895e+06
1577058304 1.31896e+06
1593835520 1.31897e+06
1610612736 1.31897e+06
1627389952 1.31898e+06
1644167168 1.31898e+06
1660944384 1.31899e+06
1677721600 1.31899e+06
1694498816 1.319e+06
1711276032 1.31901e+06
1728053248 1.31901e+06
1744830464 1.31902e+06
1761607680 1.31902e+06
1778384896 1.31903e+06
1795162112 1.31904e+06
1811939328 1.31904e+06
1828716544 1.31905e+06
1845493760 1.31905e+06
1862270976 1.31906e+06
1879048192 1.31907e+06
1895825408 1.31907e+06
1912602624 1.31908e+06
1929379840 1.31908e+06
1946157056 1.31909e+06
1962934272 1.31909e+06
1979711488 1.3191e+06
1996488704 1.31911e+06
2013265920 1.31911e+06
2030043136 1.31912e+06
2046820352 1.31912e+06
2063597568 1.31913e+06
2080374784 1.31914e+06
2097152000 1.31914e+06
2113929216 1.31915e+06
2130706432 1.31915e+06
2147483648 1.31916e+06
2181038080 1.31917e+06
2214592512 1.31919e+06
2248146944 1.3192e+06
2281701376 1.31921e+06
2315255808 1.31922e+06
2348810240 1.31923e+06
2382364672 1.31925e+06
2415919104 1.31926e+06
2449473536 1.31927e+06
2483027968 1.31928e+06
2516582400 1.3193e+06
2550136832 1.31931e+06
2583691264 1.31932e+06
2617245696 1.31933e+06
2650800128 1.31935e+06
2684354560 1.31936e+06
2717908992 1.31937e+06
2751463424 1.31938e+06
2785017856 1.3194e+06
2818572288 1.31941e+06
2852126720 1.31942e+06
2885681152 1.31943e+06
2919235584 1.31945e+06
2952790016 1.31946e+06
2986344448 1.31947e+06
3019898880 1.31949e+06
3053453312 1.3195e+06
3087007744 1.31951e+06
3120562176 1.31953e+06
3154116608 1.31954e+06
3187671040 1.31955e+06
3221225472 1.31957e+06
3254779904 1.31958e+06
3288334336 1.31959e+06
3321888768 1.3196e+06
3355443200 1.31962e+06
3388997632 1.31963e+06
3422552064 1.31965e+06
3456106496 1.31966e+06
3489660928 1.31967e+06
3523215360 1.31969e+06
3556769792 1.3197e+06
3590324224 1.31971e+06
3623878656 1.31973e+06
3657433088 1.31974e+06
3690987520 1.31975e+06
3724541952 1.31977e+06
3758096384 1.31978e+06
3791650816 1.3198e+06
3825205248 1.31981e+06
3858759680 1.31982e+06
3892314112 1.31984e+06
3925868544 1.31985e+06
3959422976 1.31987e+06
3992977408 1.31988e+06
4026531840 1.31989e+06
4060086272 1.31991e+06
4093640704 1.31992e+06
4127195136 1.31994e+06
4160749568 1.31995e+06
4194304000 1.31997e+06
4227858432 1.31998e+06
4261412864 1.31999e+06
4294967296 1.32001e+06
4362076160 1.32004e+06
4429185024 1.32007e+06
4496293888 1.3201e+06
4563402752 1.32013e+06
4630511616 1.32016e+06
4697620480 1.32019e+06
4764729344 1.32022e+06
4831838208 1.32025e+06
4898947072 1.32028e+06
4966055936 1.32031e+06
5033164800 1.32034e+06
5100273664 1.32037e+06
5167382528 1.3204e+06
5234491392 1.32043e+06
5301600256 1.32047e+06
5368709120 1.3205e+06
5435817984 1.32053e+06
5502926848 1.32056e+06
5570035712 1.32059e+06
5637144576 1.32063e+06
5704253440 1.32066e+06
5771362304 1.32069e+06
5838471168 1.32073e+06
5905580032 1.32076e+06
5972688896 1.3208e+06
6039797760 1.32083e+06
6106906624 1.32086e+06
6174015488 1.3209e+06
6241124352 1.32093e+06
6308233216 1.32097e+06
6375342080 1.321e+06
6442450944 1.32104e+06
6509559808 1.32108e+06
6576668672 1.32111e+06
6643777536 1.32115e+06
6710886400 1.32118e+06
6777995264 1.32122e+06
6845104128 1.32126e+06
6912212992 1.3213e+06
6979321856 1.32133e+06
7046430720 1.32137e+06
7113539584 1.32141e+06
7180648448 1.32145e+06
7247757312 1.32149e+06
7314866176 1.32152e+06
7381975040 1.32156e+06
7449083904 1.3216e+06
7516192768 1.32164e+06
7583301632 1.32168e+06
7650410496 1.32172e+06
7717519360 1.32176e+06
7784628224 1.3218e+06
7851737088 1.32185e+06
7918845952 1.32189e+06
7985954816 1.32193e+06
8053063680 1.32197e+06
8120172544 1.32201e+06
8187281408 1.32206e+06
8254390272 1.3221e+06
8321499136 1.32214e+06
8388608000 1.32219e+06
8455716864 1.32223e+06
8522825728 1.32227e+06
8589934592 1.32232e+06
8724152320 1.32241e+06
8858370048 1.3225e+06
8992587776 1.32259e+06
9126805504 1.32269e+06
9261023232 1.32279e+06
9395240960 1.32288e+06
9529458688 1.32298e+06
9663676416 1.32308e+06
9797894144 1.32319e+06
9932111872 1.32329e+06
10066329600 1.3234e+06
10200547328 1.3235e+06
10334765056 1.32361e+06
10468982784 1.32372e+06
10603200512 1.32384e+06
10737418240 1.32395e+06
10871635968 1.32407e+06
11005853696 1.32419e+06
11140071424 1.32431e+06
11274289152 1.32443e+06
11408506880 1.32456e+06
11542724608 1.32469e+06
11676942336 1.32482e+06
11811160064 1.32495e+06
11945377792 1.32508e+06
12079595520 1.32522e+06
12213813248 1.32536e+06
12348030976 1.3255e+06
12482248704 1.32565e+06
12616466432 1.3258e+06
12750684160 1.32595e+06
12884901888 1.32611e+06
13019119616 1.32626e+06
13153337344 1.32642e+06
13287555072 1.32659e+06
13421772800 1.32676e+06
13555990528 1.32693e+06
13690208256 1.3271e+06
13824425984 1.32728e+06
13958643712 1.32746e+06
14092861440 1.32765e+06
14227079168 1.32784e+06
14361296896 1.32803e+06
14495514624 1.32823e+06
14629732352 1.32844e+06
14763950080 1.32864e+06
14898167808 1.32886e+06
15032385536 1.32908e+06
15166603264 1.3293e+06
15300820992 1.32953e+06
15435038720 1.32976e+06
15569256448 1.33e+06
15703474176 1.33025e+06
15837691904 1.3305e+06
15971909632 1.33076e+06
16106127360 1.33103e+06
16240345088 1.3313e+06
16374562816 1.33158e+06
16508780544 1.33187e+06
16642998272 1.33217e+06
16777216000 1.33247e+06
16911433728 1.33278e+06
17045651456 1.33311e+06
17179869184 1.33344e+06
17448304640 1.33413e+06
17716740096 1.33487e+06
17985175552 1.33565e+06
18253611008 1.33649e+06
18522046464 1.33738e+06
18790481920 1.33834e+06
19058917376 1.33936e+06
19327352832 1.34047e+06
19595788288 1.34167e+06
19864223744 1.34295e+06
20132659200 1.34436e+06
20401094656 1.34589e+06
20669530112 1.34759e+06
20937965568 1.34944e+06
21206401024 1.35146e+06
21474836480 1.3537e+06
21743271936 1.35624e+06
22011707392 1.35911e+06
22280142848 1.36234e+06
22548578304 1.36602e+06
22817013760 1.37023e+06
23085449216 1.37508e+06
23353884672 1.38092e+06
23622320128 1.38798e+06
23890755584 1.39659e+06
24159191040 1.40727e+06
24427626496 1.42084e+06
24696061952 1.43762e+06
24964497408 1.45315e+06
25232932864 1.46245e+06
25501368320 1.47163e+06
25769803776 1.48165e+06
26038239232 1.4929e+06
26306674688 1.5044e+06
26575110144 1.50793e+06
26843545600 1.50793e+06
27111981056 1.50793e+06
27380416512 1.50793e+06
27648851968 1.50793e+06
27917287424 1.50793e+06
28185722880 1.50793e+06
28454158336 1.50793e+06
28722593792 1.50793e+06
28991029248 1.50793e+06
29259464704 1.50793e+06
29527900160 1.50793e+06
29796335616 1.50793e+06
30064771072 1.50793e+06
30333206528 1.50793e+06
30601641984 1.50793e+06
30870077440 1.50793e+06
31138512896 1.50793e+06
31406948352 1.50793e+06
31675383808 1.50793e+06
31943819264 1.50793e+06
32212254720 1.50793e+06
32480690176 1.50793e+06
32749125632 1.50793e+06
33017561088 1.50793e+06
33285996544 1.50793e+06
33554432000 1.50793e+06
33822867456 1.50793e+06
34091302912 1.50793e+06
34359738368 1.50793e+06
34896609280 1.50793e+06
35433480192 1.50793e+06
35970351104 1.50793e+06
36507222016 1.50793e+06
37044092928 1.50793e+06
37580963840 1.50793e+06
38117834752 1.50793e+06
38654705664 1.50793e+06
39191576576 1.50793e+06
39728447488 1.50793e+06
40265318400 1.50793e+06
40802189312 1.50793e+06
41339060224 1.50793e+06
41875931136 1.50793e+06
42412802048 1.50793e+06
42949672960 1.50793e+06
43486543872 1.50793e+06
44023414784 1.50793e+06
44560285696 1.50793e+06
45097156608 1.50793e+06
45634027520 1.50793e+06
46170898432 1.50793e+06
46707769344 1.50793e+06
47244640256 1.50793e+06
47781511168 1.50793e+06
48318382080 1.50793e+06
48855252992 1.50793e+06
49392123904 1.50793e+06
49928994816 1.50793e+06
50465865728 1.50793e+06
51002736640 1.50793e+06
51539607552 1.50793e+06
52076478464 1.50793e+06
52613349376 1.50793e+06
53150220288 1.50793e+06
53687091200 1.50793e+06
54223962112 1.50793e+06
54760833024 1.50793e+06
55297703936 1.50793e+06
55834574848 1.50793e+06
56371445760 1.50793e+06
56908316672 1.50793e+06
57445187584 1.50793e+06
57982058496 1.50793e+06
58518929408 1.50793e+06
59055800320 1.50793e+06
59592671232 1.50793e+06
60129542144 1.50793e+06
60666413056 1.50793e+06
61203283968 1.50793e+06
61740154880 1.50793e+06
62277025792 1.50793e+06
62813896704 1.50793e+06
63350767616 1.50793e+06
63887638528 1.50793e+06
64424509440 1.50793e+06
64961380352 1.50793e+06
65498251264 1.50793e+06
66035122176 1.50793e+06
66571993088 1.50793e+06
67108864000 1.50793e+06
67645734912 1.50793e+06
68182605824 1.50793e+06
68719476736 1.50793e+06
69793218560 1.50793e+06
70866960384 1.50793e+06
71940702208 1.50793e+06
73014444032 1.50793e+06
74088185856 1.50793e+06
75161927680 1.50793e+06
76235669504 1.50793e+06
77309411328 1.50793e+06
78383153152 1.50793e+06
79456894976 1.50793e+06
80530636800 1.50793e+06
81604378624 1.50793e+06
82678120448 1.50793e+06
83751862272 1.50793e+06
84825604096 1.50793e+06
85899345920 1.50793e+06
86973087744 1.50793e+06
88046829568 1.50793e+06
89120571392 1.50793e+06
90194313216 1.50793e+06
91268055040 1.50793e+06
92341796864 1.50793e+06
93415538688 1.50793e+06
94489280512 1.50793e+06
95563022336 1.50793e+06
96636764160 1.50793e+06
97710505984 1.50793e+06
98784247808 1.50793e+06
99857989632 1.50793e+06
100931731456 1.50793e+06
102005473280 1.50793e+06
103079215104 1.50793e+06
104152956928 1.50793e+06
105226698752 1.50793e+06
106300440576 1.50793e+06
107374182400 1.50793e+06
108447924224 1.50793e+06
109521666048 1.50793e+06
110595407872 1.50793e+06
111669149696 1.50793e+06
112742891520 1.50793e+06
113816633344 1.50793e+06
114890375168 1.50793e+06
115964116992 1.50793e+06
117037858816 1.50793e+06
118111600640 1.50793e+06
119185342464 1.50793e+06
120259084288 1.50793e+06
121332826112 1.50793e+06
122406567936 1.50793e+06
123480309760 1.50793e+06
124554051584 1.50793e+06
125627793408 1.50793e+06
126701535232 1.50793e+06
127775277056 1.50793e+06
128849018880 1.50793e+06
129922760704 1.50793e+06
130996502528 1.50793e+06
132070244352 1.50793e+06
133143986176 1.50793e+06
134217728000 1.50793e+06
135291469824 1.50793e+06
136365211648 1.50793e+06
137438953472 1.50793e+06
139586437120 1.50793e+06
141733920768 1.50793e+06
143881404416 1.50793e+06
146028888064 1.50793e+06
148176371712 1.50793e+06
150323855360 1.50793e+06
152471339008 1.50793e+06
154618822656 1.50793e+06
156766306304 1.50793e+06
158913789952 1.50793e+06
161061273600 1.50793e+06
163208757248 1.50793e+06
165356240896 1.50793e+06
167503724544 1.50793e+06
169651208192 1.50793e+06
171798691840 1.50793e+06
173946175488 1.50793e+06
176093659136 1.50793e+06
178241142784 1.50793e+06
180388626432 1.50793e+06
182536110080 1.50793e+06
184683593728 1.50793e+06
186831077376 1.50793e+06
188978561024 1.50793e+06
191126044672 1.50793e+06
193273528320 1.50793e+06
195421011968 1.50793e+06
197568495616 1.50793e+06
199715979264 1.50793e+06
201863462912 1.50793e+06
204010946560 1.50793e+06
206158430208 1.50793e+06
208305913856 1.50793e+06
210453397504 1.50793e+06
212600881152 1.50793e+06
214748364800 1.50793e+06
216895848448 1.50793e+06
219043332096 1.50793e+06
221190815744 1.50793e+06
223338299392 1.50793e+06
225485783040 1.50793e+06
227633266688 1.50793e+06
229780750336 1.50793e+06
231928233984 1.50793e+06
234075717632 1.50793e+06
236223201280 1.50793e+06
238370684928 1.50793e+06
240518168576 1.50793e+06
242665652224 1.50793e+06
244813135872 1.50793e+06
246960619520 1.50793e+06
249108103168 1.50793e+06
251255586816 1.50793e+06
253403070464 1.50793e+06
255550554112 1.50793e+06
257698037760 1.50793e+06
259845521408 1.50793e+06
261993005056 1.50793e+06
264140488704 1.50793e+06
266287972352 1.50793e+06
268435456000 1.50793e+06
270582939648 1.50793e+06
272730423296 1.50793e+06
274877906944 1.50793e+06
279172874240 1.50793e+06
283467841536 1.50793e+06
287762808832 1.50793e+06
292057776128 1.50793e+06
296352743424 1.50793e+06
300647710720 1.50793e+06
304942678016 1.50793e+06
309237645312 1.50793e+06
313532612608 1.50793e+06
317827579904 1.50793e+06
322122547200 1.50793e+06
326417514496 1.50793e+06
330712481792 1.50793e+06
335007449088 1.50793e+06
339302416384 1.50793e+06
343597383680 1.50793e+06
347892350976 1.50793e+06
352187318272 1.50793e+06
356482285568 1.50793e+06
360777252864 1.50793e+06
365072220160 1.50793e+06
369367187456 1.50793e+06
373662154752 1.50793e+06
377957122048 1.50793e+06
382252089344 1.50793e+06
386547056640 1.50793e+06
390842023936 1.50793e+06
395136991232 1.50793e+06
399431958528 1.50793e+06
403726925824 1.50793e+06
408021893120 1.50793e+06
412316860416 1.50793e+06
416611827712 1.50793e+06
420906795008 1.50793e+06
425201762304 1.50793e+06
429496729600 1.50793e+06
433791696896 1.50793e+06
438086664192 1.50793e+06
442381631488 1.50793e+06
446676598784 1.50793e+06
450971566080 1.50793e+06
455266533376 1.50793e+06
459561500672 1.50793e+06
463856467968 1.50793e+06
468151435264 1.50793e+06
472446402560 1.50793e+06
476741369856 1.50793e+06
481036337152 1.50793e+06
485331304448 1.50793e+06
489626271744 1.50793e+06
493921239040 1.50793e+06
498216206336 1.50793e+06
502511173632 1.50793e+06
506806140928 1.50793e+06
511101108224 1.50793e+06
515396075520 1.50793e+06
519691042816 1.50793e+06
523986010112 1.50793e+06
528280977408 1.50793e+06
532575944704 1.50793e+06
536870912000 1.50793e+06
541165879296 1.50793e+06
545460846592 1.50793e+06
549755813888 1.50793e+06
558345748480 1.50793e+06
566935683072 1.50793e+06
575525617664 1.50793e+06
584115552256 1.50793e+06
592705486848 1.50793e+06
601295421440 1.50793e+06
609885356032 1.50793e+06
618475290624 1.50793e+06
627065225216 1.50793e+06
635655159808 1.50793e+06
644245094400 1.50793e+06
652835028992 1.50793e+06
661424963584 1.50793e+06
670014898176 1.50793e+06
678604832768 1.50793e+06
687194767360 1.50793e+06
695784701952 1.50793e+06
704374636544 1.50793e+06
712964571136 1.50793e+06
721554505728 1.50793e+06
730144440320 1.50793e+06
738734374912 1.50793e+06
747324309504 1.50793e+06
755914244096 1.50793e+06
764504178688 1.50793e+06
773094113280 1.50793e+06
781684047872 1.50793e+06
790273982464 1.50793e+06
798863917056 1.50793e+06
807453851648 1.50793e+06
816043786240 1.50793e+06
824633720832 1.50793e+06
833223655424 1.50793e+06
841813590016 1.50793e+06
850403524608 1.50793e+06
858993459200 1.50793e+06
867583393792 1.50793e+06
876173328384 1.50793e+06
884763262976 1.50793e+06
893353197568 1.50793e+06
901943132160 1.50793e+06
910533066752 1.50793e+06
919123001344 1.50793e+06
927712935936 1.50793e+06
936302870528 1.50793e+06
944892805120 1.50793e+06
953482739712 1.50793e+06
962072674304 1.50793e+06
970662608896 1.50793e+06
979252543488 1.50793e+06
987842478080 1.50793e+06
996432412672 1.50793e+06
1005022347264 1.50793e+06
1013612281856 1.50793e+06
1022202216448 1.50793e+06
1030792151040 1.50793e+06
1039382085632 1.50793e+06
1047972020224 1.50793e+06
1056561954816 1.50793e+06
1065151889408 1.50793e+06
1073741824000 1.50793e+06
1082331758592 1.50793e+06
1090921693184 1.50793e+06
1099511627776 1.50793e+06
1116691496960 1.50793e+06
1133871366144 1.50793e+06
1151051235328 1.50793e+06
1168231104512 1.50793e+06
1185410973696 1.50793e+06
1202590842880 1.50793e+06
1219770712064 1.50793e+06
1236950581248 1.50793e+06
1254130450432 1.50793e+06
1271310319616 1.50793e+06
1288490188800 1.50793e+06
1305670057984 1.50793e+06
1322849927168 1.50793e+06
1340029796352 1.50793e+06
1357209665536 1.50793e+06
1374389534720 1.50793e+06
1391569403904 1.50793e+06
1408749273088 1.50793e+06
1425929142272 1.50793e+06
1443109011456 1.50793e+06
1460288880640 1.50793e+06
1477468749824 1.50793e+06
1494648619008 1.50793e+06
1511828488192 1.50793e+06
1529008357376 1.50793e+06
1546188226560 1.50793e+06
1563368095744 1.50793e+06
1580547964928 1.50793e+06
1597727834112 1.50793e+06
1614907703296 1.50793e+06
1632087572480 1.50793e+06
1649267441664 1.50793e+06
1666447310848 1.50793e+06
1683627180032 1.50793e+06
1700807049216 1.50793e+06
1717986918400 1.50793e+06
1735166787584 1.50793e+06
1752346656768 1.50793e+06
1769526525952 1.50793e+06
1786706395136 1.50793e+06
1803886264320 1.50793e+06
1821066133504 1.50793e+06
1838246002688 1.50793e+06
1855425871872 1.50793e+06
1872605741056 1.50793e+06
1889785610240 1.50793e+06
1906965479424 1.50793e+06
1924145348608 1.50793e+06
1941325217792 1.50793e+06
1958505086976 1.50793e+06
1975684956160 1.50793e+06
1992864825344 1.50793e+06
2010044694528 1.50793e+06
2027224563712 1.50793e+06
2044404432896 1.50793e+06
2061584302080 1.50793e+06
2078764171264 1.50793e+06
2095944040448 1.50793e+06
2113123909632 1.50793e+06
2130303778816 1.50793e+06
2147483648000 1.50793e+06
2164663517184 1.50793e+06
2181843386368 1.50793e+06
2199023255552 1.50793e+06
2233382993920 1.50793e+06
2267742732288 1.50793e+06
2302102470656 1.50793e+06
2336462209024 1.50793e+06
2370821947392 1.50793e+06
2405181685760 1.50793e+06
2439541424128 1.50793e+06
2473901162496 1.50793e+06
2508260900864 1.50793e+06
2542620639232 1.50793e+06
2576980377600 1.50793e+06
2611340115968 1.50793e+06
2645699854336 1.50793e+06
2680059592704 1.50793e+06
2714419331072 1.50793e+06
2748779069440 1.50793e+06
2783138807808 1.50793e+06
2817498546176 1.50793e+06
2851858284544 1.50793e+06
2886218022912 1.50793e+06
2920577761280 1.50793e+06
2954937499648 1.50793e+06
2989297238016 1.50793e+06
3023656976384 1.50793e+06
3058016714752 1.50793e+06
3092376453120 1.50793e+06
3126736191488 1.50793e+06
3161095929856 1.50793e+06
3195455668224 1.50793e+06
3229815406592 1.50793e+06
3264175144960 1.50793e+06
3298534883328 1.50793e+06
3332894621696 1.50793e+06
3367254360064 1.50793e+06
3401614098432 1.50793e+06
3435973836800 1.50793e+06
3470333575168 1.50793e+06
3504693313536 1.50793e+06
3539053051904 1.50793e+06
3573412790272 1.50793e+06
3607772528640 1.50793e+06
3642132267008 1.50793e+06
3676492005376 1.50793e+06
3710851743744 1.50793e+06
3745211482112 1.50793e+06
3779571220480 1.50793e+06
3813930958848 1.50793e+06
3848290697216 1.50793e+06
3882650435584 1.50793e+06
3917010173952 1.50793e+06
3951369912320 1.50793e+06
3985729650688 1.50793e+06
4020089389056 1.50793e+06
4054449127424 1.50793e+06
4088808865792 1.50793e+06
4123168604160 1.50793e+06
4157528342528 1.50793e+06
4191888080896 1.50793e+06
4226247819264 1.50793e+06
4260607557632 1.50793e+06
4294967296000 1.50793e+06
4329327034368 1.50793e+06
4363686772736 1.50793e+06
4398046511104 1.50793e+06
4466765987840 1.50793e+06
4535485464576 1.50793e+06
4604204941312 1.50793e+06
4672924418048 1.50793e+06
4741643894784 1.50793e+06
4810363371520 1.50793e+06
4879082848256 1.50793e+06
4947802324992 1.50793e+06
5016521801728 1.50793e+06
5085241278464 1.50793e+06
5153960755200 1.50793e+06
5222680231936 1.50793e+06
5291399708672 1.50793e+06
5360119185408 1.50793e+06
5428838662144 1.50793e+06
5497558138880 1.50793e+06
5566277615616 1.50793e+06
5634997092352 1.50793e+06
5703716569088 1.50793e+06
5772436045824 1.50793e+06
5841155522560 1.50793e+06
5909874999296 1.50793e+06
5978594476032 1.50793e+06
6047313952768 1.50793e+06
6116033429504 1.50793e+06
6184752906240 1.50793e+06
6253472382976 1.50793e+06
6322191859712 1.50793e+06
6390911336448 1.50793e+06
6459630813184 1.50793e+06
6528350289920 1.50793e+06
6597069766656 1.50793e+06
6665789243392 1.50793e+06
6734508720128 1.50793e+06
6803228196864 1.50793e+06
6871947673600 1.50793e+06
6940667150336 1.50793e+06
7009386627072 1.50793e+06
7078106103808 1.50793e+06
7146825580544 1.50793e+06
7215545057280 1.50793e+06
7284264534016 1.50793e+06
7352984010752 1.50793e+06
7421703487488 1.50793e+06
7490422964224 1.50793e+06
7559142440960 1.50793e+06
7627861917696 1.50793e+06
7696581394432 1.50793e+06
7765300871168 1.50793e+06
7834020347904 1.50793e+06
7902739824640 1.50793e+06
7971459301376 1.50793e+06
8040178778112 1.50793e+06
8108898254848 1.50793e+06
8177617731584 1.50793e+06
8246337208320 1.50793e+06
8315056685056 1.50793e+06
8383776161792 1.50793e+06
8452495638528 1.50793e+06
8521215115264 1.50793e+06
8589934592000 1.50793e+06
8658654068736 1.50793e+06
8727373545472 1.50793e+06
8796093022208 1.50793e+06
8933531975680 1.50793e+06
9070970929152 1.50793e+06
9208409882624 1.50793e+06
9345848836096 1.50793e+06
9483287789568 1.50793e+06
9620726743040 1.50793e+06
9758165696512 1.50793e+06
9895604649984 1.50793e+06
10033043603456 1.50793e+06
10170482556928 1.50793e+06
10307921510400 1.50793e+06
10445360463872 1.50793e+06
10582799417344 1.50793e+06
10720238370816 1.50793e+06
10857677324288 1.50793e+06
10995116277760 1.50793e+06
11132555231232 1.50793e+06
11269994184704 1.50793e+06
11407433138176 1.50793e+06
11544872091648 1.50793e+06
11682311045120 1.50793e+06
11819749998592 1.50793e+06
11957188952064 1.50793e+06
12094627905536 1.50793e+06
12232066859008 1.50793e+06
12369505812480 1.50793e+06
12506944765952 1.50793e+06
12644383719424 1.50793e+06
12781822672896 1.50793e+06
12919261626368 1.50793e+06
13056700579840 1.50793e+06
13194139533312 1.50793e+06
13331578486784 1.50793e+06
13469017440256 1.50793e+06
13606456393728 1.50793e+06
13743895347200 1.50793e+06
13881334300672 1.50793e+06
14018773254144 1.50793e+06
14156212207616 1.50793e+06
14293651161088 1.50793e+06
14431090114560 1.50793e+06
14568529068032 1.50793e+06
14705968021504 1.50793e+06
14843406974976 1.50793e+06
14980845928448 1.50793e+06
15118284881920 1.50793e+06
15255723835392 1.50793e+06
15393162788864 1.50793e+06
15530601742336 1.50793e+06
15668040695808 1.50793e+06
15805479649280 1.50793e+06
15942918602752 1.50793e+06
16080357556224 1.50793e+06
16217796509696 1.50793e+06
16355235463168 1.50793e+06
16492674416640 1.50793e+06
16630113370112 1.50793e+06
16767552323584 1.50793e+06
16904991277056 1.50793e+06
17042430230528 1.50793e+06
17179869184000 1.50793e+06
17317308137472 1.50793e+06
17454747090944 1.50793e+06
17592186044416 1.50793e+06
17867063951360 1.50793e+06
18141941858304 1.50793e+06
18416819765248 1.50793e+06
18691697672192 1.50793e+06
18966575579136 1.50793e+06
19241453486080 1.50793e+06
19516331393024 1.50793e+06
19791209299968 1.50793e+06
20066087206912 1.50793e+06
20340965113856 1.50793e+06
20615843020800 1.50793e+06
20890720927744 1.50793e+06
21165598834688 1.50793e+06
21440476741632 1.50793e+06
21715354648576 1.50793e+06
21990232555520 1.50793e+06
22265110462464 1.50793e+06
22539988369408 1.50793e+06
22814866276352 1.50793e+06
23089744183296 1.50793e+06
23364622090240 1.50793e+06
23639499997184 1.50793e+06
23914377904128 1.50793e+06
24189255811072 1.50793e+06
24464133718016 1.50793e+06
24739011624960 1.50793e+06
25013889531904 1.50793e+06
25288767438848 1.50793e+06
25563645345792 1.50793e+06
25838523252736 1.50793e+06
26113401159680 1.50793e+06
26388279066624 1.50793e+06
26663156973568 1.50793e+06
26938034880512 1.50793e+06
27212912787456 1.50793e+06
27487790694400 1.50793e+06
27762668601344 1.50793e+06
28037546508288 1.50793e+06
28312424415232 1.50793e+06
28587302322176 1.50793e+06
28862180229120 1.50793e+06
29137058136064 1.50793e+06
29411936043008 1.50793e+06
29686813949952 1.50793e+06
29961691856896 1.50793e+06
30236569763840 1.50793e+06
30511447670784 1.50793e+06
30786325577728 1.50793e+06
31061203484672 1.50793e+06
31336081391616 1.50793e+06
31610959298560 1.50793e+06
31885837205504 1.50793e+06
32160715112448 1.50793e+06
32435593019392 1.50793e+06
32710470926336 1.50793e+06
32985348833280 1.50793e+06
33260226740224 1.50793e+06
33535104647168 1.50793e+06
33809982554112 1.50793e+06
34084860461056 1.50793e+06
34359738368000 1.50793e+06
34634616274944 1.50793e+06
34909494181888 1.50793e+06
35184372088832 1.50793e+06
35734127902720 1.50793e+06
36283883716608 1.50793e+06
36833639530496 1.50793e+06
37383395344384 1.50793e+06
37933151158272 1.50793e+06
38482906972160 1.50793e+06
39032662786048 1.50793e+06
39582418599936 1.50793e+06
40132174413824 1.50793e+06
40681930227712 1.50793e+06
41231686041600 1.50793e+06
41781441855488 1.50793e+06
42331197669376 1.50793e+06
42880953483264 1.50793e+06
43430709297152 1.50793e+06
43980465111040 1.50793e+06
44530220924928 1.50793e+06
45079976738816 1.50793e+06
45629732552704 1.50793e+06
46179488366592 1.50793e+06
46729244180480 1.50793e+06
47278999994368 1.50793e+06
47828755808256 1.50793e+06
48378511622144 1.50793e+06
48928267436032 1.50793e+06
49478023249920 1.50793e+06
50027779063808 1.50793e+06
50577534877696 1.50793e+06
51127290691584 1.50793e+06
51677046505472 1.50793e+06
52226802319360 1.50793e+06
52776558133248 1.50793e+06
53326313947136 1.50793e+06
53876069761024 1.50793e+06
54425825574912 1.50793e+06
54975581388800 1.50793e+06
55525337202688 1.50793e+06
56075093016576 1.50793e+06
56624848830464 1.50793e+06
57174604644352 1.50793e+06
57724360458240 1.50793e+06
58274116272128 1.50793e+06
58823872086016 1.50793e+06
59373627899904 1.50793e+06
59923383713792 1.50793e+06
60473139527680 1.50793e+06
61022895341568 1.50793e+06
61572651155456 1.50793e+06
62122406969344 1.50793e+06
62672162783232 1.50793e+06
63221918597120 1.50793e+06
63771674411008 1.50793e+06
64321430224896 1.50793e+06
64871186038784 1.50793e+06
65420941852672 1.50793e+06
65970697666560 1.50793e+06
66520453480448 1.50793e+06
67070209294336 1.50793e+06
67619965108224 1.50793e+06
68169720922112 1.50793e+06
68719476736000 1.50793e+06
69269232549888 1.50793e+06
69818988363776 1.50793e+06
70368744177664 1.50793e+06
71468255805440 1.50793e+06
72567767433216 1.50793e+06
73667279060992 1.50793e+06
74766790688768 1.50793e+06
75866302316544 1.50793e+06
76965813944320 1.50793e+06
78065325572096 1.50793e+06
79164837199872 1.50793e+06
80264348827648 1.50793e+06
81363860455424 1.50793e+06
82463372083200 1.50793e+06
83562883710976 1.50793e+06
84662395338752 1.50793e+06
85761906966528 1.50793e+06
86861418594304 1.50793e+06
87960930222080 1.50793e+06
89060441849856 1.50793e+06
90159953477632 1.50793e+06
91259465105408 1.50793e+06
92358976733184 1.50793e+06
93458488360960 1.50793e+06
94557999988736 1.50793e+06
95657511616512 1.50793e+06
96757023244288 1.50793e+06
97856534872064 1.50793e+06
98956046499840 1.50793e+06
100055558127616 1.50793e+06
101155069755392 1.50793e+06
102254581383168 1.50793e+06
103354093010944 1.50793e+06
104453604638720 1.50793e+06
105553116266496 1.50793e+06
106652627894272 1.50793e+06
107752139522048 1.50793e+06
108851651149824 1.50793e+06
109951162777600 1.50793e+06
111050674405376 1.50793e+06
112150186033152 1.50793e+06
113249697660928 1.50793e+06
114349209288704 1.50793e+06
115448720916480 1.50793e+06
116548232544256 1.50793e+06
117647744172032 1.50793e+06
118747255799808 1.50793e+06
119846767427584 1.50793e+06
120946279055360 1.50793e+06
122045790683136 1.50793e+06
123145302310912 1.50793e+06
124244813938688 1.50793e+06
125344325566464 1.50793e+06
126443837194240 1.50793e+06
127543348822016 1.50793e+06
128642860449792 1.50793e+06
129742372077568 1.50793e+06
130841883705344 1.50793e+06
131941395333120 1.50793e+06
133040906960896 1.50793e+06
134140418588672 1.50793e+06
135239930216448 1.50793e+06
136339441844224 1.50793e+06
137438953472000 1.50793e+06
138538465099776 1.50793e+06
139637976727552 1.50793e+06
140737488355328 1.50793e+06
142936511610880 1.50793e+06
145135534866432 1.50793e+06
147334558121984 1.50793e+06
149533581377536 1.50793e+06
151732604633088 1.50793e+06
153931627888640 1.50793e+06
156130651144192 1.50793e+06
158329674399744 1.50793e+06
160528697655296 1.50793e+06
162727720910848 1.50793e+06
164926744166400 1.50793e+06
167125767421952 1.50793e+06
169324790677504 1.50793e+06
171523813933056 1.50793e+06
173722837188608 1.50793e+06
175921860444160 1.50793e+06
178120883699712 1.50793e+06
180319906955264 1.50793e+06
182518930210816 1.50793e+06
184717953466368 1.50793e+06
186916976721920 1.50793e+06
189115999977472 1.50793e+06
191315023233024 1.50793e+06
193514046488576 1.50793e+06
195713069744128 1.50793e+06
197912092999680 1.50793e+06
200111116255232 1.50793e+06
202310139510784 1.50793e+06
204509162766336 1.50793e+06
206708186021888 1.50793e+06
208907209277440 1.50793e+06
211106232532992 1.50793e+06
213305255788544 1.50793e+06
215504279044096 1.50793e+06
217703302299648 1.50793e+06
219902325555200 1.50793e+06
222101348810752 1.50793e+06
224300372066304 1.50793e+06
226499395321856 1.50793e+06
228698418577408 1.50793e+06
230897441832960 1.50793e+06
233096465088512 1.50793e+06
235295488344064 1.50793e+06
237494511599616 1.50793e+06
239693534855168 1.50793e+06
241892558110720 1.50793e+06
244091581366272 1.50793e+06
246290604621824 1.50793e+06
248489627877376 1.50793e+06
250688651132928 1.50793e+06
252887674388480 1.50793e+06
255086697644032 1.50793e+06
257285720899584 1.50793e+06
259484744155136 1.50793e+06
261683767410688 1.50793e+06
263882790666240 1.50793e+06
266081813921792 1.50793e+06
268280837177344 1.50793e+06
270479860432896 1.50793e+06
272678883688448 1.50793e+06
274877906944000 1.50793e+06
277076930199552 1.50793e+06
279275953455104 1.50793e+06
281474976710656 1.50793e+06
285873023221760 1.50793e+06
290271069732864 1.50793e+06
294669116243968 1.50793e+06
299067162755072 1.50793e+06
303465209266176 1.50793e+06
307863255777280 1.50793e+06
312261302288384 1.50793e+06
316659348799488 1.50793e+06
321057395310592 1.50793e+06
325455441821696 1.50793e+06
329853488332800 1.50793e+06
334251534843904 1.50793e+06
338649581355008 1.50793e+06
343047627866112 1.50793e+06
347445674377216 1.50793e+06
351843720888320 1.50793e+06
356241767399424 1.50793e+06
360639813910528 1.50793e+06
365037860421632 1.50793e+06
369435906932736 1.50793e+06
373833953443840 1.50793e+06
378231999954944 1.50793e+06
382630046466048 1.50793e+06
387028092977152 1.50793e+06
391426139488256 1.50793e+06
395824185999360 1.50793e+06
400222232510464 1.50793e+06
404620279021568 1.50793e+06
409018325532672 1.50793e+06
413416372043776 1.50793e+06
417814418554880 1.50793e+06
422212465065984 1.50793e+06
426610511577088 1.50793e+06
431008558088192 1.50793e+06
435406604599296 1.50793e+06
439804651110400 1.50793e+06
444202697621504 1.50793e+06
448600744132608 1.50793e+06
452998790643712 1.50793e+06
457396837154816 1.50793e+06
461794883665920 1.50793e+06
466192930177024 1.50793e+06
470590976688128 1.50793e+06
474989023199232 1.50793e+06
479387069710336 1.50793e+06
483785116221440 1.50793e+06
488183162732544 1.50793e+06
492581209243648 1.50793e+06
496979255754752 1.50793e+06
501377302265856 1.50793e+06
505775348776960 1.50793e+06
510173395288064 1.50793e+06
514571441799168 1.50793e+06
518969488310272 1.50793e+06
523367534821376 1.50793e+06
527765581332480 1.50793e+06
532163627843584 1.50793e+06
536561674354688 1.50793e+06
540959720865792 1.50793e+06
545357767376896 1.50793e+06
549755813888000 1.50793e+06
554153860399104 1.50793e+06
558551906910208 1.50793e+06
562949953421312 1.50793e+06
571746046443520 1.50793e+06
580542139465728 1.50793e+06
589338232487936 1.50793e+06
598134325510144 1.50793e+06
606930418532352 1.50793e+06
615726511554560 1.50793e+06
624522604576768 1.50793e+06
633318697598976 1.50793e+06
642114790621184 1.50793e+06
650910883643392 1.50793e+06
659706976665600 1.50793e+06
668503069687808 1.50793e+06
677299162710016 1.50793e+06
686095255732224 1.50793e+06
694891348754432 1.50793e+06
703687441776640 1.50793e+06
712483534798848 1.50793e+06
721279627821056 1.50793e+06
730075720843264 1.50793e+06
738871813865472 1.50793e+06
747667906887680 1.50793e+06
756463999909888 1.50793e+06
765260092932096 1.50793e+06
774056185954304 1.50793e+06
782852278976512 1.50793e+06
791648371998720 1.50793e+06
800444465020928 1.50793e+06
809240558043136 1.50793e+06
818036651065344 1.50793e+06
826832744087552 1.50793e+06
835628837109760 1.50793e+06
844424930131968 1.50793e+06
853221023154176 1.50793e+06
862017116176384 1.50793e+06
870813209198592 1.50793e+06
879609302220800 1.50793e+06
888405395243008 1.50793e+06
897201488265216 1.50793e+06
905997581287424 1.50793e+06
914793674309632 1.50793e+06
923589767331840 1.50793e+06
932385860354048 1.50793e+06
941181953376256 1.50793e+06
949978046398464 1.50793e+06
958774139420672 1.50793e+06
967570232442880 1.50793e+06
976366325465088 1.50793e+06
985162418487296 1.50793e+06
993958511509504 1.50793e+06
1002754604531712 1.50793e+06
1011550697553920 1.50793e+06
1020346790576128 1.50793e+06
1029142883598336 1.50793e+06
1037938976620544 1.50793e+06
1046735069642752 1.50793e+06
1055531162664960 1.50793e+06
1064327255687168 1.50793e+06
1073123348709376 1.50793e+06
1081919441731584 1.50793e+06
1090715534753792 1.50793e+06
1099511627776000 1.50793e+06
1108307720798208 1.50793e+06
1117103813820416 1.50793e+06
1125899906842624 1.50793e+06
1143492092887040 1.50793e+06
1161084278931456 1.50793e+06
1178676464975872 1.50793e+06
1196268651020288 1.50793e+06
1213860837064704 1.50793e+06
1231453023109120 1.50793e+06
1249045209153536 1.50793e+06
1266637395197952 1.50793e+06
1284229581242368 1.50793e+06
1301821767286784 1.50793e+06
1319413953331200 1.50793e+06
1337006139375616 1.50793e+06
1354598325420032 1.50793e+06
1372190511464448 1.50793e+06
1389782697508864 1.50793e+06
1407374883553280 1.50793e+06
1424967069597696 1.50793e+06
1442559255642112 1.50793e+06
1460151441686528 1.50793e+06
1477743627730944 1.50793e+06
1495335813775360 1.50793e+06
1512927999819776 1.50793e+06
1530520185864192 1.50793e+06
1548112371908608 1.50793e+06
1565704557953024 1.50793e+06
1583296743997440 1.50793e+06
1600888930041856 1.50793e+06
1618481116086272 1.50793e+06
1636073302130688 1.50793e+06
1653665488175104 1.50793e+06
1671257674219520 1.50793e+06
1688849860263936 1.50793e+06
1706442046308352 1.50793e+06
1724034232352768 1.50793e+06
1741626418397184 1.50793e+06
1759218604441600 1.50793e+06
1776810790486016 1.50793e+06
1794402976530432 1.50793e+06
1811995162574848 1.50793e+06
1829587348619264 1.50793e+06
1847179534663680 1.50793e+06
1864771720708096 1.50793e+06
1882363906752512 1.50793e+06
1899956092796928 1.50793e+06
1917548278841344 1.50793e+06
1935140464885760 1.50793e+06
1952732650930176 1.50793e+06
1970324836974592 1.50793e+06
1987917023019008 1.50793e+06
2005509209063424 1.50793e+06
2023101395107840 1.50793e+06
2040693581152256 1.50793e+06
2058285767196672 1.50793e+06
2075877953241088 1.50793e+06
2093470139285504 1.50793e+06
2111062325329920 1.50793e+06
2128654511374336 1.50793e+06
2146246697418752 1.50793e+06
2163838883463168 1.50793e+06
2181431069507584 1.50793e+06
2199023255552000 1.50793e+06
2216615441596416 1.50793e+06
2234207627640832 1.50793e+06
2251799813685248 1.50793e+06
2286984185774080 1.50793e+06
2322168557862912 1.50793e+06
2357352929951744 1.50793e+06
2392537302040576 1.50793e+06
2427721674129408 1.50793e+06
2462906046218240 1.50793e+06
2498090418307072 1.50793e+06
2533274790395904 1.50793e+06
2568459162484736 1.50793e+06
2603643534573568 1.50793e+06
2638827906662400 1.50793e+06
2674012278751232 1.50793e+06
2709196650840064 1.50793e+06
2744381022928896 1.50793e+06
2779565395017728 1.50793e+06
2814749767106560 1.50793e+06
2849934139195392 1.50793e+06
2885118511284224 1.50793e+06
2920302883373056 1.50793e+06
2955487255461888 1.50793e+06
2990671627550720 1.50793e+06
3025855999639552 1.50793e+06
3061040371728384 1.50793e+06
3096224743817216 1.50793e+06
3131409115906048 1.50793e+06
3166593487994880 1.50793e+06
3201777860083712 1.50793e+06
3236962232172544 1.50793e+06
3272146604261376 1.50793e+06
3307330976350208 1.50793e+06
3342515348439040 1.50793e+06
3377699720527872 1.50793e+06
3412884092616704 1.50793e+06
3448068464705536 1.50793e+06
3483252836794368 1.50793e+06
3518437208883200 1.50793e+06
3553621580972032 1.50793e+06
3588805953060864 1.50793e+06
3623990325149696 1.50793e+06
3659174697238528 1.50793e+06
3694359069327360 1.50793e+06
3729543441416192 1.50793e+06
3764727813505024 1.50793e+06
3799912185593856 1.50793e+06
3835096557682688 1.50793e+06
3870280929771520 1.50793e+06
3905465301860352 1.50793e+06
3940649673949184 1.50793e+06
3975834046038016 1.50793e+06
4011018418126848 1.50793e+06
4046202790215680 1.50793e+06
4081387162304512 1.50793e+06
4116571534393344 1.50793e+06
4151755906482176 1.50793e+06
4186940278571008 1.50793e+06
4222124650659840 1.50793e+06
4257309022748672 1.50793e+06
4292493394837504 1.50793e+06
4327677766926336 1.50793e+06
4362862139015168 1.50793e+06
4398046511104000 1.50793e+06
4433230883192832 1.50793e+06
4468415255281664 1.50793e+06
4503599627370496 1.50793e+06
4573968371548160 1.50793e+06
4644337115725824 1.50793e+06
4714705859903488 1.50793e+06
4785074604081152 1.50793e+06
4855443348258816 1.50793e+06
4925812092436480 1.50793e+06
4996180836614144 1.50793e+06
5066549580791808 1.50793e+06
5136918324969472 1.50793e+06
5207287069147136 1.50793e+06
5277655813324800 1.50793e+06
5348024557502464 1.50793e+06
5418393301680128 1.50793e+06
5488762045857792 1.50793e+06
5559130790035456 1.50793e+06
5629499534213120 1.50793e+06
5699868278390784 1.50793e+06
5770237022568448 1.50793e+06
5840605766746112 1.50793e+06
5910974510923776 1.50793e+06
5981343255101440 1.50793e+06
6051711999279104 1.50793e+06
6122080743456768 1.50793e+06
6192449487634432 1.50793e+06
6262818231812096 1.50793e+06
6333186975989760 1.50793e+06
6403555720167424 1.50793e+06
6473924464345088 1.50793e+06
6544293208522752 1.50793e+06
6614661952700416 1.50793e+06
6685030696878080 1.50793e+06
6755399441055744 1.50793e+06
6825768185233408 1.50793e+06
6896136929411072 1.50793e+06
6966505673588736 1.50793e+06
7036874417766400 1.50793e+06
7107243161944064 1.50793e+06
7177611906121728 1.50793e+06
7247980650299392 1.50793e+06
7318349394477056 1.50793e+06
7388718138654720 1.50793e+06
7459086882832384 1.50793e+06
7529455627010048 1.50793e+06
7599824371187712 1.50793e+06
7670193115365376 1.50793e+06
7740561859543040 1.50793e+06
7810930603720704 1.50793e+06
7881299347898368 1.50793e+06
7951668092076032 1.50793e+06
8022036836253696 1.50793e+06
8092405580431360 1.50793e+06
8162774324609024 1.50793e+06
8233143068786688 1.50793e+06
8303511812964352 1.50793e+06
8373880557142016 1.50793e+06
8444249301319680 1.50793e+06
8514618045497344 1.50793e+06
8584986789675008 1.50793e+06
8655355533852672 1.50793e+06
8725724278030336 1.50793e+06
8796093022208000 1.50793e+06
8866461766385664 1.50793e+06
8936830510563328 1.50793e+06
9007199254740992 1.50793e+06
9147936743096320 1.50793e+06
9288674231451648 1.50793e+06
9429411719806976 1.50793e+06
9570149208162304 1.50793e+06
9710886696517632 1.50793e+06
9851624184872960 1.50793e+06
9992361673228288 1.50793e+06
10133099161583616 1.50793e+06
10273836649938944 1.50793e+06
10414574138294272 1.50793e+06
10555311626649600 1.50793e+06
10696049115004928 1.50793e+06
10836786603360256 1.50793e+06
10977524091715584 1.50793e+06
11118261580070912 1.50793e+06
11258999068426240 1.50793e+06
11399736556781568 1.50793e+06
11540474045136896 1.50793e+06
11681211533492224 1.50793e+06
11821949021847552 1.50793e+06
11962686510202880 1.50793e+06
12103423998558208 1.50793e+06
12244161486913536 1.50793e+06
12384898975268864 1.50793e+06
12525636463624192 1.50793e+06
12666373951979520 1.50793e+06
12807111440334848 1.50793e+06
12947848928690176 1.50793e+06
13088586417045504 1.50793e+06
13229323905400832 1.50793e+06
13370061393756160 1.50793e+06
13510798882111488 1.50793e+06
13651536370466816 1.50793e+06
13792273858822144 1.50793e+06
13933011347177472 1.50793e+06
14073748835532800 1.50793e+06
14214486323888128 1.50793e+06
14355223812243456 1.50793e+06
14495961300598784 1.50793e+06
14636698788954112 1.50793e+06
14777436277309440 1.50793e+06
14918173765664768 1.50793e+06
15058911254020096 1.50793e+06
15199648742375424 1.50793e+06
15340386230730752 1.50793e+06
15481123719086080 1.50793e+06
15621861207441408 1.50793e+06
15762598695796736 1.50793e+06
15903336184152064 1.50793e+06
16044073672507392 1.50793e+06
16184811160862720 1.50793e+06
16325548649218048 1.50793e+06
16466286137573376 1.50793e+06
16607023625928704 1.50793e+06
16747761114284032 1.50793e+06
16888498602639360 1.50793e+06
17029236090994688 1.50793e+06
17169973579350016 1.50793e+06
17310711067705344 1.50793e+06
17451448556060672 1.50793e+06
17592186044416000 1.50793e+06
17732923532771328 1.50793e+06
17873661021126656 1.50793e+06
18014398509481984 1.50793e+06
18295873486192640 1.50793e+06
18577348462903296 1.50793e+06
18858823439613952 1.50793e+06
19140298416324608 1.50793e+06
19421773393035264 1.50793e+06
19703248369745920 1.50793e+06
19984723346456576 1.50793e+06
20266198323167232 1.50793e+06
20547673299877888 1.50793e+06
20829148276588544 1.50793e+06
21110623253299200 1.50793e+06
21392098230009856 1.50793e+06
21673573206720512 1.50793e+06
21955048183431168 1.50793e+06
22236523160141824 1.50793e+06
22517998136852480 1.50793e+06
22799473113563136 1.50793e+06
23080948090273792 1.50793e+06
23362423066984448 1.50793e+06
23643898043695104 1.50793e+06
23925373020405760 1.50793e+06
24206847997116416 1.50793e+06
24488322973827072 1.50793e+06
24769797950537728 1.50793e+06
25051272927248384 1.50793e+06
25332747903959040 1.50793e+06
25614222880669696 1.50793e+06
25895697857380352 1.50793e+06
26177172834091008 1.50793e+06
26458647810801664 1.50793e+06
26740122787512320 1.50793e+06
27021597764222976 1.50793e+06
27303072740933632 1.50793e+06
27584547717644288 1.50793e+06
27866022694354944 1.50793e+06
28147497671065600 1.50793e+06
28428972647776256 1.50793e+06
28710447624486912 1.50793e+06
28991922601197568 1.50793e+06
29273397577908224 1.50793e+06
29554872554618880 1.50793e+06
29836347531329536 1.50793e+06
30117822508040192 1.50793e+06
30399297484750848 1.50793e+06
30680772461461504 1.50793e+06
30962247438172160 1.50793e+06
31243722414882816 1.50793e+06
31525197391593472 1.50793e+06
31806672368304128 1.50793e+06
32088147345014784 1.50793e+06
32369622321725440 1.50793e+06
32651097298436096 1.50793e+06
32932572275146752 1.50793e+06
33214047251857408 1.50793e+06
33495522228568064 1.50793e+06
33776997205278720 1.50793e+06
34058472181989376 1.50793e+06
34339947158700032 1.50793e+06
34621422135410688 1.50793e+06
34902897112121344 1.50793e+06
35184372088832000 1.50793e+06
35465847065542656 1.50793e+06
35747322042253312 1.50793e+06
36028797018963968 1.50793e+06
36591746972385280 1.50793e+06
37154696925806592 1.50793e+06
37717646879227904 1.50793e+06
38280596832649216 1.50793e+06
38843546786070528 1.50793e+06
39406496739491840 1.50793e+06
39969446692913152 1.50793e+06
40532396646334464 1.50793e+06
41095346599755776 1.50793e+06
41658296553177088 1.50793e+06
42221246506598400 1.50793e+06
42784196460019712 1.50793e+06
43347146413441024 1.50793e+06
43910096366862336 1.50793e+06
44473046320283648 1.50793e+06
45035996273704960 1.50793e+06
45598946227126272 1.50793e+06
46161896180547584 1.50793e+06
46724846133968896 1.50793e+06
47287796087390208 1.50793e+06
47850746040811520 1.50793e+06
48413695994232832 1.50793e+06
48976645947654144 1.50793e+06
49539595901075456 1.50793e+06
50102545854496768 1.50793e+06
50665495807918080 1.50793e+06
51228445761339392 1.50793e+06
51791395714760704 1.50793e+06
52354345668182016 1.50793e+06
52917295621603328 1.50793e+06
53480245575024640 1.50793e+06
54043195528445952 1.50793e+06
54606145481867264 1.50793e+06
55169095435288576 1.50793e+06
55732045388709888 1.50793e+06
56294995342131200 1.50793e+06
56857945295552512 1.50793e+06
57420895248973824 1.50793e+06
57983845202395136 1.50793e+06
58546795155816448 1.50793e+06
59109745109237760 1.50793e+06
59672695062659072 1.50793e+06
60235645016080384 1.50793e+06
60798594969501696 1.50793e+06
61361544922923008 1.50793e+06
61924494876344320 1.50793e+06
62487444829765632 1.50793e+06
63050394783186944 1.50793e+06
63613344736608256 1.50793e+06
64176294690029568 1.50793e+06
64739244643450880 1.50793e+06
65302194596872192 1.50793e+06
65865144550293504 1.50793e+06
66428094503714816 1.50793e+06
66991044457136128 1.50793e+06
67553994410557440 1.50793e+06
68116944363978752 1.50793e+06
68679894317400064 1.50793e+06
69242844270821376 1.50793e+06
69805794224242688 1.50793e+06
70368744177664000 1.50793e+06
70931694131085312 1.50793e+06
71494644084506624 1.50793e+06
72057594037927936 1.50793e+06
73183493944770560 1.50793e+06
74309393851613184 1.50793e+06
75435293758455808 1.50793e+06
76561193665298432 1.50793e+06
77687093572141056 1.50793e+06
78812993478983680 1.50793e+06
79938893385826304 1.50793e+06
81064793292668928 1.50793e+06
82190693199511552 1.50793e+06
83316593106354176 1.50793e+06
84442493013196800 1.50793e+06
85568392920039424 1.50793e+06
86694292826882048 1.50793e+06
87820192733724672 1.50793e+06
88946092640567296 1.50793e+06
90071992547409920 1.50793e+06
91197892454252544 1.50793e+06
92323792361095168 1.50793e+06
93449692267937792 1.50793e+06
94575592174780416 1.50793e+06
95701492081623040 1.50793e+06
96827391988465664 1.50793e+06
97953291895308288 1.50793e+06
99079191802150912 1.50793e+06
100205091708993536 1.50793e+06
101330991615836160 1.50793e+06
102456891522678784 1.50793e+06
103582791429521408 1.50793e+06
104708691336364032 1.50793e+06
105834591243206656 1.50793e+06
106960491150049280 1.50793e+06
108086391056891904 1.50793e+06
109212290963734528 1.50793e+06
110338190870577152 1.50793e+06
111464090777419776 1.50793e+06
112589990684262400 1.50793e+06
113715890591105024 1.50793e+06
114841790497947648 1.50793e+06
115967690404790272 1.50793e+06
117093590311632896 1.50793e+06
118219490218475520 1.50793e+06
119345390125318144 1.50793e+06
120471290032160768 1.50793e+06
121597189939003392 1.50793e+06
122723089845846016 1.50793e+06
123848989752688640 1.50793e+06
124974889659531264 1.50793e+06
126100789566373888 1.50793e+06
127226689473216512 1.50793e+06
128352589380059136 1.50793e+06
129478489286901760 1.50793e+06
130604389193744384 1.50793e+06
131730289100587008 1.50793e+06
132856189007429632 1.50793e+06
133982088914272256 1.50793e+06
135107988821114880 1.50793e+06
136233888727957504 1.50793e+06
137359788634800128 1.50793e+06
138485688541642752 1.50793e+06
139611588448485376 1.50793e+06
140737488355328000 1.50793e+06
141863388262170624 1.50793e+06
142989288169013248 1.50793e+06
144115188075855872 1.50793e+06
146366987889541120 1.50793e+06
148618787703226368 1.50793e+06
150870587516911616 1.50793e+06
153122387330596864 1.50793e+06
155374187144282112 1.50793e+06
157625986957967360 1.50793e+06
159877786771652608 1.50793e+06
162129586585337856 1.50793e+06
164381386399023104 1.50793e+06
166633186212708352 1.50793e+06
168884986026393600 1.50793e+06
171136785840078848 1.50793e+06
173388585653764096 1.50793e+06
175640385467449344 1.50793e+06
177892185281134592 1.50793e+06
180143985094819840 1.50793e+06
182395784908505088 1.50793e+06
184647584722190336 1.50793e+06
186899384535875584 1.50793e+06
189151184349560832 1.50793e+06
191402984163246080 1.50793e+06
193654783976931328 1.50793e+06
195906583790616576 1.50793e+06
198158383604301824 1.50793e+06
200410183417987072 1.50793e+06
202661983231672320 1.50793e+06
204913783045357568 1.50793e+06
207165582859042816 1.50793e+06
209417382672728064 1.50793e+06
211669182486413312 1.50793e+06
213920982300098560 1.50793e+06
216172782113783808 1.50793e+06
218424581927469056 1.50793e+06
220676381741154304 1.50793e+06
222928181554839552 1.50793e+06
225179981368524800 1.50793e+06
227431781182210048 1.50793e+06
229683580995895296 1.50793e+06
231935380809580544 1.50793e+06
234187180623265792 1.50793e+06
236438980436951040 1.50793e+06
238690780250636288 1.50793e+06
240942580064321536 1.50793e+06
243194379878006784 1.50793e+06
245446179691692032 1.50793e+06
247697979505377280 1.50793e+06
249949779319062528 1.50793e+06
252201579132747776 1.50793e+06
254453378946433024 1.50793e+06
256705178760118272 1.50793e+06
258956978573803520 1.50793e+06
261208778387488768 1.50793e+06
263460578201174016 1.50793e+06
265712378014859264 1.50793e+06
267964177828544512 1.50793e+06
270215977642229760 1.50793e+06
272467777455915008 1.50793e+06
274719577269600256 1.50793e+06
276971377083285504 1.50793e+06
279223176896970752 1.50793e+06
281474976710656000 1.50793e+06
283726776524341248 1.50793e+06
285978576338026496 1.50793e+06
288230376151711744 1.50793e+06
292733975779082240 1.50793e+06
297237575406452736 1.50793e+06
301741175033823232 1.50793e+06
306244774661193728 1.50793e+06
310748374288564224 1.50793e+06
315251973915934720 1.50793e+06
319755573543305216 1.50793e+06
324259173170675712 1.50793e+06
328762772798046208 1.50793e+06
333266372425416704 1.50793e+06
337769972052787200 1.50793e+06
342273571680157696 1.50793e+06
346777171307528192 1.50793e+06
351280770934898688 1.50793e+06
355784370562269184 1.50793e+06
360287970189639680 1.50793e+06
364791569817010176 1.50793e+06
369295169444380672 1.50793e+06
373798769071751168 1.50793e+06
378302368699121664 1.50793e+06
382805968326492160 1.50793e+06
387309567953862656 1.50793e+06
391813167581233152 1.50793e+06
396316767208603648 1.50793e+06
400820366835974144 1.50793e+06
405323966463344640 1.50793e+06
409827566090715136 1.50793e+06
414331165718085632 1.50793e+06
418834765345456128 1.50793e+06
423338364972826624 1.50793e+06
427841964600197120 1.50793e+06
432345564227567616 1.50793e+06
436849163854938112 1.50793e+06
441352763482308608 1.50793e+06
445856363109679104 1.50793e+06
450359962737049600 1.50793e+06
454863562364420096 1.50793e+06
459367161991790592 1.50793e+06
463870761619161088 1.50793e+06
468374361246531584 1.50793e+06
472877960873902080 1.50793e+06
477381560501272576 1.50793e+06
481885160128643072 1.50793e+06
486388759756013568 1.50793e+06
490892359383384064 1.50793e+06
495395959010754560 1.50793e+06
499899558638125056 1.50793e+06
504403158265495552 1.50793e+06
508906757892866048 1.50793e+06
513410357520236544 1.50793e+06
517913957147607040 1.50793e+06
522417556774977536 1.50793e+06
526921156402348032 1.50793e+06
531424756029718528 1.50793e+06
535928355657089024 1.50793e+06
540431955284459520 1.50793e+06
544935554911830016 1.50793e+06
549439154539200512 1.50793e+06
553942754166571008 1.50793e+06
558446353793941504 1.50793e+06
562949953421312000 1.50793e+06
567453553048682496 1.50793e+06
571957152676052992 1.50793e+06
576460752303423488 1.50793e+06
585467951558164480 1.50793e+06
594475150812905472 1.50793e+06
603482350067646464 1.50793e+06
612489549322387456 1.50793e+06
621496748577128448 1.50793e+06
630503947831869440 1.50793e+06
639511147086610432 1.50793e+06
648518346341351424 1.50793e+06
657525545596092416 1.50793e+06
666532744850833408 1.50793e+06
675539944105574400 1.50793e+06
684547143360315392 1.50793e+06
693554342615056384 1.50793e+06
702561541869797376 1.50793e+06
711568741124538368 1.50793e+06
720575940379279360 1.50793e+06
729583139634020352 1.50793e+06
738590338888761344 1.50793e+06
747597538143502336 1.50793e+06
756604737398243328 1.50793e+06
765611936652984320 1.50793e+06
774619135907725312 1.50793e+06
783626335162466304 1.50793e+06
792633534417207296 1.50793e+06
801640733671948288 1.50793e+06
810647932926689280 1.50793e+06
819655132181430272 1.50793e+06
828662331436171264 1.50793e+06
837669530690912256 1.50793e+06
846676729945653248 1.50793e+06
855683929200394240 1.50793e+06
864691128455135232 1.50793e+06
873698327709876224 1.50793e+06
882705526964617216 1.50793e+06
891712726219358208 1.50793e+06
900719925474099200 1.50793e+06
909727124728840192 1.50793e+06
918734323983581184 1.50793e+06
927741523238322176 1.50793e+06
936748722493063168 1.50793e+06
945755921747804160 1.50793e+06
954763121002545152 1.50793e+06
963770320257286144 1.50793e+06
972777519512027136 1.50793e+06
981784718766768128 1.50793e+06
990791918021509120 1.50793e+06
999799117276250112 1.50793e+06
1008806316530991104 1.50793e+06
1017813515785732096 1.50793e+06
1026820715040473088 1.50793e+06
1035827914295214080 1.50793e+06
1044835113549955072 1.50793e+06
1053842312804696064 1.50793e+06
1062849512059437056 1.50793e+06
1071856711314178048 1.50793e+06
1080863910568919040 1.50793e+06
1089871109823660032 1.50793e+06
1098878309078401024 1.50793e+06
1107885508333142016 1.50793e+06
1116892707587883008 1.50793e+06
1125899906842624000 1.50793e+06
1134907106097364992 1.50793e+06
1143914305352105984 1.50793e+06
1152921504606846976 1.50793e+06
1170935903116328960 1.50793e+06
1188950301625810944 1.50793e+06
1206964700135292928 1.50793e+06
1224979098644774912 1.50793e+06
1242993497154256896 1.50793e+06
1261007895663738880 1.50793e+06
1279022294173220864 1.50793e+06
1297036692682702848 1.50793e+06
1315051091192184832 1.50793e+06
1333065489701666816 1.50793e+06
1351079888211148800 1.50793e+06
1369094286720630784 1.50793e+06
1387108685230112768 1.50793e+06
1405123083739594752 1.50793e+06
1423137482249076736 1.50793e+06
1441151880758558720 1.50793e+06
1459166279268040704 1.50793e+06
1477180677777522688 1.50793e+06
1495195076287004672 1.50793e+06
1513209474796486656 1.50793e+06
1531223873305968640 1.50793e+06
1549238271815450624 1.50793e+06
1567252670324932608 1.50793e+06
1585267068834414592 1.50793e+06
1603281467343896576 1.50793e+06
1621295865853378560 1.50793e+06
1639310264362860544 1.50793e+06
1657324662872342528 1.50793e+06
1675339061381824512 1.50793e+06
1693353459891306496 1.50793e+06
1711367858400788480 1.50793e+06
1729382256910270464 1.50793e+06
1747396655419752448 1.50793e+06
1765411053929234432 1.50793e+06
1783425452438716416 1.50793e+06
1801439850948198400 1.50793e+06
1819454249457680384 1.50793e+06
1837468647967162368 1.50793e+06
1855483046476644352 1.50793e+06
1873497444986126336 1.50793e+06
1891511843495608320 1.50793e+06
1909526242005090304 1.50793e+06
1927540640514572288 1.50793e+06
1945555039024054272 1.50793e+06
1963569437533536256 1.50793e+06
1981583836043018240 1.50793e+06
1999598234552500224 1.50793e+06
2017612633061982208 1.50793e+06
2035627031571464192 1.50793e+06
2053641430080946176 1.50793e+06
2071655828590428160 1.50793e+06
2089670227099910144 1.50793e+06
2107684625609392128 1.50793e+06
2125699024118874112 1.50793e+06
2143713422628356096 1.50793e+06
2161727821137838080 1.50793e+06
2179742219647320064 1.50793e+06
2197756618156802048 1.50793e+06
2215771016666284032 1.50793e+06
2233785415175766016 1.50793e+06
2251799813685248000 1.50793e+06
2269814212194729984 1.50793e+06
2287828610704211968 1.50793e+06
2305843009213693952 1.50793e+06
2341871806232657920 1.50793e+06
2377900603251621888 1.50793e+06
2413929400270585856 1.50793e+06
2449958197289549824 1.50793e+06
2485986994308513792 1.50793e+06
2522015791327477760 1.50793e+06
2558044588346441728 1.50793e+06
2594073385365405696 1.50793e+06
2630102182384369664 1.50793e+06
2666130979403333632 1.50793e+06
2702159776422297600 1.50793e+06
2738188573441261568 1.50793e+06
2774217370460225536 1.50793e+06
2810246167479189504 1.50793e+06
2846274964498153472 1.50793e+06
2882303761517117440 1.50793e+06
2918332558536081408 1.50793e+06
2954361355555045376 1.50793e+06
2990390152574009344 1.50793e+06
3026418949592973312 1.50793e+06
3062447746611937280 1.50793e+06
3098476543630901248 1.50793e+06
3134505340649865216 1.50793e+06
3170534137668829184 1.50793e+06
3206562934687793152 1.50793e+06
3242591731706757120 1.50793e+06
3278620528725721088 1.50793e+06
3314649325744685056 1.50793e+06
3350678122763649024 1.50793e+06
3386706919782612992 1.50793e+06
3422735716801576960 1.50793e+06
3458764513820540928 1.50793e+06
3494793310839504896 1.50793e+06
3530822107858468864 1.50793e+06
3566850904877432832 1.50793e+06
3602879701896396800 1.50793e+06
3638908498915360768 1.50793e+06
3674937295934324736 1.50793e+06
3710966092953288704 1.50793e+06
3746994889972252672 1.50793e+06
3783023686991216640 1.50793e+06
3819052484010180608 1.50793e+06
3855081281029144576 1.50793e+06
3891110078048108544 1.50793e+06
3927138875067072512 1.50793e+06
3963167672086036480 1.50793e+06
3999196469105000448 1.50793e+06
4035225266123964416 1.50793e+06
4071254063142928384 1.50793e+06
4107282860161892352 1.50793e+06
4143311657180856320 1.50793e+06
4179340454199820288 1.50793e+06
4215369251218784256 1.50793e+06
4251398048237748224 1.50793e+06
4287426845256712192 1.50793e+06
4323455642275676160 1.50793e+06
4359484439294640128 1.50793e+06
4395513236313604096 1.50793e+06
4431542033332568064 1.50793e+06
4467570830351532032 1.50793e+06
4503599627370496000 1.50793e+06
4539628424389459968 1.50793e+06
4575657221408423936 1.50793e+06
4611686018427387904 1.50793e+06
4683743612465315840 1.50793e+06
4755801206503243776 1.50793e+06
4827858800541171712 1.50793e+06
4899916394579099648 1.50793e+06
4971973988617027584 1.50793e+06
5044031582654955520 1.50793e+06
5116089176692883456 1.50793e+06
5188146770730811392 1.50793e+06
5260204364768739328 1.50793e+06
5332261958806667264 1.50793e+06
5404319552844595200 1.50793e+06
5476377146882523136 1.50793e+06
5548434740920451072 1.50793e+06
5620492334958379008 1.50793e+06
5692549928996306944 1.50793e+06
5764607523034234880 1.50793e+06
5836665117072162816 1.50793e+06
5908722711110090752 1.50793e+06
5980780305148018688 1.50793e+06
6052837899185946624 1.50793e+06
6124895493223874560 1.50793e+06
6196953087261802496 1.50793e+06
6269010681299730432 1.50793e+06
6341068275337658368 1.50793e+06
6413125869375586304 1.50793e+06
6485183463413514240 1.50793e+06
6557241057451442176 1.50793e+06
6629298651489370112 1.50793e+06
6701356245527298048 1.50793e+06
6773413839565225984 1.50793e+06
6845471433603153920 1.50793e+06
6917529027641081856 1.50793e+06
6989586621679009792 1.50793e+06
7061644215716937728 1.50793e+06
7133701809754865664 1.50793e+06
7205759403792793600 1.50793e+06
7277816997830721536 1.50793e+06
7349874591868649472 1.50793e+06
7421932185906577408 1.50793e+06
7493989779944505344 1.50793e+06
7566047373982433280 1.50793e+06
7638104968020361216 1.50793e+06
7710162562058289152 1.50793e+06
7782220156096217088 1.50793e+06
7854277750134145024 1.50793e+06
7926335344172072960 1.50793e+06
7998392938210000896 1.50793e+06
8070450532247928832 1.50793e+06
8142508126285856768 1.50793e+06
8214565720323784704 1.50793e+06
8286623314361712640 1.50793e+06
8358680908399640576 1.50793e+06
8430738502437568512 1.50793e+06
8502796096475496448 1.50793e+06
8574853690513424384 1.50793e+06
8646911284551352320 1.50793e+06
8718968878589280256 1.50793e+06
8791026472627208192 1.50793e+06
8863084066665136128 1.50793e+06
8935141660703064064 1.50793e+06
9007199254740992000 1.50793e+06
9079256848778919936 1.50793e+06
9151314442816847872 1.50793e+06
9223372036854775808 1.50793e+06
9367487224930631680 1.50793e+06
9511602413006487552 1.50793e+06
9655717601082343424 1.50793e+06
9799832789158199296 1.50793e+06
9943947977234055168 1.50793e+06
10088063165309911040 1.50793e+06
10232178353385766912 1.50793e+06
10376293541461622784 1.50793e+06
10520408729537478656 1.50793e+06
10664523917613334528 1.50793e+06
10808639105689190400 1.50793e+06
10952754293765046272 1.50793e+06
11096869481840902144 1.50793e+06
11240984669916758016 1.50793e+06
11385099857992613888 1.50793e+06
11529215046068469760 1.50793e+06
11673330234144325632 1.50793e+06
11817445422220181504 1.50793e+06
11961560610296037376 1.50793e+06
12105675798371893248 1.50793e+06
12249790986447749120 1.50793e+06
12393906174523604992 1.50793e+06
12538021362599460864 1.50793e+06
12682136550675316736 1.50793e+06
12826251738751172608 1.50793e+06
12970366926827028480 1.50793e+06
13114482114902884352 1.50793e+06
13258597302978740224 1.50793e+06
13402712491054596096 1.50793e+06
13546827679130451968 1.50793e+06
13690942867206307840 1.50793e+06
13835058055282163712 1.50793e+06
13979173243358019584 1.50793e+06
14123288431433875456 1.50793e+06
14267403619509731328 1.50793e+06
14411518807585587200 1.50793e+06
14555633995661443072 1.50793e+06
14699749183737298944 1.50793e+06
14843864371813154816 1.50793e+06
14987979559889010688 1.50793e+06
15132094747964866560 1.50793e+06
15276209936040722432 1.50793e+06
15420325124116578304 1.50793e+06
15564440312192434176 1.50793e+06
15708555500268290048 1.50793e+06
15852670688344145920 1.50793e+06
15996785876420001792 1.50793e+06
16140901064495857664 1.50793e+06
16285016252571713536 1.50793e+06
16429131440647569408 1.50793e+06
16573246628723425280 1.50793e+06
16717361816799281152 1.50793e+06
16861477004875137024 1.50793e+06
17005592192950992896 1.50793e+06
17149707381026848768 1.50793e+06
17293822569102704640 1.50793e+06
17437937757178560512 1.50793e+06
17582052945254416384 1.50793e+06
17726168133330272256 1.50793e+06
17870283321406128128 1.50793e+06
18014398509481984000 1.50793e+06
18158513697557839872 1.50793e+06
18302628885633695744 1.50793e+06
