0	0
1	1
2	1.71005
3	2.16955
4	2.60243
5	3.03407
6	3.46411
7	3.7471
8	3.87456
9	3.99338
10	4.11058
11	4.22777
12	4.34496
13	4.46216
14	4.57935
15	4.69654
16	4.81374
17	4.93051
18	5.04728
19	5.16405
20	5.28082
21	5.39759
22	5.51436
23	5.63113
24	5.7479
25	5.86467
26	5.98071
27	6.09451
28	6.20659
29	6.31824
30	6.42988
31	6.54153
32	6.65318
33	6.76482
34	6.87629
35	6.98526
36	7.09422
37	7.20318
38	7.31215
39	7.42111
40	7.53007
41	7.63904
42	7.74783
43	7.85632
44	7.96482
45	8.07332
46	8.18181
47	8.29031
48	8.3988
49	8.5073
50	8.6158
51	8.72429
52	8.83279
53	8.94128
54	9.04978
55	9.15828
56	9.26677
57	9.37527
58	9.48376
59	9.59226
60	9.70076
61	9.80925
62	9.91775
63	10.0262
64	10.1347
65	10.2432
66	10.3497
67	10.4561
68	10.562
69	10.6679
70	10.7737
71	10.8796
72	10.9855
73	11.0913
74	11.1972
75	11.3031
76	11.4089
77	11.5148
78	11.6207
79	11.7265
80	11.8324
81	11.9383
82	12.0442
83	12.15
84	12.2559
85	12.3618
86	12.4676
87	12.5735
88	12.6794
89	12.7852
90	12.8911
91	12.997
92	13.1028
93	13.2087
94	13.3146
95	13.4204
96	13.5263
97	13.6322
98	13.738
99	13.8439
100	13.9498
101	14.0556
102	14.1615
103	14.2673
104	14.3732
105	14.4791
106	14.5849
107	14.6908
108	14.7967
109	14.9025
110	15.0084
111	15.1142
112	15.2201
113	15.326
114	15.4318
115	15.5377
116	15.6435
117	15.7494
118	15.8553
119	15.9611
120	16.067
121	16.1728
122	16.2787
123	16.3844
124	16.4901
125	16.5959
126	16.7016
127	16.8073
128	16.913
130	17.1218
132	17.328
134	17.5342
136	17.7404
138	17.9466
140	18.1527
142	18.3589
144	18.5651
146	18.771
148	18.9763
150	19.1814
152	19.3865
154	19.5916
156	19.7967
158	20.0018
160	20.2068
162	20.4119
164	20.617
166	20.8221
168	21.0272
170	21.2323
172	21.4373
174	21.6424
176	21.8475
178	22.0524
180	22.2572
182	22.462
184	22.6666
186	22.8712
188	23.0757
190	23.2802
192	23.4848
194	23.6893
196	23.8938
198	24.0984
200	24.3029
202	24.5074
204	24.712
206	24.9162
208	25.1203
210	25.3244
212	25.5285
214	25.7326
216	25.9366
218	26.1407
220	26.3448
222	26.5489
224	26.753
226	26.957
228	27.1611
230	27.3652
232	27.5693
234	27.7734
236	27.9774
238	28.1815
240	28.3856
242	28.5896
244	28.7937
246	28.9978
248	29.2018
250	29.4059
252	29.6098
254	29.8138
256	30.0177
260	30.422
264	30.8252
268	31.2284
272	31.6316
276	32.0336
280	32.4346
284	32.8356
288	33.2366
292	33.6376
296	34.0386
300	34.4395
304	34.8405
308	35.2411
312	35.6413
316	36.0412
320	36.4411
324	36.841
328	37.2409
332	37.6407
336	38.0406
340	38.4405
344	38.8403
348	39.2402
352	39.6401
356	40.0399
360	40.4398
364	40.8396
368	41.2395
372	41.6393
376	42.0392
380	42.439
384	42.8388
388	43.2387
392	43.6385
396	44.0384
400	44.4382
404	44.838
408	45.2379
412	45.6377
416	46.0375
420	46.4373
424	46.8371
428	47.2369
432	47.6367
436	48.0365
440	48.4363
444	48.8361
448	49.2359
452	49.6357
456	50.0355
460	50.4353
464	50.835
468	51.2348
472	51.6346
476	52.0344
480	52.4342
484	52.8339
488	53.2337
492	53.6334
496	54.0332
500	54.433
504	54.8327
508	55.2325
512	55.6322
520	56.4317
528	57.2312
536	58.0306
544	58.829
552	59.6274
560	60.4257
568	61.2241
576	62.0224
584	62.8207
592	63.619
600	64.4173
608	65.2156
616	66.0138
624	66.8121
632	67.6101
640	68.4081
648	69.206
656	70.0039
664	70.8018
672	71.5997
680	72.3976
688	73.1952
696	73.9925
704	74.7898
712	75.5871
720	76.3843
728	77.1816
736	77.9788
744	78.7761
752	79.5733
760	80.3705
768	81.1677
776	81.9649
784	82.7621
792	83.5593
800	84.3564
808	85.1536
816	85.9507
824	86.7479
832	87.545
840	88.3421
848	89.1392
856	89.9363
864	90.7334
872	91.5304
880	92.3275
888	93.1246
896	93.9216
904	94.7186
912	95.5157
920	96.3127
928	97.1097
936	97.9068
944	98.7038
952	99.5008
960	100.298
968	101.095
976	101.892
984	102.689
992	103.486
1000	104.282
1008	105.079
1016	105.876
1024	106.673
1040	108.019
1056	109.36
1072	110.7
1088	112.04
1104	113.38
1120	114.72
1136	116.06
1152	117.399
1168	118.739
1184	120.079
1200	121.418
1216	122.756
1232	124.094
1248	125.433
1264	126.771
1280	128.109
1296	129.447
1312	130.785
1328	132.123
1344	133.461
1360	134.798
1376	136.136
1392	137.473
1408	138.811
1424	140.148
1440	141.485
1456	142.822
1472	144.159
1488	145.496
1504	146.833
1520	148.169
1536	149.506
1552	150.842
1568	152.179
1584	153.515
1600	154.852
1616	156.188
1632	157.524
1648	158.86
1664	160.196
1680	161.532
1696	162.868
1712	164.204
1728	165.539
1744	166.875
1760	168.21
1776	169.546
1792	170.881
1808	172.217
1824	173.552
1840	174.887
1856	176.222
1872	177.557
1888	178.892
1904	180.227
1920	181.562
1936	182.897
1952	184.232
1968	185.566
1984	186.901
2000	188.236
2016	189.57
2032	190.905
2048	192.239
2080	194.908
2112	197.576
2144	200.243
2176	202.91
2208	205.577
2240	208.243
2272	210.91
2304	213.576
2336	216.242
2368	218.908
2400	221.574
2432	224.239
2464	226.905
2496	229.57
2528	232.235
2560	234.9
2592	237.565
2624	240.23
2656	242.894
2688	245.558
2720	248.222
2752	250.886
2784	253.549
2816	256.212
2848	258.875
2880	261.538
2912	264.2
2944	266.863
2976	269.525
3008	272.188
3040	274.85
3072	277.512
3104	280.174
3136	282.835
3168	285.497
3200	288.158
3232	290.819
3264	293.481
3296	296.142
3328	298.803
3360	301.463
3392	304.124
3424	306.785
3456	309.445
3488	312.106
3520	314.766
3552	317.426
3584	320.086
3616	322.746
3648	325.406
3680	328.066
3712	330.725
3744	333.385
3776	336.044
3808	338.703
3840	341.362
3872	344.021
3904	346.68
3936	349.339
3968	351.998
4000	354.657
4032	357.315
4064	359.974
4096	362.632
4160	367.946
4224	373.259
4288	378.572
4352	383.884
4416	389.196
4480	394.507
4544	399.818
4608	405.129
4672	410.439
4736	415.749
4800	421.057
4864	426.365
4928	431.672
4992	436.98
5056	442.286
5120	447.593
5184	452.899
5248	458.205
5312	463.51
5376	468.815
5440	474.12
5504	479.424
5568	484.728
5632	490.032
5696	495.335
5760	500.638
5824	505.941
5888	511.243
5952	516.545
6016	521.846
6080	527.148
6144	532.448
6208	537.749
6272	543.049
6336	548.349
6400	553.648
6464	558.947
6528	564.246
6592	569.544
6656	574.842
6720	580.14
6784	585.437
6848	590.734
6912	596.031
6976	601.327
7040	606.623
7104	611.919
7168	617.214
7232	622.508
7296	627.803
7360	633.097
7424	638.391
7488	643.684
7552	648.978
7616	654.27
7680	659.562
7744	664.854
7808	670.146
7872	675.437
7936	680.728
8000	686.019
8064	691.309
8128	696.599
8192	701.889
8320	712.466
8448	723.041
8576	733.612
8704	744.182
8832	754.747
8960	765.31
9088	775.871
9216	786.43
9344	796.905
9472	807.374
9600	817.837
9728	828.289
9856	838.729
9984	849.157
10112	859.572
10240	869.972
10368	880.233
10496	890.48
10624	900.716
10752	910.94
10880	921.151
11008	931.348
11136	941.53
11264	951.698
11392	961.852
11520	971.99
11648	982.113
11776	992.221
11904	1002.31
12032	1012.39
12160	1022.44
12288	1032.48
12416	1042.5
12544	1052.5
12672	1062.48
12800	1072.45
12928	1082.4
13056	1092.33
13184	1102.25
13312	1112.16
13440	1122.05
13568	1131.93
13696	1141.8
13824	1151.66
13952	1161.5
14080	1171.33
14208	1181.15
14336	1190.95
14464	1200.75
14592	1210.52
14720	1220.29
14848	1230.04
14976	1239.77
15104	1249.48
15232	1259.18
15360	1268.85
15488	1278.5
15616	1288.12
15744	1297.72
15872	1307.3
16000	1316.85
16128	1326.38
16256	1335.89
16384	1345.36
16640	1364.01
16896	1382.37
17152	1400.6
17408	1418.68
17664	1436.59
17920	1454.27
18176	1471.68
18432	1488.82
18688	1505.7
18944	1522.31
19200	1538.66
19456	1554.75
19712	1570.58
19968	1586.17
20224	1601.56
20480	1616.78
20736	1631.83
20992	1646.71
21248	1661.43
21504	1675.97
21760	1690.33
22016	1704.5
22272	1718.47
22528	1732.26
22784	1745.88
23040	1759.36
23296	1772.7
23552	1785.9
23808	1798.97
24064	1811.93
24320	1824.76
24576	1837.47
24832	1850.06
25088	1862.53
25344	1874.89
25600	1887.15
25856	1899.31
26112	1911.37
26368	1923.34
26624	1935.2
26880	1946.96
27136	1958.6
27392	1970.13
27648	1981.54
27904	1992.81
28160	2003.94
28416	2014.95
28672	2025.83
28928	2036.61
29184	2047.27
29440	2057.82
29696	2068.28
29952	2078.61
30208	2088.84
30464	2098.94
30720	2108.9
30976	2118.72
31232	2128.41
31488	2137.95
31744	2147.36
32000	2156.63
32256	2165.74
32512	2174.69
32768	2183.49
33280	2200.55
33792	2216.95
34304	2232.71
34816	2247.76
35328	2262.08
35840	2275.57
36352	2288.15
36864	2299.88
37376	2310.96
37888	2321.47
38400	2331.56
38912	2341.22
39424	2350.46
39936	2359.27
40448	2367.69
40960	2375.73
41472	2383.45
41984	2390.91
42496	2398.09
43008	2405.04
43520	2411.83
44032	2418.48
44544	2425.03
45056	2431.51
45568	2437.94
46080	2444.33
46592	2450.68
47104	2457
47616	2463.28
48128	2469.54
48640	2475.77
49152	2481.97
49664	2488.14
50176	2494.28
50688	2500.41
51200	2506.47
51712	2512.41
52224	2518.24
52736	2524.05
53248	2529.86
53760	2535.67
54272	2541.48
54784	2547.29
55296	2553.1
55808	2558.91
56320	2564.71
56832	2570.52
57344	2576.33
57856	2582.14
58368	2587.95
58880	2593.76
59392	2599.57
59904	2605.38
60416	2611.18
60928	2616.99
61440	2622.8
61952	2628.61
62464	2634.42
62976	2640.23
63488	2646.03
64000	2651.84
64512	2657.65
65024	2663.46
65536	2669.27
66560	2680.88
67584	2692.45
68608	2703.58
69632	2713.88
70656	2723.44
71680	2732.73
72704	2742.02
73728	2751.31
74752	2760.59
75776	2769.88
76800	2779.17
77824	2788.46
78848	2797.75
79872	2807.04
80896	2816.33
81920	2825.61
82944	2834.9
83968	2844.19
84992	2853.48
86016	2862.77
87040	2872.06
88064	2881.35
89088	2890.63
90112	2899.92
91136	2909.21
92160	2918.5
93184	2927.79
94208	2937.08
95232	2946.37
96256	2955.65
97280	2964.94
98304	2974.23
99328	2983.52
100352	2992.81
101376	3002.1
102400	3011.38
103424	3020.67
104448	3029.96
105472	3039.25
106496	3048.54
107520	3057.83
108544	3067.12
109568	3076.4
110592	3085.69
111616	3094.98
112640	3104.27
113664	3113.56
114688	3122.85
115712	3132.14
116736	3141.42
117760	3150.71
118784	3160
119808	3169.29
120832	3178.58
121856	3187.87
122880	3197.16
123904	3206.44
124928	3215.73
125952	3225.02
126976	3234.31
128000	3243.6
129024	3252.89
130048	3262.18
131072	3271.46
133120	3290.04
135168	3308.62
137216	3327.2
139264	3345.77
141312	3364.35
143360	3382.93
145408	3401.5
147456	3420.08
149504	3438.66
151552	3457.23
153600	3475.81
155648	3494.39
157696	3512.97
159744	3531.54
161792	3550.11
163840	3568.68
165888	3587.24
167936	3605.81
169984	3624.37
172032	3642.93
174080	3661.5
176128	3680.06
178176	3698.62
180224	3717.19
182272	3735.75
184320	3754.31
186368	3772.87
188416	3791.44
190464	3810
192512	3828.56
194560	3847.12
196608	3865.67
198656	3884.22
200704	3902.77
202752	3921.32
204800	3939.87
206848	3958.41
208896	3976.95
210944	3995.48
212992	4013.96
215040	4032.44
217088	4050.91
219136	4069.39
221184	4087.86
223232	4106.34
225280	4124.81
227328	4143.29
229376	4161.23
231424	4177.06
233472	4192.89
235520	4208.73
237568	4224.56
239616	4240.38
241664	4256.21
243712	4272.03
245760	4287.78
247808	4303.45
249856	4319.12
251904	4334.79
253952	4350.46
256000	4366.13
258048	4381.8
260096	4397.47
262144	4413.14
266240	4444.48
270336	4475.81
274432	4507.14
278528	4538.45
282624	4569.76
286720	4601.07
290816	4632.37
294912	4663.68
299008	4694.98
303104	4726.27
307200	4757.57
311296	4788.87
315392	4816.37
319488	4842.88
323584	4869.39
327680	4895.85
331776	4922.08
335872	4948.31
339968	4974.54
344064	5000.77
348160	5027
352256	5053.23
356352	5079.46
360448	5105.69
364544	5131.92
368640	5158.15
372736	5184.38
376832	5210.61
380928	5236.84
385024	5263.07
389120	5289.31
393216	5315.54
397312	5341.77
401408	5368
405504	5394.23
409600	5420.46
413696	5446.69
417792	5472.92
421888	5499.15
425984	5525.38
430080	5551.61
434176	5577.84
438272	5604.07
442368	5630.3
446464	5656.53
450560	5682.76
454656	5708.99
458752	5735.22
462848	5761.45
466944	5787.68
471040	5813.91
475136	5840.14
479232	5866.37
483328	5892.6
487424	5918.83
491520	5945.07
495616	5971.3
499712	5997.53
503808	6023.76
507904	6049.99
512000	6076.22
516096	6102.45
520192	6128.68
524288	6154.91
532480	6207.37
540672	6259.83
548864	6312.29
557056	6364.75
565248	6417.21
573440	6469.67
581632	6522.13
589824	6574.6
598016	6627.06
606208	6679.52
614400	6731.98
622592	6784.44
630784	6836.9
638976	6889.36
647168	6941.82
655360	6994.28
663552	7046.74
671744	7099.2
679936	7151.67
688128	7204.13
696320	7256.59
704512	7309.05
712704	7361.51
720896	7413.97
729088	7466.43
737280	7518.89
745472	7571.35
753664	7623.81
761856	7676.27
770048	7728.74
778240	7781.2
786432	7833.66
794624	7886.12
802816	7938.58
811008	7991.04
819200	8043.5
827392	8095.96
835584	8148.42
843776	8200.88
851968	8253.35
860160	8305.81
868352	8358.27
876544	8410.73
884736	8463.19
892928	8515.65
901120	8568.11
909312	8620.57
917504	8673.03
925696	8725.49
933888	8777.95
942080	8830.42
950272	8882.88
958464	8935.34
966656	8987.8
974848	9040.26
983040	9092.72
991232	9145.18
999424	9197.64
1007616	9250.1
1015808	9302.56
1024000	9355.02
1032192	9407.48
1040384	9459.94
1048576	9512.4
1064960	9617.32
1081344	9722.24
1097728	9827.17
1114112	9932.09
1130496	10037
1146880	10141.9
1163264	10246.9
1179648	10351.8
1196032	10456.7
1212416	10561.6
1228800	10666.5
1245184	10771.5
1261568	10876.4
1277952	10981.3
1294336	11086.2
1310720	11191.1
1327104	11296.1
1343488	11401
1359872	11505.9
1376256	11610.8
1392640	11715.8
1409024	11820.7
1425408	11925.6
1441792	12030.5
1458176	12135.4
1474560	12240.4
1490944	12345.3
1507328	12450.2
1523712	12555.1
1540096	12660
1556480	12765
1572864	12869.9
1589248	12974.8
1605632	13079.7
1622016	13184.7
1638400	13289.6
1654784	13394.5
1671168	13499.4
1687552	13604.3
1703936	13709.3
1720320	13814.2
1736704	13919.1
1753088	14024
1769472	14128.9
1785856	14233.9
1802240	14338.8
1818624	14443.7
1835008	14548.6
1851392	14653.6
1867776	14758.5
1884160	14863.4
1900544	14968.3
1916928	15073.2
1933312	15178.2
1949696	15283.1
1966080	15388
1982464	15492.9
1998848	15597.9
2015232	15702.8
2031616	15807.7
2048000	15912.6
2064384	16017.5
2080768	16122.5
2097152	16227.4
2129920	16437.2
2162688	16647.1
2195456	16856.9
2228224	17066.8
2260992	17276.6
2293760	17486.5
2326528	17696.3
2359296	17906.1
2392064	18116
2424832	18325.8
2457600	18535.7
2490368	18745.5
2523136	18955.4
2555904	19165.2
2588672	19375.1
2621440	19584.9
2654208	19794.8
2686976	20004.6
2719744	20214.4
2752512	20424.3
2785280	20634.1
2818048	20844
2850816	21053.8
2883584	21263.7
2916352	21473.5
2949120	21683.4
2981888	21893.2
3014656	22102.9
3047424	22312.3
3080192	22521.7
3112960	22731.1
3145728	22940.5
3178496	23149.9
3211264	23359.3
3244032	23568.7
3276800	23778.1
3309568	23987.5
3342336	24196.9
3375104	24406.3
3407872	24615.7
3440640	24825.1
3473408	25034.5
3506176	25243.9
3538944	25453.3
3571712	25662.7
3604480	25872.1
3637248	26081.5
3670016	26290.9
3702784	26500.3
3735552	26709.7
3768320	26919.1
3801088	27128.5
3833856	27337.9
3866624	27547.3
3899392	27756.7
3932160	27966.1
3964928	28175.5
3997696	28384.9
4030464	28594.3
4063232	28803.7
4096000	29013.1
4128768	29222.5
4161536	29432
4194304	29641.4
4259840	30060.2
4325376	30479
4390912	30897.8
4456448	31316.6
4521984	31735.4
4587520	32154.2
4653056	32573
4718592	32991.8
4784128	33410.6
4849664	33829.4
4915200	34248.2
4980736	34667
5046272	35085.8
5111808	35504.7
5177344	35923.5
5242880	36342.3
5308416	36761.1
5373952	37179.9
5439488	37598.7
5505024	38017.5
5570560	38436.3
5636096	38855.1
5701632	39273.9
5767168	39692.7
5832704	40111.5
5898240	40530.4
5963776	40949.2
6029312	41368
6094848	41786.8
6160384	42205.6
6225920	42624.4
6291456	43043.2
6356992	43462
6422528	43880.8
6488064	44299.7
6553600	44718.5
6619136	45137.3
6684672	45556.1
6750208	45974.9
6815744	46393.7
6881280	46812.5
6946816	47231.3
7012352	47650.1
7077888	48069
7143424	48487.8
7208960	48906.6
7274496	49325.4
7340032	49744.2
7405568	50163
7471104	50581.8
7536640	51000.6
7602176	51419.5
7667712	51838.3
7733248	52257.1
7798784	52675.9
7864320	53094.7
7929856	53513.5
7995392	53932.3
8060928	54351.1
8126464	54770
8192000	55188.8
8257536	55607.6
8323072	56026.4
8388608	56445.2
8519680	57282.8
8650752	58120.5
8781824	58958.1
8912896	59795.7
9043968	60633.3
9175040	61471
9306112	62308.6
9437184	63146.2
9568256	63983.9
9699328	64821.5
9830400	65659.1
9961472	66496.8
10092544	67334.4
10223616	68172
10354688	69009.7
10485760	69847.3
10616832	70684.9
10747904	71522.5
10878976	72360.2
11010048	73197.8
11141120	74035.4
11272192	74873.1
11403264	75710.7
11534336	76548.3
11665408	77385.9
11796480	78223.6
11927552	79061.2
12058624	79898.8
12189696	80736.5
12320768	81574.1
12451840	82411.7
12582912	83249.3
12713984	84087
12845056	84924.6
12976128	85762.2
13107200	86599.9
13238272	87437.5
13369344	88275.1
13500416	89112.8
13631488	89950.4
13762560	90788
13893632	91625.6
14024704	92463.3
14155776	93300.9
14286848	94138.5
14417920	94976.2
14548992	95813.8
14680064	96651.4
14811136	97489
14942208	98326.7
15073280	99164.3
15204352	100002
15335424	100840
15466496	101677
15597568	102515
15728640	103352
15859712	104190
15990784	105028
16121856	105865
16252928	106703
16384000	107540
16515072	108378
16646144	109216
16777216	110053
17039360	111729
17301504	113404
17563648	115079
17825792	116754
18087936	118429
18350080	120105
18612224	121780
18874368	123455
19136512	125130
19398656	126806
19660800	128481
19922944	130156
20185088	131831
20447232	133506
20709376	135182
20971520	136857
21233664	138532
21495808	140207
21757952	141882
22020096	143557
22282240	145233
22544384	146908
22806528	148583
23068672	150258
23330816	151933
23592960	153608
23855104	155283
24117248	156959
24379392	158634
24641536	160309
24903680	161984
25165824	163659
25427968	165334
25690112	167009
25952256	168684
26214400	170359
26476544	172035
26738688	173710
27000832	175385
27262976	177060
27525120	178735
27787264	180410
28049408	182085
28311552	183760
28573696	185435
28835840	187110
29097984	188785
29360128	190460
29622272	192135
29884416	193810
30146560	195485
30408704	197160
30670848	198835
30932992	200510
31195136	202185
31457280	203860
31719424	205535
31981568	207209
32243712	208884
32505856	210559
32768000	212234
33030144	213909
33292288	215584
33554432	217259
34078720	220609
34603008	223958
35127296	227308
35651584	230657
36175872	234007
36700160	237356
37224448	240706
37748736	244055
38273024	247405
38797312	250754
39321600	254103
39845888	257453
40370176	260802
40894464	264151
41418752	267500
41943040	270849
42467328	274198
42991616	277547
43515904	280896
44040192	284245
44564480	287593
45088768	290942
45613056	294291
46137344	297639
46661632	300988
47185920	304336
47710208	307685
48234496	311033
48758784	314382
49283072	317730
49807360	321078
50331648	324426
50855936	327774
51380224	331122
51904512	334470
52428800	337818
52953088	341166
53477376	344513
54001664	347861
54525952	351209
55050240	354556
55574528	357903
56098816	361251
56623104	364598
57147392	367945
57671680	371292
58195968	374639
58720256	377986
59244544	381333
59768832	384680
60293120	388027
60817408	391373
61341696	394720
61865984	398067
62390272	401413
62914560	404759
63438848	408105
63963136	411452
64487424	414798
65011712	418144
65536000	421489
66060288	424835
66584576	428181
67108864	431526
68157440	438217
69206016	444908
70254592	451598
71303168	458288
72351744	464977
73400320	471666
74448896	478355
75497472	485043
76546048	491730
77594624	498418
78643200	505104
79691776	511791
80740352	518477
81788928	525162
82837504	531847
83886080	538531
84934656	545215
85983232	551899
87031808	558582
88080384	565264
89128960	571946
90177536	578628
91226112	585309
92274688	591989
93323264	598669
94371840	605348
95420416	612027
96468992	618705
97517568	625383
98566144	632060
99614720	638736
100663296	645412
101711872	652087
102760448	658762
103809024	665436
104857600	672110
105906176	678782
106954752	685455
108003328	692126
109051904	698797
110100480	705467
111149056	712137
112197632	718806
113246208	725474
114294784	732141
115343360	738808
116391936	745475
117440512	752140
118489088	758805
119537664	765469
120586240	772132
121634816	778795
122683392	785457
123731968	792118
124780544	798778
125829120	805438
126877696	812096
127926272	818755
128974848	825412
130023424	832068
131072000	838724
132120576	845379
133169152	852033
134217728	858686
136314880	871990
138412032	885291
140509184	898589
142606336	911882
144703488	925173
146800640	938460
148897792	951743
150994944	965022
153092096	978298
155189248	991570
157286400	1.00484e+06
159383552	1.0181e+06
161480704	1.03136e+06
163577856	1.04462e+06
165675008	1.05787e+06
167772160	1.07112e+06
169869312	1.08436e+06
171966464	1.0976e+06
174063616	1.11084e+06
176160768	1.12407e+06
178257920	1.1373e+06
180355072	1.15052e+06
182452224	1.16374e+06
184549376	1.17695e+06
186646528	1.19016e+06
188743680	1.20336e+06
190840832	1.21656e+06
192937984	1.22975e+06
195035136	1.24294e+06
197132288	1.25613e+06
199229440	1.26931e+06
201326592	1.28248e+06
203423744	1.29565e+06
205520896	1.30881e+06
207618048	1.32197e+06
209715200	1.33513e+06
211812352	1.34827e+06
213909504	1.36142e+06
216006656	1.37456e+06
218103808	1.38769e+06
220200960	1.40081e+06
222298112	1.41393e+06
224395264	1.42705e+06
226492416	1.44016e+06
228589568	1.45326e+06
230686720	1.46636e+06
232783872	1.47945e+06
234881024	1.49254e+06
236978176	1.50562e+06
239075328	1.51868e+06
241172480	1.53174e+06
243269632	1.54479e+06
245366784	1.55782e+06
247463936	1.57085e+06
249561088	1.58386e+06
251658240	1.59687e+06
253755392	1.60986e+06
255852544	1.62285e+06
257949696	1.63582e+06
260046848	1.64878e+06
262144000	1.66174e+06
264241152	1.67468e+06
266338304	1.68761e+06
268435456	1.70053e+06
272629760	1.72635e+06
276824064	1.75212e+06
281018368	1.77785e+06
285212672	1.80354e+06
289406976	1.82918e+06
293601280	1.85478e+06
297795584	1.88035e+06
301989888	1.90586e+06
306184192	1.93134e+06
310378496	1.95677e+06
314572800	1.98216e+06
318767104	2.00751e+06
322961408	2.03282e+06
327155712	2.05808e+06
331350016	2.0833e+06
335544320	2.10847e+06
339738624	2.13361e+06
343932928	2.15869e+06
348127232	2.18374e+06
352321536	2.20874e+06
356515840	2.2337e+06
360710144	2.25861e+06
364904448	2.28348e+06
369098752	2.30831e+06
373293056	2.33309e+06
377487360	2.35783e+06
381681664	2.38252e+06
385875968	2.40717e+06
390070272	2.43177e+06
394264576	2.45633e+06
398458880	2.48085e+06
402653184	2.50531e+06
406847488	2.52974e+06
411041792	2.55412e+06
415236096	2.57845e+06
419430400	2.60274e+06
423624704	2.62698e+06
427819008	2.65118e+06
432013312	2.67533e+06
436207616	2.69944e+06
440401920	2.7235e+06
444596224	2.74751e+06
448790528	2.77148e+06
452984832	2.7954e+06
457179136	2.81928e+06
461373440	2.84311e+06
465567744	2.86689e+06
469762048	2.89063e+06
473956352	2.91431e+06
478150656	2.93796e+06
482344960	2.96155e+06
486539264	2.9851e+06
490733568	3.0086e+06
494927872	3.03206e+06
499122176	3.05546e+06
503316480	3.07882e+06
507510784	3.10213e+06
511705088	3.1254e+06
515899392	3.14861e+06
520093696	3.17178e+06
524288000	3.1949e+06
528482304	3.21797e+06
532676608	3.24099e+06
536870912	3.26397e+06
545259520	3.30978e+06
553648128	3.35539e+06
562036736	3.4008e+06
570425344	3.44602e+06
578813952	3.49104e+06
587202560	3.53586e+06
595591168	3.58049e+06
603979776	3.62491e+06
612368384	3.66914e+06
620756992	3.71316e+06
629145600	3.75698e+06
637534208	3.8006e+06
645922816	3.84401e+06
654311424	3.88722e+06
662700032	3.93022e+06
671088640	3.97302e+06
679477248	4.0156e+06
687865856	4.05798e+06
696254464	4.10015e+06
704643072	4.14211e+06
713031680	4.18386e+06
721420288	4.2254e+06
729808896	4.26673e+06
738197504	4.30784e+06
746586112	4.34873e+06
754974720	4.38942e+06
763363328	4.42988e+06
771751936	4.47013e+06
780140544	4.51016e+06
788529152	4.54997e+06
796917760	4.58957e+06
805306368	4.62894e+06
813694976	4.66809e+06
822083584	4.70702e+06
830472192	4.74572e+06
838860800	4.78421e+06
847249408	4.82246e+06
855638016	4.86049e+06
864026624	4.8983e+06
872415232	4.93586e+06
880803840	4.97307e+06
889192448	5.00988e+06
897581056	5.04628e+06
905969664	5.08228e+06
914358272	5.11788e+06
922746880	5.15307e+06
931135488	5.18786e+06
939524096	5.22225e+06
947912704	5.25623e+06
956301312	5.28981e+06
964689920	5.32299e+06
973078528	5.35576e+06
981467136	5.38813e+06
989855744	5.42009e+06
998244352	5.45165e+06
1006632960	5.4828e+06
1015021568	5.51355e+06
1023410176	5.54391e+06
1031798784	5.57387e+06
1040187392	5.60345e+06
1048576000	5.63263e+06
1056964608	5.66144e+06
1065353216	5.68986e+06
1073741824	5.71791e+06
1090519040	5.7729e+06
1107296256	5.82642e+06
1124073472	5.87851e+06
1140850688	5.9292e+06
1157627904	5.97851e+06
1174405120	6.02647e+06
1191182336	6.07311e+06
1207959552	6.11846e+06
1224736768	6.16254e+06
1241513984	6.20539e+06
1258291200	6.24702e+06
1275068416	6.28745e+06
1291845632	6.32648e+06
1308622848	6.3639e+06
1325400064	6.3997e+06
1342177280	6.43389e+06
1358954496	6.46695e+06
1375731712	6.49978e+06
1392508928	6.53243e+06
1409286144	6.56492e+06
1426063360	6.59723e+06
1442840576	6.62938e+06
1459617792	6.66138e+06
1476395008	6.69323e+06
1493172224	6.72493e+06
1509949440	6.7565e+06
1526726656	6.78794e+06
1543503872	6.81926e+06
1560281088	6.85045e+06
1577058304	6.88154e+06
1593835520	6.91251e+06
1610612736	6.94339e+06
1627389952	6.97417e+06
1644167168	7.00487e+06
1660944384	7.03548e+06
1677721600	7.06602e+06
1694498816	7.09649e+06
1711276032	7.1269e+06
1728053248	7.15725e+06
1744830464	7.18755e+06
1761607680	7.2178e+06
1778384896	7.24802e+06
1795162112	7.27821e+06
1811939328	7.30837e+06
1828716544	7.33851e+06
1845493760	7.36864e+06
1862270976	7.39876e+06
1879048192	7.42888e+06
1895825408	7.459e+06
1912602624	7.48913e+06
1929379840	7.51926e+06
1946157056	7.5494e+06
1962934272	7.57954e+06
1979711488	7.60968e+06
1996488704	7.63982e+06
2013265920	7.66997e+06
2030043136	7.70012e+06
2046820352	7.73028e+06
2063597568	7.76043e+06
2080374784	7.79059e+06
2097152000	7.82075e+06
2113929216	7.85091e+06
2130706432	7.88107e+06
2147483648	7.91123e+06
2181038080	7.97155e+06
2214592512	8.03188e+06
2248146944	8.09222e+06
2281701376	8.15255e+06
2315255808	8.2129e+06
2348810240	8.27324e+06
2382364672	8.33359e+06
2415919104	8.39395e+06
2449473536	8.45431e+06
2483027968	8.51467e+06
2516582400	8.57504e+06
2550136832	8.63543e+06
2583691264	8.69582e+06
2617245696	8.75622e+06
2650800128	8.81664e+06
2684354560	8.87707e+06
2717908992	8.93753e+06
2751463424	8.998e+06
2785017856	9.05849e+06
2818572288	9.119e+06
2852126720	9.17954e+06
2885681152	9.2401e+06
2919235584	9.30069e+06
2952790016	9.36131e+06
2986344448	9.42196e+06
3019898880	9.48264e+06
3053453312	9.54336e+06
3087007744	9.60411e+06
3120562176	9.6649e+06
3154116608	9.72573e+06
3187671040	9.7866e+06
3221225472	9.84751e+06
3254779904	9.90827e+06
3288334336	9.96868e+06
3321888768	1.00287e+07
3355443200	1.00884e+07
3388997632	1.01478e+07
3422552064	1.02068e+07
3456106496	1.02655e+07
3489660928	1.02713e+07
3523215360	1.02768e+07
3556769792	1.02822e+07
3590324224	1.02875e+07
3623878656	1.02928e+07
3657433088	1.0298e+07
3690987520	1.03032e+07
3724541952	1.03083e+07
3758096384	1.03134e+07
3791650816	1.03184e+07
3825205248	1.03233e+07
3858759680	1.03282e+07
3892314112	1.0333e+07
3925868544	1.03378e+07
3959422976	1.03425e+07
3992977408	1.03471e+07
4026531840	1.03517e+07
4060086272	1.03562e+07
4093640704	1.03607e+07
4127195136	1.03651e+07
4160749568	1.03694e+07
4194304000	1.03737e+07
4227858432	1.0378e+07
4261412864	1.03821e+07
4294967296	1.03863e+07
4362076160	1.03943e+07
4429185024	1.04021e+07
4496293888	1.04097e+07
4563402752	1.04171e+07
4630511616	1.04244e+07
4697620480	1.04316e+07
4764729344	1.04387e+07
4831838208	1.04456e+07
4898947072	1.04522e+07
4966055936	1.04586e+07
5033164800	1.04648e+07
5100273664	1.04707e+07
5167382528	1.04764e+07
5234491392	1.04818e+07
5301600256	1.0487e+07
5368709120	1.04919e+07
5435817984	1.04966e+07
5502926848	1.05011e+07
5570035712	1.05053e+07
5637144576	1.05093e+07
5704253440	1.05093e+07
5771362304	1.05093e+07
5838471168	1.05093e+07
5905580032	1.05093e+07
5972688896	1.05093e+07
6039797760	1.05093e+07
6106906624	1.05093e+07
6174015488	1.05093e+07
6241124352	1.05093e+07
6308233216	1.05093e+07
6375342080	1.05093e+07
6442450944	1.05093e+07
6509559808	1.05093e+07
6576668672	1.05093e+07
6643777536	1.05093e+07
6710886400	1.05093e+07
6777995264	1.05093e+07
6845104128	1.05093e+07
6912212992	1.05093e+07
6979321856	1.05093e+07
7046430720	1.05093e+07
7113539584	1.05093e+07
7180648448	1.05093e+07
7247757312	1.05093e+07
7314866176	1.05093e+07
7381975040	1.05093e+07
7449083904	1.05093e+07
7516192768	1.05093e+07
7583301632	1.05093e+07
7650410496	1.05093e+07
7717519360	1.05093e+07
7784628224	1.05093e+07
7851737088	1.05093e+07
7918845952	1.05093e+07
7985954816	1.05093e+07
8053063680	1.05093e+07
8120172544	1.05093e+07
8187281408	1.05093e+07
8254390272	1.05093e+07
8321499136	1.05093e+07
8388608000	1.05093e+07
8455716864	1.05093e+07
8522825728	1.05093e+07
8589934592	1.05093e+07
8724152320	1.05093e+07
8858370048	1.05093e+07
8992587776	1.05093e+07
9126805504	1.05093e+07
9261023232	1.05093e+07
9395240960	1.05093e+07
9529458688	1.05093e+07
9663676416	1.05093e+07
9797894144	1.05093e+07
9932111872	1.05093e+07
10066329600	1.05093e+07
10200547328	1.05093e+07
10334765056	1.05093e+07
10468982784	1.05093e+07
10603200512	1.05093e+07
10737418240	1.05093e+07
10871635968	1.05093e+07
11005853696	1.05093e+07
11140071424	1.05093e+07
11274289152	1.05093e+07
11408506880	1.05093e+07
11542724608	1.05093e+07
11676942336	1.05093e+07
11811160064	1.05093e+07
11945377792	1.05093e+07
12079595520	1.05093e+07
12213813248	1.05093e+07
12348030976	1.05093e+07
12482248704	1.05093e+07
12616466432	1.05093e+07
12750684160	1.05093e+07
12884901888	1.05093e+07
13019119616	1.05093e+07
13153337344	1.05093e+07
13287555072	1.05093e+07
13421772800	1.05093e+07
13555990528	1.05093e+07
13690208256	1.05093e+07
13824425984	1.05093e+07
13958643712	1.05093e+07
14092861440	1.05093e+07
14227079168	1.05093e+07
14361296896	1.05093e+07
14495514624	1.05093e+07
14629732352	1.05093e+07
14763950080	1.05093e+07
14898167808	1.05093e+07
15032385536	1.05093e+07
15166603264	1.05093e+07
15300820992	1.05093e+07
15435038720	1.05093e+07
15569256448	1.05093e+07
15703474176	1.05093e+07
15837691904	1.05093e+07
15971909632	1.05093e+07
16106127360	1.05093e+07
16240345088	1.05093e+07
16374562816	1.05093e+07
16508780544	1.05093e+07
16642998272	1.05093e+07
16777216000	1.05093e+07
16911433728	1.05093e+07
17045651456	1.05093e+07
17179869184	1.05093e+07
17448304640	1.05093e+07
17716740096	1.05093e+07
17985175552	1.05093e+07
18253611008	1.05093e+07
18522046464	1.05093e+07
18790481920	1.05093e+07
19058917376	1.05093e+07
19327352832	1.05093e+07
19595788288	1.05093e+07
19864223744	1.05093e+07
20132659200	1.05093e+07
20401094656	1.05093e+07
20669530112	1.05093e+07
20937965568	1.05093e+07
21206401024	1.05093e+07
21474836480	1.05093e+07
21743271936	1.05093e+07
22011707392	1.05093e+07
22280142848	1.05093e+07
22548578304	1.05093e+07
22817013760	1.05093e+07
23085449216	1.05093e+07
23353884672	1.05093e+07
23622320128	1.05093e+07
23890755584	1.05093e+07
24159191040	1.05093e+07
24427626496	1.05093e+07
24696061952	1.05093e+07
24964497408	1.05093e+07
25232932864	1.05093e+07
25501368320	1.05093e+07
25769803776	1.05093e+07
26038239232	1.05093e+07
26306674688	1.05093e+07
26575110144	1.05093e+07
26843545600	1.05093e+07
27111981056	1.05093e+07
27380416512	1.05093e+07
27648851968	1.05093e+07
27917287424	1.05093e+07
28185722880	1.05093e+07
28454158336	1.05093e+07
28722593792	1.05093e+07
28991029248	1.05093e+07
29259464704	1.05093e+07
29527900160	1.05093e+07
29796335616	1.05093e+07
30064771072	1.05093e+07
30333206528	1.05093e+07
30601641984	1.05093e+07
30870077440	1.05093e+07
31138512896	1.05093e+07
31406948352	1.05093e+07
31675383808	1.05093e+07
31943819264	1.05093e+07
32212254720	1.05093e+07
32480690176	1.05093e+07
32749125632	1.05093e+07
33017561088	1.05093e+07
33285996544	1.05093e+07
33554432000	1.05093e+07
33822867456	1.05093e+07
34091302912	1.05093e+07
34359738368	1.05093e+07
34896609280	1.05093e+07
35433480192	1.05093e+07
35970351104	1.05093e+07
36507222016	1.05093e+07
37044092928	1.05093e+07
37580963840	1.05093e+07
38117834752	1.05093e+07
38654705664	1.05093e+07
39191576576	1.05093e+07
39728447488	1.05093e+07
40265318400	1.05093e+07
40802189312	1.05093e+07
41339060224	1.05093e+07
41875931136	1.05093e+07
42412802048	1.05093e+07
42949672960	1.05093e+07
43486543872	1.05093e+07
44023414784	1.05093e+07
44560285696	1.05093e+07
45097156608	1.05093e+07
45634027520	1.05093e+07
46170898432	1.05093e+07
46707769344	1.05093e+07
47244640256	1.05093e+07
47781511168	1.05093e+07
48318382080	1.05093e+07
48855252992	1.05093e+07
49392123904	1.05093e+07
49928994816	1.05093e+07
50465865728	1.05093e+07
51002736640	1.05093e+07
51539607552	1.05093e+07
52076478464	1.05093e+07
52613349376	1.05093e+07
53150220288	1.05094e+07
53687091200	1.05094e+07
54223962112	1.05094e+07
54760833024	1.05094e+07
55297703936	1.05094e+07
55834574848	1.05094e+07
56371445760	1.05094e+07
56908316672	1.05094e+07
57445187584	1.05094e+07
57982058496	1.05094e+07
58518929408	1.05094e+07
59055800320	1.05094e+07
59592671232	1.05094e+07
60129542144	1.05094e+07
60666413056	1.05094e+07
61203283968	1.05094e+07
61740154880	1.05094e+07
62277025792	1.05094e+07
62813896704	1.05094e+07
63350767616	1.05094e+07
63887638528	1.05094e+07
64424509440	1.05094e+07
64961380352	1.05094e+07
65498251264	1.05094e+07
66035122176	1.05094e+07
66571993088	1.05094e+07
67108864000	1.05094e+07
67645734912	1.05094e+07
68182605824	1.05094e+07
68719476736	1.05094e+07
69793218560	1.05094e+07
70866960384	1.05095e+07
71940702208	1.05095e+07
73014444032	1.05095e+07
74088185856	1.05095e+07
75161927680	1.05095e+07
76235669504	1.05095e+07
77309411328	1.05096e+07
78383153152	1.05096e+07
79456894976	1.05109e+07
80530636800	1.05109e+07
81604378624	1.05109e+07
82678120448	1.05109e+07
83751862272	1.05109e+07
84825604096	1.05109e+07
85899345920	1.05109e+07
86973087744	1.05109e+07
88046829568	1.05109e+07
89120571392	1.05109e+07
90194313216	1.05109e+07
91268055040	1.05109e+07
92341796864	1.05109e+07
93415538688	1.05109e+07
94489280512	1.05109e+07
95563022336	1.05109e+07
96636764160	1.05109e+07
97710505984	1.05109e+07
98784247808	1.05109e+07
99857989632	1.05109e+07
100931731456	1.05109e+07
102005473280	1.05109e+07
103079215104	1.05109e+07
104152956928	1.05109e+07
105226698752	1.05109e+07
106300440576	1.05109e+07
107374182400	1.05109e+07
108447924224	1.05109e+07
109521666048	1.05109e+07
110595407872	1.05109e+07
111669149696	1.05109e+07
112742891520	1.05109e+07
113816633344	1.05109e+07
114890375168	1.05109e+07
115964116992	1.05109e+07
117037858816	1.05109e+07
118111600640	1.05109e+07
119185342464	1.05109e+07
120259084288	1.05109e+07
121332826112	1.05109e+07
122406567936	1.05109e+07
123480309760	1.05109e+07
124554051584	1.05109e+07
125627793408	1.05109e+07
126701535232	1.05109e+07
127775277056	1.05109e+07
128849018880	1.05109e+07
129922760704	1.05109e+07
130996502528	1.05109e+07
132070244352	1.05109e+07
133143986176	1.05109e+07
134217728000	1.05109e+07
135291469824	1.05109e+07
136365211648	1.05109e+07
137438953472	1.05109e+07
139586437120	1.05109e+07
141733920768	1.05109e+07
143881404416	1.05109e+07
146028888064	1.05109e+07
148176371712	1.05109e+07
150323855360	1.05109e+07
152471339008	1.05109e+07
154618822656	1.05109e+07
156766306304	1.05109e+07
158913789952	1.05109e+07
161061273600	1.05109e+07
163208757248	1.05109e+07
165356240896	1.05109e+07
167503724544	1.05109e+07
169651208192	1.05109e+07
171798691840	1.05109e+07
173946175488	1.05109e+07
176093659136	1.05109e+07
178241142784	1.05109e+07
180388626432	1.05109e+07
182536110080	1.05109e+07
184683593728	1.05109e+07
186831077376	1.05109e+07
188978561024	1.05109e+07
191126044672	1.05109e+07
193273528320	1.05109e+07
195421011968	1.05109e+07
197568495616	1.05109e+07
199715979264	1.05109e+07
201863462912	1.05109e+07
204010946560	1.05109e+07
206158430208	1.05109e+07
208305913856	1.05109e+07
210453397504	1.05109e+07
212600881152	1.05109e+07
214748364800	1.05109e+07
216895848448	1.05109e+07
219043332096	1.05109e+07
221190815744	1.05109e+07
223338299392	1.05109e+07
225485783040	1.05109e+07
227633266688	1.05109e+07
229780750336	1.05109e+07
231928233984	1.05109e+07
234075717632	1.05109e+07
236223201280	1.05109e+07
238370684928	1.05109e+07
240518168576	1.05109e+07
242665652224	1.05109e+07
244813135872	1.05109e+07
246960619520	1.05109e+07
249108103168	1.05109e+07
251255586816	1.05109e+07
253403070464	1.05109e+07
255550554112	1.05109e+07
257698037760	1.05109e+07
259845521408	1.05109e+07
261993005056	1.05109e+07
264140488704	1.05109e+07
266287972352	1.05109e+07
268435456000	1.05109e+07
270582939648	1.05109e+07
272730423296	1.05109e+07
274877906944	1.05109e+07
279172874240	1.05109e+07
283467841536	1.05109e+07
287762808832	1.05109e+07
292057776128	1.05109e+07
296352743424	1.05109e+07
300647710720	1.05109e+07
304942678016	1.05109e+07
309237645312	1.05109e+07
313532612608	1.05109e+07
317827579904	1.05109e+07
322122547200	1.05109e+07
326417514496	1.05109e+07
330712481792	1.05109e+07
335007449088	1.05109e+07
339302416384	1.05109e+07
343597383680	1.05109e+07
347892350976	1.05109e+07
352187318272	1.05109e+07
356482285568	1.05109e+07
360777252864	1.05109e+07
365072220160	1.05109e+07
369367187456	1.05109e+07
373662154752	1.05109e+07
377957122048	1.05109e+07
382252089344	1.05109e+07
386547056640	1.05109e+07
390842023936	1.05109e+07
395136991232	1.05109e+07
399431958528	1.05109e+07
403726925824	1.05109e+07
408021893120	1.05109e+07
412316860416	1.05109e+07
416611827712	1.05109e+07
420906795008	1.05109e+07
425201762304	1.05109e+07
429496729600	1.05109e+07
433791696896	1.05109e+07
438086664192	1.05109e+07
442381631488	1.05109e+07
446676598784	1.05109e+07
450971566080	1.05109e+07
455266533376	1.05109e+07
459561500672	1.05109e+07
463856467968	1.05109e+07
468151435264	1.05109e+07
472446402560	1.05109e+07
476741369856	1.05109e+07
481036337152	1.05109e+07
485331304448	1.05109e+07
489626271744	1.05109e+07
493921239040	1.05109e+07
498216206336	1.05109e+07
502511173632	1.05109e+07
506806140928	1.05109e+07
511101108224	1.05109e+07
515396075520	1.05109e+07
519691042816	1.05109e+07
523986010112	1.05109e+07
528280977408	1.05109e+07
532575944704	1.05109e+07
536870912000	1.05109e+07
541165879296	1.05109e+07
545460846592	1.05109e+07
549755813888	1.05109e+07
558345748480	1.05109e+07
566935683072	1.05109e+07
575525617664	1.05109e+07
584115552256	1.05109e+07
592705486848	1.05109e+07
601295421440	1.05109e+07
609885356032	1.05109e+07
618475290624	1.05109e+07
627065225216	1.05109e+07
635655159808	1.05109e+07
644245094400	1.05109e+07
652835028992	1.05109e+07
661424963584	1.05109e+07
670014898176	1.05109e+07
678604832768	1.05109e+07
687194767360	1.05109e+07
695784701952	1.05109e+07
704374636544	1.05109e+07
712964571136	1.05109e+07
721554505728	1.05109e+07
730144440320	1.05109e+07
738734374912	1.05109e+07
747324309504	1.05109e+07
755914244096	1.05109e+07
764504178688	1.05109e+07
773094113280	1.05109e+07
781684047872	1.05109e+07
790273982464	1.05109e+07
798863917056	1.05109e+07
807453851648	1.05109e+07
816043786240	1.05109e+07
824633720832	1.05109e+07
833223655424	1.05109e+07
841813590016	1.05109e+07
850403524608	1.05109e+07
858993459200	1.05109e+07
867583393792	1.05109e+07
876173328384	1.05109e+07
884763262976	1.05109e+07
893353197568	1.05109e+07
901943132160	1.05109e+07
910533066752	1.05109e+07
919123001344	1.05109e+07
927712935936	1.05109e+07
936302870528	1.05109e+07
944892805120	1.05109e+07
953482739712	1.05109e+07
962072674304	1.05109e+07
970662608896	1.05109e+07
979252543488	1.05109e+07
987842478080	1.05109e+07
996432412672	1.05109e+07
1005022347264	1.05109e+07
1013612281856	1.05109e+07
1022202216448	1.05109e+07
1030792151040	1.05109e+07
1039382085632	1.05109e+07
1047972020224	1.05109e+07
1056561954816	1.05109e+07
1065151889408	1.05109e+07
1073741824000	1.05109e+07
1082331758592	1.05109e+07
1090921693184	1.05109e+07
1099511627776	1.05109e+07
1116691496960	1.05109e+07
1133871366144	1.05109e+07
1151051235328	1.05109e+07
1168231104512	1.05109e+07
1185410973696	1.05109e+07
1202590842880	1.05109e+07
1219770712064	1.05109e+07
1236950581248	1.05109e+07
1254130450432	1.05109e+07
1271310319616	1.05109e+07
1288490188800	1.05109e+07
1305670057984	1.05109e+07
1322849927168	1.05109e+07
1340029796352	1.05109e+07
1357209665536	1.05109e+07
1374389534720	1.05109e+07
1391569403904	1.05109e+07
1408749273088	1.05109e+07
1425929142272	1.05109e+07
1443109011456	1.05109e+07
1460288880640	1.05109e+07
1477468749824	1.05109e+07
1494648619008	1.05109e+07
1511828488192	1.05109e+07
1529008357376	1.05109e+07
1546188226560	1.05109e+07
1563368095744	1.05109e+07
1580547964928	1.05109e+07
1597727834112	1.05109e+07
1614907703296	1.05109e+07
1632087572480	1.05109e+07
1649267441664	1.05109e+07
1666447310848	1.05109e+07
1683627180032	1.05109e+07
1700807049216	1.05109e+07
1717986918400	1.05109e+07
1735166787584	1.05109e+07
1752346656768	1.05109e+07
1769526525952	1.05109e+07
1786706395136	1.05109e+07
1803886264320	1.05109e+07
1821066133504	1.05109e+07
1838246002688	1.05109e+07
1855425871872	1.05109e+07
1872605741056	1.05109e+07
1889785610240	1.05109e+07
1906965479424	1.05109e+07
1924145348608	1.05109e+07
1941325217792	1.05109e+07
1958505086976	1.05109e+07
1975684956160	1.05109e+07
1992864825344	1.05109e+07
2010044694528	1.05109e+07
2027224563712	1.05109e+07
2044404432896	1.05109e+07
2061584302080	1.05109e+07
2078764171264	1.05109e+07
2095944040448	1.05109e+07
2113123909632	1.05109e+07
2130303778816	1.05109e+07
2147483648000	1.05109e+07
2164663517184	1.05109e+07
2181843386368	1.05109e+07
2199023255552	1.05109e+07
2233382993920	1.05109e+07
2267742732288	1.05109e+07
2302102470656	1.05109e+07
2336462209024	1.05109e+07
2370821947392	1.05109e+07
2405181685760	1.05109e+07
2439541424128	1.05109e+07
2473901162496	1.05109e+07
2508260900864	1.05109e+07
2542620639232	1.05109e+07
2576980377600	1.05109e+07
2611340115968	1.05109e+07
2645699854336	1.05109e+07
2680059592704	1.05109e+07
2714419331072	1.05109e+07
2748779069440	1.05109e+07
2783138807808	1.05109e+07
2817498546176	1.05109e+07
2851858284544	1.05109e+07
2886218022912	1.05109e+07
2920577761280	1.05109e+07
2954937499648	1.05109e+07
2989297238016	1.05109e+07
3023656976384	1.05109e+07
3058016714752	1.05109e+07
3092376453120	1.05109e+07
3126736191488	1.05109e+07
3161095929856	1.05109e+07
3195455668224	1.05109e+07
3229815406592	1.05109e+07
3264175144960	1.05109e+07
3298534883328	1.05109e+07
3332894621696	1.05109e+07
3367254360064	1.05109e+07
3401614098432	1.05109e+07
3435973836800	1.05109e+07
3470333575168	1.05109e+07
3504693313536	1.05109e+07
3539053051904	1.05109e+07
3573412790272	1.05109e+07
3607772528640	1.05109e+07
3642132267008	1.05109e+07
3676492005376	1.05109e+07
3710851743744	1.05109e+07
3745211482112	1.05109e+07
3779571220480	1.05109e+07
3813930958848	1.05109e+07
3848290697216	1.05109e+07
3882650435584	1.05109e+07
3917010173952	1.05109e+07
3951369912320	1.05109e+07
3985729650688	1.05109e+07
4020089389056	1.05109e+07
4054449127424	1.05109e+07
4088808865792	1.05109e+07
4123168604160	1.05109e+07
4157528342528	1.05109e+07
4191888080896	1.05109e+07
4226247819264	1.05109e+07
4260607557632	1.05109e+07
4294967296000	1.05109e+07
4329327034368	1.05109e+07
4363686772736	1.05109e+07
4398046511104	1.05109e+07
4466765987840	1.05109e+07
4535485464576	1.05109e+07
4604204941312	1.05109e+07
4672924418048	1.05109e+07
4741643894784	1.05109e+07
4810363371520	1.05109e+07
4879082848256	1.05109e+07
4947802324992	1.05109e+07
5016521801728	1.05109e+07
5085241278464	1.05109e+07
5153960755200	1.05109e+07
5222680231936	1.05109e+07
5291399708672	1.05109e+07
5360119185408	1.05109e+07
5428838662144	1.05109e+07
5497558138880	1.05109e+07
5566277615616	1.05109e+07
5634997092352	1.05109e+07
5703716569088	1.05109e+07
5772436045824	1.05109e+07
5841155522560	1.05109e+07
5909874999296	1.05109e+07
5978594476032	1.05109e+07
6047313952768	1.05109e+07
6116033429504	1.05109e+07
6184752906240	1.05109e+07
6253472382976	1.05109e+07
6322191859712	1.05109e+07
6390911336448	1.05109e+07
6459630813184	1.05109e+07
6528350289920	1.05109e+07
6597069766656	1.05109e+07
6665789243392	1.05109e+07
6734508720128	1.05109e+07
6803228196864	1.05109e+07
6871947673600	1.05109e+07
6940667150336	1.05109e+07
7009386627072	1.05109e+07
7078106103808	1.05109e+07
7146825580544	1.05109e+07
7215545057280	1.05109e+07
7284264534016	1.05109e+07
7352984010752	1.05109e+07
7421703487488	1.05109e+07
7490422964224	1.05109e+07
7559142440960	1.05109e+07
7627861917696	1.05109e+07
7696581394432	1.05109e+07
7765300871168	1.05109e+07
7834020347904	1.05109e+07
7902739824640	1.05109e+07
7971459301376	1.05109e+07
8040178778112	1.05109e+07
8108898254848	1.05109e+07
8177617731584	1.05109e+07
8246337208320	1.05109e+07
8315056685056	1.05109e+07
8383776161792	1.05109e+07
8452495638528	1.05109e+07
8521215115264	1.05109e+07
8589934592000	1.05109e+07
8658654068736	1.05109e+07
8727373545472	1.05109e+07
8796093022208	1.05109e+07
8933531975680	1.05109e+07
9070970929152	1.05109e+07
9208409882624	1.05109e+07
9345848836096	1.05109e+07
9483287789568	1.05109e+07
9620726743040	1.05109e+07
9758165696512	1.05109e+07
9895604649984	1.05109e+07
10033043603456	1.05109e+07
10170482556928	1.05109e+07
10307921510400	1.05109e+07
10445360463872	1.05109e+07
10582799417344	1.05109e+07
10720238370816	1.05109e+07
10857677324288	1.05109e+07
10995116277760	1.05109e+07
11132555231232	1.05109e+07
11269994184704	1.05109e+07
11407433138176	1.05109e+07
11544872091648	1.05109e+07
11682311045120	1.05109e+07
11819749998592	1.05109e+07
11957188952064	1.05109e+07
12094627905536	1.05109e+07
12232066859008	1.05109e+07
12369505812480	1.05109e+07
12506944765952	1.05109e+07
12644383719424	1.05109e+07
12781822672896	1.05109e+07
12919261626368	1.05109e+07
13056700579840	1.05109e+07
13194139533312	1.05109e+07
13331578486784	1.05109e+07
13469017440256	1.05109e+07
13606456393728	1.05109e+07
13743895347200	1.05109e+07
13881334300672	1.05109e+07
14018773254144	1.05109e+07
14156212207616	1.05109e+07
14293651161088	1.05109e+07
14431090114560	1.05109e+07
14568529068032	1.05109e+07
14705968021504	1.05109e+07
14843406974976	1.05109e+07
14980845928448	1.05109e+07
15118284881920	1.05109e+07
15255723835392	1.05109e+07
15393162788864	1.05109e+07
15530601742336	1.05109e+07
15668040695808	1.05109e+07
15805479649280	1.05109e+07
15942918602752	1.05109e+07
16080357556224	1.05109e+07
16217796509696	1.05109e+07
16355235463168	1.05109e+07
16492674416640	1.05109e+07
16630113370112	1.05109e+07
16767552323584	1.05109e+07
16904991277056	1.05109e+07
17042430230528	1.05109e+07
17179869184000	1.05109e+07
17317308137472	1.05109e+07
17454747090944	1.05109e+07
17592186044416	1.05109e+07
17867063951360	1.05109e+07
18141941858304	1.05109e+07
18416819765248	1.05109e+07
18691697672192	1.05109e+07
18966575579136	1.05109e+07
19241453486080	1.05109e+07
19516331393024	1.05109e+07
19791209299968	1.05109e+07
20066087206912	1.05109e+07
20340965113856	1.05109e+07
20615843020800	1.05109e+07
20890720927744	1.05109e+07
21165598834688	1.05109e+07
21440476741632	1.05109e+07
21715354648576	1.05109e+07
21990232555520	1.05109e+07
22265110462464	1.05109e+07
22539988369408	1.05109e+07
22814866276352	1.05109e+07
23089744183296	1.05109e+07
23364622090240	1.05109e+07
23639499997184	1.05109e+07
23914377904128	1.05109e+07
24189255811072	1.05109e+07
24464133718016	1.05109e+07
24739011624960	1.05109e+07
25013889531904	1.05109e+07
25288767438848	1.05109e+07
25563645345792	1.05109e+07
25838523252736	1.05109e+07
26113401159680	1.05109e+07
26388279066624	1.05109e+07
26663156973568	1.05109e+07
26938034880512	1.05109e+07
27212912787456	1.05109e+07
27487790694400	1.05109e+07
27762668601344	1.05109e+07
28037546508288	1.05109e+07
28312424415232	1.05109e+07
28587302322176	1.05109e+07
28862180229120	1.05109e+07
29137058136064	1.05109e+07
29411936043008	1.05109e+07
29686813949952	1.05109e+07
29961691856896	1.05109e+07
30236569763840	1.05109e+07
30511447670784	1.05109e+07
30786325577728	1.05109e+07
31061203484672	1.05109e+07
31336081391616	1.05109e+07
31610959298560	1.05109e+07
31885837205504	1.05109e+07
32160715112448	1.05109e+07
32435593019392	1.05109e+07
32710470926336	1.05109e+07
32985348833280	1.05109e+07
33260226740224	1.05109e+07
33535104647168	1.05109e+07
33809982554112	1.05109e+07
34084860461056	1.05109e+07
34359738368000	1.05109e+07
34634616274944	1.05109e+07
34909494181888	1.05109e+07
35184372088832	1.05109e+07
35734127902720	1.05109e+07
36283883716608	1.05109e+07
36833639530496	1.05109e+07
37383395344384	1.05109e+07
37933151158272	1.05109e+07
38482906972160	1.05109e+07
39032662786048	1.05109e+07
39582418599936	1.05109e+07
40132174413824	1.05109e+07
40681930227712	1.05109e+07
41231686041600	1.05109e+07
41781441855488	1.05109e+07
42331197669376	1.05109e+07
42880953483264	1.05109e+07
43430709297152	1.05109e+07
43980465111040	1.05109e+07
44530220924928	1.05109e+07
45079976738816	1.05109e+07
45629732552704	1.05109e+07
46179488366592	1.05109e+07
46729244180480	1.05109e+07
47278999994368	1.05109e+07
47828755808256	1.05109e+07
48378511622144	1.05109e+07
48928267436032	1.05109e+07
49478023249920	1.05109e+07
50027779063808	1.05109e+07
50577534877696	1.05109e+07
51127290691584	1.05109e+07
51677046505472	1.05109e+07
52226802319360	1.05109e+07
52776558133248	1.05109e+07
53326313947136	1.05109e+07
53876069761024	1.05109e+07
54425825574912	1.05109e+07
54975581388800	1.05109e+07
55525337202688	1.05109e+07
56075093016576	1.05109e+07
56624848830464	1.05109e+07
57174604644352	1.05109e+07
57724360458240	1.05109e+07
58274116272128	1.05109e+07
58823872086016	1.05109e+07
59373627899904	1.05109e+07
59923383713792	1.05109e+07
60473139527680	1.05109e+07
61022895341568	1.05109e+07
61572651155456	1.05109e+07
62122406969344	1.05109e+07
62672162783232	1.05109e+07
63221918597120	1.05109e+07
63771674411008	1.05109e+07
64321430224896	1.05109e+07
64871186038784	1.05109e+07
65420941852672	1.05109e+07
65970697666560	1.05109e+07
66520453480448	1.05109e+07
67070209294336	1.05109e+07
67619965108224	1.05109e+07
68169720922112	1.05109e+07
68719476736000	1.05109e+07
69269232549888	1.05109e+07
69818988363776	1.05109e+07
70368744177664	1.05109e+07
71468255805440	1.05109e+07
72567767433216	1.05109e+07
73667279060992	1.05109e+07
74766790688768	1.05109e+07
75866302316544	1.05109e+07
76965813944320	1.05109e+07
78065325572096	1.05109e+07
79164837199872	1.05109e+07
80264348827648	1.05109e+07
81363860455424	1.05109e+07
82463372083200	1.05109e+07
83562883710976	1.05109e+07
84662395338752	1.05109e+07
85761906966528	1.05109e+07
86861418594304	1.05109e+07
87960930222080	1.05109e+07
89060441849856	1.05109e+07
90159953477632	1.05109e+07
91259465105408	1.05109e+07
92358976733184	1.05109e+07
93458488360960	1.05109e+07
94557999988736	1.05109e+07
95657511616512	1.05109e+07
96757023244288	1.05109e+07
97856534872064	1.05109e+07
98956046499840	1.05109e+07
100055558127616	1.05109e+07
101155069755392	1.05109e+07
102254581383168	1.05109e+07
103354093010944	1.05109e+07
104453604638720	1.05109e+07
105553116266496	1.05109e+07
106652627894272	1.05109e+07
107752139522048	1.05109e+07
108851651149824	1.05109e+07
109951162777600	1.05109e+07
111050674405376	1.05109e+07
112150186033152	1.05109e+07
113249697660928	1.05109e+07
114349209288704	1.05109e+07
115448720916480	1.05109e+07
116548232544256	1.05109e+07
117647744172032	1.05109e+07
118747255799808	1.05109e+07
119846767427584	1.05109e+07
120946279055360	1.05109e+07
122045790683136	1.05109e+07
123145302310912	1.05109e+07
124244813938688	1.05109e+07
125344325566464	1.05109e+07
126443837194240	1.05109e+07
127543348822016	1.05109e+07
128642860449792	1.05109e+07
129742372077568	1.05109e+07
130841883705344	1.05109e+07
131941395333120	1.05109e+07
133040906960896	1.05109e+07
134140418588672	1.05109e+07
135239930216448	1.05109e+07
136339441844224	1.05109e+07
137438953472000	1.05109e+07
138538465099776	1.05109e+07
139637976727552	1.05109e+07
140737488355328	1.05109e+07
142936511610880	1.05109e+07
145135534866432	1.05109e+07
147334558121984	1.05109e+07
149533581377536	1.05109e+07
151732604633088	1.05109e+07
153931627888640	1.05109e+07
156130651144192	1.05109e+07
158329674399744	1.05109e+07
160528697655296	1.05109e+07
162727720910848	1.05109e+07
164926744166400	1.05109e+07
167125767421952	1.05109e+07
169324790677504	1.05109e+07
171523813933056	1.05109e+07
173722837188608	1.05109e+07
175921860444160	1.05109e+07
178120883699712	1.05109e+07
180319906955264	1.05109e+07
182518930210816	1.05109e+07
184717953466368	1.05109e+07
186916976721920	1.05109e+07
189115999977472	1.05109e+07
191315023233024	1.05109e+07
193514046488576	1.05109e+07
195713069744128	1.05109e+07
197912092999680	1.05109e+07
200111116255232	1.05109e+07
202310139510784	1.05109e+07
204509162766336	1.05109e+07
206708186021888	1.05109e+07
208907209277440	1.05109e+07
211106232532992	1.05109e+07
213305255788544	1.05109e+07
215504279044096	1.05109e+07
217703302299648	1.05109e+07
219902325555200	1.05109e+07
222101348810752	1.05109e+07
224300372066304	1.05109e+07
226499395321856	1.05109e+07
228698418577408	1.05109e+07
230897441832960	1.05109e+07
233096465088512	1.05109e+07
235295488344064	1.05109e+07
237494511599616	1.05109e+07
239693534855168	1.05109e+07
241892558110720	1.05109e+07
244091581366272	1.05109e+07
246290604621824	1.05109e+07
248489627877376	1.05109e+07
250688651132928	1.05109e+07
252887674388480	1.05109e+07
255086697644032	1.05109e+07
257285720899584	1.05109e+07
259484744155136	1.05109e+07
261683767410688	1.05109e+07
263882790666240	1.05109e+07
266081813921792	1.05109e+07
268280837177344	1.05109e+07
270479860432896	1.05109e+07
272678883688448	1.05109e+07
274877906944000	1.05109e+07
277076930199552	1.05109e+07
279275953455104	1.05109e+07
281474976710656	1.05109e+07
285873023221760	1.05109e+07
290271069732864	1.05109e+07
294669116243968	1.05109e+07
299067162755072	1.05109e+07
303465209266176	1.05109e+07
307863255777280	1.05109e+07
312261302288384	1.05109e+07
316659348799488	1.05109e+07
321057395310592	1.05109e+07
325455441821696	1.05109e+07
329853488332800	1.05109e+07
334251534843904	1.05109e+07
338649581355008	1.05109e+07
343047627866112	1.05109e+07
347445674377216	1.05109e+07
351843720888320	1.05109e+07
356241767399424	1.05109e+07
360639813910528	1.05109e+07
365037860421632	1.05109e+07
369435906932736	1.05109e+07
373833953443840	1.05109e+07
378231999954944	1.05109e+07
382630046466048	1.05109e+07
387028092977152	1.05109e+07
391426139488256	1.05109e+07
395824185999360	1.05109e+07
400222232510464	1.05109e+07
404620279021568	1.05109e+07
409018325532672	1.05109e+07
413416372043776	1.05109e+07
417814418554880	1.05109e+07
422212465065984	1.05109e+07
426610511577088	1.05109e+07
431008558088192	1.05109e+07
435406604599296	1.05109e+07
439804651110400	1.05109e+07
444202697621504	1.05109e+07
448600744132608	1.05109e+07
452998790643712	1.05109e+07
457396837154816	1.05109e+07
461794883665920	1.05109e+07
466192930177024	1.05109e+07
470590976688128	1.05109e+07
474989023199232	1.05109e+07
479387069710336	1.05109e+07
483785116221440	1.05109e+07
488183162732544	1.05109e+07
492581209243648	1.05109e+07
496979255754752	1.05109e+07
501377302265856	1.05109e+07
505775348776960	1.05109e+07
510173395288064	1.05109e+07
514571441799168	1.05109e+07
518969488310272	1.05109e+07
523367534821376	1.05109e+07
527765581332480	1.05109e+07
532163627843584	1.05109e+07
536561674354688	1.05109e+07
540959720865792	1.05109e+07
545357767376896	1.05109e+07
549755813888000	1.05109e+07
554153860399104	1.05109e+07
558551906910208	1.05109e+07
562949953421312	1.05109e+07
571746046443520	1.05109e+07
580542139465728	1.05109e+07
589338232487936	1.05109e+07
598134325510144	1.05109e+07
606930418532352	1.05109e+07
615726511554560	1.05109e+07
624522604576768	1.05109e+07
633318697598976	1.05109e+07
642114790621184	1.05109e+07
650910883643392	1.05109e+07
659706976665600	1.05109e+07
668503069687808	1.05109e+07
677299162710016	1.05109e+07
686095255732224	1.05109e+07
694891348754432	1.05109e+07
703687441776640	1.05109e+07
712483534798848	1.05109e+07
721279627821056	1.05109e+07
730075720843264	1.05109e+07
738871813865472	1.05109e+07
747667906887680	1.05109e+07
756463999909888	1.05109e+07
765260092932096	1.05109e+07
774056185954304	1.05109e+07
782852278976512	1.05109e+07
791648371998720	1.05109e+07
800444465020928	1.05109e+07
809240558043136	1.05109e+07
818036651065344	1.05109e+07
826832744087552	1.05109e+07
835628837109760	1.05109e+07
844424930131968	1.05109e+07
853221023154176	1.05109e+07
862017116176384	1.05109e+07
870813209198592	1.05109e+07
879609302220800	1.05109e+07
888405395243008	1.05109e+07
897201488265216	1.05109e+07
905997581287424	1.05109e+07
914793674309632	1.05109e+07
923589767331840	1.05109e+07
932385860354048	1.05109e+07
941181953376256	1.05109e+07
949978046398464	1.05109e+07
958774139420672	1.05109e+07
967570232442880	1.05109e+07
976366325465088	1.05109e+07
985162418487296	1.05109e+07
993958511509504	1.05109e+07
1002754604531712	1.05109e+07
1011550697553920	1.05109e+07
1020346790576128	1.05109e+07
1029142883598336	1.05109e+07
1037938976620544	1.05109e+07
1046735069642752	1.05109e+07
1055531162664960	1.05109e+07
1064327255687168	1.05109e+07
1073123348709376	1.05109e+07
1081919441731584	1.05109e+07
1090715534753792	1.05109e+07
1099511627776000	1.05109e+07
1108307720798208	1.05109e+07
1117103813820416	1.05109e+07
1125899906842624	1.05109e+07
1143492092887040	1.05109e+07
1161084278931456	1.05109e+07
1178676464975872	1.05109e+07
1196268651020288	1.05109e+07
1213860837064704	1.05109e+07
1231453023109120	1.05109e+07
1249045209153536	1.05109e+07
1266637395197952	1.05109e+07
1284229581242368	1.05109e+07
1301821767286784	1.05109e+07
1319413953331200	1.05109e+07
1337006139375616	1.05109e+07
1354598325420032	1.05109e+07
1372190511464448	1.05109e+07
1389782697508864	1.05109e+07
1407374883553280	1.05109e+07
1424967069597696	1.05109e+07
1442559255642112	1.05109e+07
1460151441686528	1.05109e+07
1477743627730944	1.05109e+07
1495335813775360	1.05109e+07
1512927999819776	1.05109e+07
1530520185864192	1.05109e+07
1548112371908608	1.05109e+07
1565704557953024	1.05109e+07
1583296743997440	1.05109e+07
1600888930041856	1.05109e+07
1618481116086272	1.05109e+07
1636073302130688	1.05109e+07
1653665488175104	1.05109e+07
1671257674219520	1.05109e+07
1688849860263936	1.05109e+07
1706442046308352	1.05109e+07
1724034232352768	1.05109e+07
1741626418397184	1.05109e+07
1759218604441600	1.05109e+07
1776810790486016	1.05109e+07
1794402976530432	1.05109e+07
1811995162574848	1.05109e+07
1829587348619264	1.05109e+07
1847179534663680	1.05109e+07
1864771720708096	1.05109e+07
1882363906752512	1.05109e+07
1899956092796928	1.05109e+07
1917548278841344	1.05109e+07
1935140464885760	1.05109e+07
1952732650930176	1.05109e+07
1970324836974592	1.05109e+07
1987917023019008	1.05109e+07
2005509209063424	1.05109e+07
2023101395107840	1.05109e+07
2040693581152256	1.05109e+07
2058285767196672	1.05109e+07
2075877953241088	1.05109e+07
2093470139285504	1.05109e+07
2111062325329920	1.05109e+07
2128654511374336	1.05109e+07
2146246697418752	1.05109e+07
2163838883463168	1.05109e+07
2181431069507584	1.05109e+07
2199023255552000	1.05109e+07
2216615441596416	1.05109e+07
2234207627640832	1.05109e+07
2251799813685248	1.05109e+07
2286984185774080	1.05109e+07
2322168557862912	1.05109e+07
2357352929951744	1.05109e+07
2392537302040576	1.05109e+07
2427721674129408	1.05109e+07
2462906046218240	1.05109e+07
2498090418307072	1.05109e+07
2533274790395904	1.05109e+07
2568459162484736	1.05109e+07
2603643534573568	1.05109e+07
2638827906662400	1.05109e+07
2674012278751232	1.05109e+07
2709196650840064	1.05109e+07
2744381022928896	1.05109e+07
2779565395017728	1.05109e+07
2814749767106560	1.05109e+07
2849934139195392	1.05109e+07
2885118511284224	1.05109e+07
2920302883373056	1.05109e+07
2955487255461888	1.05109e+07
2990671627550720	1.05109e+07
3025855999639552	1.05109e+07
3061040371728384	1.05109e+07
3096224743817216	1.05109e+07
3131409115906048	1.05109e+07
3166593487994880	1.05109e+07
3201777860083712	1.05109e+07
3236962232172544	1.05109e+07
3272146604261376	1.05109e+07
3307330976350208	1.05109e+07
3342515348439040	1.05109e+07
3377699720527872	1.05109e+07
3412884092616704	1.05109e+07
3448068464705536	1.05109e+07
3483252836794368	1.05109e+07
3518437208883200	1.05109e+07
3553621580972032	1.05109e+07
3588805953060864	1.05109e+07
3623990325149696	1.05109e+07
3659174697238528	1.05109e+07
3694359069327360	1.05109e+07
3729543441416192	1.05109e+07
3764727813505024	1.05109e+07
3799912185593856	1.05109e+07
3835096557682688	1.05109e+07
3870280929771520	1.05109e+07
3905465301860352	1.05109e+07
3940649673949184	1.05109e+07
3975834046038016	1.05109e+07
4011018418126848	1.05109e+07
4046202790215680	1.05109e+07
4081387162304512	1.05109e+07
4116571534393344	1.05109e+07
4151755906482176	1.05109e+07
4186940278571008	1.05109e+07
4222124650659840	1.05109e+07
4257309022748672	1.05109e+07
4292493394837504	1.05109e+07
4327677766926336	1.05109e+07
4362862139015168	1.05109e+07
4398046511104000	1.05109e+07
4433230883192832	1.05109e+07
4468415255281664	1.05109e+07
4503599627370496	1.05109e+07
4573968371548160	1.05109e+07
4644337115725824	1.05109e+07
4714705859903488	1.05109e+07
4785074604081152	1.05109e+07
4855443348258816	1.05109e+07
4925812092436480	1.05109e+07
4996180836614144	1.05109e+07
5066549580791808	1.05109e+07
5136918324969472	1.05109e+07
5207287069147136	1.05109e+07
5277655813324800	1.05109e+07
5348024557502464	1.05109e+07
5418393301680128	1.05109e+07
5488762045857792	1.05109e+07
5559130790035456	1.05109e+07
5629499534213120	1.05109e+07
5699868278390784	1.05109e+07
5770237022568448	1.05109e+07
5840605766746112	1.05109e+07
5910974510923776	1.05109e+07
5981343255101440	1.05109e+07
6051711999279104	1.05109e+07
6122080743456768	1.05109e+07
6192449487634432	1.05109e+07
6262818231812096	1.05109e+07
6333186975989760	1.05109e+07
6403555720167424	1.05109e+07
6473924464345088	1.05109e+07
6544293208522752	1.05109e+07
6614661952700416	1.05109e+07
6685030696878080	1.05109e+07
6755399441055744	1.05109e+07
6825768185233408	1.05109e+07
6896136929411072	1.05109e+07
6966505673588736	1.05109e+07
7036874417766400	1.05109e+07
7107243161944064	1.05109e+07
7177611906121728	1.05109e+07
7247980650299392	1.05109e+07
7318349394477056	1.05109e+07
7388718138654720	1.05109e+07
7459086882832384	1.05109e+07
7529455627010048	1.05109e+07
7599824371187712	1.05109e+07
7670193115365376	1.05109e+07
7740561859543040	1.05109e+07
7810930603720704	1.05109e+07
7881299347898368	1.05109e+07
7951668092076032	1.05109e+07
8022036836253696	1.05109e+07
8092405580431360	1.05109e+07
8162774324609024	1.05109e+07
8233143068786688	1.05109e+07
8303511812964352	1.05109e+07
8373880557142016	1.05109e+07
8444249301319680	1.05109e+07
8514618045497344	1.05109e+07
8584986789675008	1.05109e+07
8655355533852672	1.05109e+07
8725724278030336	1.05109e+07
8796093022208000	1.05109e+07
8866461766385664	1.05109e+07
8936830510563328	1.05109e+07
9007199254740992	1.05109e+07
9147936743096320	1.05109e+07
9288674231451648	1.05109e+07
9429411719806976	1.05109e+07
9570149208162304	1.05109e+07
9710886696517632	1.05109e+07
9851624184872960	1.05109e+07
9992361673228288	1.05109e+07
10133099161583616	1.05109e+07
10273836649938944	1.05109e+07
10414574138294272	1.05109e+07
10555311626649600	1.05109e+07
10696049115004928	1.05109e+07
10836786603360256	1.05109e+07
10977524091715584	1.05109e+07
11118261580070912	1.05109e+07
11258999068426240	1.05109e+07
11399736556781568	1.05109e+07
11540474045136896	1.05109e+07
11681211533492224	1.05109e+07
11821949021847552	1.05109e+07
11962686510202880	1.05109e+07
12103423998558208	1.05109e+07
12244161486913536	1.05109e+07
12384898975268864	1.05109e+07
12525636463624192	1.05109e+07
12666373951979520	1.05109e+07
12807111440334848	1.05109e+07
12947848928690176	1.05109e+07
13088586417045504	1.05109e+07
13229323905400832	1.05109e+07
13370061393756160	1.05109e+07
13510798882111488	1.05109e+07
13651536370466816	1.05109e+07
13792273858822144	1.05109e+07
13933011347177472	1.05109e+07
14073748835532800	1.05109e+07
14214486323888128	1.05109e+07
14355223812243456	1.05109e+07
14495961300598784	1.05109e+07
14636698788954112	1.05109e+07
14777436277309440	1.05109e+07
14918173765664768	1.05109e+07
15058911254020096	1.05109e+07
15199648742375424	1.05109e+07
15340386230730752	1.05109e+07
15481123719086080	1.05109e+07
15621861207441408	1.05109e+07
15762598695796736	1.05109e+07
15903336184152064	1.05109e+07
16044073672507392	1.05109e+07
16184811160862720	1.05109e+07
16325548649218048	1.05109e+07
16466286137573376	1.05109e+07
16607023625928704	1.05109e+07
16747761114284032	1.05109e+07
16888498602639360	1.05109e+07
17029236090994688	1.05109e+07
17169973579350016	1.05109e+07
17310711067705344	1.05109e+07
17451448556060672	1.05109e+07
17592186044416000	1.05109e+07
17732923532771328	1.05109e+07
17873661021126656	1.05109e+07
18014398509481984	1.05109e+07
18295873486192640	1.05109e+07
18577348462903296	1.05109e+07
18858823439613952	1.05109e+07
19140298416324608	1.05109e+07
19421773393035264	1.05109e+07
19703248369745920	1.05109e+07
19984723346456576	1.05109e+07
20266198323167232	1.05109e+07
20547673299877888	1.05109e+07
20829148276588544	1.05109e+07
21110623253299200	1.05109e+07
21392098230009856	1.05109e+07
21673573206720512	1.05109e+07
21955048183431168	1.05109e+07
22236523160141824	1.05109e+07
22517998136852480	1.05109e+07
22799473113563136	1.05109e+07
23080948090273792	1.05109e+07
23362423066984448	1.05109e+07
23643898043695104	1.05109e+07
23925373020405760	1.05109e+07
24206847997116416	1.05109e+07
24488322973827072	1.05109e+07
24769797950537728	1.05109e+07
25051272927248384	1.05109e+07
25332747903959040	1.05109e+07
25614222880669696	1.05109e+07
25895697857380352	1.05109e+07
26177172834091008	1.05109e+07
26458647810801664	1.05109e+07
26740122787512320	1.05109e+07
27021597764222976	1.05109e+07
27303072740933632	1.05109e+07
27584547717644288	1.05109e+07
27866022694354944	1.05109e+07
28147497671065600	1.05109e+07
28428972647776256	1.05109e+07
28710447624486912	1.05109e+07
28991922601197568	1.05109e+07
29273397577908224	1.05109e+07
29554872554618880	1.05109e+07
29836347531329536	1.05109e+07
30117822508040192	1.05109e+07
30399297484750848	1.05109e+07
30680772461461504	1.05109e+07
30962247438172160	1.05109e+07
31243722414882816	1.05109e+07
31525197391593472	1.05109e+07
31806672368304128	1.05109e+07
32088147345014784	1.05109e+07
32369622321725440	1.05109e+07
32651097298436096	1.05109e+07
32932572275146752	1.05109e+07
33214047251857408	1.05109e+07
33495522228568064	1.05109e+07
33776997205278720	1.05109e+07
34058472181989376	1.05109e+07
34339947158700032	1.05109e+07
34621422135410688	1.05109e+07
34902897112121344	1.05109e+07
35184372088832000	1.05109e+07
35465847065542656	1.05109e+07
35747322042253312	1.05109e+07
36028797018963968	1.05109e+07
36591746972385280	1.05109e+07
37154696925806592	1.05109e+07
37717646879227904	1.05109e+07
38280596832649216	1.05109e+07
38843546786070528	1.05109e+07
39406496739491840	1.05109e+07
39969446692913152	1.05109e+07
40532396646334464	1.05109e+07
41095346599755776	1.05109e+07
41658296553177088	1.05109e+07
42221246506598400	1.05109e+07
42784196460019712	1.05109e+07
43347146413441024	1.05109e+07
43910096366862336	1.05109e+07
44473046320283648	1.05109e+07
45035996273704960	1.05109e+07
45598946227126272	1.05109e+07
46161896180547584	1.05109e+07
46724846133968896	1.05109e+07
47287796087390208	1.05109e+07
47850746040811520	1.05109e+07
48413695994232832	1.05109e+07
48976645947654144	1.05109e+07
49539595901075456	1.05109e+07
50102545854496768	1.05109e+07
50665495807918080	1.05109e+07
51228445761339392	1.05109e+07
51791395714760704	1.05109e+07
52354345668182016	1.05109e+07
52917295621603328	1.05109e+07
53480245575024640	1.05109e+07
54043195528445952	1.05109e+07
54606145481867264	1.05109e+07
55169095435288576	1.05109e+07
55732045388709888	1.05109e+07
56294995342131200	1.05109e+07
56857945295552512	1.05109e+07
57420895248973824	1.05109e+07
57983845202395136	1.05109e+07
58546795155816448	1.05109e+07
59109745109237760	1.05109e+07
59672695062659072	1.05109e+07
60235645016080384	1.05109e+07
60798594969501696	1.05109e+07
61361544922923008	1.05109e+07
61924494876344320	1.05109e+07
62487444829765632	1.05109e+07
63050394783186944	1.05109e+07
63613344736608256	1.05109e+07
64176294690029568	1.05109e+07
64739244643450880	1.05109e+07
65302194596872192	1.05109e+07
65865144550293504	1.05109e+07
66428094503714816	1.05109e+07
66991044457136128	1.05109e+07
67553994410557440	1.05109e+07
68116944363978752	1.05109e+07
68679894317400064	1.05109e+07
69242844270821376	1.05109e+07
69805794224242688	1.05109e+07
70368744177664000	1.05109e+07
70931694131085312	1.05109e+07
71494644084506624	1.05109e+07
72057594037927936	1.05109e+07
73183493944770560	1.05109e+07
74309393851613184	1.05109e+07
75435293758455808	1.05109e+07
76561193665298432	1.05109e+07
77687093572141056	1.05109e+07
78812993478983680	1.05109e+07
79938893385826304	1.05109e+07
81064793292668928	1.05109e+07
82190693199511552	1.05109e+07
83316593106354176	1.05109e+07
84442493013196800	1.05109e+07
85568392920039424	1.05109e+07
86694292826882048	1.05109e+07
87820192733724672	1.05109e+07
88946092640567296	1.05109e+07
90071992547409920	1.05109e+07
91197892454252544	1.05109e+07
92323792361095168	1.05109e+07
93449692267937792	1.05109e+07
94575592174780416	1.05109e+07
95701492081623040	1.05109e+07
96827391988465664	1.05109e+07
97953291895308288	1.05109e+07
99079191802150912	1.05109e+07
100205091708993536	1.05109e+07
101330991615836160	1.05109e+07
102456891522678784	1.05109e+07
103582791429521408	1.05109e+07
104708691336364032	1.05109e+07
105834591243206656	1.05109e+07
106960491150049280	1.05109e+07
108086391056891904	1.05109e+07
109212290963734528	1.05109e+07
110338190870577152	1.05109e+07
111464090777419776	1.05109e+07
112589990684262400	1.05109e+07
113715890591105024	1.05109e+07
114841790497947648	1.05109e+07
115967690404790272	1.05109e+07
117093590311632896	1.05109e+07
118219490218475520	1.05109e+07
119345390125318144	1.05109e+07
120471290032160768	1.05109e+07
121597189939003392	1.05109e+07
122723089845846016	1.05109e+07
123848989752688640	1.05109e+07
124974889659531264	1.05109e+07
126100789566373888	1.05109e+07
127226689473216512	1.05109e+07
128352589380059136	1.05109e+07
129478489286901760	1.05109e+07
130604389193744384	1.05109e+07
131730289100587008	1.05109e+07
132856189007429632	1.05109e+07
133982088914272256	1.05109e+07
135107988821114880	1.05109e+07
136233888727957504	1.05109e+07
137359788634800128	1.05109e+07
138485688541642752	1.05109e+07
139611588448485376	1.05109e+07
140737488355328000	1.05109e+07
141863388262170624	1.05109e+07
142989288169013248	1.05109e+07
144115188075855872	1.05109e+07
146366987889541120	1.05109e+07
148618787703226368	1.05109e+07
150870587516911616	1.05109e+07
153122387330596864	1.05109e+07
155374187144282112	1.05109e+07
157625986957967360	1.05109e+07
159877786771652608	1.05109e+07
162129586585337856	1.05109e+07
164381386399023104	1.05109e+07
166633186212708352	1.05109e+07
168884986026393600	1.05109e+07
171136785840078848	1.05109e+07
173388585653764096	1.05109e+07
175640385467449344	1.05109e+07
177892185281134592	1.05109e+07
180143985094819840	1.05109e+07
182395784908505088	1.05109e+07
184647584722190336	1.05109e+07
186899384535875584	1.05109e+07
189151184349560832	1.05109e+07
191402984163246080	1.05109e+07
193654783976931328	1.05109e+07
195906583790616576	1.05109e+07
198158383604301824	1.05109e+07
200410183417987072	1.05109e+07
202661983231672320	1.05109e+07
204913783045357568	1.05109e+07
207165582859042816	1.05109e+07
209417382672728064	1.05109e+07
211669182486413312	1.05109e+07
213920982300098560	1.05109e+07
216172782113783808	1.05109e+07
218424581927469056	1.05109e+07
220676381741154304	1.05109e+07
222928181554839552	1.05109e+07
225179981368524800	1.05109e+07
227431781182210048	1.05109e+07
229683580995895296	1.05109e+07
231935380809580544	1.05109e+07
234187180623265792	1.05109e+07
236438980436951040	1.05109e+07
238690780250636288	1.05109e+07
240942580064321536	1.05109e+07
243194379878006784	1.05109e+07
245446179691692032	1.05109e+07
247697979505377280	1.05109e+07
249949779319062528	1.05109e+07
252201579132747776	1.05109e+07
254453378946433024	1.05109e+07
256705178760118272	1.05109e+07
258956978573803520	1.05109e+07
261208778387488768	1.05109e+07
263460578201174016	1.05109e+07
265712378014859264	1.05109e+07
267964177828544512	1.05109e+07
270215977642229760	1.05109e+07
272467777455915008	1.05109e+07
274719577269600256	1.05109e+07
276971377083285504	1.05109e+07
279223176896970752	1.05109e+07
281474976710656000	1.05109e+07
283726776524341248	1.05109e+07
285978576338026496	1.05109e+07
288230376151711744	1.05109e+07
292733975779082240	1.05109e+07
297237575406452736	1.05109e+07
301741175033823232	1.05109e+07
306244774661193728	1.05109e+07
310748374288564224	1.05109e+07
315251973915934720	1.05109e+07
319755573543305216	1.05109e+07
324259173170675712	1.05109e+07
328762772798046208	1.05109e+07
333266372425416704	1.05109e+07
337769972052787200	1.05109e+07
342273571680157696	1.05109e+07
346777171307528192	1.05109e+07
351280770934898688	1.05109e+07
355784370562269184	1.05109e+07
360287970189639680	1.05109e+07
364791569817010176	1.05109e+07
369295169444380672	1.05109e+07
373798769071751168	1.05109e+07
378302368699121664	1.05109e+07
382805968326492160	1.05109e+07
387309567953862656	1.05109e+07
391813167581233152	1.05109e+07
396316767208603648	1.05109e+07
400820366835974144	1.05109e+07
405323966463344640	1.05109e+07
409827566090715136	1.05109e+07
414331165718085632	1.05109e+07
418834765345456128	1.05109e+07
423338364972826624	1.05109e+07
427841964600197120	1.05109e+07
432345564227567616	1.05109e+07
436849163854938112	1.05109e+07
441352763482308608	1.05109e+07
445856363109679104	1.05109e+07
450359962737049600	1.05109e+07
454863562364420096	1.05109e+07
459367161991790592	1.05109e+07
463870761619161088	1.05109e+07
468374361246531584	1.05109e+07
472877960873902080	1.05109e+07
477381560501272576	1.05109e+07
481885160128643072	1.05109e+07
486388759756013568	1.05109e+07
490892359383384064	1.05109e+07
495395959010754560	1.05109e+07
499899558638125056	1.05109e+07
504403158265495552	1.05109e+07
508906757892866048	1.05109e+07
513410357520236544	1.05109e+07
517913957147607040	1.05109e+07
522417556774977536	1.05109e+07
526921156402348032	1.05109e+07
531424756029718528	1.05109e+07
535928355657089024	1.05109e+07
540431955284459520	1.05109e+07
544935554911830016	1.05109e+07
549439154539200512	1.05109e+07
553942754166571008	1.05109e+07
558446353793941504	1.05109e+07
562949953421312000	1.05109e+07
567453553048682496	1.05109e+07
571957152676052992	1.05109e+07
576460752303423488	1.05109e+07
585467951558164480	1.05109e+07
594475150812905472	1.05109e+07
603482350067646464	1.05109e+07
612489549322387456	1.05109e+07
621496748577128448	1.05109e+07
630503947831869440	1.05109e+07
639511147086610432	1.05109e+07
648518346341351424	1.05109e+07
657525545596092416	1.05109e+07
666532744850833408	1.05109e+07
675539944105574400	1.05109e+07
684547143360315392	1.05109e+07
693554342615056384	1.05109e+07
702561541869797376	1.05109e+07
711568741124538368	1.05109e+07
720575940379279360	1.05109e+07
729583139634020352	1.05109e+07
738590338888761344	1.05109e+07
747597538143502336	1.05109e+07
756604737398243328	1.05109e+07
765611936652984320	1.05109e+07
774619135907725312	1.05109e+07
783626335162466304	1.05109e+07
792633534417207296	1.05109e+07
801640733671948288	1.05109e+07
810647932926689280	1.05109e+07
819655132181430272	1.05109e+07
828662331436171264	1.05109e+07
837669530690912256	1.05109e+07
846676729945653248	1.05109e+07
855683929200394240	1.05109e+07
864691128455135232	1.05109e+07
873698327709876224	1.05109e+07
882705526964617216	1.05109e+07
891712726219358208	1.05109e+07
900719925474099200	1.05109e+07
909727124728840192	1.05109e+07
918734323983581184	1.05109e+07
927741523238322176	1.05109e+07
936748722493063168	1.05109e+07
945755921747804160	1.05109e+07
954763121002545152	1.05109e+07
963770320257286144	1.05109e+07
972777519512027136	1.05109e+07
981784718766768128	1.05109e+07
990791918021509120	1.05109e+07
999799117276250112	1.05109e+07
1008806316530991104	1.05109e+07
1017813515785732096	1.05109e+07
1026820715040473088	1.05109e+07
1035827914295214080	1.05109e+07
1044835113549955072	1.05109e+07
1053842312804696064	1.05109e+07
1062849512059437056	1.05109e+07
1071856711314178048	1.05109e+07
1080863910568919040	1.05109e+07
1089871109823660032	1.05109e+07
1098878309078401024	1.05109e+07
1107885508333142016	1.05109e+07
1116892707587883008	1.05109e+07
1125899906842624000	1.05109e+07
1134907106097364992	1.05109e+07
1143914305352105984	1.05109e+07
1152921504606846976	1.05109e+07
1170935903116328960	1.05109e+07
1188950301625810944	1.05109e+07
1206964700135292928	1.05109e+07
1224979098644774912	1.05109e+07
1242993497154256896	1.05109e+07
1261007895663738880	1.05109e+07
1279022294173220864	1.05109e+07
1297036692682702848	1.05109e+07
1315051091192184832	1.05109e+07
1333065489701666816	1.05109e+07
1351079888211148800	1.05109e+07
1369094286720630784	1.05109e+07
1387108685230112768	1.05109e+07
1405123083739594752	1.05109e+07
1423137482249076736	1.05109e+07
1441151880758558720	1.05109e+07
1459166279268040704	1.05109e+07
1477180677777522688	1.05109e+07
1495195076287004672	1.05109e+07
1513209474796486656	1.05109e+07
1531223873305968640	1.05109e+07
1549238271815450624	1.05109e+07
1567252670324932608	1.05109e+07
1585267068834414592	1.05109e+07
1603281467343896576	1.05109e+07
1621295865853378560	1.05109e+07
1639310264362860544	1.05109e+07
1657324662872342528	1.05109e+07
1675339061381824512	1.05109e+07
1693353459891306496	1.05109e+07
1711367858400788480	1.05109e+07
1729382256910270464	1.05109e+07
1747396655419752448	1.05109e+07
1765411053929234432	1.05109e+07
1783425452438716416	1.05109e+07
1801439850948198400	1.05109e+07
1819454249457680384	1.05109e+07
1837468647967162368	1.05109e+07
1855483046476644352	1.05109e+07
1873497444986126336	1.05109e+07
1891511843495608320	1.05109e+07
1909526242005090304	1.05109e+07
1927540640514572288	1.05109e+07
1945555039024054272	1.05109e+07
1963569437533536256	1.05109e+07
1981583836043018240	1.05109e+07
1999598234552500224	1.05109e+07
2017612633061982208	1.05109e+07
2035627031571464192	1.05109e+07
2053641430080946176	1.05109e+07
2071655828590428160	1.05109e+07
2089670227099910144	1.05109e+07
2107684625609392128	1.05109e+07
2125699024118874112	1.05109e+07
2143713422628356096	1.05109e+07
2161727821137838080	1.05109e+07
2179742219647320064	1.05109e+07
2197756618156802048	1.05109e+07
2215771016666284032	1.05109e+07
2233785415175766016	1.05109e+07
2251799813685248000	1.05109e+07
2269814212194729984	1.05109e+07
2287828610704211968	1.05109e+07
2305843009213693952	1.05109e+07
2341871806232657920	1.05109e+07
2377900603251621888	1.05109e+07
2413929400270585856	1.05109e+07
2449958197289549824	1.05109e+07
2485986994308513792	1.05109e+07
2522015791327477760	1.05109e+07
2558044588346441728	1.05109e+07
2594073385365405696	1.05109e+07
2630102182384369664	1.05109e+07
2666130979403333632	1.05109e+07
2702159776422297600	1.05109e+07
2738188573441261568	1.05109e+07
2774217370460225536	1.05109e+07
2810246167479189504	1.05109e+07
2846274964498153472	1.05109e+07
2882303761517117440	1.05109e+07
2918332558536081408	1.05109e+07
2954361355555045376	1.05109e+07
2990390152574009344	1.05109e+07
3026418949592973312	1.05109e+07
3062447746611937280	1.05109e+07
3098476543630901248	1.05109e+07
3134505340649865216	1.05109e+07
3170534137668829184	1.05109e+07
3206562934687793152	1.05109e+07
3242591731706757120	1.05109e+07
3278620528725721088	1.05109e+07
3314649325744685056	1.05109e+07
3350678122763649024	1.05109e+07
3386706919782612992	1.05109e+07
3422735716801576960	1.05109e+07
3458764513820540928	1.05109e+07
3494793310839504896	1.05109e+07
3530822107858468864	1.05109e+07
3566850904877432832	1.05109e+07
3602879701896396800	1.05109e+07
3638908498915360768	1.05109e+07
3674937295934324736	1.05109e+07
3710966092953288704	1.05109e+07
3746994889972252672	1.05109e+07
3783023686991216640	1.05109e+07
3819052484010180608	1.05109e+07
3855081281029144576	1.05109e+07
3891110078048108544	1.05109e+07
3927138875067072512	1.05109e+07
3963167672086036480	1.05109e+07
3999196469105000448	1.05109e+07
4035225266123964416	1.05109e+07
4071254063142928384	1.05109e+07
4107282860161892352	1.05109e+07
4143311657180856320	1.05109e+07
4179340454199820288	1.05109e+07
4215369251218784256	1.05109e+07
4251398048237748224	1.05109e+07
4287426845256712192	1.05109e+07
4323455642275676160	1.05109e+07
4359484439294640128	1.05109e+07
4395513236313604096	1.05109e+07
4431542033332568064	1.05109e+07
4467570830351532032	1.05109e+07
4503599627370496000	1.05109e+07
4539628424389459968	1.05109e+07
4575657221408423936	1.05109e+07
4611686018427387904	1.05109e+07
4683743612465315840	1.05109e+07
4755801206503243776	1.05109e+07
4827858800541171712	1.05109e+07
4899916394579099648	1.05109e+07
4971973988617027584	1.05109e+07
5044031582654955520	1.05109e+07
5116089176692883456	1.05109e+07
5188146770730811392	1.05109e+07
5260204364768739328	1.05109e+07
5332261958806667264	1.05109e+07
5404319552844595200	1.05109e+07
5476377146882523136	1.05109e+07
5548434740920451072	1.05109e+07
5620492334958379008	1.05109e+07
5692549928996306944	1.05109e+07
5764607523034234880	1.05109e+07
5836665117072162816	1.05109e+07
5908722711110090752	1.05109e+07
5980780305148018688	1.05109e+07
6052837899185946624	1.05109e+07
6124895493223874560	1.05109e+07
6196953087261802496	1.05109e+07
6269010681299730432	1.05109e+07
6341068275337658368	1.05109e+07
6413125869375586304	1.05109e+07
6485183463413514240	1.05109e+07
6557241057451442176	1.05109e+07
6629298651489370112	1.05109e+07
6701356245527298048	1.05109e+07
6773413839565225984	1.05109e+07
6845471433603153920	1.05109e+07
6917529027641081856	1.05109e+07
6989586621679009792	1.05109e+07
7061644215716937728	1.05109e+07
7133701809754865664	1.05109e+07
7205759403792793600	1.05109e+07
7277816997830721536	1.05109e+07
7349874591868649472	1.05109e+07
7421932185906577408	1.05109e+07
7493989779944505344	1.05109e+07
7566047373982433280	1.05109e+07
7638104968020361216	1.05109e+07
7710162562058289152	1.05109e+07
7782220156096217088	1.05109e+07
7854277750134145024	1.05109e+07
7926335344172072960	1.05109e+07
7998392938210000896	1.05109e+07
8070450532247928832	1.05109e+07
8142508126285856768	1.05109e+07
8214565720323784704	1.05109e+07
8286623314361712640	1.05109e+07
8358680908399640576	1.05109e+07
8430738502437568512	1.05109e+07
8502796096475496448	1.05109e+07
8574853690513424384	1.05109e+07
8646911284551352320	1.05109e+07
8718968878589280256	1.05109e+07
8791026472627208192	1.05109e+07
8863084066665136128	1.05109e+07
8935141660703064064	1.05109e+07
9007199254740992000	1.05109e+07
9079256848778919936	1.05109e+07
9151314442816847872	1.05109e+07
9223372036854775808	1.05109e+07
9367487224930631680	1.05109e+07
9511602413006487552	1.05109e+07
9655717601082343424	1.05109e+07
9799832789158199296	1.05109e+07
9943947977234055168	1.05109e+07
10088063165309911040	1.05109e+07
10232178353385766912	1.05109e+07
10376293541461622784	1.05109e+07
10520408729537478656	1.05109e+07
10664523917613334528	1.05109e+07
10808639105689190400	1.05109e+07
10952754293765046272	1.05109e+07
11096869481840902144	1.05109e+07
11240984669916758016	1.05109e+07
11385099857992613888	1.05109e+07
11529215046068469760	1.05109e+07
11673330234144325632	1.05109e+07
11817445422220181504	1.05109e+07
11961560610296037376	1.05109e+07
12105675798371893248	1.05109e+07
12249790986447749120	1.05109e+07
12393906174523604992	1.05109e+07
12538021362599460864	1.05109e+07
12682136550675316736	1.05109e+07
12826251738751172608	1.05109e+07
12970366926827028480	1.05109e+07
13114482114902884352	1.05109e+07
13258597302978740224	1.05109e+07
13402712491054596096	1.05109e+07
13546827679130451968	1.05109e+07
13690942867206307840	1.05109e+07
13835058055282163712	1.05109e+07
13979173243358019584	1.05109e+07
14123288431433875456	1.05109e+07
14267403619509731328	1.05109e+07
14411518807585587200	1.05109e+07
14555633995661443072	1.05109e+07
14699749183737298944	1.05109e+07
14843864371813154816	1.05109e+07
14987979559889010688	1.05109e+07
15132094747964866560	1.05109e+07
15276209936040722432	1.05109e+07
15420325124116578304	1.05109e+07
15564440312192434176	1.05109e+07
15708555500268290048	1.05109e+07
15852670688344145920	1.05109e+07
15996785876420001792	1.05109e+07
16140901064495857664	1.05109e+07
16285016252571713536	1.05109e+07
16429131440647569408	1.05109e+07
16573246628723425280	1.05109e+07
16717361816799281152	1.05109e+07
16861477004875137024	1.05109e+07
17005592192950992896	1.05109e+07
17149707381026848768	1.05109e+07
17293822569102704640	1.05109e+07
17437937757178560512	1.05109e+07
17582052945254416384	1.05109e+07
17726168133330272256	1.05109e+07
17870283321406128128	1.05109e+07
18014398509481984000	1.05109e+07
18158513697557839872	1.05109e+07
18302628885633695744	0
