0	0
1	1
2	1.22509
3	1.44924
4	1.67286
5	1.89618
6	2.1193
7	2.34213
8	2.56459
9	2.78659
10	3.00813
11	3.22932
12	3.45023
13	3.67091
14	3.89133
15	4.1115
16	4.33142
17	4.55107
18	4.7705
19	4.98973
20	5.20882
21	5.42778
22	5.64664
23	5.86537
24	6.08399
25	6.30251
26	6.52095
27	6.73932
28	6.95763
29	7.17588
30	7.39407
31	7.61219
32	7.83027
33	8.04832
34	8.26631
35	8.48427
36	8.70219
37	8.92007
38	9.13792
39	9.35574
40	9.57352
41	9.79127
42	10.009
43	10.2267
44	10.4444
45	10.662
46	10.8796
47	11.0971
48	11.3146
49	11.5321
50	11.7495
51	11.9668
52	12.1842
53	12.4015
54	12.6188
55	12.8361
56	13.0533
57	13.2705
58	13.4876
59	13.7048
60	13.9219
61	14.1389
62	14.3559
63	14.5729
64	14.7898
65	15.0067
66	15.2235
67	15.4402
68	15.6569
69	15.8736
70	16.0902
71	16.3068
72	16.5234
73	16.74
74	16.9565
75	17.173
76	17.3895
77	17.606
78	17.8225
79	18.0389
80	18.2553
81	18.4717
82	18.688
83	18.9043
84	19.1206
85	19.3368
86	19.553
87	19.7692
88	19.9854
89	20.2015
90	20.4176
91	20.6336
92	20.8496
93	21.0656
94	21.2815
95	21.4974
96	21.7133
97	21.9292
98	22.145
99	22.3608
100	22.5766
101	22.7923
102	23.0081
103	23.2238
104	23.4394
105	23.6551
106	23.8707
107	24.0863
108	24.3019
109	24.5174
110	24.733
111	24.9485
112	25.164
113	25.3795
114	25.5949
115	25.8104
116	26.0258
117	26.2412
118	26.4566
119	26.672
120	26.8873
121	27.1026
122	27.3179
123	27.5332
124	27.7485
125	27.9637
126	28.179
127	28.3942
128	28.6093
130	29.0396
132	29.4698
134	29.8999
136	30.3299
138	30.7598
140	31.1896
142	31.6194
144	32.049
146	32.4786
148	32.9081
150	33.3374
152	33.7666
154	34.1957
156	34.6247
158	35.0536
160	35.4823
162	35.9109
164	36.3393
166	36.7676
168	37.1957
170	37.6237
172	38.0517
174	38.4795
176	38.9072
178	39.3349
180	39.7625
182	40.19
184	40.6175
186	41.045
188	41.4724
190	41.8997
192	42.3269
194	42.754
196	43.1811
198	43.6081
200	44.035
202	44.4618
204	44.8886
206	45.3154
208	45.7421
210	46.1687
212	46.5952
214	47.0217
216	47.4482
218	47.8745
220	48.3009
222	48.7272
224	49.1534
226	49.5796
228	50.0057
230	50.4317
232	50.8577
234	51.2837
236	51.7095
238	52.1353
240	52.561
242	52.9867
244	53.4124
246	53.838
248	54.2636
250	54.6891
252	55.1146
254	55.54
256	55.9653
260	56.8158
264	57.6662
268	58.5162
272	59.3661
276	60.2156
280	61.0649
284	61.914
288	62.7628
292	63.6114
296	64.4598
300	65.3079
304	66.1559
308	67.0036
312	67.8511
316	68.6985
320	69.5457
324	70.3927
328	71.2396
332	72.0862
336	72.9326
340	73.7789
344	74.625
348	75.4708
352	76.3165
356	77.1619
360	78.0071
364	78.852
368	79.6968
372	80.5414
376	81.3857
380	82.2298
384	83.0737
388	83.9174
392	84.7609
396	85.6041
400	86.4471
404	87.2895
408	88.1291
412	88.9626
416	89.7921
420	90.6195
424	91.4411
428	92.2473
432	93.0378
436	93.8199
440	94.5985
444	95.3746
448	96.1485
452	96.9204
456	97.6906
460	98.459
464	99.2256
468	99.9907
472	100.755
476	101.518
480	102.281
484	103.043
488	103.804
492	104.565
496	105.326
500	106.086
504	106.847
508	107.607
512	108.367
520	109.886
528	111.405
536	112.923
544	114.441
552	115.958
560	117.475
568	118.992
576	120.507
584	122.023
592	123.538
600	125.053
608	126.568
616	128.082
624	129.596
632	131.11
640	132.623
648	134.136
656	135.649
664	137.162
672	138.674
680	140.187
688	141.698
696	143.21
704	144.721
712	146.232
720	147.743
728	149.253
736	150.763
744	152.273
752	153.782
760	155.291
768	156.799
776	158.307
784	159.815
792	161.322
800	162.827
808	164.316
816	165.803
824	167.288
832	168.772
840	170.256
848	171.737
856	173.211
864	174.676
872	176.137
880	177.596
888	179.052
896	180.504
904	181.952
912	183.4
920	184.846
928	186.291
936	187.735
944	189.178
952	190.62
960	192.062
968	193.503
976	194.944
984	196.385
992	197.825
1000	199.266
1008	200.705
1016	202.145
1024	203.584
1040	206.462
1056	209.339
1072	212.215
1088	215.091
1104	217.965
1120	220.839
1136	223.713
1152	226.585
1168	229.457
1184	232.327
1200	235.196
1216	238.065
1232	240.931
1248	243.795
1264	246.658
1280	249.515
1296	252.356
1312	255.189
1328	258.013
1344	260.831
1360	263.645
1376	266.456
1392	269.265
1408	272.073
1424	274.879
1440	277.685
1456	280.49
1472	283.295
1488	286.098
1504	288.902
1520	291.705
1536	294.507
1552	297.308
1568	300.109
1584	302.909
1600	305.708
1616	308.501
1632	311.293
1648	314.084
1664	316.873
1680	319.663
1696	322.451
1712	325.23
1728	327.997
1744	330.756
1760	333.506
1776	336.253
1792	338.996
1808	341.736
1824	344.474
1840	347.21
1856	349.945
1872	352.68
1888	355.414
1904	358.147
1920	360.88
1936	363.612
1952	366.343
1968	369.074
1984	371.805
2000	374.535
2016	377.264
2032	379.993
2048	382.721
2080	388.175
2112	393.627
2144	399.063
2176	404.459
2208	409.825
2240	415.183
2272	420.532
2304	425.877
2336	431.219
2368	436.557
2400	441.894
2432	447.225
2464	452.554
2496	457.881
2528	463.207
2560	468.527
2592	473.822
2624	479.093
2656	484.356
2688	489.614
2720	494.868
2752	500.12
2784	505.371
2816	510.621
2848	515.87
2880	521.117
2912	526.363
2944	531.607
2976	536.851
3008	542.083
3040	547.298
3072	552.503
3104	557.705
3136	562.904
3168	568.1
3200	573.296
3232	578.488
3264	583.679
3296	588.87
3328	594.059
3360	599.248
3392	604.436
3424	609.621
3456	614.795
3488	619.957
3520	625.115
3552	630.271
3584	635.424
3616	640.576
3648	645.727
3680	650.877
3712	656.026
3744	661.175
3776	666.324
3808	671.472
3840	676.619
3872	681.763
3904	686.901
3936	692.035
3968	697.167
4000	702.299
4032	707.427
4064	712.555
4096	717.682
4160	727.934
4224	738.185
4288	748.434
4352	758.661
4416	768.879
4480	779.093
4544	789.302
4608	799.509
4672	809.667
4736	819.655
4800	829.613
4864	839.562
4928	849.508
4992	859.451
5056	869.392
5120	879.332
5184	889.264
5248	899.186
5312	909.104
5376	919.019
5440	928.931
5504	938.838
5568	948.741
5632	958.629
5696	968.508
5760	978.38
5824	988.25
5888	998.115
5952	1007.98
6016	1017.84
6080	1027.68
6144	1037.52
6208	1047.36
6272	1057.2
6336	1067.03
6400	1076.86
6464	1086.68
6528	1096.5
6592	1106.31
6656	1116.12
6720	1125.92
6784	1135.72
6848	1145.52
6912	1155.3
6976	1165.07
7040	1174.83
7104	1184.59
7168	1194.35
7232	1204.1
7296	1213.85
7360	1223.6
7424	1233.34
7488	1243.08
7552	1252.81
7616	1262.54
7680	1272.27
7744	1282
7808	1291.72
7872	1301.43
7936	1311.15
8000	1320.86
8064	1330.56
8128	1340.27
8192	1349.97
8320	1369.35
8448	1388.71
8576	1408.07
8704	1427.41
8832	1446.74
8960	1466.06
9088	1485.37
9216	1504.66
9344	1523.92
9472	1543.1
9600	1562.26
9728	1581.41
9856	1600.55
9984	1619.68
10112	1638.79
10240	1657.9
10368	1676.99
10496	1696.07
10624	1715.14
10752	1734.21
10880	1753.27
11008	1772.33
11136	1791.4
11264	1810.45
11392	1829.49
11520	1848.52
11648	1867.54
11776	1886.55
11904	1905.57
12032	1924.58
12160	1943.59
12288	1962.58
12416	1981.58
12544	2000.58
12672	2019.58
12800	2038.57
12928	2057.55
13056	2076.52
13184	2095.49
13312	2114.46
13440	2133.43
13568	2152.39
13696	2171.35
13824	2190.29
13952	2209.23
14080	2228.12
14208	2247
14336	2265.88
14464	2284.74
14592	2303.6
14720	2322.45
14848	2341.3
14976	2360.13
15104	2378.95
15232	2397.76
15360	2416.57
15488	2435.37
15616	2454.16
15744	2472.96
15872	2491.76
16000	2510.55
16128	2529.34
16256	2548.11
16384	2566.88
16640	2604.42
16896	2641.95
17152	2679.45
17408	2716.94
17664	2754.43
17920	2791.88
18176	2829.33
18432	2866.78
18688	2904.18
18944	2941.53
19200	2978.88
19456	3016.21
19712	3053.52
19968	3090.83
20224	3128.13
20480	3165.4
20736	3202.69
20992	3239.95
21248	3277.16
21504	3314.37
21760	3351.57
22016	3388.75
22272	3425.93
22528	3463.08
22784	3500.21
23040	3537.34
23296	3574.46
23552	3611.52
23808	3648.58
24064	3685.62
24320	3722.65
24576	3759.68
24832	3796.7
25088	3833.7
25344	3870.68
25600	3907.67
25856	3944.63
26112	3981.58
26368	4018.54
26624	4055.47
26880	4092.38
27136	4129.29
27392	4166.18
27648	4203.04
27904	4239.9
28160	4276.72
28416	4313.51
28672	4350.3
28928	4387.08
29184	4423.84
29440	4460.6
29696	4497.35
29952	4534.08
30208	4570.81
30464	4607.54
30720	4644.24
30976	4680.94
31232	4717.64
31488	4754.31
31744	4790.98
32000	4827.52
32256	4863.98
32512	4900.29
32768	4936.5
33280	5008.67
33792	5080.81
34304	5152.91
34816	5225
35328	5297
35840	5368.87
36352	5440.63
36864	5512.26
37376	5583.77
37888	5655.12
38400	5726.33
38912	5797.44
39424	5868.43
39936	5939.31
40448	6010.14
40960	6080.93
41472	6151.7
41984	6222.41
42496	6293.06
43008	6363.69
43520	6434.26
44032	6504.81
44544	6575.33
45056	6645.8
45568	6716.23
46080	6786.63
46592	6856.97
47104	6927.28
47616	6997.54
48128	7067.76
48640	7137.96
49152	7208.11
49664	7278.22
50176	7348.25
50688	7418.17
51200	7488.05
51712	7557.88
52224	7627.57
52736	7697.24
53248	7766.88
53760	7836.47
54272	7906.04
54784	7975.55
55296	8045.01
55808	8114.31
56320	8183.47
56832	8252.59
57344	8321.67
57856	8390.69
58368	8459.69
58880	8528.64
59392	8597.53
59904	8666.4
60416	8735.21
60928	8803.98
61440	8872.74
61952	8941.48
62464	9010.11
62976	9078.62
63488	9147.02
64000	9215.29
64512	9283.43
65024	9351.41
65536	9419.16
66560	9554.37
67584	9689.27
68608	9823.76
69632	9957.83
70656	10091.5
71680	10224.6
72704	10357.4
73728	10490
74752	10622.4
75776	10754.5
76800	10886.6
77824	11018.4
78848	11150.1
79872	11281.6
80896	11412.8
81920	11543.9
82944	11674.8
83968	11805.5
84992	11936
86016	12066.4
87040	12196.6
88064	12326.6
89088	12456.5
90112	12586.3
91136	12715.9
92160	12845.3
93184	12974.6
94208	13103.8
95232	13232.6
96256	13361
97280	13488.7
98304	13615.9
99328	13742.8
100352	13869.2
101376	13995.2
102400	14120.7
103424	14245.7
104448	14370.3
105472	14494.8
106496	14619.1
107520	14743.2
108544	14867.1
109568	14990.8
110592	15114.1
111616	15237.3
112640	15360.3
113664	15483.1
114688	15605.7
115712	15728.1
116736	15850.2
117760	15972.1
118784	16093.6
119808	16215
120832	16336.2
121856	16457.2
122880	16577.8
123904	16698.2
124928	16818.4
125952	16938.4
126976	17058.2
128000	17177.7
129024	17296.6
130048	17415
131072	17533.1
133120	17768.6
135168	18002.3
137216	18233.8
139264	18464.5
141312	18694.5
143360	18924
145408	19152.9
147456	19381.1
149504	19608.3
151552	19834.7
153600	20060.4
155648	20285
157696	20508.8
159744	20731.8
161792	20953.3
163840	21171.8
165888	21388.6
167936	21603.1
169984	21815.8
172032	22027.6
174080	22238.4
176128	22448.4
178176	22657.5
180224	22865.6
182272	23072.7
184320	23279
186368	23484.6
188416	23689.2
190464	23893.1
192512	24095.5
194560	24295.6
196608	24494.3
198656	24690.9
200704	24885.2
202752	25078.3
204800	25270.4
206848	25461.2
208896	25651.1
210944	25840.1
212992	26028.3
215040	26215.5
217088	26401.9
219136	26587
221184	26771.2
223232	26954.6
225280	27136.6
227328	27316.3
229376	27494.3
231424	27670.4
233472	27844.3
235520	28016.9
237568	28188.5
239616	28358.7
241664	28528.1
243712	28696.8
245760	28864.5
247808	29031.5
249856	29197.6
251904	29362.7
253952	29527.4
256000	29691.3
258048	29853.5
260096	30007.6
262144	30159.2
266240	30455.4
270336	30746
274432	31032.5
278528	31315
282624	31594.4
286720	31869.5
290816	32139.4
294912	32400.5
299008	32653.1
303104	32903
307200	33151.4
311296	33396.4
315392	33639.9
319488	33882
323584	34119.3
327680	34349.5
331776	34571
335872	34786.4
339968	34997.4
344064	35203.7
348160	35404.8
352256	35600.8
356352	35788.4
360448	35966.3
364544	36134.2
368640	36296.4
372736	36453.6
376832	36606.2
380928	36755
385024	36900.1
389120	37043.2
393216	37181.7
397312	37312.7
401408	37443.4
405504	37575
409600	37707.5
413696	37840.9
417792	37975.3
421888	38110.6
425984	38246.6
430080	38383.5
434176	38521.3
438272	38659.9
442368	38799.4
446464	38939.9
450560	39081.4
454656	39223.9
458752	39367.5
462848	39512
466944	39657.7
471040	39804.1
475136	39951.4
479232	40099.7
483328	40249.1
487424	40399.6
491520	40551.2
495616	40704
499712	40857.9
503808	41013
507904	41169.2
512000	41326.6
516096	41485.3
520192	41645.1
524288	41806
532480	42131.5
540672	42462.1
548864	42797.6
557056	43137.6
565248	43483
573440	43833.6
581632	44189.9
589824	44552.1
598016	44920.3
606208	45294.6
614400	45675.3
622592	46062
630784	46455.2
638976	46855.3
647168	47262.1
655360	47675.7
663552	48096.6
671744	48525
679936	48960.8
688128	49404.5
696320	49856.4
704512	50316.8
712704	50785.9
720896	51263.8
729088	51751
737280	52247.7
745472	52754
753664	53270.3
761856	53797
770048	54332.9
778240	54879.5
786432	55437.2
794624	56006.3
802816	56587.5
811008	57181
819200	57786.8
827392	58404.5
835584	59035.7
843776	59681
851968	60340.8
860160	61015.4
868352	61705.5
876544	62411.7
884736	63134.5
892928	63874.4
901120	64632
909312	65408.1
917504	66202.9
925696	67017.5
933888	67852.6
942080	68709.1
950272	69587.9
958464	70489.8
966656	71415.6
974848	72365.1
983040	73340.1
991232	74342.2
999424	75372.5
1007616	76432.3
1015808	77522.7
1024000	78645.3
1032192	79801.4
1040384	80991.6
1048576	82218.3
1064960	84787.9
1081344	87524.9
1097728	90447.6
1114112	93574.7
1130496	96925.2
1146880	100528
1163264	104414
1179648	108617
1196032	113083
1212416	117664
1228800	122267
1245184	126821
1261568	131384
1277952	135917
1294336	140444
1310720	144922
1327104	149400
1343488	153848
1359872	158287
1376256	162716
1392640	167172
1409024	171623
1425408	176007
1441792	180341
1458176	184607
1474560	188864
1490944	192985
1507328	196959
1523712	200497
1540096	204319
1556480	208250
1572864	212273
1589248	213409
1605632	213409
1622016	213409
1638400	213409
1654784	213409
1671168	213409
1687552	213409
1703936	213409
1720320	213409
1736704	213409
1753088	213409
1769472	213409
1785856	213409
1802240	213409
1818624	213409
1835008	213409
1851392	213409
1867776	213409
1884160	213409
1900544	213409
1916928	213409
1933312	213409
1949696	213409
1966080	213409
1982464	213409
1998848	213409
2015232	213409
2031616	213409
2048000	213409
2064384	213409
2080768	213409
2097152	213409
2129920	213409
2162688	213409
2195456	213409
2228224	213409
2260992	213409
2293760	213409
2326528	213409
2359296	213409
2392064	213409
2424832	213409
2457600	213409
2490368	213409
2523136	213409
2555904	213409
2588672	213409
2621440	213409
2654208	213409
2686976	213409
2719744	213409
2752512	213409
2785280	213409
2818048	213409
2850816	213409
2883584	213409
2916352	213409
2949120	213409
2981888	213409
3014656	213409
3047424	213409
3080192	213409
3112960	213409
3145728	213409
3178496	213409
3211264	213409
3244032	213409
3276800	213409
3309568	213409
3342336	213409
3375104	213409
3407872	213409
3440640	213409
3473408	213409
3506176	213409
3538944	213409
3571712	213409
3604480	213409
3637248	213409
3670016	213409
3702784	213409
3735552	213409
3768320	213409
3801088	213409
3833856	213409
3866624	213409
3899392	213409
3932160	213409
3964928	213409
3997696	213409
4030464	213409
4063232	213409
4096000	213409
4128768	213409
4161536	213409
4194304	213409
4259840	213409
4325376	213409
4390912	213409
4456448	213409
4521984	213409
4587520	213409
4653056	213409
4718592	213409
4784128	213409
4849664	213409
4915200	213409
4980736	213409
5046272	213409
5111808	213409
5177344	213409
5242880	213409
5308416	213409
5373952	213409
5439488	213409
5505024	213409
5570560	213409
5636096	213409
5701632	213409
5767168	213409
5832704	213409
5898240	213409
5963776	213409
6029312	213409
6094848	213409
6160384	213409
6225920	213409
6291456	213409
6356992	213409
6422528	213409
6488064	213409
6553600	213409
6619136	213409
6684672	213409
6750208	213409
6815744	213409
6881280	213409
6946816	213409
7012352	213409
7077888	213409
7143424	213409
7208960	213409
7274496	213409
7340032	213409
7405568	213409
7471104	213409
7536640	213409
7602176	213409
7667712	213409
7733248	213409
7798784	213409
7864320	213409
7929856	213409
7995392	213409
8060928	213409
8126464	213409
8192000	213409
8257536	213409
8323072	213409
8388608	213409
8519680	213409
8650752	213409
8781824	213409
8912896	213409
9043968	213409
9175040	213409
9306112	213409
9437184	213409
9568256	213409
9699328	213409
9830400	213409
9961472	213409
10092544	213409
10223616	213409
10354688	213409
10485760	213409
10616832	213409
10747904	213409
10878976	213409
11010048	213409
11141120	213409
11272192	213409
11403264	213409
11534336	213409
11665408	213409
11796480	213409
11927552	213409
12058624	213409
12189696	213409
12320768	213409
12451840	213409
12582912	213409
12713984	213409
12845056	213409
12976128	213409
13107200	213409
13238272	213409
13369344	213409
13500416	213409
13631488	213409
13762560	213409
13893632	213409
14024704	213409
14155776	213409
14286848	213409
14417920	213409
14548992	213409
14680064	213409
14811136	213409
14942208	213409
15073280	213409
15204352	213409
15335424	213409
15466496	213409
15597568	213409
15728640	213409
15859712	213409
15990784	213409
16121856	213409
16252928	213409
16384000	213409
16515072	213409
16646144	213409
16777216	213409
17039360	213409
17301504	213409
17563648	213409
17825792	213409
18087936	213409
18350080	213409
18612224	213409
18874368	213409
19136512	213409
19398656	213409
19660800	213409
19922944	213409
20185088	213409
20447232	213409
20709376	213409
20971520	213409
21233664	213409
21495808	213409
21757952	213409
22020096	213409
22282240	213409
22544384	213409
22806528	213409
23068672	213409
23330816	213409
23592960	213409
23855104	213409
24117248	213409
24379392	213409
24641536	213409
24903680	213409
25165824	213409
25427968	213409
25690112	213409
25952256	213409
26214400	213409
26476544	213409
26738688	213409
27000832	213409
27262976	213409
27525120	213409
27787264	213409
28049408	213409
28311552	213409
28573696	213409
28835840	213409
29097984	213409
29360128	213409
29622272	213409
29884416	213409
30146560	213409
30408704	213409
30670848	213409
30932992	213409
31195136	213409
31457280	213409
31719424	213409
31981568	213409
32243712	213409
32505856	213409
32768000	213409
33030144	213409
33292288	213409
33554432	213409
34078720	213409
34603008	213409
35127296	213409
35651584	213409
36175872	213409
36700160	213409
37224448	213409
37748736	213409
38273024	213409
38797312	213409
39321600	213409
39845888	213409
40370176	213409
40894464	213409
41418752	213409
41943040	213409
42467328	213409
42991616	213409
43515904	213409
44040192	213409
44564480	213409
45088768	213409
45613056	213409
46137344	213409
46661632	213409
47185920	213409
47710208	213409
48234496	213409
48758784	213409
49283072	213409
49807360	213409
50331648	213409
50855936	213409
51380224	213409
51904512	213409
52428800	213409
52953088	213409
53477376	213409
54001664	213409
54525952	213409
55050240	213409
55574528	213409
56098816	213409
56623104	213409
57147392	213409
57671680	213409
58195968	213409
58720256	213409
59244544	213409
59768832	213409
60293120	213409
60817408	213409
61341696	213409
61865984	213409
62390272	213409
62914560	213409
63438848	213409
63963136	213409
64487424	213409
65011712	213409
65536000	213409
66060288	213409
66584576	213409
67108864	213409
68157440	213409
69206016	213409
70254592	213409
71303168	213409
72351744	213409
73400320	213409
74448896	213409
75497472	213409
76546048	213409
77594624	213409
78643200	213409
79691776	213409
80740352	213409
81788928	213409
82837504	213409
83886080	213409
84934656	213409
85983232	213409
87031808	213409
88080384	213409
89128960	213409
90177536	213409
91226112	213409
92274688	213409
93323264	213409
94371840	213409
95420416	213409
96468992	213409
97517568	213409
98566144	213409
99614720	213409
100663296	213409
101711872	213409
102760448	213409
103809024	213409
104857600	213409
105906176	213409
106954752	213409
108003328	213409
109051904	213409
110100480	213409
111149056	213409
112197632	213409
113246208	213409
114294784	213409
115343360	213409
116391936	213409
117440512	213409
118489088	213409
119537664	213409
120586240	213409
121634816	213409
122683392	213409
123731968	213409
124780544	213409
125829120	213409
126877696	213409
127926272	213409
128974848	213409
130023424	213409
131072000	213409
132120576	213409
133169152	213409
134217728	213409
136314880	213409
138412032	213409
140509184	213409
142606336	213409
144703488	213409
146800640	213409
148897792	213409
150994944	213409
153092096	213409
155189248	213409
157286400	213409
159383552	213409
161480704	213409
163577856	213409
165675008	213409
167772160	213409
169869312	213409
171966464	213409
174063616	213409
176160768	213409
178257920	213409
180355072	213409
182452224	213409
184549376	213409
186646528	213409
188743680	213409
190840832	213409
192937984	213409
195035136	213409
197132288	213409
199229440	213409
201326592	213409
203423744	213409
205520896	213409
207618048	213409
209715200	213409
211812352	213409
213909504	213409
216006656	213409
218103808	213409
220200960	213409
222298112	213409
224395264	213409
226492416	213409
228589568	213409
230686720	213409
232783872	213409
234881024	213409
236978176	213409
239075328	213409
241172480	213409
243269632	213409
245366784	213409
247463936	213409
249561088	213409
251658240	213409
253755392	213409
255852544	213409
257949696	213409
260046848	213409
262144000	213409
264241152	213409
266338304	213409
268435456	213409
272629760	213409
276824064	213409
281018368	213409
285212672	213409
289406976	213409
293601280	213409
297795584	213409
301989888	213409
306184192	213409
310378496	213409
314572800	213409
318767104	213409
322961408	213409
327155712	213409
331350016	213409
335544320	213409
339738624	213409
343932928	213409
348127232	213409
352321536	213409
356515840	213409
360710144	213409
364904448	213409
369098752	213409
373293056	213409
377487360	213409
381681664	213409
385875968	213409
390070272	213409
394264576	213409
398458880	213409
402653184	213409
406847488	213409
411041792	213409
415236096	213409
419430400	213409
423624704	213409
427819008	213409
432013312	213409
436207616	213409
440401920	213409
444596224	213409
448790528	213409
452984832	213409
457179136	213409
461373440	213409
465567744	213409
469762048	213409
473956352	213409
478150656	213409
482344960	213409
486539264	213409
490733568	213409
494927872	213409
499122176	213409
503316480	213409
507510784	213409
511705088	213409
515899392	213409
520093696	213409
524288000	213409
528482304	213409
532676608	213409
536870912	213409
545259520	213409
553648128	213409
562036736	213409
570425344	213409
578813952	213409
587202560	213409
595591168	213409
603979776	213409
612368384	213409
620756992	213409
629145600	213409
637534208	213409
645922816	213409
654311424	213409
662700032	213409
671088640	213409
679477248	213409
687865856	213409
696254464	213409
704643072	213409
713031680	213409
721420288	213409
729808896	213409
738197504	213409
746586112	213409
754974720	213409
763363328	213409
771751936	213409
780140544	213409
788529152	213409
796917760	213409
805306368	213409
813694976	213409
822083584	213409
830472192	213409
838860800	213409
847249408	213409
855638016	213409
864026624	213409
872415232	213409
880803840	213409
889192448	213409
897581056	213409
905969664	213409
914358272	213409
922746880	213409
931135488	213409
939524096	213409
947912704	213409
956301312	213409
964689920	213409
973078528	213409
981467136	213409
989855744	213409
998244352	213409
1006632960	213409
1015021568	213409
1023410176	213409
1031798784	213409
1040187392	213409
1048576000	213409
1056964608	213409
1065353216	213409
1073741824	213409
1090519040	213409
1107296256	213409
1124073472	213409
1140850688	213409
1157627904	213409
1174405120	213409
1191182336	213409
1207959552	213409
1224736768	213409
1241513984	213409
1258291200	213409
1275068416	213409
1291845632	213409
1308622848	213409
1325400064	213409
1342177280	213409
1358954496	213409
1375731712	213409
1392508928	213409
1409286144	213409
1426063360	213409
1442840576	213409
1459617792	213409
1476395008	213409
1493172224	213409
1509949440	213409
1526726656	213409
1543503872	213409
1560281088	213409
1577058304	213409
1593835520	213409
1610612736	213409
1627389952	213409
1644167168	213409
1660944384	213409
1677721600	213409
1694498816	213409
1711276032	213409
1728053248	213409
1744830464	213409
1761607680	213409
1778384896	213409
1795162112	213409
1811939328	213409
1828716544	213409
1845493760	213409
1862270976	213409
1879048192	213409
1895825408	213409
1912602624	213409
1929379840	213409
1946157056	213409
1962934272	213409
1979711488	213409
1996488704	213409
2013265920	213409
2030043136	213409
2046820352	213409
2063597568	213409
2080374784	213409
2097152000	213409
2113929216	213409
2130706432	213409
2147483648	213409
2181038080	213409
2214592512	213409
2248146944	213409
2281701376	213409
2315255808	213409
2348810240	213409
2382364672	213409
2415919104	213409
2449473536	213409
2483027968	213409
2516582400	213409
2550136832	213409
2583691264	213409
2617245696	213409
2650800128	213409
2684354560	213409
2717908992	213409
2751463424	213409
2785017856	213409
2818572288	213409
2852126720	213409
2885681152	213409
2919235584	213409
2952790016	213409
2986344448	213409
3019898880	213409
3053453312	213409
3087007744	213409
3120562176	213409
3154116608	213409
3187671040	213409
3221225472	213409
3254779904	213409
3288334336	213409
3321888768	213409
3355443200	213409
3388997632	213409
3422552064	213409
3456106496	213409
3489660928	213409
3523215360	213409
3556769792	213409
3590324224	213409
3623878656	213409
3657433088	213409
3690987520	213409
3724541952	213409
3758096384	213409
3791650816	213409
3825205248	213409
3858759680	213409
3892314112	213409
3925868544	213409
3959422976	213409
3992977408	213409
4026531840	213409
4060086272	213409
4093640704	213409
4127195136	213409
4160749568	213409
4194304000	213409
4227858432	213409
4261412864	213409
4294967296	213409
4362076160	213409
4429185024	213409
4496293888	213409
4563402752	213409
4630511616	213409
4697620480	213409
4764729344	213409
4831838208	213409
4898947072	213409
4966055936	213409
5033164800	213409
5100273664	213409
5167382528	213409
5234491392	213409
5301600256	213409
5368709120	213409
5435817984	213409
5502926848	213409
5570035712	213409
5637144576	213409
5704253440	213409
5771362304	213409
5838471168	213409
5905580032	213409
5972688896	213409
6039797760	213409
6106906624	213409
6174015488	213409
6241124352	213409
6308233216	213409
6375342080	213409
6442450944	213409
6509559808	213409
6576668672	213409
6643777536	213409
6710886400	213409
6777995264	213409
6845104128	213409
6912212992	213409
6979321856	213409
7046430720	213409
7113539584	213409
7180648448	213409
7247757312	213409
7314866176	213409
7381975040	213409
7449083904	213409
7516192768	213409
7583301632	213409
7650410496	213409
7717519360	213409
7784628224	213409
7851737088	213409
7918845952	213409
7985954816	213409
8053063680	213409
8120172544	213409
8187281408	213409
8254390272	213409
8321499136	213409
8388608000	213409
8455716864	213409
8522825728	213409
8589934592	213409
8724152320	213409
8858370048	213409
8992587776	213409
9126805504	213409
9261023232	213409
9395240960	213409
9529458688	213409
9663676416	213409
9797894144	213409
9932111872	213409
10066329600	213409
10200547328	213409
10334765056	213409
10468982784	213409
10603200512	213409
10737418240	213409
10871635968	213409
11005853696	213409
11140071424	213409
11274289152	213409
11408506880	213409
11542724608	213409
11676942336	213409
11811160064	213409
11945377792	213409
12079595520	213409
12213813248	213409
12348030976	213409
12482248704	213409
12616466432	213409
12750684160	213409
12884901888	213409
13019119616	213409
13153337344	213409
13287555072	213409
13421772800	213409
13555990528	213409
13690208256	213409
13824425984	213409
13958643712	213409
14092861440	213409
14227079168	213409
14361296896	213409
14495514624	213409
14629732352	213409
14763950080	213409
14898167808	213409
15032385536	213409
15166603264	213409
15300820992	213409
15435038720	213409
15569256448	213409
15703474176	213409
15837691904	213409
15971909632	213409
16106127360	213409
16240345088	213409
16374562816	213409
16508780544	213409
16642998272	213409
16777216000	213409
16911433728	213409
17045651456	213409
17179869184	213409
17448304640	213409
17716740096	213409
17985175552	213409
18253611008	213409
18522046464	213409
18790481920	213409
19058917376	213409
19327352832	213409
19595788288	213409
19864223744	213409
20132659200	213409
20401094656	213409
20669530112	213409
20937965568	213409
21206401024	213409
21474836480	213409
21743271936	213409
22011707392	213409
22280142848	213409
22548578304	213409
22817013760	213409
23085449216	213409
23353884672	213409
23622320128	213409
23890755584	213409
24159191040	213409
24427626496	213409
24696061952	213409
24964497408	213409
25232932864	213409
25501368320	213409
25769803776	213409
26038239232	213409
26306674688	213409
26575110144	213409
26843545600	213409
27111981056	213409
27380416512	213409
27648851968	213409
27917287424	213409
28185722880	213409
28454158336	213409
28722593792	213409
28991029248	213409
29259464704	213409
29527900160	213409
29796335616	213409
30064771072	213409
30333206528	213409
30601641984	213409
30870077440	213409
31138512896	213409
31406948352	213409
31675383808	213409
31943819264	213409
32212254720	213409
32480690176	213409
32749125632	213409
33017561088	213409
33285996544	213409
33554432000	213409
33822867456	213409
34091302912	213409
34359738368	213409
34896609280	213409
35433480192	213409
35970351104	213409
36507222016	213409
37044092928	213409
37580963840	213409
38117834752	213409
38654705664	213409
39191576576	213409
39728447488	213409
40265318400	213409
40802189312	213409
41339060224	213409
41875931136	213409
42412802048	213409
42949672960	213409
43486543872	213409
44023414784	213409
44560285696	213409
45097156608	213409
45634027520	213409
46170898432	213409
46707769344	213409
47244640256	213409
47781511168	213409
48318382080	213409
48855252992	213409
49392123904	213409
49928994816	213409
50465865728	213409
51002736640	213409
51539607552	213409
52076478464	213409
52613349376	213409
53150220288	213409
53687091200	213409
54223962112	213409
54760833024	213409
55297703936	213409
55834574848	213409
56371445760	213409
56908316672	213409
57445187584	213409
57982058496	213409
58518929408	213409
59055800320	213409
59592671232	213409
60129542144	213409
60666413056	213409
61203283968	213409
61740154880	213409
62277025792	213409
62813896704	213409
63350767616	213409
63887638528	213409
64424509440	213409
64961380352	213409
65498251264	213409
66035122176	213409
66571993088	213409
67108864000	213409
67645734912	213409
68182605824	213409
68719476736	213409
69793218560	213409
70866960384	213409
71940702208	213409
73014444032	213409
74088185856	213409
75161927680	213409
76235669504	213409
77309411328	213409
78383153152	213409
79456894976	213409
80530636800	213409
81604378624	213409
82678120448	213409
83751862272	213409
84825604096	213409
85899345920	213409
86973087744	213409
88046829568	213409
89120571392	213409
90194313216	213409
91268055040	213409
92341796864	213409
93415538688	213409
94489280512	213409
95563022336	213409
96636764160	213409
97710505984	213409
98784247808	213409
99857989632	213409
100931731456	213409
102005473280	213409
103079215104	213409
104152956928	213409
105226698752	213409
106300440576	213409
107374182400	213409
108447924224	213409
109521666048	213409
110595407872	213409
111669149696	213409
112742891520	213409
113816633344	213409
114890375168	213409
115964116992	213409
117037858816	213409
118111600640	213409
119185342464	213409
120259084288	213409
121332826112	213409
122406567936	213409
123480309760	213409
124554051584	213409
125627793408	213409
126701535232	213409
127775277056	213409
128849018880	213409
129922760704	213409
130996502528	213409
132070244352	213409
133143986176	213409
134217728000	213409
135291469824	213409
136365211648	213409
137438953472	213409
139586437120	213409
141733920768	213409
143881404416	213409
146028888064	213409
148176371712	213409
150323855360	213409
152471339008	213409
154618822656	213409
156766306304	213409
158913789952	213409
161061273600	213409
163208757248	213409
165356240896	213409
167503724544	213409
169651208192	213409
171798691840	213409
173946175488	213409
176093659136	213409
178241142784	213409
180388626432	213409
182536110080	213409
184683593728	213409
186831077376	213409
188978561024	213409
191126044672	213409
193273528320	213409
195421011968	213409
197568495616	213409
199715979264	213409
201863462912	213409
204010946560	213409
206158430208	213409
208305913856	213409
210453397504	213409
212600881152	213409
214748364800	213409
216895848448	213409
219043332096	213409
221190815744	213409
223338299392	213409
225485783040	213409
227633266688	213409
229780750336	213409
231928233984	213409
234075717632	213409
236223201280	213409
238370684928	213409
240518168576	213409
242665652224	213409
244813135872	213409
246960619520	213409
249108103168	213409
251255586816	213409
253403070464	213409
255550554112	213409
257698037760	213409
259845521408	213409
261993005056	213409
264140488704	213409
266287972352	213409
268435456000	213409
270582939648	213409
272730423296	213409
274877906944	213409
279172874240	213409
283467841536	213409
287762808832	213409
292057776128	213409
296352743424	213409
300647710720	213409
304942678016	213409
309237645312	213409
313532612608	213409
317827579904	213409
322122547200	213409
326417514496	213409
330712481792	213409
335007449088	213409
339302416384	213409
343597383680	213409
347892350976	213409
352187318272	213409
356482285568	213409
360777252864	213409
365072220160	213409
369367187456	213409
373662154752	213409
377957122048	213409
382252089344	213409
386547056640	213409
390842023936	213409
395136991232	213409
399431958528	213409
403726925824	213409
408021893120	213409
412316860416	213409
416611827712	213409
420906795008	213409
425201762304	213409
429496729600	213409
433791696896	213409
438086664192	213409
442381631488	213409
446676598784	213409
450971566080	213409
455266533376	213409
459561500672	213409
463856467968	213409
468151435264	213409
472446402560	213409
476741369856	213409
481036337152	213409
485331304448	213409
489626271744	213409
493921239040	213409
498216206336	213409
502511173632	213409
506806140928	213409
511101108224	213409
515396075520	213409
519691042816	213409
523986010112	213409
528280977408	213409
532575944704	213409
536870912000	213409
541165879296	213409
545460846592	213409
549755813888	213409
558345748480	213409
566935683072	213409
575525617664	213409
584115552256	213409
592705486848	213409
601295421440	213409
609885356032	213409
618475290624	213409
627065225216	213409
635655159808	213409
644245094400	213409
652835028992	213409
661424963584	213409
670014898176	213409
678604832768	213409
687194767360	213409
695784701952	213409
704374636544	213409
712964571136	213409
721554505728	213409
730144440320	213409
738734374912	213409
747324309504	213409
755914244096	213409
764504178688	213409
773094113280	213409
781684047872	213409
790273982464	213409
798863917056	213409
807453851648	213409
816043786240	213409
824633720832	213409
833223655424	213409
841813590016	213409
850403524608	213409
858993459200	213409
867583393792	213409
876173328384	213409
884763262976	213409
893353197568	213409
901943132160	213409
910533066752	213409
919123001344	213409
927712935936	213409
936302870528	213409
944892805120	213409
953482739712	213409
962072674304	213409
970662608896	213409
979252543488	213409
987842478080	213409
996432412672	213409
1005022347264	213409
1013612281856	213409
1022202216448	213409
1030792151040	213409
1039382085632	213409
1047972020224	213409
1056561954816	213409
1065151889408	213409
1073741824000	213409
1082331758592	213409
1090921693184	213409
1099511627776	213409
1116691496960	213409
1133871366144	213409
1151051235328	213409
1168231104512	213409
1185410973696	213409
1202590842880	213409
1219770712064	213409
1236950581248	213409
1254130450432	213409
1271310319616	213409
1288490188800	213409
1305670057984	213409
1322849927168	213409
1340029796352	213409
1357209665536	213409
1374389534720	213409
1391569403904	213409
1408749273088	213409
1425929142272	213409
1443109011456	213409
1460288880640	213409
1477468749824	213409
1494648619008	213409
1511828488192	213409
1529008357376	213409
1546188226560	213409
1563368095744	213409
1580547964928	213409
1597727834112	213409
1614907703296	213409
1632087572480	213409
1649267441664	213409
1666447310848	213409
1683627180032	213409
1700807049216	213409
1717986918400	213409
1735166787584	213409
1752346656768	213409
1769526525952	213409
1786706395136	213409
1803886264320	213409
1821066133504	213409
1838246002688	213409
1855425871872	213409
1872605741056	213409
1889785610240	213409
1906965479424	213409
1924145348608	213409
1941325217792	213409
1958505086976	213409
1975684956160	213409
1992864825344	213409
2010044694528	213409
2027224563712	213409
2044404432896	213409
2061584302080	213409
2078764171264	213409
2095944040448	213409
2113123909632	213409
2130303778816	213409
2147483648000	213409
2164663517184	213409
2181843386368	213409
2199023255552	213409
2233382993920	213409
2267742732288	213409
2302102470656	213409
2336462209024	213409
2370821947392	213409
2405181685760	213409
2439541424128	213409
2473901162496	213409
2508260900864	213409
2542620639232	213409
2576980377600	213409
2611340115968	213409
2645699854336	213409
2680059592704	213409
2714419331072	213409
2748779069440	213409
2783138807808	213409
2817498546176	213409
2851858284544	213409
2886218022912	213409
2920577761280	213409
2954937499648	213409
2989297238016	213409
3023656976384	213409
3058016714752	213409
3092376453120	213409
3126736191488	213409
3161095929856	213409
3195455668224	213409
3229815406592	213409
3264175144960	213409
3298534883328	213409
3332894621696	213409
3367254360064	213409
3401614098432	213409
3435973836800	213409
3470333575168	213409
3504693313536	213409
3539053051904	213409
3573412790272	213409
3607772528640	213409
3642132267008	213409
3676492005376	213409
3710851743744	213409
3745211482112	213409
3779571220480	213409
3813930958848	213409
3848290697216	213409
3882650435584	213409
3917010173952	213409
3951369912320	213409
3985729650688	213409
4020089389056	213409
4054449127424	213409
4088808865792	213409
4123168604160	213409
4157528342528	213409
4191888080896	213409
4226247819264	213409
4260607557632	213409
4294967296000	213409
4329327034368	213409
4363686772736	213409
4398046511104	213409
4466765987840	213409
4535485464576	213409
4604204941312	213409
4672924418048	213409
4741643894784	213409
4810363371520	213409
4879082848256	213409
4947802324992	213409
5016521801728	213409
5085241278464	213409
5153960755200	213409
5222680231936	213409
5291399708672	213409
5360119185408	213409
5428838662144	213409
5497558138880	213409
5566277615616	213409
5634997092352	213409
5703716569088	213409
5772436045824	213409
5841155522560	213409
5909874999296	213409
5978594476032	213409
6047313952768	213409
6116033429504	213409
6184752906240	213409
6253472382976	213409
6322191859712	213409
6390911336448	213409
6459630813184	213409
6528350289920	213409
6597069766656	213409
6665789243392	213409
6734508720128	213409
6803228196864	213409
6871947673600	213409
6940667150336	213409
7009386627072	213409
7078106103808	213409
7146825580544	213409
7215545057280	213409
7284264534016	213409
7352984010752	213409
7421703487488	213409
7490422964224	213409
7559142440960	213409
7627861917696	213409
7696581394432	213409
7765300871168	213409
7834020347904	213409
7902739824640	213409
7971459301376	213409
8040178778112	213409
8108898254848	213409
8177617731584	213409
8246337208320	213409
8315056685056	213409
8383776161792	213409
8452495638528	213409
8521215115264	213409
8589934592000	213409
8658654068736	213409
8727373545472	213409
8796093022208	213409
8933531975680	213409
9070970929152	213409
9208409882624	213409
9345848836096	213409
9483287789568	213409
9620726743040	213409
9758165696512	213409
9895604649984	213409
10033043603456	213409
10170482556928	213409
10307921510400	213409
10445360463872	213409
10582799417344	213409
10720238370816	213409
10857677324288	213409
10995116277760	213409
11132555231232	213409
11269994184704	213409
11407433138176	213409
11544872091648	213409
11682311045120	213409
11819749998592	213409
11957188952064	213409
12094627905536	213409
12232066859008	213409
12369505812480	213409
12506944765952	213409
12644383719424	213409
12781822672896	213409
12919261626368	213409
13056700579840	213409
13194139533312	213409
13331578486784	213409
13469017440256	213409
13606456393728	213409
13743895347200	213409
13881334300672	213409
14018773254144	213409
14156212207616	213409
14293651161088	213409
14431090114560	213409
14568529068032	213409
14705968021504	213409
14843406974976	213409
14980845928448	213409
15118284881920	213409
15255723835392	213409
15393162788864	213409
15530601742336	213409
15668040695808	213409
15805479649280	213409
15942918602752	213409
16080357556224	213409
16217796509696	213409
16355235463168	213409
16492674416640	213409
16630113370112	213409
16767552323584	213409
16904991277056	213409
17042430230528	213409
17179869184000	213409
17317308137472	213409
17454747090944	213409
17592186044416	213409
17867063951360	213409
18141941858304	213409
18416819765248	213409
18691697672192	213409
18966575579136	213409
19241453486080	213409
19516331393024	213409
19791209299968	213409
20066087206912	213409
20340965113856	213409
20615843020800	213409
20890720927744	213409
21165598834688	213409
21440476741632	213409
21715354648576	213409
21990232555520	213409
22265110462464	213409
22539988369408	213409
22814866276352	213409
23089744183296	213409
23364622090240	213409
23639499997184	213409
23914377904128	213409
24189255811072	213409
24464133718016	213409
24739011624960	213409
25013889531904	213409
25288767438848	213409
25563645345792	213409
25838523252736	213409
26113401159680	213409
26388279066624	213409
26663156973568	213409
26938034880512	213409
27212912787456	213409
27487790694400	213409
27762668601344	213409
28037546508288	213409
28312424415232	213409
28587302322176	213409
28862180229120	213409
29137058136064	213409
29411936043008	213409
29686813949952	213409
29961691856896	213409
30236569763840	213409
30511447670784	213409
30786325577728	213409
31061203484672	213409
31336081391616	213409
31610959298560	213409
31885837205504	213409
32160715112448	213409
32435593019392	213409
32710470926336	213409
32985348833280	213409
33260226740224	213409
33535104647168	213409
33809982554112	213409
34084860461056	213409
34359738368000	213409
34634616274944	213409
34909494181888	213409
35184372088832	213409
35734127902720	213409
36283883716608	213409
36833639530496	213409
37383395344384	213409
37933151158272	213409
38482906972160	213409
39032662786048	213409
39582418599936	213409
40132174413824	213409
40681930227712	213409
41231686041600	213409
41781441855488	213409
42331197669376	213409
42880953483264	213409
43430709297152	213409
43980465111040	213409
44530220924928	213409
45079976738816	213409
45629732552704	213409
46179488366592	213409
46729244180480	213409
47278999994368	213409
47828755808256	213409
48378511622144	213409
48928267436032	213409
49478023249920	213409
50027779063808	213409
50577534877696	213409
51127290691584	213409
51677046505472	213409
52226802319360	213409
52776558133248	213409
53326313947136	213409
53876069761024	213409
54425825574912	213409
54975581388800	213409
55525337202688	213409
56075093016576	213409
56624848830464	213409
57174604644352	213409
57724360458240	213409
58274116272128	213409
58823872086016	213409
59373627899904	213409
59923383713792	213409
60473139527680	213409
61022895341568	213409
61572651155456	213409
62122406969344	213409
62672162783232	213409
63221918597120	213409
63771674411008	213409
64321430224896	213409
64871186038784	213409
65420941852672	213409
65970697666560	213409
66520453480448	213409
67070209294336	213409
67619965108224	213409
68169720922112	213409
68719476736000	213409
69269232549888	213409
69818988363776	213409
70368744177664	213409
71468255805440	213409
72567767433216	213409
73667279060992	213409
74766790688768	213409
75866302316544	213409
76965813944320	213409
78065325572096	213409
79164837199872	213409
80264348827648	213409
81363860455424	213409
82463372083200	213409
83562883710976	213409
84662395338752	213409
85761906966528	213409
86861418594304	213409
87960930222080	213409
89060441849856	213409
90159953477632	213409
91259465105408	213409
92358976733184	213409
93458488360960	213409
94557999988736	213409
95657511616512	213409
96757023244288	213409
97856534872064	213409
98956046499840	213409
100055558127616	213409
101155069755392	213409
102254581383168	213409
103354093010944	213409
104453604638720	213409
105553116266496	213409
106652627894272	213409
107752139522048	213409
108851651149824	213409
109951162777600	213409
111050674405376	213409
112150186033152	213409
113249697660928	213409
114349209288704	213409
115448720916480	213409
116548232544256	213409
117647744172032	213409
118747255799808	213409
119846767427584	213409
120946279055360	213409
122045790683136	213409
123145302310912	213409
124244813938688	213409
125344325566464	213409
126443837194240	213409
127543348822016	213409
128642860449792	213409
129742372077568	213409
130841883705344	213409
131941395333120	213409
133040906960896	213409
134140418588672	213409
135239930216448	213409
136339441844224	213409
137438953472000	213409
138538465099776	213409
139637976727552	213409
140737488355328	213409
142936511610880	213409
145135534866432	213409
147334558121984	213409
149533581377536	213409
151732604633088	213409
153931627888640	213409
156130651144192	213409
158329674399744	213409
160528697655296	213409
162727720910848	213409
164926744166400	213409
167125767421952	213409
169324790677504	213409
171523813933056	213409
173722837188608	213409
175921860444160	213409
178120883699712	213409
180319906955264	213409
182518930210816	213409
184717953466368	213409
186916976721920	213409
189115999977472	213409
191315023233024	213409
193514046488576	213409
195713069744128	213409
197912092999680	213409
200111116255232	213409
202310139510784	213409
204509162766336	213409
206708186021888	213409
208907209277440	213409
211106232532992	213409
213305255788544	213409
215504279044096	213409
217703302299648	213409
219902325555200	213409
222101348810752	213409
224300372066304	213409
226499395321856	213409
228698418577408	213409
230897441832960	213409
233096465088512	213409
235295488344064	213409
237494511599616	213409
239693534855168	213409
241892558110720	213409
244091581366272	213409
246290604621824	213409
248489627877376	213409
250688651132928	213409
252887674388480	213409
255086697644032	213409
257285720899584	213409
259484744155136	213409
261683767410688	213409
263882790666240	213409
266081813921792	213409
268280837177344	213409
270479860432896	213409
272678883688448	213409
274877906944000	213409
277076930199552	213409
279275953455104	213409
281474976710656	213409
285873023221760	213409
290271069732864	213409
294669116243968	213409
299067162755072	213409
303465209266176	213409
307863255777280	213409
312261302288384	213409
316659348799488	213409
321057395310592	213409
325455441821696	213409
329853488332800	213409
334251534843904	213409
338649581355008	213409
343047627866112	213409
347445674377216	213409
351843720888320	213409
356241767399424	213409
360639813910528	213409
365037860421632	213409
369435906932736	213409
373833953443840	213409
378231999954944	213409
382630046466048	213409
387028092977152	213409
391426139488256	213409
395824185999360	213409
400222232510464	213409
404620279021568	213409
409018325532672	213409
413416372043776	213409
417814418554880	213409
422212465065984	213409
426610511577088	213409
431008558088192	213409
435406604599296	213409
439804651110400	213409
444202697621504	213409
448600744132608	213409
452998790643712	213409
457396837154816	213409
461794883665920	213409
466192930177024	213409
470590976688128	213409
474989023199232	213409
479387069710336	213409
483785116221440	213409
488183162732544	213409
492581209243648	213409
496979255754752	213409
501377302265856	213409
505775348776960	213409
510173395288064	213409
514571441799168	213409
518969488310272	213409
523367534821376	213409
527765581332480	213409
532163627843584	213409
536561674354688	213409
540959720865792	213409
545357767376896	213409
549755813888000	213409
554153860399104	213409
558551906910208	213409
562949953421312	213409
571746046443520	213409
580542139465728	213409
589338232487936	213409
598134325510144	213409
606930418532352	213409
615726511554560	213409
624522604576768	213409
633318697598976	213409
642114790621184	213409
650910883643392	213409
659706976665600	213409
668503069687808	213409
677299162710016	213409
686095255732224	213409
694891348754432	213409
703687441776640	213409
712483534798848	213409
721279627821056	213409
730075720843264	213409
738871813865472	213409
747667906887680	213409
756463999909888	213409
765260092932096	213409
774056185954304	213409
782852278976512	213409
791648371998720	213409
800444465020928	213409
809240558043136	213409
818036651065344	213409
826832744087552	213409
835628837109760	213409
844424930131968	213409
853221023154176	213409
862017116176384	213409
870813209198592	213409
879609302220800	213409
888405395243008	213409
897201488265216	213409
905997581287424	213409
914793674309632	213409
923589767331840	213409
932385860354048	213409
941181953376256	213409
949978046398464	213409
958774139420672	213409
967570232442880	213409
976366325465088	213409
985162418487296	213409
993958511509504	213409
1002754604531712	213409
1011550697553920	213409
1020346790576128	213409
1029142883598336	213409
1037938976620544	213409
1046735069642752	213409
1055531162664960	213409
1064327255687168	213409
1073123348709376	213409
1081919441731584	213409
1090715534753792	213409
1099511627776000	213409
1108307720798208	213409
1117103813820416	213409
1125899906842624	213409
1143492092887040	213409
1161084278931456	213409
1178676464975872	213409
1196268651020288	213409
1213860837064704	213409
1231453023109120	213409
1249045209153536	213409
1266637395197952	213409
1284229581242368	213409
1301821767286784	213409
1319413953331200	213409
1337006139375616	213409
1354598325420032	213409
1372190511464448	213409
1389782697508864	213409
1407374883553280	213409
1424967069597696	213409
1442559255642112	213409
1460151441686528	213409
1477743627730944	213409
1495335813775360	213409
1512927999819776	213409
1530520185864192	213409
1548112371908608	213409
1565704557953024	213409
1583296743997440	213409
1600888930041856	213409
1618481116086272	213409
1636073302130688	213409
1653665488175104	213409
1671257674219520	213409
1688849860263936	213409
1706442046308352	213409
1724034232352768	213409
1741626418397184	213409
1759218604441600	213409
1776810790486016	213409
1794402976530432	213409
1811995162574848	213409
1829587348619264	213409
1847179534663680	213409
1864771720708096	213409
1882363906752512	213409
1899956092796928	213409
1917548278841344	213409
1935140464885760	213409
1952732650930176	213409
1970324836974592	213409
1987917023019008	213409
2005509209063424	213409
2023101395107840	213409
2040693581152256	213409
2058285767196672	213409
2075877953241088	213409
2093470139285504	213409
2111062325329920	213409
2128654511374336	213409
2146246697418752	213409
2163838883463168	213409
2181431069507584	213409
2199023255552000	213409
2216615441596416	213409
2234207627640832	213409
2251799813685248	213409
2286984185774080	213409
2322168557862912	213409
2357352929951744	213409
2392537302040576	213409
2427721674129408	213409
2462906046218240	213409
2498090418307072	213409
2533274790395904	213409
2568459162484736	213409
2603643534573568	213409
2638827906662400	213409
2674012278751232	213409
2709196650840064	213409
2744381022928896	213409
2779565395017728	213409
2814749767106560	213409
2849934139195392	213409
2885118511284224	213409
2920302883373056	213409
2955487255461888	213409
2990671627550720	213409
3025855999639552	213409
3061040371728384	213409
3096224743817216	213409
3131409115906048	213409
3166593487994880	213409
3201777860083712	213409
3236962232172544	213409
3272146604261376	213409
3307330976350208	213409
3342515348439040	213409
3377699720527872	213409
3412884092616704	213409
3448068464705536	213409
3483252836794368	213409
3518437208883200	213409
3553621580972032	213409
3588805953060864	213409
3623990325149696	213409
3659174697238528	213409
3694359069327360	213409
3729543441416192	213409
3764727813505024	213409
3799912185593856	213409
3835096557682688	213409
3870280929771520	213409
3905465301860352	213409
3940649673949184	213409
3975834046038016	213409
4011018418126848	213409
4046202790215680	213409
4081387162304512	213409
4116571534393344	213409
4151755906482176	213409
4186940278571008	213409
4222124650659840	213409
4257309022748672	213409
4292493394837504	213409
4327677766926336	213409
4362862139015168	213409
4398046511104000	213409
4433230883192832	213409
4468415255281664	213409
4503599627370496	213409
4573968371548160	213409
4644337115725824	213409
4714705859903488	213409
4785074604081152	213409
4855443348258816	213409
4925812092436480	213409
4996180836614144	213409
5066549580791808	213409
5136918324969472	213409
5207287069147136	213409
5277655813324800	213409
5348024557502464	213409
5418393301680128	213409
5488762045857792	213409
5559130790035456	213409
5629499534213120	213409
5699868278390784	213409
5770237022568448	213409
5840605766746112	213409
5910974510923776	213409
5981343255101440	213409
6051711999279104	213409
6122080743456768	213409
6192449487634432	213409
6262818231812096	213409
6333186975989760	213409
6403555720167424	213409
6473924464345088	213409
6544293208522752	213409
6614661952700416	213409
6685030696878080	213409
6755399441055744	213409
6825768185233408	213409
6896136929411072	213409
6966505673588736	213409
7036874417766400	213409
7107243161944064	213409
7177611906121728	213409
7247980650299392	213409
7318349394477056	213409
7388718138654720	213409
7459086882832384	213409
7529455627010048	213409
7599824371187712	213409
7670193115365376	213409
7740561859543040	213409
7810930603720704	213409
7881299347898368	213409
7951668092076032	213409
8022036836253696	213409
8092405580431360	213409
8162774324609024	213409
8233143068786688	213409
8303511812964352	213409
8373880557142016	213409
8444249301319680	213409
8514618045497344	213409
8584986789675008	213409
8655355533852672	213409
8725724278030336	213409
8796093022208000	213409
8866461766385664	213409
8936830510563328	213409
9007199254740992	213409
9147936743096320	213409
9288674231451648	213409
9429411719806976	213409
9570149208162304	213409
9710886696517632	213409
9851624184872960	213409
9992361673228288	213409
10133099161583616	213409
10273836649938944	213409
10414574138294272	213409
10555311626649600	213409
10696049115004928	213409
10836786603360256	213409
10977524091715584	213409
11118261580070912	213409
11258999068426240	213409
11399736556781568	213409
11540474045136896	213409
11681211533492224	213409
11821949021847552	213409
11962686510202880	213409
12103423998558208	213409
12244161486913536	213409
12384898975268864	213409
12525636463624192	213409
12666373951979520	213409
12807111440334848	213409
12947848928690176	213409
13088586417045504	213409
13229323905400832	213409
13370061393756160	213409
13510798882111488	213409
13651536370466816	213409
13792273858822144	213409
13933011347177472	213409
14073748835532800	213409
14214486323888128	213409
14355223812243456	213409
14495961300598784	213409
14636698788954112	213409
14777436277309440	213409
14918173765664768	213409
15058911254020096	213409
15199648742375424	213409
15340386230730752	213409
15481123719086080	213409
15621861207441408	213409
15762598695796736	213409
15903336184152064	213409
16044073672507392	213409
16184811160862720	213409
16325548649218048	213409
16466286137573376	213409
16607023625928704	213409
16747761114284032	213409
16888498602639360	213409
17029236090994688	213409
17169973579350016	213409
17310711067705344	213409
17451448556060672	213409
17592186044416000	213409
17732923532771328	213409
17873661021126656	213409
18014398509481984	213409
18295873486192640	213409
18577348462903296	213409
18858823439613952	213409
19140298416324608	213409
19421773393035264	213409
19703248369745920	213409
19984723346456576	213409
20266198323167232	213409
20547673299877888	213409
20829148276588544	213409
21110623253299200	213409
21392098230009856	213409
21673573206720512	213409
21955048183431168	213409
22236523160141824	213409
22517998136852480	213409
22799473113563136	213409
23080948090273792	213409
23362423066984448	213409
23643898043695104	213409
23925373020405760	213409
24206847997116416	213409
24488322973827072	213409
24769797950537728	213409
25051272927248384	213409
25332747903959040	213409
25614222880669696	213409
25895697857380352	213409
26177172834091008	213409
26458647810801664	213409
26740122787512320	213409
27021597764222976	213409
27303072740933632	213409
27584547717644288	213409
27866022694354944	213409
28147497671065600	213409
28428972647776256	213409
28710447624486912	213409
28991922601197568	213409
29273397577908224	213409
29554872554618880	213409
29836347531329536	213409
30117822508040192	213409
30399297484750848	213409
30680772461461504	213409
30962247438172160	213409
31243722414882816	213409
31525197391593472	213409
31806672368304128	213409
32088147345014784	213409
32369622321725440	213409
32651097298436096	213409
32932572275146752	213409
33214047251857408	213409
33495522228568064	213409
33776997205278720	213409
34058472181989376	213409
34339947158700032	213409
34621422135410688	213409
34902897112121344	213409
35184372088832000	213409
35465847065542656	213409
35747322042253312	213409
36028797018963968	213409
36591746972385280	213409
37154696925806592	213409
37717646879227904	213409
38280596832649216	213409
38843546786070528	213409
39406496739491840	213409
39969446692913152	213409
40532396646334464	213409
41095346599755776	213409
41658296553177088	213409
42221246506598400	213409
42784196460019712	213409
43347146413441024	213409
43910096366862336	213409
44473046320283648	213409
45035996273704960	213409
45598946227126272	213409
46161896180547584	213409
46724846133968896	213409
47287796087390208	213409
47850746040811520	213409
48413695994232832	213409
48976645947654144	213409
49539595901075456	213409
50102545854496768	213409
50665495807918080	213409
51228445761339392	213409
51791395714760704	213409
52354345668182016	213409
52917295621603328	213409
53480245575024640	213409
54043195528445952	213409
54606145481867264	213409
55169095435288576	213409
55732045388709888	213409
56294995342131200	213409
56857945295552512	213409
57420895248973824	213409
57983845202395136	213409
58546795155816448	213409
59109745109237760	213409
59672695062659072	213409
60235645016080384	213409
60798594969501696	213409
61361544922923008	213409
61924494876344320	213409
62487444829765632	213409
63050394783186944	213409
63613344736608256	213409
64176294690029568	213409
64739244643450880	213409
65302194596872192	213409
65865144550293504	213409
66428094503714816	213409
66991044457136128	213409
67553994410557440	213409
68116944363978752	213409
68679894317400064	213409
69242844270821376	213409
69805794224242688	213409
70368744177664000	213409
70931694131085312	213409
71494644084506624	213409
72057594037927936	213409
73183493944770560	213409
74309393851613184	213409
75435293758455808	213409
76561193665298432	213409
77687093572141056	213409
78812993478983680	213409
79938893385826304	213409
81064793292668928	213409
82190693199511552	213409
83316593106354176	213409
84442493013196800	213409
85568392920039424	213409
86694292826882048	213409
87820192733724672	213409
88946092640567296	213409
90071992547409920	213409
91197892454252544	213409
92323792361095168	213409
93449692267937792	213409
94575592174780416	213409
95701492081623040	213409
96827391988465664	213409
97953291895308288	213409
99079191802150912	213409
100205091708993536	213409
101330991615836160	213409
102456891522678784	213409
103582791429521408	213409
104708691336364032	213409
105834591243206656	213409
106960491150049280	213409
108086391056891904	213409
109212290963734528	213409
110338190870577152	213409
111464090777419776	213409
112589990684262400	213409
113715890591105024	213409
114841790497947648	213409
115967690404790272	213409
117093590311632896	213409
118219490218475520	213409
119345390125318144	213409
120471290032160768	213409
121597189939003392	213409
122723089845846016	213409
123848989752688640	213409
124974889659531264	213409
126100789566373888	213409
127226689473216512	213409
128352589380059136	213409
129478489286901760	213409
130604389193744384	213409
131730289100587008	213409
132856189007429632	213409
133982088914272256	213409
135107988821114880	213409
136233888727957504	213409
137359788634800128	213409
138485688541642752	213409
139611588448485376	213409
140737488355328000	213409
141863388262170624	213409
142989288169013248	213409
144115188075855872	213409
146366987889541120	213409
148618787703226368	213409
150870587516911616	213409
153122387330596864	213409
155374187144282112	213409
157625986957967360	213409
159877786771652608	213409
162129586585337856	213409
164381386399023104	213409
166633186212708352	213409
168884986026393600	213409
171136785840078848	213409
173388585653764096	213409
175640385467449344	213409
177892185281134592	213409
180143985094819840	213409
182395784908505088	213409
184647584722190336	213409
186899384535875584	213409
189151184349560832	213409
191402984163246080	213409
193654783976931328	213409
195906583790616576	213409
198158383604301824	213409
200410183417987072	213409
202661983231672320	213409
204913783045357568	213409
207165582859042816	213409
209417382672728064	213409
211669182486413312	213409
213920982300098560	213409
216172782113783808	213409
218424581927469056	213409
220676381741154304	213409
222928181554839552	213409
225179981368524800	213409
227431781182210048	213409
229683580995895296	213409
231935380809580544	213409
234187180623265792	213409
236438980436951040	213409
238690780250636288	213409
240942580064321536	213409
243194379878006784	213409
245446179691692032	213409
247697979505377280	213409
249949779319062528	213409
252201579132747776	213409
254453378946433024	213409
256705178760118272	213409
258956978573803520	213409
261208778387488768	213409
263460578201174016	213409
265712378014859264	213409
267964177828544512	213409
270215977642229760	213409
272467777455915008	213409
274719577269600256	213409
276971377083285504	213409
279223176896970752	213409
281474976710656000	213409
283726776524341248	213409
285978576338026496	213409
288230376151711744	213409
292733975779082240	213409
297237575406452736	213409
301741175033823232	213409
306244774661193728	213409
310748374288564224	213409
315251973915934720	213409
319755573543305216	213409
324259173170675712	213409
328762772798046208	213409
333266372425416704	213409
337769972052787200	213409
342273571680157696	213409
346777171307528192	213409
351280770934898688	213409
355784370562269184	213409
360287970189639680	213409
364791569817010176	213409
369295169444380672	213409
373798769071751168	213409
378302368699121664	213409
382805968326492160	213409
387309567953862656	213409
391813167581233152	213409
396316767208603648	213409
400820366835974144	213409
405323966463344640	213409
409827566090715136	213409
414331165718085632	213409
418834765345456128	213409
423338364972826624	213409
427841964600197120	213409
432345564227567616	213409
436849163854938112	213409
441352763482308608	213409
445856363109679104	213409
450359962737049600	213409
454863562364420096	213409
459367161991790592	213409
463870761619161088	213409
468374361246531584	213409
472877960873902080	213409
477381560501272576	213409
481885160128643072	213409
486388759756013568	213409
490892359383384064	213409
495395959010754560	213409
499899558638125056	213409
504403158265495552	213409
508906757892866048	213409
513410357520236544	213409
517913957147607040	213409
522417556774977536	213409
526921156402348032	213409
531424756029718528	213409
535928355657089024	213409
540431955284459520	213409
544935554911830016	213409
549439154539200512	213409
553942754166571008	213409
558446353793941504	213409
562949953421312000	213409
567453553048682496	213409
571957152676052992	213409
576460752303423488	213409
585467951558164480	213409
594475150812905472	213409
603482350067646464	213409
612489549322387456	213409
621496748577128448	213409
630503947831869440	213409
639511147086610432	213409
648518346341351424	213409
657525545596092416	213409
666532744850833408	213409
675539944105574400	213409
684547143360315392	213409
693554342615056384	213409
702561541869797376	213409
711568741124538368	213409
720575940379279360	213409
729583139634020352	213409
738590338888761344	213409
747597538143502336	213409
756604737398243328	213409
765611936652984320	213409
774619135907725312	213409
783626335162466304	213409
792633534417207296	213409
801640733671948288	213409
810647932926689280	213409
819655132181430272	213409
828662331436171264	213409
837669530690912256	213409
846676729945653248	213409
855683929200394240	213409
864691128455135232	213409
873698327709876224	213409
882705526964617216	213409
891712726219358208	213409
900719925474099200	213409
909727124728840192	213409
918734323983581184	213409
927741523238322176	213409
936748722493063168	213409
945755921747804160	213409
954763121002545152	213409
963770320257286144	213409
972777519512027136	213409
981784718766768128	213409
990791918021509120	213409
999799117276250112	213409
1008806316530991104	213409
1017813515785732096	213409
1026820715040473088	213409
1035827914295214080	213409
1044835113549955072	213409
1053842312804696064	213409
1062849512059437056	213409
1071856711314178048	213409
1080863910568919040	213409
1089871109823660032	213409
1098878309078401024	213409
1107885508333142016	213409
1116892707587883008	213409
1125899906842624000	213409
1134907106097364992	213409
1143914305352105984	213409
1152921504606846976	213409
1170935903116328960	213409
1188950301625810944	213409
1206964700135292928	213409
1224979098644774912	213409
1242993497154256896	213409
1261007895663738880	213409
1279022294173220864	213409
1297036692682702848	213409
1315051091192184832	213409
1333065489701666816	213409
1351079888211148800	213409
1369094286720630784	213409
1387108685230112768	213409
1405123083739594752	213409
1423137482249076736	213409
1441151880758558720	213409
1459166279268040704	213409
1477180677777522688	213409
1495195076287004672	213409
1513209474796486656	213409
1531223873305968640	213409
1549238271815450624	213409
1567252670324932608	213409
1585267068834414592	213409
1603281467343896576	213409
1621295865853378560	213409
1639310264362860544	213409
1657324662872342528	213409
1675339061381824512	213409
1693353459891306496	213409
1711367858400788480	213409
1729382256910270464	213409
1747396655419752448	213409
1765411053929234432	213409
1783425452438716416	213409
1801439850948198400	213409
1819454249457680384	213409
1837468647967162368	213409
1855483046476644352	213409
1873497444986126336	213409
1891511843495608320	213409
1909526242005090304	213409
1927540640514572288	213409
1945555039024054272	213409
1963569437533536256	213409
1981583836043018240	213409
1999598234552500224	213409
2017612633061982208	213409
2035627031571464192	213409
2053641430080946176	213409
2071655828590428160	213409
2089670227099910144	213409
2107684625609392128	213409
2125699024118874112	213409
2143713422628356096	213409
2161727821137838080	213409
2179742219647320064	213409
2197756618156802048	213409
2215771016666284032	213409
2233785415175766016	213409
2251799813685248000	213409
2269814212194729984	213409
2287828610704211968	213409
2305843009213693952	213409
2341871806232657920	213409
2377900603251621888	213409
2413929400270585856	213409
2449958197289549824	213409
2485986994308513792	213409
2522015791327477760	213409
2558044588346441728	213409
2594073385365405696	213409
2630102182384369664	213409
2666130979403333632	213409
2702159776422297600	213409
2738188573441261568	213409
2774217370460225536	213409
2810246167479189504	213409
2846274964498153472	213409
2882303761517117440	213409
2918332558536081408	213409
2954361355555045376	213409
2990390152574009344	213409
3026418949592973312	213409
3062447746611937280	213409
3098476543630901248	213409
3134505340649865216	213409
3170534137668829184	213409
3206562934687793152	213409
3242591731706757120	213409
3278620528725721088	213409
3314649325744685056	213409
3350678122763649024	213409
3386706919782612992	213409
3422735716801576960	213409
3458764513820540928	213409
3494793310839504896	213409
3530822107858468864	213409
3566850904877432832	213409
3602879701896396800	213409
3638908498915360768	213409
3674937295934324736	213409
3710966092953288704	213409
3746994889972252672	213409
3783023686991216640	213409
3819052484010180608	213409
3855081281029144576	213409
3891110078048108544	213409
3927138875067072512	213409
3963167672086036480	213409
3999196469105000448	213409
4035225266123964416	213409
4071254063142928384	213409
4107282860161892352	213409
4143311657180856320	213409
4179340454199820288	213409
4215369251218784256	213409
4251398048237748224	213409
4287426845256712192	213409
4323455642275676160	213409
4359484439294640128	213409
4395513236313604096	213409
4431542033332568064	213409
4467570830351532032	213409
4503599627370496000	213409
4539628424389459968	213409
4575657221408423936	213409
4611686018427387904	213409
4683743612465315840	213409
4755801206503243776	213409
4827858800541171712	213409
4899916394579099648	213409
4971973988617027584	213409
5044031582654955520	213409
5116089176692883456	213409
5188146770730811392	213409
5260204364768739328	213409
5332261958806667264	213409
5404319552844595200	213409
5476377146882523136	213409
5548434740920451072	213409
5620492334958379008	213409
5692549928996306944	213409
5764607523034234880	213409
5836665117072162816	213409
5908722711110090752	213409
5980780305148018688	213409
6052837899185946624	213409
6124895493223874560	213409
6196953087261802496	213409
6269010681299730432	213409
6341068275337658368	213409
6413125869375586304	213409
6485183463413514240	213409
6557241057451442176	213409
6629298651489370112	213409
6701356245527298048	213409
6773413839565225984	213409
6845471433603153920	213409
6917529027641081856	213409
6989586621679009792	213409
7061644215716937728	213409
7133701809754865664	213409
7205759403792793600	213409
7277816997830721536	213409
7349874591868649472	213409
7421932185906577408	213409
7493989779944505344	213409
7566047373982433280	213409
7638104968020361216	213409
7710162562058289152	213409
7782220156096217088	213409
7854277750134145024	213409
7926335344172072960	213409
7998392938210000896	213409
8070450532247928832	213409
8142508126285856768	213409
8214565720323784704	213409
8286623314361712640	213409
8358680908399640576	213409
8430738502437568512	213409
8502796096475496448	213409
8574853690513424384	213409
8646911284551352320	213409
8718968878589280256	213409
8791026472627208192	213409
8863084066665136128	213409
8935141660703064064	213409
9007199254740992000	213409
9079256848778919936	213409
9151314442816847872	213409
9223372036854775808	213409
9367487224930631680	213409
9511602413006487552	213409
9655717601082343424	213409
9799832789158199296	213409
9943947977234055168	213409
10088063165309911040	213409
10232178353385766912	213409
10376293541461622784	213409
10520408729537478656	213409
10664523917613334528	213409
10808639105689190400	213409
10952754293765046272	213409
11096869481840902144	213409
11240984669916758016	213409
11385099857992613888	213409
11529215046068469760	213409
11673330234144325632	213409
11817445422220181504	213409
11961560610296037376	213409
12105675798371893248	213409
12249790986447749120	213409
12393906174523604992	213409
12538021362599460864	213409
12682136550675316736	213409
12826251738751172608	213409
12970366926827028480	213409
13114482114902884352	213409
13258597302978740224	213409
13402712491054596096	213409
13546827679130451968	213409
13690942867206307840	213409
13835058055282163712	213409
13979173243358019584	213409
14123288431433875456	213409
14267403619509731328	213409
14411518807585587200	213409
14555633995661443072	213409
14699749183737298944	213409
14843864371813154816	213409
14987979559889010688	213409
15132094747964866560	213409
15276209936040722432	213409
15420325124116578304	213409
15564440312192434176	213409
15708555500268290048	213409
15852670688344145920	213409
15996785876420001792	213409
16140901064495857664	213409
16285016252571713536	213409
16429131440647569408	213409
16573246628723425280	213409
16717361816799281152	213409
16861477004875137024	213409
17005592192950992896	213409
17149707381026848768	213409
17293822569102704640	213409
17437937757178560512	213409
17582052945254416384	213409
17726168133330272256	213409
17870283321406128128	213409
18014398509481984000	213409
18158513697557839872	213409
18302628885633695744	0
