0	0
1	1
2	1.28032
3	1.56051
4	1.84061
5	2.12062
6	2.40057
7	2.68045
8	2.96028
9	3.24004
10	3.51975
11	3.79942
12	4.07902
13	4.35856
14	4.63805
15	4.91748
16	5.19686
17	5.47621
18	5.75553
19	6.0348
20	6.31403
21	6.59324
22	6.87241
23	7.15156
24	7.43067
25	7.70976
26	7.98882
27	8.26786
28	8.54686
29	8.82582
30	9.10477
31	9.38369
32	9.66257
33	9.94144
34	10.2203
35	10.4991
36	10.7778
37	11.0566
38	11.3353
39	11.614
40	11.8927
41	12.1714
42	12.45
43	12.7287
44	13.0073
45	13.2859
46	13.5645
47	13.843
48	14.1216
49	14.4001
50	14.6786
51	14.9571
52	15.2356
53	15.5141
54	15.7926
55	16.071
56	16.3494
57	16.6279
58	16.9062
59	17.1846
60	17.463
61	17.7414
62	18.0197
63	18.298
64	18.5763
65	18.8546
66	19.1328
67	19.4109
68	19.689
69	19.9671
70	20.2452
71	20.5233
72	20.8013
73	21.0794
74	21.3574
75	21.6354
76	21.9134
77	22.1914
78	22.4694
79	22.7473
80	23.0253
81	23.3032
82	23.5812
83	23.8591
84	24.137
85	24.4149
86	24.6928
87	24.9706
88	25.2485
89	25.5263
90	25.8042
91	26.082
92	26.3598
93	26.6376
94	26.9154
95	27.1931
96	27.4709
97	27.7486
98	28.0263
99	28.304
100	28.5816
101	28.8593
102	29.1369
103	29.4145
104	29.6921
105	29.9697
106	30.2473
107	30.5249
108	30.8024
109	31.08
110	31.3575
111	31.635
112	31.9126
113	32.1901
114	32.4676
115	32.7451
116	33.0226
117	33.3
118	33.5775
119	33.8549
120	34.1324
121	34.4098
122	34.6872
123	34.9646
124	35.2419
125	35.5193
126	35.7966
127	36.074
128	36.3513
130	36.9059
132	37.46
134	38.0134
136	38.5667
138	39.12
140	39.6733
142	40.2265
144	40.7797
146	41.3329
148	41.8861
150	42.4393
152	42.9924
154	43.5455
156	44.0986
158	44.6516
160	45.2047
162	45.7577
164	46.3107
166	46.8636
168	47.4165
170	47.9694
172	48.5222
174	49.0751
176	49.6279
178	50.1806
180	50.7334
182	51.2861
184	51.8388
186	52.3915
188	52.9441
190	53.4967
192	54.0493
194	54.6018
196	55.1543
198	55.7066
200	56.2586
202	56.8105
204	57.3623
206	57.9141
208	58.4658
210	59.0174
212	59.569
214	60.1206
216	60.6721
218	61.2236
220	61.775
222	62.3264
224	62.8777
226	63.429
228	63.9803
230	64.5315
232	65.0826
234	65.6337
236	66.1848
238	66.7358
240	67.2868
242	67.8377
244	68.3886
246	68.9395
248	69.4903
250	70.041
252	70.5918
254	71.1424
256	71.693
260	72.7942
264	73.8943
268	74.9925
272	76.0902
276	77.1878
280	78.2852
284	79.3823
288	80.4793
292	81.576
296	82.6726
300	83.7687
304	84.8647
308	85.9604
312	87.0559
316	88.1512
320	89.2462
324	90.3409
328	91.4352
332	92.5292
336	93.6231
340	94.7168
344	95.8105
348	96.904
352	97.9975
356	99.0908
360	100.184
364	101.277
368	102.37
372	103.463
376	104.555
380	105.648
384	106.74
388	107.833
392	108.925
396	110.016
400	111.107
404	112.198
408	113.288
412	114.379
416	115.469
420	116.559
424	117.649
428	118.739
432	119.829
436	120.919
440	122.008
444	123.097
448	124.187
452	125.275
456	126.364
460	127.453
464	128.541
468	129.629
472	130.717
476	131.805
480	132.893
484	133.98
488	135.067
492	136.154
496	137.241
500	138.328
504	139.414
508	140.501
512	141.587
520	143.759
528	145.931
536	148.1
544	150.269
552	152.438
560	154.607
568	156.775
576	158.942
584	161.109
592	163.275
600	165.439
608	167.603
616	169.767
624	171.929
632	174.091
640	176.252
648	178.412
656	180.57
664	182.728
672	184.885
680	187.041
688	189.198
696	191.354
704	193.51
712	195.665
720	197.821
728	199.976
736	202.13
744	204.285
752	206.439
760	208.592
768	210.746
776	212.898
784	215.051
792	217.203
800	219.354
808	221.505
816	223.655
824	225.805
832	227.954
840	230.104
848	232.253
856	234.401
864	236.55
872	238.698
880	240.846
888	242.993
896	245.139
904	247.286
912	249.432
920	251.578
928	253.723
936	255.868
944	258.012
952	260.156
960	262.3
968	264.444
976	266.587
984	268.73
992	270.872
1000	273.014
1008	275.156
1016	277.298
1024	279.44
1040	283.722
1056	288.003
1072	292.281
1088	296.558
1104	300.833
1120	305.107
1136	309.379
1152	313.649
1168	317.917
1184	322.184
1200	326.449
1216	330.713
1232	334.977
1248	339.239
1264	343.501
1280	347.761
1296	352.021
1312	356.28
1328	360.536
1344	364.792
1360	369.048
1376	373.303
1392	377.557
1408	381.81
1424	386.063
1440	390.315
1456	394.566
1472	398.815
1488	403.065
1504	407.313
1520	411.562
1536	415.809
1552	420.057
1568	424.303
1584	428.549
1600	432.793
1616	437.038
1632	441.281
1648	445.524
1664	449.766
1680	454.008
1696	458.249
1712	462.489
1728	466.728
1744	470.967
1760	475.205
1776	479.442
1792	483.679
1808	487.914
1824	492.149
1840	496.384
1856	500.618
1872	504.851
1888	509.084
1904	513.317
1920	517.549
1936	521.781
1952	526.012
1968	530.242
1984	534.472
2000	538.701
2016	542.929
2032	547.157
2048	551.385
2080	559.839
2112	568.29
2144	576.739
2176	585.185
2208	593.63
2240	602.071
2272	610.509
2304	618.945
2336	627.376
2368	635.802
2400	644.226
2432	652.648
2464	661.068
2496	669.487
2528	677.903
2560	686.318
2592	694.731
2624	703.143
2656	711.552
2688	719.96
2720	728.366
2752	736.77
2784	745.172
2816	753.572
2848	761.969
2880	770.366
2912	778.759
2944	787.151
2976	795.541
3008	803.929
3040	812.315
3072	820.7
3104	829.083
3136	837.463
3168	845.842
3200	854.219
3232	862.595
3264	870.969
3296	879.34
3328	887.711
3360	896.079
3392	904.446
3424	912.811
3456	921.174
3488	929.534
3520	937.891
3552	946.245
3584	954.597
3616	962.947
3648	971.296
3680	979.644
3712	987.989
3744	996.333
3776	1004.68
3808	1013.02
3840	1021.36
3872	1029.69
3904	1038.03
3936	1046.36
3968	1054.7
4000	1063.03
4032	1071.36
4064	1079.69
4096	1088.01
4160	1104.66
4224	1121.3
4288	1137.94
4352	1154.57
4416	1171.19
4480	1187.81
4544	1204.42
4608	1221.02
4672	1237.62
4736	1254.21
4800	1270.79
4864	1287.37
4928	1303.94
4992	1320.5
5056	1337.06
5120	1353.61
5184	1370.16
5248	1386.7
5312	1403.24
5376	1419.77
5440	1436.29
5504	1452.81
5568	1469.32
5632	1485.83
5696	1502.33
5760	1518.83
5824	1535.31
5888	1551.79
5952	1568.26
6016	1584.73
6080	1601.19
6144	1617.65
6208	1634.1
6272	1650.54
6336	1666.98
6400	1683.42
6464	1699.84
6528	1716.27
6592	1732.68
6656	1749.1
6720	1765.5
6784	1781.9
6848	1798.3
6912	1814.69
6976	1831.08
7040	1847.45
7104	1863.83
7168	1880.19
7232	1896.55
7296	1912.89
7360	1929.2
7424	1945.5
7488	1961.8
7552	1978.09
7616	1994.38
7680	2010.65
7744	2026.88
7808	2043.12
7872	2059.34
7936	2075.57
8000	2091.78
8064	2107.99
8128	2124.2
8192	2140.4
8320	2172.78
8448	2205.14
8576	2237.48
8704	2269.81
8832	2302.11
8960	2334.39
9088	2366.65
9216	2398.89
9344	2431.11
9472	2463.3
9600	2495.47
9728	2527.62
9856	2559.75
9984	2591.86
10112	2623.94
10240	2656.01
10368	2688.06
10496	2720.09
10624	2752.09
10752	2784.07
10880	2816.03
11008	2847.98
11136	2879.9
11264	2911.81
11392	2943.69
11520	2975.55
11648	3007.39
11776	3039.2
11904	3070.98
12032	3102.73
12160	3134.31
12288	3165.81
12416	3197.25
12544	3228.65
12672	3260.04
12800	3291.4
12928	3322.74
13056	3354.06
13184	3385.36
13312	3416.64
13440	3447.9
13568	3479.14
13696	3510.36
13824	3541.56
13952	3572.74
14080	3603.89
14208	3635.03
14336	3666.14
14464	3697.23
14592	3728.3
14720	3759.31
14848	3790.3
14976	3821.25
15104	3852.18
15232	3883.08
15360	3913.95
15488	3944.81
15616	3975.65
15744	4006.48
15872	4037.28
16000	4068.07
16128	4098.84
16256	4129.59
16384	4160.31
16640	4221.7
16896	4283.01
17152	4344.23
17408	4405.38
17664	4466.44
17920	4527.42
18176	4588.31
18432	4649.13
18688	4709.87
18944	4770.52
19200	4831.09
19456	4891.57
19712	4951.96
19968	5012.26
20224	5072.48
20480	5132.62
20736	5192.68
20992	5252.64
21248	5312.51
21504	5372.3
21760	5432.01
22016	5491.64
22272	5551.18
22528	5610.63
22784	5670.01
23040	5729.38
23296	5788.73
23552	5848.01
23808	5907.21
24064	5966.31
24320	6025.12
24576	6083.57
24832	6141.27
25088	6198.72
25344	6256.08
25600	6313.36
25856	6370.56
26112	6427.67
26368	6484.7
26624	6541.64
26880	6598.48
27136	6655.23
27392	6711.91
27648	6768.5
27904	6825
28160	6881.4
28416	6937.72
28672	6993.95
28928	7050.1
29184	7106.17
29440	7162.14
29696	7218.03
29952	7273.83
30208	7329.55
30464	7385.26
30720	7440.93
30976	7496.51
31232	7552.02
31488	7607.42
31744	7662.7
32000	7717.9
32256	7773.01
32512	7828.03
32768	7882.96
33280	7992.57
33792	8101.83
34304	8210.74
34816	8319.3
35328	8427.49
35840	8535.33
36352	8642.69
36864	8749.41
37376	8855.75
37888	8962
38400	9067.9
38912	9173.41
39424	9278.51
39936	9383.24
40448	9487.62
40960	9591.63
41472	9695.28
41984	9798.56
42496	9901.46
43008	10004
43520	10106.1
44032	10207.8
44544	10309.1
45056	10410
45568	10510.6
46080	10610.6
46592	10710.2
47104	10809.4
47616	10908.3
48128	11006.7
48640	11104.7
49152	11202
49664	11299.2
50176	11396.2
50688	11492.8
51200	11589.1
51712	11684.9
52224	11780.2
52736	11875.3
53248	11969.9
53760	12064.1
54272	12157.9
54784	12251.3
55296	12344.2
55808	12436.7
56320	12528.8
56832	12620.4
57344	12711.7
57856	12802.5
58368	12892.9
58880	12983.1
59392	13072.8
59904	13162.1
60416	13251
60928	13339.4
61440	13427.2
61952	13514.8
62464	13602.2
62976	13689.1
63488	13775.7
64000	13861.9
64512	13947.6
65024	14032.9
65536	14117.8
66560	14286.2
67584	14452.9
68608	14617.7
69632	14780.8
70656	14941.9
71680	15101.1
72704	15258.5
73728	15414.3
74752	15569.3
75776	15722.6
76800	15874.1
77824	16023.7
78848	16171.5
79872	16317
80896	16460.6
81920	16602.4
82944	16742.3
83968	16880.1
84992	17015.8
86016	17150
87040	17283.7
88064	17416.3
89088	17547.4
90112	17676.9
91136	17804.7
92160	17931
93184	18055.9
94208	18179
95232	18300.2
96256	18419.8
97280	18537.5
98304	18653.7
99328	18768.7
100352	18881.5
101376	18992.2
102400	19100.7
103424	19207
104448	19310.9
105472	19412.3
106496	19511.3
107520	19608
108544	19702.5
109568	19794.9
110592	19885.6
111616	19974.6
112640	20061.3
113664	20145.5
114688	20227.4
115712	20307.2
116736	20384.6
117760	20459.4
118784	20531.7
119808	20601.4
120832	20668.6
121856	20733.2
122880	20796.5
123904	20859.9
124928	20923.7
125952	20987.9
126976	21052.4
128000	21117.3
129024	21182.7
130048	21248.4
131072	21314.6
133120	21448.1
135168	21583.3
137216	21720.2
139264	21858.8
141312	21999.2
143360	22141.4
145408	22285.4
147456	22431.2
149504	22578.9
151552	22728.5
153600	22880.1
155648	23033.7
157696	23189.4
159744	23347.2
161792	23507.1
163840	23669.3
165888	23833.6
167936	24000.2
169984	24169.1
172032	24340.5
174080	24514.3
176128	24690.5
178176	24869.3
180224	25050.7
182272	25234.8
184320	25421.6
186368	25611.1
188416	25803.5
190464	25998.8
192512	26197.1
194560	26398.3
196608	26602.8
198656	26810.3
200704	27021.2
202752	27235.4
204800	27453.1
206848	27674.2
208896	27899
210944	28127.4
212992	28359.6
215040	28595.7
217088	28835.7
219136	29079.9
221184	29328.2
223232	29580.8
225280	29837.8
227328	30099.3
229376	30365.3
231424	30636.1
233472	30911.7
235520	31192.2
237568	31477.9
239616	31768.9
241664	32065.3
243712	32367.4
245760	32675.2
247808	32988.9
249856	33308.7
251904	33634.8
253952	33967.4
256000	34306.6
258048	34652.7
260096	35005.9
262144	35366.4
266240	36110.3
270336	36886.2
274432	37696.3
278528	38542.9
282624	39428.5
286720	40355.8
290816	41327.9
294912	42348.2
299008	43420.3
303104	44548.1
307200	45736.4
311296	46990.1
315392	48314.7
319488	49716.1
323584	51201.4
327680	52778.6
331776	54456.3
335872	56244.6
339968	58130.9
344064	60021.1
348160	61902.3
352256	63777.4
356352	65644.5
360448	67500.5
364544	69350.3
368640	71190.5
372736	73015.6
376832	74853.1
380928	76687
385024	78502.9
389120	80316.4
393216	82142.4
397312	83991.4
401408	85867.5
405504	87734.2
409600	89579.8
413696	91429
417792	93260
421888	95057.6
425984	96857
430080	98638
434176	100456
438272	102258
442368	104095
446464	105943
450560	107845
454656	109839
458752	111867
462848	112673
466944	112673
471040	112673
475136	112673
479232	112673
483328	112673
487424	112673
491520	112673
495616	112673
499712	112673
503808	112673
507904	112673
512000	112673
516096	112673
520192	112673
524288	112673
532480	112673
540672	112673
548864	112673
557056	112673
565248	112673
573440	112673
581632	112673
589824	112673
598016	112673
606208	112673
614400	112673
622592	112673
630784	112673
638976	112673
647168	112673
655360	112673
663552	112673
671744	112673
679936	112673
688128	112673
696320	112673
704512	112673
712704	112673
720896	112673
729088	112673
737280	112673
745472	112673
753664	112673
761856	112673
770048	112673
778240	112673
786432	112673
794624	112673
802816	112673
811008	112673
819200	112673
827392	112673
835584	112673
843776	112673
851968	112673
860160	112673
868352	112673
876544	112673
884736	112673
892928	112673
901120	112673
909312	112673
917504	112673
925696	112673
933888	112673
942080	112673
950272	112673
958464	112673
966656	112673
974848	112673
983040	112673
991232	112673
999424	112673
1007616	112673
1015808	112673
1024000	112673
1032192	112673
1040384	112673
1048576	112673
1064960	112673
1081344	112673
1097728	112673
1114112	112673
1130496	112673
1146880	112673
1163264	112673
1179648	112673
1196032	112673
1212416	112673
1228800	112673
1245184	112673
1261568	112673
1277952	112673
1294336	112673
1310720	112673
1327104	112673
1343488	112673
1359872	112673
1376256	112673
1392640	112673
1409024	112673
1425408	112673
1441792	112673
1458176	112673
1474560	112673
1490944	112673
1507328	112673
1523712	112673
1540096	112673
1556480	112673
1572864	112673
1589248	112673
1605632	112673
1622016	112673
1638400	112673
1654784	112673
1671168	112673
1687552	112673
1703936	112673
1720320	112673
1736704	112673
1753088	112673
1769472	112673
1785856	112673
1802240	112673
1818624	112673
1835008	112673
1851392	112673
1867776	112673
1884160	112673
1900544	112673
1916928	112673
1933312	112673
1949696	112673
1966080	112673
1982464	112673
1998848	112673
2015232	112673
2031616	112673
2048000	112673
2064384	112673
2080768	112673
2097152	112673
2129920	112673
2162688	112673
2195456	112673
2228224	112673
2260992	112673
2293760	112673
2326528	112673
2359296	112673
2392064	112673
2424832	112673
2457600	112673
2490368	112673
2523136	112673
2555904	112673
2588672	112673
2621440	112673
2654208	112673
2686976	112673
2719744	112673
2752512	112673
2785280	112673
2818048	112673
2850816	112673
2883584	112673
2916352	112673
2949120	112673
2981888	112673
3014656	112673
3047424	112673
3080192	112673
3112960	112673
3145728	112673
3178496	112673
3211264	112673
3244032	112673
3276800	112673
3309568	112673
3342336	112673
3375104	112673
3407872	112673
3440640	112673
3473408	112673
3506176	112673
3538944	112673
3571712	112673
3604480	112673
3637248	112673
3670016	112673
3702784	112673
3735552	112673
3768320	112673
3801088	112673
3833856	112673
3866624	112673
3899392	112673
3932160	112673
3964928	112673
3997696	112673
4030464	112673
4063232	112673
4096000	112673
4128768	112673
4161536	112673
4194304	112673
4259840	112673
4325376	112673
4390912	112673
4456448	112673
4521984	112673
4587520	112673
4653056	112673
4718592	112673
4784128	112673
4849664	112673
4915200	112673
4980736	112673
5046272	112673
5111808	112673
5177344	112673
5242880	112673
5308416	112673
5373952	112673
5439488	112673
5505024	112673
5570560	112673
5636096	112673
5701632	112673
5767168	112673
5832704	112673
5898240	112673
5963776	112673
6029312	112673
6094848	112673
6160384	112673
6225920	112673
6291456	112673
6356992	112673
6422528	112673
6488064	112673
6553600	112673
6619136	112673
6684672	112673
6750208	112673
6815744	112673
6881280	112673
6946816	112673
7012352	112673
7077888	112673
7143424	112673
7208960	112673
7274496	112673
7340032	112673
7405568	112673
7471104	112673
7536640	112673
7602176	112673
7667712	112673
7733248	112673
7798784	112673
7864320	112673
7929856	112673
7995392	112673
8060928	112673
8126464	112673
8192000	112673
8257536	112673
8323072	112673
8388608	112673
8519680	112673
8650752	112673
8781824	112673
8912896	112673
9043968	112673
9175040	112673
9306112	112673
9437184	112673
9568256	112673
9699328	112673
9830400	112673
9961472	112673
10092544	112673
10223616	112673
10354688	112673
10485760	112673
10616832	112673
10747904	112673
10878976	112673
11010048	112673
11141120	112673
11272192	112673
11403264	112673
11534336	112673
11665408	112673
11796480	112673
11927552	112673
12058624	112673
12189696	112673
12320768	112673
12451840	112673
12582912	112673
12713984	112673
12845056	112673
12976128	112673
13107200	112673
13238272	112673
13369344	112673
13500416	112673
13631488	112673
13762560	112673
13893632	112673
14024704	112673
14155776	112673
14286848	112673
14417920	112673
14548992	112673
14680064	112673
14811136	112673
14942208	112673
15073280	112673
15204352	112673
15335424	112673
15466496	112673
15597568	112673
15728640	112673
15859712	112673
15990784	112673
16121856	112673
16252928	112673
16384000	112673
16515072	112673
16646144	112673
16777216	112673
17039360	112673
17301504	112673
17563648	112673
17825792	112673
18087936	112673
18350080	112673
18612224	112673
18874368	112673
19136512	112673
19398656	112673
19660800	112673
19922944	112673
20185088	112673
20447232	112673
20709376	112673
20971520	112673
21233664	112673
21495808	112673
21757952	112673
22020096	112673
22282240	112673
22544384	112673
22806528	112673
23068672	112673
23330816	112673
23592960	112673
23855104	112673
24117248	112673
24379392	112673
24641536	112673
24903680	112673
25165824	112673
25427968	112673
25690112	112673
25952256	112673
26214400	112673
26476544	112673
26738688	112673
27000832	112673
27262976	112673
27525120	112673
27787264	112673
28049408	112673
28311552	112673
28573696	112673
28835840	112673
29097984	112673
29360128	112673
29622272	112673
29884416	112673
30146560	112673
30408704	112673
30670848	112673
30932992	112673
31195136	112673
31457280	112673
31719424	112673
31981568	112673
32243712	112673
32505856	112673
32768000	112673
33030144	112673
33292288	112673
33554432	112673
34078720	112673
34603008	112673
35127296	112673
35651584	112673
36175872	112673
36700160	112673
37224448	112673
37748736	112673
38273024	112673
38797312	112673
39321600	112673
39845888	112673
40370176	112673
40894464	112673
41418752	112673
41943040	112673
42467328	112673
42991616	112673
43515904	112673
44040192	112673
44564480	112673
45088768	112673
45613056	112673
46137344	112673
46661632	112673
47185920	112673
47710208	112673
48234496	112673
48758784	112673
49283072	112673
49807360	112673
50331648	112673
50855936	112673
51380224	112673
51904512	112673
52428800	112673
52953088	112673
53477376	112673
54001664	112673
54525952	112673
55050240	112673
55574528	112673
56098816	112673
56623104	112673
57147392	112673
57671680	112673
58195968	112673
58720256	112673
59244544	112673
59768832	112673
60293120	112673
60817408	112673
61341696	112673
61865984	112673
62390272	112673
62914560	112673
63438848	112673
63963136	112673
64487424	112673
65011712	112673
65536000	112673
66060288	112673
66584576	112673
67108864	112673
68157440	112673
69206016	112673
70254592	112673
71303168	112673
72351744	112673
73400320	112673
74448896	112673
75497472	112673
76546048	112673
77594624	112673
78643200	112673
79691776	112673
80740352	112673
81788928	112673
82837504	112673
83886080	112673
84934656	112673
85983232	112673
87031808	112673
88080384	112673
89128960	112673
90177536	112673
91226112	112673
92274688	112673
93323264	112673
94371840	112673
95420416	112673
96468992	112673
97517568	112673
98566144	112673
99614720	112673
100663296	112673
101711872	112673
102760448	112673
103809024	112673
104857600	112673
105906176	112673
106954752	112673
108003328	112673
109051904	112673
110100480	112673
111149056	112673
112197632	112673
113246208	112673
114294784	112673
115343360	112673
116391936	112673
117440512	112673
118489088	112673
119537664	112673
120586240	112673
121634816	112673
122683392	112673
123731968	112673
124780544	112673
125829120	112673
126877696	112673
127926272	112673
128974848	112673
130023424	112673
131072000	112673
132120576	112673
133169152	112673
134217728	112673
136314880	112673
138412032	112673
140509184	112673
142606336	112673
144703488	112673
146800640	112673
148897792	112673
150994944	112673
153092096	112673
155189248	112673
157286400	112673
159383552	112673
161480704	112673
163577856	112673
165675008	112673
167772160	112673
169869312	112673
171966464	112673
174063616	112673
176160768	112673
178257920	112673
180355072	112673
182452224	112673
184549376	112673
186646528	112673
188743680	112673
190840832	112673
192937984	112673
195035136	112673
197132288	112673
199229440	112673
201326592	112673
203423744	112673
205520896	112673
207618048	112673
209715200	112673
211812352	112673
213909504	112673
216006656	112673
218103808	112673
220200960	112673
222298112	112673
224395264	112673
226492416	112673
228589568	112673
230686720	112673
232783872	112673
234881024	112673
236978176	112673
239075328	112673
241172480	112673
243269632	112673
245366784	112673
247463936	112673
249561088	112673
251658240	112673
253755392	112673
255852544	112673
257949696	112673
260046848	112673
262144000	112673
264241152	112673
266338304	112673
268435456	112673
272629760	112673
276824064	112673
281018368	112673
285212672	112673
289406976	112673
293601280	112673
297795584	112673
301989888	112673
306184192	112673
310378496	112673
314572800	112673
318767104	112673
322961408	112673
327155712	112673
331350016	112673
335544320	112673
339738624	112673
343932928	112673
348127232	112673
352321536	112673
356515840	112673
360710144	112673
364904448	112673
369098752	112673
373293056	112673
377487360	112673
381681664	112673
385875968	112673
390070272	112673
394264576	112673
398458880	112673
402653184	112673
406847488	112673
411041792	112673
415236096	112673
419430400	112673
423624704	112673
427819008	112673
432013312	112673
436207616	112673
440401920	112673
444596224	112673
448790528	112673
452984832	112673
457179136	112673
461373440	112673
465567744	112673
469762048	112673
473956352	112673
478150656	112673
482344960	112673
486539264	112673
490733568	112673
494927872	112673
499122176	112673
503316480	112673
507510784	112673
511705088	112673
515899392	112673
520093696	112673
524288000	112673
528482304	112673
532676608	112673
536870912	112673
545259520	112673
553648128	112673
562036736	112673
570425344	112673
578813952	112673
587202560	112673
595591168	112673
603979776	112673
612368384	112673
620756992	112673
629145600	112673
637534208	112673
645922816	112673
654311424	112673
662700032	112673
671088640	112673
679477248	112673
687865856	112673
696254464	112673
704643072	112673
713031680	112673
721420288	112673
729808896	112673
738197504	112673
746586112	112673
754974720	112673
763363328	112673
771751936	112673
780140544	112673
788529152	112673
796917760	112673
805306368	112673
813694976	112673
822083584	112673
830472192	112673
838860800	112673
847249408	112673
855638016	112673
864026624	112673
872415232	112673
880803840	112673
889192448	112673
897581056	112673
905969664	112673
914358272	112673
922746880	112673
931135488	112673
939524096	112673
947912704	112673
956301312	112673
964689920	112673
973078528	112673
981467136	112673
989855744	112673
998244352	112673
1006632960	112673
1015021568	112673
1023410176	112673
1031798784	112673
1040187392	112673
1048576000	112673
1056964608	112673
1065353216	112673
1073741824	112673
1090519040	112673
1107296256	112673
1124073472	112673
1140850688	112673
1157627904	112673
1174405120	112673
1191182336	112673
1207959552	112673
1224736768	112673
1241513984	112673
1258291200	112673
1275068416	112673
1291845632	112673
1308622848	112673
1325400064	112673
1342177280	112673
1358954496	112673
1375731712	112673
1392508928	112673
1409286144	112673
1426063360	112673
1442840576	112673
1459617792	112673
1476395008	112673
1493172224	112673
1509949440	112673
1526726656	112673
1543503872	112673
1560281088	112673
1577058304	112673
1593835520	112673
1610612736	112673
1627389952	112673
1644167168	112673
1660944384	112673
1677721600	112673
1694498816	112673
1711276032	112673
1728053248	112673
1744830464	112673
1761607680	112673
1778384896	112673
1795162112	112673
1811939328	112673
1828716544	112673
1845493760	112673
1862270976	112673
1879048192	112673
1895825408	112673
1912602624	112673
1929379840	112673
1946157056	112673
1962934272	112673
1979711488	112673
1996488704	112673
2013265920	112673
2030043136	112673
2046820352	112673
2063597568	112673
2080374784	112673
2097152000	112673
2113929216	112673
2130706432	112673
2147483648	112673
2181038080	112673
2214592512	112673
2248146944	112673
2281701376	112673
2315255808	112673
2348810240	112673
2382364672	112673
2415919104	112673
2449473536	112673
2483027968	112673
2516582400	112673
2550136832	112673
2583691264	112673
2617245696	112673
2650800128	112673
2684354560	112673
2717908992	112673
2751463424	112673
2785017856	112673
2818572288	112673
2852126720	112673
2885681152	112673
2919235584	112673
2952790016	112673
2986344448	112673
3019898880	112673
3053453312	112673
3087007744	112673
3120562176	112673
3154116608	112673
3187671040	112673
3221225472	112673
3254779904	112673
3288334336	112673
3321888768	112673
3355443200	112673
3388997632	112673
3422552064	112673
3456106496	112673
3489660928	112673
3523215360	112673
3556769792	112673
3590324224	112673
3623878656	112673
3657433088	112673
3690987520	112673
3724541952	112673
3758096384	112673
3791650816	112673
3825205248	112673
3858759680	112673
3892314112	112673
3925868544	112673
3959422976	112673
3992977408	112673
4026531840	112673
4060086272	112673
4093640704	112673
4127195136	112673
4160749568	112673
4194304000	112673
4227858432	112673
4261412864	112673
4294967296	112673
4362076160	112673
4429185024	112673
4496293888	112673
4563402752	112673
4630511616	112673
4697620480	112673
4764729344	112673
4831838208	112673
4898947072	112673
4966055936	112673
5033164800	112673
5100273664	112673
5167382528	112673
5234491392	112673
5301600256	112673
5368709120	112673
5435817984	112673
5502926848	112673
5570035712	112673
5637144576	112673
5704253440	112673
5771362304	112673
5838471168	112673
5905580032	112673
5972688896	112673
6039797760	112673
6106906624	112673
6174015488	112673
6241124352	112673
6308233216	112673
6375342080	112673
6442450944	112673
6509559808	112673
6576668672	112673
6643777536	112673
6710886400	112673
6777995264	112673
6845104128	112673
6912212992	112673
6979321856	112673
7046430720	112673
7113539584	112673
7180648448	112673
7247757312	112673
7314866176	112673
7381975040	112673
7449083904	112673
7516192768	112673
7583301632	112673
7650410496	112673
7717519360	112673
7784628224	112673
7851737088	112673
7918845952	112673
7985954816	112673
8053063680	112673
8120172544	112673
8187281408	112673
8254390272	112673
8321499136	112673
8388608000	112673
8455716864	112673
8522825728	112673
8589934592	112673
8724152320	112673
8858370048	112673
8992587776	112673
9126805504	112673
9261023232	112673
9395240960	112673
9529458688	112673
9663676416	112673
9797894144	112673
9932111872	112673
10066329600	112673
10200547328	112673
10334765056	112673
10468982784	112673
10603200512	112673
10737418240	112673
10871635968	112673
11005853696	112673
11140071424	112673
11274289152	112673
11408506880	112673
11542724608	112673
11676942336	112673
11811160064	112673
11945377792	112673
12079595520	112673
12213813248	112673
12348030976	112673
12482248704	112673
12616466432	112673
12750684160	112673
12884901888	112673
13019119616	112673
13153337344	112673
13287555072	112673
13421772800	112673
13555990528	112673
13690208256	112673
13824425984	112673
13958643712	112673
14092861440	112673
14227079168	112673
14361296896	112673
14495514624	112673
14629732352	112673
14763950080	112673
14898167808	112673
15032385536	112673
15166603264	112673
15300820992	112673
15435038720	112673
15569256448	112673
15703474176	112673
15837691904	112673
15971909632	112673
16106127360	112673
16240345088	112673
16374562816	112673
16508780544	112673
16642998272	112673
16777216000	112673
16911433728	112673
17045651456	112673
17179869184	112673
17448304640	112673
17716740096	112673
17985175552	112673
18253611008	112673
18522046464	112673
18790481920	112673
19058917376	112673
19327352832	112673
19595788288	112673
19864223744	112673
20132659200	112673
20401094656	112673
20669530112	112673
20937965568	112673
21206401024	112673
21474836480	112673
21743271936	112673
22011707392	112673
22280142848	112673
22548578304	112673
22817013760	112673
23085449216	112673
23353884672	112673
23622320128	112673
23890755584	112673
24159191040	112673
24427626496	112673
24696061952	112673
24964497408	112673
25232932864	112673
25501368320	112673
25769803776	112673
26038239232	112673
26306674688	112673
26575110144	112673
26843545600	112673
27111981056	112673
27380416512	112673
27648851968	112673
27917287424	112673
28185722880	112673
28454158336	112673
28722593792	112673
28991029248	112673
29259464704	112673
29527900160	112673
29796335616	112673
30064771072	112673
30333206528	112673
30601641984	112673
30870077440	112673
31138512896	112673
31406948352	112673
31675383808	112673
31943819264	112673
32212254720	112673
32480690176	112673
32749125632	112673
33017561088	112673
33285996544	112673
33554432000	112673
33822867456	112673
34091302912	112673
34359738368	112673
34896609280	112673
35433480192	112673
35970351104	112673
36507222016	112673
37044092928	112673
37580963840	112673
38117834752	112673
38654705664	112673
39191576576	112673
39728447488	112673
40265318400	112673
40802189312	112673
41339060224	112673
41875931136	112673
42412802048	112673
42949672960	112673
43486543872	112673
44023414784	112673
44560285696	112673
45097156608	112673
45634027520	112673
46170898432	112673
46707769344	112673
47244640256	112673
47781511168	112673
48318382080	112673
48855252992	112673
49392123904	112673
49928994816	112673
50465865728	112673
51002736640	112673
51539607552	112673
52076478464	112673
52613349376	112673
53150220288	112673
53687091200	112673
54223962112	112673
54760833024	112673
55297703936	112673
55834574848	112673
56371445760	112673
56908316672	112673
57445187584	112673
57982058496	112673
58518929408	112673
59055800320	112673
59592671232	112673
60129542144	112673
60666413056	112673
61203283968	112673
61740154880	112673
62277025792	112673
62813896704	112673
63350767616	112673
63887638528	112673
64424509440	112673
64961380352	112673
65498251264	112673
66035122176	112673
66571993088	112673
67108864000	112673
67645734912	112673
68182605824	112673
68719476736	112673
69793218560	112673
70866960384	112673
71940702208	112673
73014444032	112673
74088185856	112673
75161927680	112673
76235669504	112673
77309411328	112673
78383153152	112673
79456894976	112673
80530636800	112673
81604378624	112673
82678120448	112673
83751862272	112673
84825604096	112673
85899345920	112673
86973087744	112673
88046829568	112673
89120571392	112673
90194313216	112673
91268055040	112673
92341796864	112673
93415538688	112673
94489280512	112673
95563022336	112673
96636764160	112673
97710505984	112673
98784247808	112673
99857989632	112673
100931731456	112673
102005473280	112673
103079215104	112673
104152956928	112673
105226698752	112673
106300440576	112673
107374182400	112673
108447924224	112673
109521666048	112673
110595407872	112673
111669149696	112673
112742891520	112673
113816633344	112673
114890375168	112673
115964116992	112673
117037858816	112673
118111600640	112673
119185342464	112673
120259084288	112673
121332826112	112673
122406567936	112673
123480309760	112673
124554051584	112673
125627793408	112673
126701535232	112673
127775277056	112673
128849018880	112673
129922760704	112673
130996502528	112673
132070244352	112673
133143986176	112673
134217728000	112673
135291469824	112673
136365211648	112673
137438953472	112673
139586437120	112673
141733920768	112673
143881404416	112673
146028888064	112673
148176371712	112673
150323855360	112673
152471339008	112673
154618822656	112673
156766306304	112673
158913789952	112673
161061273600	112673
163208757248	112673
165356240896	112673
167503724544	112673
169651208192	112673
171798691840	112673
173946175488	112673
176093659136	112673
178241142784	112673
180388626432	112673
182536110080	112673
184683593728	112673
186831077376	112673
188978561024	112673
191126044672	112673
193273528320	112673
195421011968	112673
197568495616	112673
199715979264	112673
201863462912	112673
204010946560	112673
206158430208	112673
208305913856	112673
210453397504	112673
212600881152	112673
214748364800	112673
216895848448	112673
219043332096	112673
221190815744	112673
223338299392	112673
225485783040	112673
227633266688	112673
229780750336	112673
231928233984	112673
234075717632	112673
236223201280	112673
238370684928	112673
240518168576	112673
242665652224	112673
244813135872	112673
246960619520	112673
249108103168	112673
251255586816	112673
253403070464	112673
255550554112	112673
257698037760	112673
259845521408	112673
261993005056	112673
264140488704	112673
266287972352	112673
268435456000	112673
270582939648	112673
272730423296	112673
274877906944	112673
279172874240	112673
283467841536	112673
287762808832	112673
292057776128	112673
296352743424	112673
300647710720	112673
304942678016	112673
309237645312	112673
313532612608	112673
317827579904	112673
322122547200	112673
326417514496	112673
330712481792	112673
335007449088	112673
339302416384	112673
343597383680	112673
347892350976	112673
352187318272	112673
356482285568	112673
360777252864	112673
365072220160	112673
369367187456	112673
373662154752	112673
377957122048	112673
382252089344	112673
386547056640	112673
390842023936	112673
395136991232	112673
399431958528	112673
403726925824	112673
408021893120	112673
412316860416	112673
416611827712	112673
420906795008	112673
425201762304	112673
429496729600	112673
433791696896	112673
438086664192	112673
442381631488	112673
446676598784	112673
450971566080	112673
455266533376	112673
459561500672	112673
463856467968	112673
468151435264	112673
472446402560	112673
476741369856	112673
481036337152	112673
485331304448	112673
489626271744	112673
493921239040	112673
498216206336	112673
502511173632	112673
506806140928	112673
511101108224	112673
515396075520	112673
519691042816	112673
523986010112	112673
528280977408	112673
532575944704	112673
536870912000	112673
541165879296	112673
545460846592	112673
549755813888	112673
558345748480	112673
566935683072	112673
575525617664	112673
584115552256	112673
592705486848	112673
601295421440	112673
609885356032	112673
618475290624	112673
627065225216	112673
635655159808	112673
644245094400	112673
652835028992	112673
661424963584	112673
670014898176	112673
678604832768	112673
687194767360	112673
695784701952	112673
704374636544	112673
712964571136	112673
721554505728	112673
730144440320	112673
738734374912	112673
747324309504	112673
755914244096	112673
764504178688	112673
773094113280	112673
781684047872	112673
790273982464	112673
798863917056	112673
807453851648	112673
816043786240	112673
824633720832	112673
833223655424	112673
841813590016	112673
850403524608	112673
858993459200	112673
867583393792	112673
876173328384	112673
884763262976	112673
893353197568	112673
901943132160	112673
910533066752	112673
919123001344	112673
927712935936	112673
936302870528	112673
944892805120	112673
953482739712	112673
962072674304	112673
970662608896	112673
979252543488	112673
987842478080	112673
996432412672	112673
1005022347264	112673
1013612281856	112673
1022202216448	112673
1030792151040	112673
1039382085632	112673
1047972020224	112673
1056561954816	112673
1065151889408	112673
1073741824000	112673
1082331758592	112673
1090921693184	112673
1099511627776	112673
1116691496960	112673
1133871366144	112673
1151051235328	112673
1168231104512	112673
1185410973696	112673
1202590842880	112673
1219770712064	112673
1236950581248	112673
1254130450432	112673
1271310319616	112673
1288490188800	112673
1305670057984	112673
1322849927168	112673
1340029796352	112673
1357209665536	112673
1374389534720	112673
1391569403904	112673
1408749273088	112673
1425929142272	112673
1443109011456	112673
1460288880640	112673
1477468749824	112673
1494648619008	112673
1511828488192	112673
1529008357376	112673
1546188226560	112673
1563368095744	112673
1580547964928	112673
1597727834112	112673
1614907703296	112673
1632087572480	112673
1649267441664	112673
1666447310848	112673
1683627180032	112673
1700807049216	112673
1717986918400	112673
1735166787584	112673
1752346656768	112673
1769526525952	112673
1786706395136	112673
1803886264320	112673
1821066133504	112673
1838246002688	112673
1855425871872	112673
1872605741056	112673
1889785610240	112673
1906965479424	112673
1924145348608	112673
1941325217792	112673
1958505086976	112673
1975684956160	112673
1992864825344	112673
2010044694528	112673
2027224563712	112673
2044404432896	112673
2061584302080	112673
2078764171264	112673
2095944040448	112673
2113123909632	112673
2130303778816	112673
2147483648000	112673
2164663517184	112673
2181843386368	112673
2199023255552	112673
2233382993920	112673
2267742732288	112673
2302102470656	112673
2336462209024	112673
2370821947392	112673
2405181685760	112673
2439541424128	112673
2473901162496	112673
2508260900864	112673
2542620639232	112673
2576980377600	112673
2611340115968	112673
2645699854336	112673
2680059592704	112673
2714419331072	112673
2748779069440	112673
2783138807808	112673
2817498546176	112673
2851858284544	112673
2886218022912	112673
2920577761280	112673
2954937499648	112673
2989297238016	112673
3023656976384	112673
3058016714752	112673
3092376453120	112673
3126736191488	112673
3161095929856	112673
3195455668224	112673
3229815406592	112673
3264175144960	112673
3298534883328	112673
3332894621696	112673
3367254360064	112673
3401614098432	112673
3435973836800	112673
3470333575168	112673
3504693313536	112673
3539053051904	112673
3573412790272	112673
3607772528640	112673
3642132267008	112673
3676492005376	112673
3710851743744	112673
3745211482112	112673
3779571220480	112673
3813930958848	112673
3848290697216	112673
3882650435584	112673
3917010173952	112673
3951369912320	112673
3985729650688	112673
4020089389056	112673
4054449127424	112673
4088808865792	112673
4123168604160	112673
4157528342528	112673
4191888080896	112673
4226247819264	112673
4260607557632	112673
4294967296000	112673
4329327034368	112673
4363686772736	112673
4398046511104	112673
4466765987840	112673
4535485464576	112673
4604204941312	112673
4672924418048	112673
4741643894784	112673
4810363371520	112673
4879082848256	112673
4947802324992	112673
5016521801728	112673
5085241278464	112673
5153960755200	112673
5222680231936	112673
5291399708672	112673
5360119185408	112673
5428838662144	112673
5497558138880	112673
5566277615616	112673
5634997092352	112673
5703716569088	112673
5772436045824	112673
5841155522560	112673
5909874999296	112673
5978594476032	112673
6047313952768	112673
6116033429504	112673
6184752906240	112673
6253472382976	112673
6322191859712	112673
6390911336448	112673
6459630813184	112673
6528350289920	112673
6597069766656	112673
6665789243392	112673
6734508720128	112673
6803228196864	112673
6871947673600	112673
6940667150336	112673
7009386627072	112673
7078106103808	112673
7146825580544	112673
7215545057280	112673
7284264534016	112673
7352984010752	112673
7421703487488	112673
7490422964224	112673
7559142440960	112673
7627861917696	112673
7696581394432	112673
7765300871168	112673
7834020347904	112673
7902739824640	112673
7971459301376	112673
8040178778112	112673
8108898254848	112673
8177617731584	112673
8246337208320	112673
8315056685056	112673
8383776161792	112673
8452495638528	112673
8521215115264	112673
8589934592000	112673
8658654068736	112673
8727373545472	112673
8796093022208	112673
8933531975680	112673
9070970929152	112673
9208409882624	112673
9345848836096	112673
9483287789568	112673
9620726743040	112673
9758165696512	112673
9895604649984	112673
10033043603456	112673
10170482556928	112673
10307921510400	112673
10445360463872	112673
10582799417344	112673
10720238370816	112673
10857677324288	112673
10995116277760	112673
11132555231232	112673
11269994184704	112673
11407433138176	112673
11544872091648	112673
11682311045120	112673
11819749998592	112673
11957188952064	112673
12094627905536	112673
12232066859008	112673
12369505812480	112673
12506944765952	112673
12644383719424	112673
12781822672896	112673
12919261626368	112673
13056700579840	112673
13194139533312	112673
13331578486784	112673
13469017440256	112673
13606456393728	112673
13743895347200	112673
13881334300672	112673
14018773254144	112673
14156212207616	112673
14293651161088	112673
14431090114560	112673
14568529068032	112673
14705968021504	112673
14843406974976	112673
14980845928448	112673
15118284881920	112673
15255723835392	112673
15393162788864	112673
15530601742336	112673
15668040695808	112673
15805479649280	112673
15942918602752	112673
16080357556224	112673
16217796509696	112673
16355235463168	112673
16492674416640	112673
16630113370112	112673
16767552323584	112673
16904991277056	112673
17042430230528	112673
17179869184000	112673
17317308137472	112673
17454747090944	112673
17592186044416	112673
17867063951360	112673
18141941858304	112673
18416819765248	112673
18691697672192	112673
18966575579136	112673
19241453486080	112673
19516331393024	112673
19791209299968	112673
20066087206912	112673
20340965113856	112673
20615843020800	112673
20890720927744	112673
21165598834688	112673
21440476741632	112673
21715354648576	112673
21990232555520	112673
22265110462464	112673
22539988369408	112673
22814866276352	112673
23089744183296	112673
23364622090240	112673
23639499997184	112673
23914377904128	112673
24189255811072	112673
24464133718016	112673
24739011624960	112673
25013889531904	112673
25288767438848	112673
25563645345792	112673
25838523252736	112673
26113401159680	112673
26388279066624	112673
26663156973568	112673
26938034880512	112673
27212912787456	112673
27487790694400	112673
27762668601344	112673
28037546508288	112673
28312424415232	112673
28587302322176	112673
28862180229120	112673
29137058136064	112673
29411936043008	112673
29686813949952	112673
29961691856896	112673
30236569763840	112673
30511447670784	112673
30786325577728	112673
31061203484672	112673
31336081391616	112673
31610959298560	112673
31885837205504	112673
32160715112448	112673
32435593019392	112673
32710470926336	112673
32985348833280	112673
33260226740224	112673
33535104647168	112673
33809982554112	112673
34084860461056	112673
34359738368000	112673
34634616274944	112673
34909494181888	112673
35184372088832	112673
35734127902720	112673
36283883716608	112673
36833639530496	112673
37383395344384	112673
37933151158272	112673
38482906972160	112673
39032662786048	112673
39582418599936	112673
40132174413824	112673
40681930227712	112673
41231686041600	112673
41781441855488	112673
42331197669376	112673
42880953483264	112673
43430709297152	112673
43980465111040	112673
44530220924928	112673
45079976738816	112673
45629732552704	112673
46179488366592	112673
46729244180480	112673
47278999994368	112673
47828755808256	112673
48378511622144	112673
48928267436032	112673
49478023249920	112673
50027779063808	112673
50577534877696	112673
51127290691584	112673
51677046505472	112673
52226802319360	112673
52776558133248	112673
53326313947136	112673
53876069761024	112673
54425825574912	112673
54975581388800	112673
55525337202688	112673
56075093016576	112673
56624848830464	112673
57174604644352	112673
57724360458240	112673
58274116272128	112673
58823872086016	112673
59373627899904	112673
59923383713792	112673
60473139527680	112673
61022895341568	112673
61572651155456	112673
62122406969344	112673
62672162783232	112673
63221918597120	112673
63771674411008	112673
64321430224896	112673
64871186038784	112673
65420941852672	112673
65970697666560	112673
66520453480448	112673
67070209294336	112673
67619965108224	112673
68169720922112	112673
68719476736000	112673
69269232549888	112673
69818988363776	112673
70368744177664	112673
71468255805440	112673
72567767433216	112673
73667279060992	112673
74766790688768	112673
75866302316544	112673
76965813944320	112673
78065325572096	112673
79164837199872	112673
80264348827648	112673
81363860455424	112673
82463372083200	112673
83562883710976	112673
84662395338752	112673
85761906966528	112673
86861418594304	112673
87960930222080	112673
89060441849856	112673
90159953477632	112673
91259465105408	112673
92358976733184	112673
93458488360960	112673
94557999988736	112673
95657511616512	112673
96757023244288	112673
97856534872064	112673
98956046499840	112673
100055558127616	112673
101155069755392	112673
102254581383168	112673
103354093010944	112673
104453604638720	112673
105553116266496	112673
106652627894272	112673
107752139522048	112673
108851651149824	112673
109951162777600	112673
111050674405376	112673
112150186033152	112673
113249697660928	112673
114349209288704	112673
115448720916480	112673
116548232544256	112673
117647744172032	112673
118747255799808	112673
119846767427584	112673
120946279055360	112673
122045790683136	112673
123145302310912	112673
124244813938688	112673
125344325566464	112673
126443837194240	112673
127543348822016	112673
128642860449792	112673
129742372077568	112673
130841883705344	112673
131941395333120	112673
133040906960896	112673
134140418588672	112673
135239930216448	112673
136339441844224	112673
137438953472000	112673
138538465099776	112673
139637976727552	112673
140737488355328	112673
142936511610880	112673
145135534866432	112673
147334558121984	112673
149533581377536	112673
151732604633088	112673
153931627888640	112673
156130651144192	112673
158329674399744	112673
160528697655296	112673
162727720910848	112673
164926744166400	112673
167125767421952	112673
169324790677504	112673
171523813933056	112673
173722837188608	112673
175921860444160	112673
178120883699712	112673
180319906955264	112673
182518930210816	112673
184717953466368	112673
186916976721920	112673
189115999977472	112673
191315023233024	112673
193514046488576	112673
195713069744128	112673
197912092999680	112673
200111116255232	112673
202310139510784	112673
204509162766336	112673
206708186021888	112673
208907209277440	112673
211106232532992	112673
213305255788544	112673
215504279044096	112673
217703302299648	112673
219902325555200	112673
222101348810752	112673
224300372066304	112673
226499395321856	112673
228698418577408	112673
230897441832960	112673
233096465088512	112673
235295488344064	112673
237494511599616	112673
239693534855168	112673
241892558110720	112673
244091581366272	112673
246290604621824	112673
248489627877376	112673
250688651132928	112673
252887674388480	112673
255086697644032	112673
257285720899584	112673
259484744155136	112673
261683767410688	112673
263882790666240	112673
266081813921792	112673
268280837177344	112673
270479860432896	112673
272678883688448	112673
274877906944000	112673
277076930199552	112673
279275953455104	112673
281474976710656	112673
285873023221760	112673
290271069732864	112673
294669116243968	112673
299067162755072	112673
303465209266176	112673
307863255777280	112673
312261302288384	112673
316659348799488	112673
321057395310592	112673
325455441821696	112673
329853488332800	112673
334251534843904	112673
338649581355008	112673
343047627866112	112673
347445674377216	112673
351843720888320	112673
356241767399424	112673
360639813910528	112673
365037860421632	112673
369435906932736	112673
373833953443840	112673
378231999954944	112673
382630046466048	112673
387028092977152	112673
391426139488256	112673
395824185999360	112673
400222232510464	112673
404620279021568	112673
409018325532672	112673
413416372043776	112673
417814418554880	112673
422212465065984	112673
426610511577088	112673
431008558088192	112673
435406604599296	112673
439804651110400	112673
444202697621504	112673
448600744132608	112673
452998790643712	112673
457396837154816	112673
461794883665920	112673
466192930177024	112673
470590976688128	112673
474989023199232	112673
479387069710336	112673
483785116221440	112673
488183162732544	112673
492581209243648	112673
496979255754752	112673
501377302265856	112673
505775348776960	112673
510173395288064	112673
514571441799168	112673
518969488310272	112673
523367534821376	112673
527765581332480	112673
532163627843584	112673
536561674354688	112673
540959720865792	112673
545357767376896	112673
549755813888000	112673
554153860399104	112673
558551906910208	112673
562949953421312	112673
571746046443520	112673
580542139465728	112673
589338232487936	112673
598134325510144	112673
606930418532352	112673
615726511554560	112673
624522604576768	112673
633318697598976	112673
642114790621184	112673
650910883643392	112673
659706976665600	112673
668503069687808	112673
677299162710016	112673
686095255732224	112673
694891348754432	112673
703687441776640	112673
712483534798848	112673
721279627821056	112673
730075720843264	112673
738871813865472	112673
747667906887680	112673
756463999909888	112673
765260092932096	112673
774056185954304	112673
782852278976512	112673
791648371998720	112673
800444465020928	112673
809240558043136	112673
818036651065344	112673
826832744087552	112673
835628837109760	112673
844424930131968	112673
853221023154176	112673
862017116176384	112673
870813209198592	112673
879609302220800	112673
888405395243008	112673
897201488265216	112673
905997581287424	112673
914793674309632	112673
923589767331840	112673
932385860354048	112673
941181953376256	112673
949978046398464	112673
958774139420672	112673
967570232442880	112673
976366325465088	112673
985162418487296	112673
993958511509504	112673
1002754604531712	112673
1011550697553920	112673
1020346790576128	112673
1029142883598336	112673
1037938976620544	112673
1046735069642752	112673
1055531162664960	112673
1064327255687168	112673
1073123348709376	112673
1081919441731584	112673
1090715534753792	112673
1099511627776000	112673
1108307720798208	112673
1117103813820416	112673
1125899906842624	112673
1143492092887040	112673
1161084278931456	112673
1178676464975872	112673
1196268651020288	112673
1213860837064704	112673
1231453023109120	112673
1249045209153536	112673
1266637395197952	112673
1284229581242368	112673
1301821767286784	112673
1319413953331200	112673
1337006139375616	112673
1354598325420032	112673
1372190511464448	112673
1389782697508864	112673
1407374883553280	112673
1424967069597696	112673
1442559255642112	112673
1460151441686528	112673
1477743627730944	112673
1495335813775360	112673
1512927999819776	112673
1530520185864192	112673
1548112371908608	112673
1565704557953024	112673
1583296743997440	112673
1600888930041856	112673
1618481116086272	112673
1636073302130688	112673
1653665488175104	112673
1671257674219520	112673
1688849860263936	112673
1706442046308352	112673
1724034232352768	112673
1741626418397184	112673
1759218604441600	112673
1776810790486016	112673
1794402976530432	112673
1811995162574848	112673
1829587348619264	112673
1847179534663680	112673
1864771720708096	112673
1882363906752512	112673
1899956092796928	112673
1917548278841344	112673
1935140464885760	112673
1952732650930176	112673
1970324836974592	112673
1987917023019008	112673
2005509209063424	112673
2023101395107840	112673
2040693581152256	112673
2058285767196672	112673
2075877953241088	112673
2093470139285504	112673
2111062325329920	112673
2128654511374336	112673
2146246697418752	112673
2163838883463168	112673
2181431069507584	112673
2199023255552000	112673
2216615441596416	112673
2234207627640832	112673
2251799813685248	112673
2286984185774080	112673
2322168557862912	112673
2357352929951744	112673
2392537302040576	112673
2427721674129408	112673
2462906046218240	112673
2498090418307072	112673
2533274790395904	112673
2568459162484736	112673
2603643534573568	112673
2638827906662400	112673
2674012278751232	112673
2709196650840064	112673
2744381022928896	112673
2779565395017728	112673
2814749767106560	112673
2849934139195392	112673
2885118511284224	112673
2920302883373056	112673
2955487255461888	112673
2990671627550720	112673
3025855999639552	112673
3061040371728384	112673
3096224743817216	112673
3131409115906048	112673
3166593487994880	112673
3201777860083712	112673
3236962232172544	112673
3272146604261376	112673
3307330976350208	112673
3342515348439040	112673
3377699720527872	112673
3412884092616704	112673
3448068464705536	112673
3483252836794368	112673
3518437208883200	112673
3553621580972032	112673
3588805953060864	112673
3623990325149696	112673
3659174697238528	112673
3694359069327360	112673
3729543441416192	112673
3764727813505024	112673
3799912185593856	112673
3835096557682688	112673
3870280929771520	112673
3905465301860352	112673
3940649673949184	112673
3975834046038016	112673
4011018418126848	112673
4046202790215680	112673
4081387162304512	112673
4116571534393344	112673
4151755906482176	112673
4186940278571008	112673
4222124650659840	112673
4257309022748672	112673
4292493394837504	112673
4327677766926336	112673
4362862139015168	112673
4398046511104000	112673
4433230883192832	112673
4468415255281664	112673
4503599627370496	112673
4573968371548160	112673
4644337115725824	112673
4714705859903488	112673
4785074604081152	112673
4855443348258816	112673
4925812092436480	112673
4996180836614144	112673
5066549580791808	112673
5136918324969472	112673
5207287069147136	112673
5277655813324800	112673
5348024557502464	112673
5418393301680128	112673
5488762045857792	112673
5559130790035456	112673
5629499534213120	112673
5699868278390784	112673
5770237022568448	112673
5840605766746112	112673
5910974510923776	112673
5981343255101440	112673
6051711999279104	112673
6122080743456768	112673
6192449487634432	112673
6262818231812096	112673
6333186975989760	112673
6403555720167424	112673
6473924464345088	112673
6544293208522752	112673
6614661952700416	112673
6685030696878080	112673
6755399441055744	112673
6825768185233408	112673
6896136929411072	112673
6966505673588736	112673
7036874417766400	112673
7107243161944064	112673
7177611906121728	112673
7247980650299392	112673
7318349394477056	112673
7388718138654720	112673
7459086882832384	112673
7529455627010048	112673
7599824371187712	112673
7670193115365376	112673
7740561859543040	112673
7810930603720704	112673
7881299347898368	112673
7951668092076032	112673
8022036836253696	112673
8092405580431360	112673
8162774324609024	112673
8233143068786688	112673
8303511812964352	112673
8373880557142016	112673
8444249301319680	112673
8514618045497344	112673
8584986789675008	112673
8655355533852672	112673
8725724278030336	112673
8796093022208000	112673
8866461766385664	112673
8936830510563328	112673
9007199254740992	112673
9147936743096320	112673
9288674231451648	112673
9429411719806976	112673
9570149208162304	112673
9710886696517632	112673
9851624184872960	112673
9992361673228288	112673
10133099161583616	112673
10273836649938944	112673
10414574138294272	112673
10555311626649600	112673
10696049115004928	112673
10836786603360256	112673
10977524091715584	112673
11118261580070912	112673
11258999068426240	112673
11399736556781568	112673
11540474045136896	112673
11681211533492224	112673
11821949021847552	112673
11962686510202880	112673
12103423998558208	112673
12244161486913536	112673
12384898975268864	112673
12525636463624192	112673
12666373951979520	112673
12807111440334848	112673
12947848928690176	112673
13088586417045504	112673
13229323905400832	112673
13370061393756160	112673
13510798882111488	112673
13651536370466816	112673
13792273858822144	112673
13933011347177472	112673
14073748835532800	112673
14214486323888128	112673
14355223812243456	112673
14495961300598784	112673
14636698788954112	112673
14777436277309440	112673
14918173765664768	112673
15058911254020096	112673
15199648742375424	112673
15340386230730752	112673
15481123719086080	112673
15621861207441408	112673
15762598695796736	112673
15903336184152064	112673
16044073672507392	112673
16184811160862720	112673
16325548649218048	112673
16466286137573376	112673
16607023625928704	112673
16747761114284032	112673
16888498602639360	112673
17029236090994688	112673
17169973579350016	112673
17310711067705344	112673
17451448556060672	112673
17592186044416000	112673
17732923532771328	112673
17873661021126656	112673
18014398509481984	112673
18295873486192640	112673
18577348462903296	112673
18858823439613952	112673
19140298416324608	112673
19421773393035264	112673
19703248369745920	112673
19984723346456576	112673
20266198323167232	112673
20547673299877888	112673
20829148276588544	112673
21110623253299200	112673
21392098230009856	112673
21673573206720512	112673
21955048183431168	112673
22236523160141824	112673
22517998136852480	112673
22799473113563136	112673
23080948090273792	112673
23362423066984448	112673
23643898043695104	112673
23925373020405760	112673
24206847997116416	112673
24488322973827072	112673
24769797950537728	112673
25051272927248384	112673
25332747903959040	112673
25614222880669696	112673
25895697857380352	112673
26177172834091008	112673
26458647810801664	112673
26740122787512320	112673
27021597764222976	112673
27303072740933632	112673
27584547717644288	112673
27866022694354944	112673
28147497671065600	112673
28428972647776256	112673
28710447624486912	112673
28991922601197568	112673
29273397577908224	112673
29554872554618880	112673
29836347531329536	112673
30117822508040192	112673
30399297484750848	112673
30680772461461504	112673
30962247438172160	112673
31243722414882816	112673
31525197391593472	112673
31806672368304128	112673
32088147345014784	112673
32369622321725440	112673
32651097298436096	112673
32932572275146752	112673
33214047251857408	112673
33495522228568064	112673
33776997205278720	112673
34058472181989376	112673
34339947158700032	112673
34621422135410688	112673
34902897112121344	112673
35184372088832000	112673
35465847065542656	112673
35747322042253312	112673
36028797018963968	112673
36591746972385280	112673
37154696925806592	112673
37717646879227904	112673
38280596832649216	112673
38843546786070528	112673
39406496739491840	112673
39969446692913152	112673
40532396646334464	112673
41095346599755776	112673
41658296553177088	112673
42221246506598400	112673
42784196460019712	112673
43347146413441024	112673
43910096366862336	112673
44473046320283648	112673
45035996273704960	112673
45598946227126272	112673
46161896180547584	112673
46724846133968896	112673
47287796087390208	112673
47850746040811520	112673
48413695994232832	112673
48976645947654144	112673
49539595901075456	112673
50102545854496768	112673
50665495807918080	112673
51228445761339392	112673
51791395714760704	112673
52354345668182016	112673
52917295621603328	112673
53480245575024640	112673
54043195528445952	112673
54606145481867264	112673
55169095435288576	112673
55732045388709888	112673
56294995342131200	112673
56857945295552512	112673
57420895248973824	112673
57983845202395136	112673
58546795155816448	112673
59109745109237760	112673
59672695062659072	112673
60235645016080384	112673
60798594969501696	112673
61361544922923008	112673
61924494876344320	112673
62487444829765632	112673
63050394783186944	112673
63613344736608256	112673
64176294690029568	112673
64739244643450880	112673
65302194596872192	112673
65865144550293504	112673
66428094503714816	112673
66991044457136128	112673
67553994410557440	112673
68116944363978752	112673
68679894317400064	112673
69242844270821376	112673
69805794224242688	112673
70368744177664000	112673
70931694131085312	112673
71494644084506624	112673
72057594037927936	112673
73183493944770560	112673
74309393851613184	112673
75435293758455808	112673
76561193665298432	112673
77687093572141056	112673
78812993478983680	112673
79938893385826304	112673
81064793292668928	112673
82190693199511552	112673
83316593106354176	112673
84442493013196800	112673
85568392920039424	112673
86694292826882048	112673
87820192733724672	112673
88946092640567296	112673
90071992547409920	112673
91197892454252544	112673
92323792361095168	112673
93449692267937792	112673
94575592174780416	112673
95701492081623040	112673
96827391988465664	112673
97953291895308288	112673
99079191802150912	112673
100205091708993536	112673
101330991615836160	112673
102456891522678784	112673
103582791429521408	112673
104708691336364032	112673
105834591243206656	112673
106960491150049280	112673
108086391056891904	112673
109212290963734528	112673
110338190870577152	112673
111464090777419776	112673
112589990684262400	112673
113715890591105024	112673
114841790497947648	112673
115967690404790272	112673
117093590311632896	112673
118219490218475520	112673
119345390125318144	112673
120471290032160768	112673
121597189939003392	112673
122723089845846016	112673
123848989752688640	112673
124974889659531264	112673
126100789566373888	112673
127226689473216512	112673
128352589380059136	112673
129478489286901760	112673
130604389193744384	112673
131730289100587008	112673
132856189007429632	112673
133982088914272256	112673
135107988821114880	112673
136233888727957504	112673
137359788634800128	112673
138485688541642752	112673
139611588448485376	112673
140737488355328000	112673
141863388262170624	112673
142989288169013248	112673
144115188075855872	112673
146366987889541120	112673
148618787703226368	112673
150870587516911616	112673
153122387330596864	112673
155374187144282112	112673
157625986957967360	112673
159877786771652608	112673
162129586585337856	112673
164381386399023104	112673
166633186212708352	112673
168884986026393600	112673
171136785840078848	112673
173388585653764096	112673
175640385467449344	112673
177892185281134592	112673
180143985094819840	112673
182395784908505088	112673
184647584722190336	112673
186899384535875584	112673
189151184349560832	112673
191402984163246080	112673
193654783976931328	112673
195906583790616576	112673
198158383604301824	112673
200410183417987072	112673
202661983231672320	112673
204913783045357568	112673
207165582859042816	112673
209417382672728064	112673
211669182486413312	112673
213920982300098560	112673
216172782113783808	112673
218424581927469056	112673
220676381741154304	112673
222928181554839552	112673
225179981368524800	112673
227431781182210048	112673
229683580995895296	112673
231935380809580544	112673
234187180623265792	112673
236438980436951040	112673
238690780250636288	112673
240942580064321536	112673
243194379878006784	112673
245446179691692032	112673
247697979505377280	112673
249949779319062528	112673
252201579132747776	112673
254453378946433024	112673
256705178760118272	112673
258956978573803520	112673
261208778387488768	112673
263460578201174016	112673
265712378014859264	112673
267964177828544512	112673
270215977642229760	112673
272467777455915008	112673
274719577269600256	112673
276971377083285504	112673
279223176896970752	112673
281474976710656000	112673
283726776524341248	112673
285978576338026496	112673
288230376151711744	112673
292733975779082240	112673
297237575406452736	112673
301741175033823232	112673
306244774661193728	112673
310748374288564224	112673
315251973915934720	112673
319755573543305216	112673
324259173170675712	112673
328762772798046208	112673
333266372425416704	112673
337769972052787200	112673
342273571680157696	112673
346777171307528192	112673
351280770934898688	112673
355784370562269184	112673
360287970189639680	112673
364791569817010176	112673
369295169444380672	112673
373798769071751168	112673
378302368699121664	112673
382805968326492160	112673
387309567953862656	112673
391813167581233152	112673
396316767208603648	112673
400820366835974144	112673
405323966463344640	112673
409827566090715136	112673
414331165718085632	112673
418834765345456128	112673
423338364972826624	112673
427841964600197120	112673
432345564227567616	112673
436849163854938112	112673
441352763482308608	112673
445856363109679104	112673
450359962737049600	112673
454863562364420096	112673
459367161991790592	112673
463870761619161088	112673
468374361246531584	112673
472877960873902080	112673
477381560501272576	112673
481885160128643072	112673
486388759756013568	112673
490892359383384064	112673
495395959010754560	112673
499899558638125056	112673
504403158265495552	112673
508906757892866048	112673
513410357520236544	112673
517913957147607040	112673
522417556774977536	112673
526921156402348032	112673
531424756029718528	112673
535928355657089024	112673
540431955284459520	112673
544935554911830016	112673
549439154539200512	112673
553942754166571008	112673
558446353793941504	112673
562949953421312000	112673
567453553048682496	112673
571957152676052992	112673
576460752303423488	112673
585467951558164480	112673
594475150812905472	112673
603482350067646464	112673
612489549322387456	112673
621496748577128448	112673
630503947831869440	112673
639511147086610432	112673
648518346341351424	112673
657525545596092416	112673
666532744850833408	112673
675539944105574400	112673
684547143360315392	112673
693554342615056384	112673
702561541869797376	112673
711568741124538368	112673
720575940379279360	112673
729583139634020352	112673
738590338888761344	112673
747597538143502336	112673
756604737398243328	112673
765611936652984320	112673
774619135907725312	112673
783626335162466304	112673
792633534417207296	112673
801640733671948288	112673
810647932926689280	112673
819655132181430272	112673
828662331436171264	112673
837669530690912256	112673
846676729945653248	112673
855683929200394240	112673
864691128455135232	112673
873698327709876224	112673
882705526964617216	112673
891712726219358208	112673
900719925474099200	112673
909727124728840192	112673
918734323983581184	112673
927741523238322176	112673
936748722493063168	112673
945755921747804160	112673
954763121002545152	112673
963770320257286144	112673
972777519512027136	112673
981784718766768128	112673
990791918021509120	112673
999799117276250112	112673
1008806316530991104	112673
1017813515785732096	112673
1026820715040473088	112673
1035827914295214080	112673
1044835113549955072	112673
1053842312804696064	112673
1062849512059437056	112673
1071856711314178048	112673
1080863910568919040	112673
1089871109823660032	112673
1098878309078401024	112673
1107885508333142016	112673
1116892707587883008	112673
1125899906842624000	112673
1134907106097364992	112673
1143914305352105984	112673
1152921504606846976	112673
1170935903116328960	112673
1188950301625810944	112673
1206964700135292928	112673
1224979098644774912	112673
1242993497154256896	112673
1261007895663738880	112673
1279022294173220864	112673
1297036692682702848	112673
1315051091192184832	112673
1333065489701666816	112673
1351079888211148800	112673
1369094286720630784	112673
1387108685230112768	112673
1405123083739594752	112673
1423137482249076736	112673
1441151880758558720	112673
1459166279268040704	112673
1477180677777522688	112673
1495195076287004672	112673
1513209474796486656	112673
1531223873305968640	112673
1549238271815450624	112673
1567252670324932608	112673
1585267068834414592	112673
1603281467343896576	112673
1621295865853378560	112673
1639310264362860544	112673
1657324662872342528	112673
1675339061381824512	112673
1693353459891306496	112673
1711367858400788480	112673
1729382256910270464	112673
1747396655419752448	112673
1765411053929234432	112673
1783425452438716416	112673
1801439850948198400	112673
1819454249457680384	112673
1837468647967162368	112673
1855483046476644352	112673
1873497444986126336	112673
1891511843495608320	112673
1909526242005090304	112673
1927540640514572288	112673
1945555039024054272	112673
1963569437533536256	112673
1981583836043018240	112673
1999598234552500224	112673
2017612633061982208	112673
2035627031571464192	112673
2053641430080946176	112673
2071655828590428160	112673
2089670227099910144	112673
2107684625609392128	112673
2125699024118874112	112673
2143713422628356096	112673
2161727821137838080	112673
2179742219647320064	112673
2197756618156802048	112673
2215771016666284032	112673
2233785415175766016	112673
2251799813685248000	112673
2269814212194729984	112673
2287828610704211968	112673
2305843009213693952	112673
2341871806232657920	112673
2377900603251621888	112673
2413929400270585856	112673
2449958197289549824	112673
2485986994308513792	112673
2522015791327477760	112673
2558044588346441728	112673
2594073385365405696	112673
2630102182384369664	112673
2666130979403333632	112673
2702159776422297600	112673
2738188573441261568	112673
2774217370460225536	112673
2810246167479189504	112673
2846274964498153472	112673
2882303761517117440	112673
2918332558536081408	112673
2954361355555045376	112673
2990390152574009344	112673
3026418949592973312	112673
3062447746611937280	112673
3098476543630901248	112673
3134505340649865216	112673
3170534137668829184	112673
3206562934687793152	112673
3242591731706757120	112673
3278620528725721088	112673
3314649325744685056	112673
3350678122763649024	112673
3386706919782612992	112673
3422735716801576960	112673
3458764513820540928	112673
3494793310839504896	112673
3530822107858468864	112673
3566850904877432832	112673
3602879701896396800	112673
3638908498915360768	112673
3674937295934324736	112673
3710966092953288704	112673
3746994889972252672	112673
3783023686991216640	112673
3819052484010180608	112673
3855081281029144576	112673
3891110078048108544	112673
3927138875067072512	112673
3963167672086036480	112673
3999196469105000448	112673
4035225266123964416	112673
4071254063142928384	112673
4107282860161892352	112673
4143311657180856320	112673
4179340454199820288	112673
4215369251218784256	112673
4251398048237748224	112673
4287426845256712192	112673
4323455642275676160	112673
4359484439294640128	112673
4395513236313604096	112673
4431542033332568064	112673
4467570830351532032	112673
4503599627370496000	112673
4539628424389459968	112673
4575657221408423936	112673
4611686018427387904	112673
4683743612465315840	112673
4755801206503243776	112673
4827858800541171712	112673
4899916394579099648	112673
4971973988617027584	112673
5044031582654955520	112673
5116089176692883456	112673
5188146770730811392	112673
5260204364768739328	112673
5332261958806667264	112673
5404319552844595200	112673
5476377146882523136	112673
5548434740920451072	112673
5620492334958379008	112673
5692549928996306944	112673
5764607523034234880	112673
5836665117072162816	112673
5908722711110090752	112673
5980780305148018688	112673
6052837899185946624	112673
6124895493223874560	112673
6196953087261802496	112673
6269010681299730432	112673
6341068275337658368	112673
6413125869375586304	112673
6485183463413514240	112673
6557241057451442176	112673
6629298651489370112	112673
6701356245527298048	112673
6773413839565225984	112673
6845471433603153920	112673
6917529027641081856	112673
6989586621679009792	112673
7061644215716937728	112673
7133701809754865664	112673
7205759403792793600	112673
7277816997830721536	112673
7349874591868649472	112673
7421932185906577408	112673
7493989779944505344	112673
7566047373982433280	112673
7638104968020361216	112673
7710162562058289152	112673
7782220156096217088	112673
7854277750134145024	112673
7926335344172072960	112673
7998392938210000896	112673
8070450532247928832	112673
8142508126285856768	112673
8214565720323784704	112673
8286623314361712640	112673
8358680908399640576	112673
8430738502437568512	112673
8502796096475496448	112673
8574853690513424384	112673
8646911284551352320	112673
8718968878589280256	112673
8791026472627208192	112673
8863084066665136128	112673
8935141660703064064	112673
9007199254740992000	112673
9079256848778919936	112673
9151314442816847872	112673
9223372036854775808	112673
9367487224930631680	112673
9511602413006487552	112673
9655717601082343424	112673
9799832789158199296	112673
9943947977234055168	112673
10088063165309911040	112673
10232178353385766912	112673
10376293541461622784	112673
10520408729537478656	112673
10664523917613334528	112673
10808639105689190400	112673
10952754293765046272	112673
11096869481840902144	112673
11240984669916758016	112673
11385099857992613888	112673
11529215046068469760	112673
11673330234144325632	112673
11817445422220181504	112673
11961560610296037376	112673
12105675798371893248	112673
12249790986447749120	112673
12393906174523604992	112673
12538021362599460864	112673
12682136550675316736	112673
12826251738751172608	112673
12970366926827028480	112673
13114482114902884352	112673
13258597302978740224	112673
13402712491054596096	112673
13546827679130451968	112673
13690942867206307840	112673
13835058055282163712	112673
13979173243358019584	112673
14123288431433875456	112673
14267403619509731328	112673
14411518807585587200	112673
14555633995661443072	112673
14699749183737298944	112673
14843864371813154816	112673
14987979559889010688	112673
15132094747964866560	112673
15276209936040722432	112673
15420325124116578304	112673
15564440312192434176	112673
15708555500268290048	112673
15852670688344145920	112673
15996785876420001792	112673
16140901064495857664	112673
16285016252571713536	112673
16429131440647569408	112673
16573246628723425280	112673
16717361816799281152	112673
16861477004875137024	112673
17005592192950992896	112673
17149707381026848768	112673
17293822569102704640	112673
17437937757178560512	112673
17582052945254416384	112673
17726168133330272256	112673
17870283321406128128	112673
18014398509481984000	112673
18158513697557839872	112673
18302628885633695744	0
