0 0.00883565
1 0.136726
2 0.290195
3 0.443664
4 0.597133
5 0.750602
6 0.904071
7 1.05754
8 1.21101
9 1.36448
10 1.51783
11 1.67056
12 1.8233
13 1.97603
14 2.10331
15 2.25605
16 2.40878
17 2.56152
18 2.71425
19 2.86699
20 3.01973
21 3.17246
22 3.3252
23 3.47793
24 3.63067
25 3.7834
26 3.93614
27 4.06342
28 4.21615
29 4.36889
30 4.52163
31 4.67436
32 4.8271
33 4.97983
34 5.13257
35 5.2853
36 5.43804
37 5.59077
38 5.74351
39 5.89625
40 6.02353
41 6.17626
42 6.329
43 6.48173
44 6.63447
45 6.7872
46 6.93994
47 7.09268
48 7.24541
49 7.39815
50 7.55088
51 7.70362
52 7.85635
53 7.98363
54 8.13633
55 8.28903
56 8.44172
57 8.59441
58 8.7471
59 8.89979
60 9.05249
61 9.20518
62 9.35787
63 9.51056
64 9.66326
65 9.81595
66 9.94319
67 10.0959
68 10.2486
69 10.4013
70 10.554
71 10.7067
72 10.8593
73 11.012
74 11.1647
75 11.3174
76 11.4701
77 11.6228
78 11.7755
79 11.9282
80 12.0554
81 12.2081
82 12.3608
83 12.5135
84 12.6662
85 12.8189
86 12.9716
87 13.1243
88 13.277
89 13.4297
90 13.5824
91 13.7351
92 13.8877
93 14.015
94 14.1677
95 14.3204
96 14.4731
97 14.6257
98 14.7784
99 14.931
100 15.0837
101 15.2363
102 15.3889
103 15.5416
104 15.6942
105 15.8469
106 15.9741
107 16.1267
108 16.2794
109 16.432
110 16.5846
111 16.7373
112 16.8899
113 17.0426
114 17.1952
115 17.3479
116 17.5005
117 17.6531
118 17.8058
119 17.933
120 18.0856
121 18.2383
122 18.3909
123 18.5436
124 18.6962
125 18.8488
126 19.0015
127 19.1541
128 19.3068
130 19.6121
132 19.8919
134 20.1972
136 20.5025
138 20.8078
140 21.113
142 21.4183
144 21.7236
146 22.0034
148 22.3086
150 22.6139
152 22.9192
154 23.2244
156 23.5297
158 23.835
160 24.1148
162 24.4201
164 24.7253
166 25.0306
168 25.3358
170 25.6411
172 25.9209
174 26.2262
176 26.5315
178 26.8367
180 27.142
182 27.4472
184 27.7525
186 28.0323
188 28.3376
190 28.6429
192 28.9481
194 29.2534
196 29.5586
198 29.8385
200 30.1437
202 30.449
204 30.7542
206 31.0595
208 31.3648
210 31.67
212 31.9498
214 32.2551
216 32.5604
218 32.8656
220 33.1709
222 33.4761
224 33.7814
226 34.0612
228 34.3665
230 34.6717
232 34.977
234 35.2822
236 35.5875
238 35.8673
240 36.1726
242 36.4778
244 36.7831
246 37.0883
248 37.3936
250 37.6988
252 37.9787
254 38.2839
256 38.5892
260 39.1997
264 39.7848
268 40.3953
272 41.0058
276 41.6163
280 42.2013
284 42.8119
288 43.4224
292 44.0074
296 44.6179
300 45.2284
304 45.8135
308 46.424
312 47.0345
316 47.645
320 48.2301
324 48.8406
328 49.4511
332 50.0361
336 50.6466
340 51.2571
344 51.8422
348 52.4527
352 53.0632
356 53.6737
360 54.2587
364 54.8692
368 55.4797
372 56.0648
376 56.6752
380 57.2857
384 57.8708
388 58.4813
392 59.0918
396 59.6768
400 60.2873
404 60.8978
408 61.5083
412 62.0933
416 62.7038
420 63.3143
424 63.8994
428 64.5098
432 65.1203
436 65.7054
440 66.3159
444 66.9264
448 67.5368
452 68.1219
456 68.7323
460 69.3428
464 69.9279
468 70.5383
472 71.1488
476 71.7339
480 72.3443
484 72.9548
488 73.5399
492 74.1503
496 74.7608
500 75.3713
504 75.9563
508 76.5668
512 77.1772
520 78.3728
528 79.5683
536 80.7892
544 81.9847
552 83.2056
560 84.4011
568 85.5966
576 86.8175
584 88.013
592 89.2339
600 90.4294
608 91.6248
616 92.8458
624 94.0412
632 95.2621
640 96.4576
648 97.653
656 98.8739
664 100.069
672 101.29
680 102.486
688 103.681
696 104.902
704 106.097
712 107.315
720 108.508
728 109.701
736 110.919
744 112.112
752 113.298
760 114.509
768 115.694
776 116.904
784 118.09
792 119.275
800 120.485
808 121.67
816 122.881
824 124.066
832 125.251
840 126.461
848 127.645
856 128.855
864 130.04
872 131.225
880 132.435
888 133.619
896 134.829
904 136.013
912 137.198
920 138.408
928 139.592
936 140.801
944 141.986
952 143.17
960 144.38
968 145.564
976 146.748
984 147.958
992 149.142
1000 150.352
1008 151.536
1016 152.72
1024 153.93
1040 156.323
1056 158.692
1072 161.086
1088 163.48
1104 165.872
1120 168.264
1136 170.63
1152 173.017
1168 175.404
1184 177.788
1200 180.168
1216 182.524
1232 184.903
1248 187.282
1264 189.66
1280 192.013
1296 194.39
1312 196.767
1328 199.143
1344 201.519
1360 203.871
1376 206.247
1392 208.623
1408 210.999
1424 213.375
1440 215.727
1456 218.103
1472 220.479
1488 222.855
1504 225.206
1520 227.582
1536 229.959
1552 232.335
1568 234.711
1584 237.062
1600 239.438
1616 241.814
1632 244.19
1648 246.566
1664 248.917
1680 251.293
1696 253.669
1712 256.038
1728 258.381
1744 260.742
1760 263.087
1776 265.433
1792 267.772
1808 270.083
1824 272.418
1840 274.751
1856 277.085
1872 279.417
1888 281.725
1904 284.057
1920 286.388
1936 288.72
1952 291.026
1968 293.358
1984 295.689
2000 298.02
2016 300.351
2032 302.658
2048 304.989
2080 309.652
2112 314.29
2144 318.952
2176 323.59
2208 328.252
2240 332.914
2272 337.552
2304 342.214
2336 346.852
2368 351.514
2400 356.176
2432 360.813
2464 365.475
2496 370.113
2528 374.775
2560 379.412
2592 384.074
2624 388.735
2656 393.373
2688 398.034
2720 402.671
2752 407.333
2784 411.97
2816 416.631
2848 421.293
2880 425.93
2912 430.591
2944 435.228
2976 439.889
3008 444.526
3040 449.187
3072 453.848
3104 458.485
3136 463.146
3168 467.782
3200 472.443
3232 477.08
3264 481.74
3296 486.401
3328 491.037
3360 495.698
3392 500.334
3424 504.995
3456 509.631
3488 514.292
3520 518.952
3552 523.588
3584 528.249
3616 532.884
3648 537.545
3680 542.181
3712 546.841
3744 551.501
3776 556.137
3808 560.797
3840 565.432
3872 570.093
3904 574.728
3936 579.388
3968 584.048
4000 588.683
4032 593.343
4064 597.978
4096 602.638
4160 611.933
4224 621.228
4288 630.522
4352 639.817
4416 649.135
4480 658.429
4544 667.723
4608 677.017
4672 686.31
4736 695.603
4800 704.921
4864 714.214
4928 723.506
4992 732.799
5056 742.091
5120 751.384
5184 760.676
5248 769.992
5312 779.284
5376 788.575
5440 797.867
5504 807.158
5568 816.449
5632 825.74
5696 835.055
5760 844.345
5824 853.635
5888 862.925
5952 872.215
6016 881.505
6080 890.794
6144 900.108
6208 909.397
6272 918.686
6336 927.975
6400 937.264
6464 946.552
6528 955.84
6592 965.153
6656 974.441
6720 983.728
6784 993.016
6848 1002.3
6912 1011.59
6976 1020.9
7040 1030.19
7104 1039.48
7168 1048.76
7232 1058.05
7296 1067.33
7360 1076.62
7424 1085.93
7488 1095.22
7552 1104.5
7616 1113.79
7680 1123.07
7744 1132.36
7808 1141.64
7872 1150.95
7936 1160.23
8000 1169.52
8064 1178.8
8128 1188.09
8192 1197.37
8320 1215.96
8448 1234.53
8576 1253.09
8704 1271.65
8832 1290.24
8960 1308.8
9088 1327.37
9216 1345.95
9344 1364.51
9472 1383.07
9600 1401.66
9728 1420.21
9856 1438.77
9984 1457.33
10112 1475.91
10240 1494.46
10368 1513.02
10496 1531.6
10624 1550.15
10752 1568.7
10880 1587.25
11008 1605.83
11136 1624.38
11264 1642.93
11392 1661.5
11520 1680.05
11648 1698.59
11776 1717.16
11904 1735.71
12032 1754.25
12160 1772.79
12288 1791.36
12416 1809.9
12544 1828.45
12672 1847.01
12800 1865.55
12928 1884.09
13056 1902.63
13184 1921.19
13312 1939.72
13440 1958.26
13568 1976.82
13696 1995.35
13824 2013.89
13952 2032.44
14080 2050.97
14208 2069.51
14336 2088.04
14464 2106.59
14592 2125.12
14720 2143.64
14848 2162.2
14976 2180.72
15104 2199.25
15232 2217.77
15360 2236.32
15488 2254.84
15616 2273.36
15744 2291.91
15872 2310.43
16000 2328.95
16128 2347.49
16256 2366.01
16384 2384.53
16640 2421.58
16896 2458.61
17152 2495.66
17408 2532.68
17664 2569.72
17920 2606.76
18176 2643.77
18432 2680.8
18688 2717.81
18944 2754.83
19200 2791.85
19456 2828.85
19712 2865.86
19968 2902.85
20224 2939.85
20480 2976.86
20736 3013.84
20992 3050.83
21248 3087.8
21504 3124.79
21760 3161.75
22016 3198.74
22272 3235.72
22528 3272.67
22784 3309.64
23040 3346.58
23296 3383.55
23552 3420.51
23808 3457.45
24064 3494.4
24320 3531.32
24576 3568.27
24832 3605.21
25088 3642.13
25344 3679.06
25600 3715.97
25856 3752.9
26112 3789.8
26368 3826.72
26624 3863.64
26880 3900.53
27136 3937.43
27392 3974.32
27648 4011.22
27904 4048.11
28160 4084.98
28416 4121.87
28672 4158.74
28928 4195.62
29184 4232.47
29440 4269.35
29696 4306.22
29952 4343.06
30208 4379.92
30464 4416.76
30720 4453.61
30976 4490.46
31232 4527.28
31488 4564.12
31744 4600.93
32000 4637.76
32256 4674.59
32512 4711.39
32768 4748.21
33280 4821.82
33792 4895.41
34304 4968.98
34816 5042.54
35328 5116.11
35840 5189.65
36352 5263.16
36864 5336.66
37376 5410.15
37888 5483.62
38400 5557.1
38912 5630.54
39424 5703.97
39936 5777.38
40448 5850.77
40960 5924.18
41472 5997.54
41984 6070.89
42496 6144.23
43008 6217.55
43520 6290.86
44032 6364.17
44544 6437.44
45056 6510.71
45568 6583.95
46080 6657.18
46592 6730.39
47104 6803.62
47616 6876.81
48128 6949.97
48640 7023.13
49152 7096.27
49664 7169.42
50176 7242.53
50688 7315.62
51200 7388.7
51712 7461.77
52224 7534.82
52736 7607.87
53248 7680.9
53760 7753.9
54272 7826.89
54784 7899.86
55296 7972.82
55808 8045.79
56320 8118.72
56832 8191.63
57344 8264.54
57856 8337.42
58368 8410.28
58880 8483.16
59392 8556
59904 8628.83
60416 8701.63
60928 8774.43
61440 8847.23
61952 8919.99
62464 8992.74
62976 9065.48
63488 9138.2
64000 9210.9
64512 9283.61
65024 9356.29
65536 9428.94
66560 9574.21
67584 9719.45
68608 9864.6
69632 10009.7
70656 10154.7
71680 10299.7
72704 10444.6
73728 10589.5
74752 10734.3
75776 10879
76800 11023.7
77824 11168.3
78848 11312.9
79872 11457.4
80896 11601.8
81920 11746.2
82944 11890.5
83968 12034.8
84992 12179
86016 12323.1
87040 12467.2
88064 12611.2
89088 12755.1
90112 12899
91136 13042.9
92160 13186.6
93184 13330.2
94208 13473.7
95232 13617.2
96256 13760.5
97280 13903.8
98304 14047
99328 14190.1
100352 14333.1
101376 14475.9
102400 14618.7
103424 14761.2
104448 14903.7
105472 15046
106496 15188.2
107520 15330.3
108544 15472.2
109568 15614.1
110592 15755.8
111616 15897.4
112640 16038.9
113664 16180.3
114688 16321.6
115712 16462.7
116736 16603.7
117760 16744.6
118784 16885.4
119808 17026.1
120832 17166.7
121856 17307.1
122880 17447.5
123904 17587.7
124928 17727.8
125952 17867.8
126976 18007.7
128000 18147.4
129024 18287.1
130048 18426.7
131072 18566.1
133120 18844.7
135168 19122.9
137216 19400.6
139264 19677.9
141312 19954.8
143360 20231.4
145408 20507.5
147456 20783.2
149504 21058.6
151552 21333.6
153600 21608.2
155648 21882.4
157696 22156.3
159744 22429.7
161792 22702.9
163840 22975.6
165888 23247.9
167936 23519.9
169984 23791.5
172032 24062.7
174080 24333.6
176128 24604
178176 24874.1
180224 25143.9
182272 25413.3
184320 25682.2
186368 25950.8
188416 26219.1
190464 26486.9
192512 26754.4
194560 27021.5
196608 27288.2
198656 27554.6
200704 27820.5
202752 28086.1
204800 28351.4
206848 28616.2
208896 28880.7
210944 29144.8
212992 29408.6
215040 29671.9
217088 29934.8
219136 30197.5
221184 30459.7
223232 30721.5
225280 30983
227328 31244.1
229376 31504.9
231424 31765.2
233472 32025.2
235520 32284.8
237568 32544.1
239616 32802.9
241664 33061.3
243712 33319.5
245760 33577.2
247808 33834.5
249856 34091.5
251904 34348.2
253952 34604.4
256000 34860.2
258048 35115.7
260096 35370.9
262144 35625.6
266240 36133.9
270336 36640.7
274432 37146.1
278528 37649.9
282624 38152.3
286720 38653.1
290816 39151.9
294912 39647.4
299008 40139.8
303104 40628.7
307200 41114.6
311296 41596.9
315392 42076.3
319488 42552
323584 43024.8
327680 43494
331776 43960.3
335872 44422.9
339968 44882.5
344064 45338.6
348160 45791.7
352256 46241
356352 46687.6
360448 47130.3
364544 47570
368640 48006.9
372736 48440.1
376832 48869.5
380928 49295.9
385024 49719.3
389120 50138.7
393216 50552.9
397312 50962.4
401408 51366.9
405504 51764.7
409600 52156.8
413696 52543.9
417792 52926.2
421888 53301.3
425984 53671
430080 54035.9
434176 54395.8
438272 54748.2
442368 55095.7
446464 55438.2
450560 55775.5
454656 56105.5
458752 56430.7
462848 56751.1
466944 57066.2
471040 57377
475136 57684.8
479232 57989.6
483328 58290.8
487424 58588
491520 58882.3
495616 59173.6
499712 59461
503808 59744.7
507904 60025.5
512000 60303.3
516096 60576.9
520192 60847.1
524288 61114.4
532480 61638.5
540672 62149
548864 62645.9
557056 63129.3
565248 63599
573440 64059
581632 64512.2
589824 64959.4
598016 65400
606208 65834.6
614400 66262.5
622592 66684.5
630784 67099.7
638976 67509.1
647168 67911.7
655360 68308.5
663552 68698.4
671744 69082.6
679936 69459.9
688128 69831.4
696320 70196.1
704512 70554.9
712704 70906.1
720896 71252
729088 71592.3
737280 71925.9
745472 72252.2
753664 72573.1
761856 72889.1
770048 73199.7
778240 73505.3
786432 73806.8
794624 74104.2
802816 74396.2
811008 74683.4
819200 74966.5
827392 75245.6
835584 75518.8
843776 75788.6
851968 76051.1
860160 76303
868352 76549.4
876544 76793.6
884736 77035.7
892928 77275.6
901120 77512.4
909312 77747.2
917504 77979.8
925696 78210
933888 78430.2
942080 78645.1
950272 78856.7
958464 79068.3
966656 79279.9
974848 79491.5
983040 79703.1
991232 79914.6
999424 80126.2
1007616 80337.8
1015808 80549.3
1024000 80760.8
1032192 80972.4
1040384 81183.9
1048576 81395.4
1064960 81818.4
1081344 82241.3
1097728 82664.3
1114112 83087.2
1130496 83510
1146880 83932.9
1163264 84355.7
1179648 84778.5
1196032 85201.2
1212416 85623.9
1228800 86046.6
1245184 86469.2
1261568 86891.9
1277952 87314.5
1294336 87737
1310720 88159.6
1327104 88582.1
1343488 89004.6
1359872 89427
1376256 89849.3
1392640 90271.5
1409024 90693.1
1425408 91113.9
1441792 91534.4
1458176 91954.3
1474560 92373.4
1490944 92792
1507328 93210.2
1523712 93627.8
1540096 94044.8
1556480 94461.2
1572864 94877.2
1589248 95292.7
1605632 95707.5
1622016 96121.8
1638400 96535.6
1654784 96948.9
1671168 97361.6
1687552 97773.7
1703936 98185.4
1720320 98596.6
1736704 99007.1
1753088 99417.1
1769472 99826.7
1785856 100236
1802240 100644
1818624 101051
1835008 101458
1851392 101865
1867776 102271
1884160 102676
1900544 103081
1916928 103486
1933312 103889
1949696 104293
1966080 104695
1982464 105097
1998848 105499
2015232 105900
2031616 106301
2048000 106701
2064384 107100
2080768 107499
2097152 107898
2129920 108693
2162688 109486
2195456 110277
2228224 111065
2260992 111852
2293760 112636
2326528 113418
2359296 114197
2392064 114974
2424832 115749
2457600 116522
2490368 117293
2523136 118062
2555904 118828
2588672 119592
2621440 120354
2654208 121115
2686976 121872
2719744 122628
2752512 123382
2785280 124133
2818048 124882
2850816 125630
2883584 126376
2916352 127122
2949120 127868
2981888 128613
3014656 129358
3047424 130102
3080192 130846
3112960 131589
3145728 132332
3178496 133075
3211264 133817
3244032 134558
3276800 135299
3309568 136040
3342336 136779
3375104 137519
3407872 138258
3440640 138996
3473408 139734
3506176 140472
3538944 141209
3571712 141946
3604480 142682
3637248 143417
3670016 144152
3702784 144886
3735552 145620
3768320 146353
3801088 147086
3833856 147819
3866624 148551
3899392 149282
3932160 150013
3964928 150744
3997696 151474
4030464 152203
4063232 152932
4096000 153660
4128768 154388
4161536 155116
4194304 155843
4259840 157296
4325376 158746
4390912 160195
4456448 161641
4521984 163086
4587520 164530
4653056 165971
4718592 167411
4784128 168849
4849664 170285
4915200 171718
4980736 173150
5046272 174580
5111808 176009
5177344 177435
5242880 178859
5308416 180282
5373952 181702
5439488 183119
5505024 184535
5570560 185948
5636096 187359
5701632 188768
5767168 190175
5832704 191580
5898240 192983
5963776 194384
6029312 195784
6094848 197181
6160384 198576
6225920 199969
6291456 201361
6356992 202750
6422528 204137
6488064 205523
6553600 206906
6619136 208287
6684672 209666
6750208 211043
6815744 212419
6881280 213793
6946816 215164
7012352 216534
7077888 217902
7143424 219268
7208960 220630
7274496 221990
7340032 223349
7405568 224704
7471104 226057
7536640 227408
7602176 228757
7667712 230104
7733248 231449
7798784 232792
7864320 234134
7929856 235473
7995392 236810
8060928 238146
8126464 239479
8192000 240809
8257536 242138
8323072 243464
8388608 244788
8519680 247430
8650752 250064
8781824 252691
8912896 255310
9043968 257918
9175040 260515
9306112 263103
9437184 265682
9568256 268253
9699328 270816
9830400 273371
9961472 275917
10092544 278453
10223616 280980
10354688 283499
10485760 286009
10616832 288512
10747904 291005
10878976 293488
11010048 295959
11141120 298421
11272192 300874
11403264 303317
11534336 305753
11665408 308181
11796480 310597
11927552 313005
12058624 315405
12189696 317795
12320768 320175
12451840 322547
12582912 324911
12713984 327261
12845056 329601
12976128 331932
13107200 334255
13238272 336566
13369344 338868
13500416 341162
13631488 343448
13762560 345721
13893632 347986
14024704 350242
14155776 352490
14286848 354724
14417920 356949
14548992 359164
14680064 361370
14811136 363563
14942208 365747
15073280 367922
15204352 370086
15335424 372230
15466496 374286
15597568 376227
15728640 377982
15859712 379678
15990784 381358
16121856 383031
16252928 384697
16384000 386358
16515072 388013
16646144 389662
16777216 391304
17039360 394570
17301504 397817
17563648 401042
17825792 404242
18087936 407416
18350080 410568
18612224 413695
18874368 416798
19136512 419881
19398656 422943
19660800 425982
19922944 428997
20185088 431995
20447232 434972
20709376 437935
20971520 440880
21233664 443812
21495808 446725
21757952 449621
22020096 452496
22282240 455359
22544384 458205
22806528 461034
23068672 463853
23330816 466657
23592960 469439
23855104 472207
24117248 474963
24379392 477705
24641536 480430
24903680 483145
25165824 485849
25427968 488530
25690112 491198
25952256 493856
26214400 496504
26476544 499135
26738688 501757
27000832 504366
27262976 506960
27525120 509539
27787264 512109
28049408 514669
28311552 517219
28573696 519757
28835840 522282
29097984 524796
29360128 527298
29622272 529789
29884416 532272
30146560 534748
30408704 537214
30670848 539666
30932992 542109
31195136 544543
31457280 546966
31719424 549384
31981568 551795
32243712 554198
32505856 556589
32768000 558971
33030144 561346
33292288 563715
33554432 566078
34078720 570783
34603008 575457
35127296 580104
35651584 584731
36175872 589330
36700160 593899
37224448 598447
37748736 602970
38273024 607462
38797312 611931
39321600 616379
39845888 620795
40370176 625186
40894464 629553
41418752 633899
41943040 638208
42467328 642498
42991616 646764
43515904 651001
44040192 655211
44564480 659400
45088768 663562
45613056 667690
46137344 671802
46661632 675890
47185920 679942
47710208 683973
48234496 687985
48758784 691966
49283072 695915
49807360 699845
50331648 703755
50855936 707629
51380224 711480
51904512 715309
52428800 719114
52953088 722885
53477376 726636
54001664 730364
54525952 734065
55050240 737731
55574528 741360
56098816 744926
56623104 748401
57147392 751829
57671680 755229
58195968 758604
58720256 761959
59244544 765284
59768832 768584
60293120 771861
60817408 775116
61341696 778336
61865984 781535
62390272 784713
62914560 787865
63438848 790984
63963136 794083
64487424 797163
65011712 800209
65536000 803230
66060288 806229
66584576 809207
67108864 812148
68157440 817970
69206016 823686
70254592 829303
71303168 834812
72351744 840221
73400320 845531
74448896 850736
75497472 855839
76546048 860845
77594624 865746
78643200 870551
79691776 875246
80740352 879853
81788928 884344
82837504 888749
83886080 893037
84934656 897236
85983232 901323
87031808 905320
88080384 909230
89128960 913056
90177536 916799
91226112 920444
92274688 924035
93323264 927546
94371840 930971
95420416 934351
96468992 937691
97517568 940980
98566144 944214
99614720 947415
100663296 950590
101711872 953727
102760448 956835
103809024 959922
104857600 962987
105906176 966025
106954752 969042
108003328 972039
109051904 975014
110100480 977963
111149056 980895
112197632 983809
113246208 986706
114294784 989573
115343360 992420
116391936 995248
117440512 998057
118489088 1.00084e+06
119537664 1.00361e+06
120586240 1.00636e+06
121634816 1.00908e+06
122683392 1.01178e+06
123731968 1.01446e+06
124780544 1.01712e+06
125829120 1.01977e+06
126877696 1.02239e+06
127926272 1.02498e+06
128974848 1.02756e+06
130023424 1.03012e+06
131072000 1.03265e+06
132120576 1.03517e+06
133169152 1.03767e+06
134217728 1.04014e+06
136314880 1.04502e+06
138412032 1.04981e+06
140509184 1.05449e+06
142606336 1.05906e+06
144703488 1.06354e+06
146800640 1.06793e+06
148897792 1.07223e+06
150994944 1.07645e+06
153092096 1.08059e+06
155189248 1.08465e+06
157286400 1.08862e+06
159383552 1.0925e+06
161480704 1.09631e+06
163577856 1.10003e+06
165675008 1.10367e+06
167772160 1.10722e+06
169869312 1.1107e+06
171966464 1.11408e+06
174063616 1.11739e+06
176160768 1.12061e+06
178257920 1.12374e+06
180355072 1.12682e+06
182452224 1.12984e+06
184549376 1.13286e+06
186646528 1.13587e+06
188743680 1.13888e+06
190840832 1.14189e+06
192937984 1.14489e+06
195035136 1.1479e+06
197132288 1.1509e+06
199229440 1.15391e+06
201326592 1.15691e+06
203423744 1.15991e+06
205520896 1.16291e+06
207618048 1.16591e+06
209715200 1.16891e+06
211812352 1.17191e+06
213909504 1.1749e+06
216006656 1.1779e+06
218103808 1.18089e+06
220200960 1.18388e+06
222298112 1.18688e+06
224395264 1.18987e+06
226492416 1.19286e+06
228589568 1.19585e+06
230686720 1.19884e+06
232783872 1.20175e+06
234881024 1.20442e+06
236978176 1.20466e+06
239075328 1.20467e+06
241172480 1.20467e+06
243269632 1.20467e+06
245366784 1.20467e+06
247463936 1.20467e+06
249561088 1.20467e+06
251658240 1.20467e+06
253755392 1.20467e+06
255852544 1.20467e+06
257949696 1.20467e+06
260046848 1.20467e+06
262144000 1.20467e+06
264241152 1.20467e+06
266338304 1.20467e+06
268435456 1.20467e+06
272629760 1.20467e+06
276824064 1.20467e+06
281018368 1.20467e+06
285212672 1.20467e+06
289406976 1.20467e+06
293601280 1.20467e+06
297795584 1.20467e+06
301989888 1.20467e+06
306184192 1.20467e+06
310378496 1.20468e+06
314572800 1.20468e+06
318767104 1.20468e+06
322961408 1.20468e+06
327155712 1.20468e+06
331350016 1.20468e+06
335544320 1.20468e+06
339738624 1.20468e+06
343932928 1.20468e+06
348127232 1.20468e+06
352321536 1.20468e+06
356515840 1.20468e+06
360710144 1.20468e+06
364904448 1.20468e+06
369098752 1.20468e+06
373293056 1.20468e+06
377487360 1.20468e+06
381681664 1.20468e+06
385875968 1.20468e+06
390070272 1.20468e+06
394264576 1.20468e+06
398458880 1.20468e+06
402653184 1.20468e+06
406847488 1.20468e+06
411041792 1.20468e+06
415236096 1.20468e+06
419430400 1.20468e+06
423624704 1.20468e+06
427819008 1.20468e+06
432013312 1.20468e+06
436207616 1.20468e+06
440401920 1.20468e+06
444596224 1.20468e+06
448790528 1.20468e+06
452984832 1.20468e+06
457179136 1.20468e+06
461373440 1.20468e+06
465567744 1.20468e+06
469762048 1.20468e+06
473956352 1.20468e+06
478150656 1.20468e+06
482344960 1.20468e+06
486539264 1.20468e+06
490733568 1.20468e+06
494927872 1.20468e+06
499122176 1.20468e+06
503316480 1.20468e+06
507510784 1.20468e+06
511705088 1.20468e+06
515899392 1.20468e+06
520093696 1.20468e+06
524288000 1.20468e+06
528482304 1.20468e+06
532676608 1.20468e+06
536870912 1.20468e+06
545259520 1.20468e+06
553648128 1.20468e+06
562036736 1.20468e+06
570425344 1.20468e+06
578813952 1.20468e+06
587202560 1.20468e+06
595591168 1.20468e+06
603979776 1.20468e+06
612368384 1.20468e+06
620756992 1.20468e+06
629145600 1.20468e+06
637534208 1.20468e+06
645922816 1.20468e+06
654311424 1.20468e+06
662700032 1.20468e+06
671088640 1.20468e+06
679477248 1.20468e+06
687865856 1.20468e+06
696254464 1.20468e+06
704643072 1.20468e+06
713031680 1.20468e+06
721420288 1.20468e+06
729808896 1.20468e+06
738197504 1.20468e+06
746586112 1.20468e+06
754974720 1.20468e+06
763363328 1.20468e+06
771751936 1.20468e+06
780140544 1.20468e+06
788529152 1.20468e+06
796917760 1.20468e+06
805306368 1.20468e+06
813694976 1.20468e+06
822083584 1.20468e+06
830472192 1.20468e+06
838860800 1.20468e+06
847249408 1.20468e+06
855638016 1.20468e+06
864026624 1.20468e+06
872415232 1.20468e+06
880803840 1.20468e+06
889192448 1.20468e+06
897581056 1.20468e+06
905969664 1.20468e+06
914358272 1.20468e+06
922746880 1.20468e+06
931135488 1.20468e+06
939524096 1.20468e+06
947912704 1.20468e+06
956301312 1.20468e+06
964689920 1.20468e+06
973078528 1.20468e+06
981467136 1.20468e+06
989855744 1.20468e+06
998244352 1.20468e+06
1006632960 1.20468e+06
1015021568 1.20468e+06
1023410176 1.20468e+06
1031798784 1.20468e+06
1040187392 1.20468e+06
1048576000 1.20468e+06
1056964608 1.20468e+06
1065353216 1.20468e+06
1073741824 1.20468e+06
1090519040 1.20468e+06
1107296256 1.20468e+06
1124073472 1.20468e+06
1140850688 1.20468e+06
1157627904 1.20468e+06
1174405120 1.20468e+06
1191182336 1.20468e+06
1207959552 1.20468e+06
1224736768 1.20468e+06
1241513984 1.20468e+06
1258291200 1.20468e+06
1275068416 1.20468e+06
1291845632 1.20468e+06
1308622848 1.20468e+06
1325400064 1.20468e+06
1342177280 1.20468e+06
1358954496 1.20468e+06
1375731712 1.20468e+06
1392508928 1.20468e+06
1409286144 1.20468e+06
1426063360 1.20468e+06
1442840576 1.20468e+06
1459617792 1.20468e+06
1476395008 1.20468e+06
1493172224 1.20468e+06
1509949440 1.20468e+06
1526726656 1.20468e+06
1543503872 1.20468e+06
1560281088 1.20468e+06
1577058304 1.20468e+06
1593835520 1.20468e+06
1610612736 1.20468e+06
1627389952 1.20468e+06
1644167168 1.20468e+06
1660944384 1.20468e+06
1677721600 1.20468e+06
1694498816 1.20468e+06
1711276032 1.20468e+06
1728053248 1.20468e+06
1744830464 1.20468e+06
1761607680 1.20468e+06
1778384896 1.20468e+06
1795162112 1.20468e+06
1811939328 1.20468e+06
1828716544 1.20468e+06
1845493760 1.20468e+06
1862270976 1.20468e+06
1879048192 1.20468e+06
1895825408 1.20468e+06
1912602624 1.20468e+06
1929379840 1.20468e+06
1946157056 1.20468e+06
1962934272 1.20468e+06
1979711488 1.20468e+06
1996488704 1.20469e+06
2013265920 1.20469e+06
2030043136 1.20469e+06
2046820352 1.20469e+06
2063597568 1.20469e+06
2080374784 1.20469e+06
2097152000 1.20469e+06
2113929216 1.20469e+06
2130706432 1.20469e+06
2147483648 1.20469e+06
2181038080 1.20469e+06
2214592512 1.20469e+06
2248146944 1.20469e+06
2281701376 1.20469e+06
2315255808 1.20469e+06
2348810240 1.20469e+06
2382364672 1.20469e+06
2415919104 1.20469e+06
2449473536 1.20469e+06
2483027968 1.20469e+06
2516582400 1.20469e+06
2550136832 1.20469e+06
2583691264 1.20469e+06
2617245696 1.20469e+06
2650800128 1.20469e+06
2684354560 1.20469e+06
2717908992 1.20469e+06
2751463424 1.20469e+06
2785017856 1.20469e+06
2818572288 1.20469e+06
2852126720 1.20469e+06
2885681152 1.20469e+06
2919235584 1.20469e+06
2952790016 1.20469e+06
2986344448 1.20469e+06
3019898880 1.20469e+06
3053453312 1.20469e+06
3087007744 1.20469e+06
3120562176 1.20469e+06
3154116608 1.20469e+06
3187671040 1.20469e+06
3221225472 1.20469e+06
3254779904 1.20469e+06
3288334336 1.20469e+06
3321888768 1.20469e+06
3355443200 1.20469e+06
3388997632 1.20469e+06
3422552064 1.20469e+06
3456106496 1.20469e+06
3489660928 1.20469e+06
3523215360 1.20469e+06
3556769792 1.20469e+06
3590324224 1.20469e+06
3623878656 1.20469e+06
3657433088 1.20469e+06
3690987520 1.20469e+06
3724541952 1.20469e+06
3758096384 1.20469e+06
3791650816 1.20469e+06
3825205248 1.20469e+06
3858759680 1.20469e+06
3892314112 1.20469e+06
3925868544 1.20469e+06
3959422976 1.20469e+06
3992977408 1.20469e+06
4026531840 1.20469e+06
4060086272 1.20469e+06
4093640704 1.20469e+06
4127195136 1.20469e+06
4160749568 1.20469e+06
4194304000 1.20469e+06
4227858432 1.20469e+06
4261412864 1.20469e+06
4294967296 1.20469e+06
4362076160 1.20469e+06
4429185024 1.2047e+06
4496293888 1.2047e+06
4563402752 1.2047e+06
4630511616 1.2047e+06
4697620480 1.2047e+06
4764729344 1.2047e+06
4831838208 1.2047e+06
4898947072 1.2047e+06
4966055936 1.2047e+06
5033164800 1.2047e+06
5100273664 1.2047e+06
5167382528 1.2047e+06
5234491392 1.2047e+06
5301600256 1.2047e+06
5368709120 1.2047e+06
5435817984 1.2047e+06
5502926848 1.2047e+06
5570035712 1.2047e+06
5637144576 1.2047e+06
5704253440 1.2047e+06
5771362304 1.2047e+06
5838471168 1.2047e+06
5905580032 1.2047e+06
5972688896 1.2047e+06
6039797760 1.2047e+06
6106906624 1.2047e+06
6174015488 1.2047e+06
6241124352 1.2047e+06
6308233216 1.2047e+06
6375342080 1.2047e+06
6442450944 1.2047e+06
6509559808 1.2047e+06
6576668672 1.2047e+06
6643777536 1.2047e+06
6710886400 1.2047e+06
6777995264 1.2047e+06
6845104128 1.2047e+06
6912212992 1.2047e+06
6979321856 1.2047e+06
7046430720 1.2047e+06
7113539584 1.2047e+06
7180648448 1.2047e+06
7247757312 1.2047e+06
7314866176 1.2047e+06
7381975040 1.2047e+06
7449083904 1.2047e+06
7516192768 1.2047e+06
7583301632 1.2047e+06
7650410496 1.2047e+06
7717519360 1.2047e+06
7784628224 1.2047e+06
7851737088 1.2047e+06
7918845952 1.2047e+06
7985954816 1.2047e+06
8053063680 1.2047e+06
8120172544 1.2047e+06
8187281408 1.2047e+06
8254390272 1.2047e+06
8321499136 1.2047e+06
8388608000 1.2047e+06
8455716864 1.2047e+06
8522825728 1.2047e+06
8589934592 1.2047e+06
8724152320 1.2047e+06
8858370048 1.2047e+06
8992587776 1.2047e+06
9126805504 1.2047e+06
9261023232 1.2047e+06
9395240960 1.2047e+06
9529458688 1.2047e+06
9663676416 1.2047e+06
9797894144 1.2047e+06
9932111872 1.2047e+06
10066329600 1.2047e+06
10200547328 1.2047e+06
10334765056 1.2047e+06
10468982784 1.2047e+06
10603200512 1.2047e+06
10737418240 1.2047e+06
10871635968 1.2047e+06
11005853696 1.2047e+06
11140071424 1.2047e+06
11274289152 1.2047e+06
11408506880 1.2047e+06
11542724608 1.2047e+06
11676942336 1.2047e+06
11811160064 1.2047e+06
11945377792 1.2047e+06
12079595520 1.2047e+06
12213813248 1.2047e+06
12348030976 1.2047e+06
12482248704 1.2047e+06
12616466432 1.2047e+06
12750684160 1.2047e+06
12884901888 1.2047e+06
13019119616 1.2047e+06
13153337344 1.2047e+06
13287555072 1.2047e+06
13421772800 1.2047e+06
13555990528 1.2047e+06
13690208256 1.2047e+06
13824425984 1.2047e+06
13958643712 1.2047e+06
14092861440 1.2047e+06
14227079168 1.2047e+06
14361296896 1.2047e+06
14495514624 1.2047e+06
14629732352 1.2047e+06
14763950080 1.2047e+06
14898167808 1.2047e+06
15032385536 1.2047e+06
15166603264 1.2047e+06
15300820992 1.2047e+06
15435038720 1.2047e+06
15569256448 1.2047e+06
15703474176 1.2047e+06
15837691904 1.2047e+06
15971909632 1.2047e+06
16106127360 1.2047e+06
16240345088 1.2047e+06
16374562816 1.2047e+06
16508780544 1.2047e+06
16642998272 1.2047e+06
16777216000 1.2047e+06
16911433728 1.2047e+06
17045651456 1.2047e+06
17179869184 1.2047e+06
17448304640 1.2047e+06
17716740096 1.2047e+06
17985175552 1.2047e+06
18253611008 1.2047e+06
18522046464 1.2047e+06
18790481920 1.2047e+06
19058917376 1.20471e+06
19327352832 1.20471e+06
19595788288 1.20471e+06
19864223744 1.20471e+06
20132659200 1.20471e+06
20401094656 1.20471e+06
20669530112 1.20471e+06
20937965568 1.20471e+06
21206401024 1.20471e+06
21474836480 1.20471e+06
21743271936 1.20471e+06
22011707392 1.20471e+06
22280142848 1.20471e+06
22548578304 1.20471e+06
22817013760 1.20471e+06
23085449216 1.20471e+06
23353884672 1.20471e+06
23622320128 1.20471e+06
23890755584 1.20471e+06
24159191040 1.20471e+06
24427626496 1.20471e+06
24696061952 1.20471e+06
24964497408 1.20471e+06
25232932864 1.20471e+06
25501368320 1.20471e+06
25769803776 1.20471e+06
26038239232 1.20471e+06
26306674688 1.20471e+06
26575110144 1.20471e+06
26843545600 1.20471e+06
27111981056 1.20471e+06
27380416512 1.20471e+06
27648851968 1.20471e+06
27917287424 1.20471e+06
28185722880 1.20471e+06
28454158336 1.20472e+06
28722593792 1.20472e+06
28991029248 1.20472e+06
29259464704 1.20472e+06
29527900160 1.20472e+06
29796335616 1.20472e+06
30064771072 1.20472e+06
30333206528 1.20472e+06
30601641984 1.20472e+06
30870077440 1.20472e+06
31138512896 1.20472e+06
31406948352 1.20472e+06
31675383808 1.20472e+06
31943819264 1.20472e+06
32212254720 1.20472e+06
32480690176 1.20472e+06
32749125632 1.20472e+06
33017561088 1.20472e+06
33285996544 1.20472e+06
33554432000 1.20472e+06
33822867456 1.20472e+06
34091302912 1.20472e+06
34359738368 1.20473e+06
34896609280 1.20473e+06
35433480192 1.20473e+06
35970351104 1.20473e+06
36507222016 1.20473e+06
37044092928 1.20473e+06
37580963840 1.20473e+06
38117834752 1.20473e+06
38654705664 1.20474e+06
39191576576 1.20474e+06
39728447488 1.20474e+06
40265318400 1.20474e+06
40802189312 1.20474e+06
41339060224 1.20475e+06
41875931136 1.20475e+06
42412802048 1.20475e+06
42949672960 1.20475e+06
43486543872 1.20476e+06
44023414784 1.20476e+06
44560285696 1.20476e+06
45097156608 1.20477e+06
45634027520 1.20477e+06
46170898432 1.20477e+06
46707769344 1.20478e+06
47244640256 1.20478e+06
47781511168 1.20479e+06
48318382080 1.20479e+06
48855252992 1.2048e+06
49392123904 1.20481e+06
49928994816 1.20481e+06
50465865728 1.20482e+06
51002736640 1.20483e+06
51539607552 1.20484e+06
52076478464 1.20486e+06
52613349376 1.20487e+06
53150220288 1.20489e+06
53687091200 1.20491e+06
54223962112 1.20494e+06
54760833024 1.20497e+06
55297703936 1.20501e+06
55834574848 1.20506e+06
56371445760 1.20513e+06
56908316672 1.20525e+06
57445187584 1.20542e+06
57982058496 1.2057e+06
58518929408 1.20668e+06
59055800320 1.20778e+06
59592671232 1.20863e+06
60129542144 1.20863e+06
60666413056 1.20863e+06
61203283968 1.20863e+06
61740154880 1.20863e+06
62277025792 1.20863e+06
62813896704 1.20863e+06
63350767616 1.20863e+06
63887638528 1.20863e+06
64424509440 1.20863e+06
64961380352 1.20863e+06
65498251264 1.20863e+06
66035122176 1.20863e+06
66571993088 1.20863e+06
67108864000 1.20863e+06
67645734912 1.20863e+06
68182605824 1.20863e+06
68719476736 1.20863e+06
69793218560 1.20863e+06
70866960384 1.20863e+06
71940702208 1.20863e+06
73014444032 1.20863e+06
74088185856 1.20863e+06
75161927680 1.20863e+06
76235669504 1.20863e+06
77309411328 1.20863e+06
78383153152 1.20863e+06
79456894976 1.20863e+06
80530636800 1.20863e+06
81604378624 1.20863e+06
82678120448 1.20863e+06
83751862272 1.20863e+06
84825604096 1.20863e+06
85899345920 1.20863e+06
86973087744 1.20863e+06
88046829568 1.20863e+06
89120571392 1.20863e+06
90194313216 1.20863e+06
91268055040 1.20863e+06
92341796864 1.20863e+06
93415538688 1.20863e+06
94489280512 1.20863e+06
95563022336 1.20863e+06
96636764160 1.20863e+06
97710505984 1.20863e+06
98784247808 1.20863e+06
99857989632 1.20863e+06
100931731456 1.20863e+06
102005473280 1.20863e+06
103079215104 1.20863e+06
104152956928 1.20863e+06
105226698752 1.20863e+06
106300440576 1.20863e+06
107374182400 1.20863e+06
108447924224 1.20863e+06
109521666048 1.20863e+06
110595407872 1.20863e+06
111669149696 1.20863e+06
112742891520 1.20863e+06
113816633344 1.20863e+06
114890375168 1.20863e+06
115964116992 1.20863e+06
117037858816 1.20863e+06
118111600640 1.20863e+06
119185342464 1.20863e+06
120259084288 1.20863e+06
121332826112 1.20863e+06
122406567936 1.20863e+06
123480309760 1.20863e+06
124554051584 1.20863e+06
125627793408 1.20863e+06
126701535232 1.20863e+06
127775277056 1.20863e+06
128849018880 1.20863e+06
129922760704 1.20863e+06
130996502528 1.20863e+06
132070244352 1.20863e+06
133143986176 1.20863e+06
134217728000 1.20863e+06
135291469824 1.20863e+06
136365211648 1.20863e+06
137438953472 1.20863e+06
139586437120 1.20863e+06
141733920768 1.20863e+06
143881404416 1.20863e+06
146028888064 1.20863e+06
148176371712 1.20863e+06
150323855360 1.20863e+06
152471339008 1.20863e+06
154618822656 1.20863e+06
156766306304 1.20863e+06
158913789952 1.20863e+06
161061273600 1.20863e+06
163208757248 1.20863e+06
165356240896 1.20863e+06
167503724544 1.20863e+06
169651208192 1.20863e+06
171798691840 1.20863e+06
173946175488 1.20863e+06
176093659136 1.20863e+06
178241142784 1.20863e+06
180388626432 1.20863e+06
182536110080 1.20863e+06
184683593728 1.20863e+06
186831077376 1.20863e+06
188978561024 1.20863e+06
191126044672 1.20863e+06
193273528320 1.20863e+06
195421011968 1.20863e+06
197568495616 1.20863e+06
199715979264 1.20863e+06
201863462912 1.20863e+06
204010946560 1.20863e+06
206158430208 1.20863e+06
208305913856 1.20863e+06
210453397504 1.20863e+06
212600881152 1.20863e+06
214748364800 1.20863e+06
216895848448 1.20863e+06
219043332096 1.20863e+06
221190815744 1.20863e+06
223338299392 1.20863e+06
225485783040 1.20863e+06
227633266688 1.20863e+06
229780750336 1.20863e+06
231928233984 1.20863e+06
234075717632 1.20863e+06
236223201280 1.20863e+06
238370684928 1.20863e+06
240518168576 1.20863e+06
242665652224 1.20863e+06
244813135872 1.20863e+06
246960619520 1.20863e+06
249108103168 1.20863e+06
251255586816 1.20863e+06
253403070464 1.20863e+06
255550554112 1.20863e+06
257698037760 1.20863e+06
259845521408 1.20863e+06
261993005056 1.20863e+06
264140488704 1.20863e+06
266287972352 1.20863e+06
268435456000 1.20863e+06
270582939648 1.20863e+06
272730423296 1.20863e+06
274877906944 1.20863e+06
279172874240 1.20863e+06
283467841536 1.20863e+06
287762808832 1.20863e+06
292057776128 1.20863e+06
296352743424 1.20863e+06
300647710720 1.20863e+06
304942678016 1.20863e+06
309237645312 1.20863e+06
313532612608 1.20863e+06
317827579904 1.20863e+06
322122547200 1.20863e+06
326417514496 1.20863e+06
330712481792 1.20863e+06
335007449088 1.20863e+06
339302416384 1.20863e+06
343597383680 1.20863e+06
347892350976 1.20863e+06
352187318272 1.20863e+06
356482285568 1.20863e+06
360777252864 1.20863e+06
365072220160 1.20863e+06
369367187456 1.20863e+06
373662154752 1.20863e+06
377957122048 1.20863e+06
382252089344 1.20863e+06
386547056640 1.20863e+06
390842023936 1.20863e+06
395136991232 1.20863e+06
399431958528 1.20863e+06
403726925824 1.20863e+06
408021893120 1.20863e+06
412316860416 1.20863e+06
416611827712 1.20863e+06
420906795008 1.20863e+06
425201762304 1.20863e+06
429496729600 1.20863e+06
433791696896 1.20863e+06
438086664192 1.20863e+06
442381631488 1.20863e+06
446676598784 1.20863e+06
450971566080 1.20863e+06
455266533376 1.20863e+06
459561500672 1.20863e+06
463856467968 1.20863e+06
468151435264 1.20863e+06
472446402560 1.20863e+06
476741369856 1.20863e+06
481036337152 1.20863e+06
485331304448 1.20863e+06
489626271744 1.20863e+06
493921239040 1.20863e+06
498216206336 1.20863e+06
502511173632 1.20863e+06
506806140928 1.20863e+06
511101108224 1.20863e+06
515396075520 1.20863e+06
519691042816 1.20863e+06
523986010112 1.20863e+06
528280977408 1.20863e+06
532575944704 1.20863e+06
536870912000 1.20863e+06
541165879296 1.20863e+06
545460846592 1.20863e+06
549755813888 1.20863e+06
558345748480 1.20863e+06
566935683072 1.20863e+06
575525617664 1.20863e+06
584115552256 1.20863e+06
592705486848 1.20863e+06
601295421440 1.20863e+06
609885356032 1.20863e+06
618475290624 1.20863e+06
627065225216 1.20863e+06
635655159808 1.20863e+06
644245094400 1.20863e+06
652835028992 1.20863e+06
661424963584 1.20863e+06
670014898176 1.20863e+06
678604832768 1.20863e+06
687194767360 1.20863e+06
695784701952 1.20863e+06
704374636544 1.20863e+06
712964571136 1.20863e+06
721554505728 1.20863e+06
730144440320 1.20863e+06
738734374912 1.20863e+06
747324309504 1.20863e+06
755914244096 1.20863e+06
764504178688 1.20863e+06
773094113280 1.20863e+06
781684047872 1.20863e+06
790273982464 1.20863e+06
798863917056 1.20863e+06
807453851648 1.20863e+06
816043786240 1.20863e+06
824633720832 1.20863e+06
833223655424 1.20863e+06
841813590016 1.20863e+06
850403524608 1.20863e+06
858993459200 1.20863e+06
867583393792 1.20863e+06
876173328384 1.20863e+06
884763262976 1.20863e+06
893353197568 1.20863e+06
901943132160 1.20863e+06
910533066752 1.20863e+06
919123001344 1.20863e+06
927712935936 1.20863e+06
936302870528 1.20863e+06
944892805120 1.20863e+06
953482739712 1.20863e+06
962072674304 1.20863e+06
970662608896 1.20863e+06
979252543488 1.20863e+06
987842478080 1.20863e+06
996432412672 1.20863e+06
1005022347264 1.20863e+06
1013612281856 1.20863e+06
1022202216448 1.20863e+06
1030792151040 1.20863e+06
1039382085632 1.20863e+06
1047972020224 1.20863e+06
1056561954816 1.20863e+06
1065151889408 1.20863e+06
1073741824000 1.20863e+06
1082331758592 1.20863e+06
1090921693184 1.20863e+06
1099511627776 1.20863e+06
1116691496960 1.20863e+06
1133871366144 1.20863e+06
1151051235328 1.20863e+06
1168231104512 1.20863e+06
1185410973696 1.20863e+06
1202590842880 1.20863e+06
1219770712064 1.20863e+06
1236950581248 1.20863e+06
1254130450432 1.20863e+06
1271310319616 1.20863e+06
1288490188800 1.20863e+06
1305670057984 1.20863e+06
1322849927168 1.20863e+06
1340029796352 1.20863e+06
1357209665536 1.20863e+06
1374389534720 1.20863e+06
1391569403904 1.20863e+06
1408749273088 1.20863e+06
1425929142272 1.20863e+06
1443109011456 1.20863e+06
1460288880640 1.20863e+06
1477468749824 1.20863e+06
1494648619008 1.20863e+06
1511828488192 1.20863e+06
1529008357376 1.20863e+06
1546188226560 1.20863e+06
1563368095744 1.20863e+06
1580547964928 1.20863e+06
1597727834112 1.20863e+06
1614907703296 1.20863e+06
1632087572480 1.20863e+06
1649267441664 1.20863e+06
1666447310848 1.20863e+06
1683627180032 1.20863e+06
1700807049216 1.20863e+06
1717986918400 1.20863e+06
1735166787584 1.20863e+06
1752346656768 1.20863e+06
1769526525952 1.20863e+06
1786706395136 1.20863e+06
1803886264320 1.20863e+06
1821066133504 1.20863e+06
1838246002688 1.20863e+06
1855425871872 1.20863e+06
1872605741056 1.20863e+06
1889785610240 1.20863e+06
1906965479424 1.20863e+06
1924145348608 1.20863e+06
1941325217792 1.20863e+06
1958505086976 1.20863e+06
1975684956160 1.20863e+06
1992864825344 1.20863e+06
2010044694528 1.20863e+06
2027224563712 1.20863e+06
2044404432896 1.20863e+06
2061584302080 1.20863e+06
2078764171264 1.20863e+06
2095944040448 1.20863e+06
2113123909632 1.20863e+06
2130303778816 1.20863e+06
2147483648000 1.20863e+06
2164663517184 1.20863e+06
2181843386368 1.20863e+06
2199023255552 1.20863e+06
2233382993920 1.20863e+06
2267742732288 1.20863e+06
2302102470656 1.20863e+06
2336462209024 1.20863e+06
2370821947392 1.20863e+06
2405181685760 1.20863e+06
2439541424128 1.20863e+06
2473901162496 1.20863e+06
2508260900864 1.20863e+06
2542620639232 1.20863e+06
2576980377600 1.20863e+06
2611340115968 1.20863e+06
2645699854336 1.20863e+06
2680059592704 1.20863e+06
2714419331072 1.20863e+06
2748779069440 1.20863e+06
2783138807808 1.20863e+06
2817498546176 1.20863e+06
2851858284544 1.20863e+06
2886218022912 1.20863e+06
2920577761280 1.20863e+06
2954937499648 1.20863e+06
2989297238016 1.20863e+06
3023656976384 1.20863e+06
3058016714752 1.20863e+06
3092376453120 1.20863e+06
3126736191488 1.20863e+06
3161095929856 1.20863e+06
3195455668224 1.20863e+06
3229815406592 1.20863e+06
3264175144960 1.20863e+06
3298534883328 1.20863e+06
3332894621696 1.20863e+06
3367254360064 1.20863e+06
3401614098432 1.20863e+06
3435973836800 1.20863e+06
3470333575168 1.20863e+06
3504693313536 1.20863e+06
3539053051904 1.20863e+06
3573412790272 1.20863e+06
3607772528640 1.20863e+06
3642132267008 1.20863e+06
3676492005376 1.20863e+06
3710851743744 1.20863e+06
3745211482112 1.20863e+06
3779571220480 1.20863e+06
3813930958848 1.20863e+06
3848290697216 1.20863e+06
3882650435584 1.20863e+06
3917010173952 1.20863e+06
3951369912320 1.20863e+06
3985729650688 1.20863e+06
4020089389056 1.20863e+06
4054449127424 1.20863e+06
4088808865792 1.20863e+06
4123168604160 1.20863e+06
4157528342528 1.20863e+06
4191888080896 1.20863e+06
4226247819264 1.20863e+06
4260607557632 1.20863e+06
4294967296000 1.20863e+06
4329327034368 1.20863e+06
4363686772736 1.20863e+06
4398046511104 1.20863e+06
4466765987840 1.20863e+06
4535485464576 1.20863e+06
4604204941312 1.20863e+06
4672924418048 1.20863e+06
4741643894784 1.20863e+06
4810363371520 1.20863e+06
4879082848256 1.20863e+06
4947802324992 1.20863e+06
5016521801728 1.20863e+06
5085241278464 1.20863e+06
5153960755200 1.20863e+06
5222680231936 1.20863e+06
5291399708672 1.20863e+06
5360119185408 1.20863e+06
5428838662144 1.20863e+06
5497558138880 1.20863e+06
5566277615616 1.20863e+06
5634997092352 1.20863e+06
5703716569088 1.20863e+06
5772436045824 1.20863e+06
5841155522560 1.20863e+06
5909874999296 1.20863e+06
5978594476032 1.20863e+06
6047313952768 1.20863e+06
6116033429504 1.20863e+06
6184752906240 1.20863e+06
6253472382976 1.20863e+06
6322191859712 1.20863e+06
6390911336448 1.20863e+06
6459630813184 1.20863e+06
6528350289920 1.20863e+06
6597069766656 1.20863e+06
6665789243392 1.20863e+06
6734508720128 1.20863e+06
6803228196864 1.20863e+06
6871947673600 1.20863e+06
6940667150336 1.20863e+06
7009386627072 1.20863e+06
7078106103808 1.20863e+06
7146825580544 1.20863e+06
7215545057280 1.20863e+06
7284264534016 1.20863e+06
7352984010752 1.20863e+06
7421703487488 1.20863e+06
7490422964224 1.20863e+06
7559142440960 1.20863e+06
7627861917696 1.20863e+06
7696581394432 1.20863e+06
7765300871168 1.20863e+06
7834020347904 1.20863e+06
7902739824640 1.20863e+06
7971459301376 1.20863e+06
8040178778112 1.20863e+06
8108898254848 1.20863e+06
8177617731584 1.20863e+06
8246337208320 1.20863e+06
8315056685056 1.20863e+06
8383776161792 1.20863e+06
8452495638528 1.20863e+06
8521215115264 1.20863e+06
8589934592000 1.20863e+06
8658654068736 1.20863e+06
8727373545472 1.20863e+06
8796093022208 1.20863e+06
8933531975680 1.20863e+06
9070970929152 1.20863e+06
9208409882624 1.20863e+06
9345848836096 1.20863e+06
9483287789568 1.20863e+06
9620726743040 1.20863e+06
9758165696512 1.20863e+06
9895604649984 1.20863e+06
10033043603456 1.20863e+06
10170482556928 1.20863e+06
10307921510400 1.20863e+06
10445360463872 1.20863e+06
10582799417344 1.20863e+06
10720238370816 1.20863e+06
10857677324288 1.20863e+06
10995116277760 1.20863e+06
11132555231232 1.20863e+06
11269994184704 1.20863e+06
11407433138176 1.20863e+06
11544872091648 1.20863e+06
11682311045120 1.20863e+06
11819749998592 1.20863e+06
11957188952064 1.20863e+06
12094627905536 1.20863e+06
12232066859008 1.20863e+06
12369505812480 1.20863e+06
12506944765952 1.20863e+06
12644383719424 1.20863e+06
12781822672896 1.20863e+06
12919261626368 1.20863e+06
13056700579840 1.20863e+06
13194139533312 1.20863e+06
13331578486784 1.20863e+06
13469017440256 1.20863e+06
13606456393728 1.20863e+06
13743895347200 1.20863e+06
13881334300672 1.20863e+06
14018773254144 1.20863e+06
14156212207616 1.20863e+06
14293651161088 1.20863e+06
14431090114560 1.20863e+06
14568529068032 1.20863e+06
14705968021504 1.20863e+06
14843406974976 1.20863e+06
14980845928448 1.20863e+06
15118284881920 1.20863e+06
15255723835392 1.20863e+06
15393162788864 1.20863e+06
15530601742336 1.20863e+06
15668040695808 1.20863e+06
15805479649280 1.20863e+06
15942918602752 1.20863e+06
16080357556224 1.20863e+06
16217796509696 1.20863e+06
16355235463168 1.20863e+06
16492674416640 1.20863e+06
16630113370112 1.20863e+06
16767552323584 1.20863e+06
16904991277056 1.20863e+06
17042430230528 1.20863e+06
17179869184000 1.20863e+06
17317308137472 1.20863e+06
17454747090944 1.20863e+06
17592186044416 1.20863e+06
17867063951360 1.20863e+06
18141941858304 1.20863e+06
18416819765248 1.20863e+06
18691697672192 1.20863e+06
18966575579136 1.20863e+06
19241453486080 1.20863e+06
19516331393024 1.20863e+06
19791209299968 1.20863e+06
20066087206912 1.20863e+06
20340965113856 1.20863e+06
20615843020800 1.20863e+06
20890720927744 1.20863e+06
21165598834688 1.20863e+06
21440476741632 1.20863e+06
21715354648576 1.20863e+06
21990232555520 1.20863e+06
22265110462464 1.20863e+06
22539988369408 1.20863e+06
22814866276352 1.20863e+06
23089744183296 1.20863e+06
23364622090240 1.20863e+06
23639499997184 1.20863e+06
23914377904128 1.20863e+06
24189255811072 1.20863e+06
24464133718016 1.20863e+06
24739011624960 1.20863e+06
25013889531904 1.20863e+06
25288767438848 1.20863e+06
25563645345792 1.20863e+06
25838523252736 1.20863e+06
26113401159680 1.20863e+06
26388279066624 1.20863e+06
26663156973568 1.20863e+06
26938034880512 1.20863e+06
27212912787456 1.20863e+06
27487790694400 1.20863e+06
27762668601344 1.20863e+06
28037546508288 1.20863e+06
28312424415232 1.20863e+06
28587302322176 1.20863e+06
28862180229120 1.20863e+06
29137058136064 1.20863e+06
29411936043008 1.20863e+06
29686813949952 1.20863e+06
29961691856896 1.20863e+06
30236569763840 1.20863e+06
30511447670784 1.20863e+06
30786325577728 1.20863e+06
31061203484672 1.20863e+06
31336081391616 1.20863e+06
31610959298560 1.20863e+06
31885837205504 1.20863e+06
32160715112448 1.20863e+06
32435593019392 1.20863e+06
32710470926336 1.20863e+06
32985348833280 1.20863e+06
33260226740224 1.20863e+06
33535104647168 1.20863e+06
33809982554112 1.20863e+06
34084860461056 1.20863e+06
34359738368000 1.20863e+06
34634616274944 1.20863e+06
34909494181888 1.20863e+06
35184372088832 1.20863e+06
35734127902720 1.20863e+06
36283883716608 1.20863e+06
36833639530496 1.20863e+06
37383395344384 1.20863e+06
37933151158272 1.20863e+06
38482906972160 1.20863e+06
39032662786048 1.20863e+06
39582418599936 1.20863e+06
40132174413824 1.20863e+06
40681930227712 1.20863e+06
41231686041600 1.20863e+06
41781441855488 1.20863e+06
42331197669376 1.20863e+06
42880953483264 1.20863e+06
43430709297152 1.20863e+06
43980465111040 1.20863e+06
44530220924928 1.20863e+06
45079976738816 1.20863e+06
45629732552704 1.20863e+06
46179488366592 1.20863e+06
46729244180480 1.20863e+06
47278999994368 1.20863e+06
47828755808256 1.20863e+06
48378511622144 1.20863e+06
48928267436032 1.20863e+06
49478023249920 1.20863e+06
50027779063808 1.20863e+06
50577534877696 1.20863e+06
51127290691584 1.20863e+06
51677046505472 1.20863e+06
52226802319360 1.20863e+06
52776558133248 1.20863e+06
53326313947136 1.20863e+06
53876069761024 1.20863e+06
54425825574912 1.20863e+06
54975581388800 1.20863e+06
55525337202688 1.20863e+06
56075093016576 1.20863e+06
56624848830464 1.20863e+06
57174604644352 1.20863e+06
57724360458240 1.20863e+06
58274116272128 1.20863e+06
58823872086016 1.20863e+06
59373627899904 1.20863e+06
59923383713792 1.20863e+06
60473139527680 1.20863e+06
61022895341568 1.20863e+06
61572651155456 1.20863e+06
62122406969344 1.20863e+06
62672162783232 1.20863e+06
63221918597120 1.20863e+06
63771674411008 1.20863e+06
64321430224896 1.20863e+06
64871186038784 1.20863e+06
65420941852672 1.20863e+06
65970697666560 1.20863e+06
66520453480448 1.20863e+06
67070209294336 1.20863e+06
67619965108224 1.20863e+06
68169720922112 1.20863e+06
68719476736000 1.20863e+06
69269232549888 1.20863e+06
69818988363776 1.20863e+06
70368744177664 1.20863e+06
71468255805440 1.20863e+06
72567767433216 1.20863e+06
73667279060992 1.20863e+06
74766790688768 1.20863e+06
75866302316544 1.20863e+06
76965813944320 1.20863e+06
78065325572096 1.20863e+06
79164837199872 1.20863e+06
80264348827648 1.20863e+06
81363860455424 1.20863e+06
82463372083200 1.20863e+06
83562883710976 1.20863e+06
84662395338752 1.20863e+06
85761906966528 1.20863e+06
86861418594304 1.20863e+06
87960930222080 1.20863e+06
89060441849856 1.20863e+06
90159953477632 1.20863e+06
91259465105408 1.20863e+06
92358976733184 1.20863e+06
93458488360960 1.20863e+06
94557999988736 1.20863e+06
95657511616512 1.20863e+06
96757023244288 1.20863e+06
97856534872064 1.20863e+06
98956046499840 1.20863e+06
100055558127616 1.20863e+06
101155069755392 1.20863e+06
102254581383168 1.20863e+06
103354093010944 1.20863e+06
104453604638720 1.20863e+06
105553116266496 1.20863e+06
106652627894272 1.20863e+06
107752139522048 1.20863e+06
108851651149824 1.20863e+06
109951162777600 1.20863e+06
111050674405376 1.20863e+06
112150186033152 1.20863e+06
113249697660928 1.20863e+06
114349209288704 1.20863e+06
115448720916480 1.20863e+06
116548232544256 1.20863e+06
117647744172032 1.20863e+06
118747255799808 1.20863e+06
119846767427584 1.20863e+06
120946279055360 1.20863e+06
122045790683136 1.20863e+06
123145302310912 1.20863e+06
124244813938688 1.20863e+06
125344325566464 1.20863e+06
126443837194240 1.20863e+06
127543348822016 1.20863e+06
128642860449792 1.20863e+06
129742372077568 1.20863e+06
130841883705344 1.20863e+06
131941395333120 1.20863e+06
133040906960896 1.20863e+06
134140418588672 1.20863e+06
135239930216448 1.20863e+06
136339441844224 1.20863e+06
137438953472000 1.20863e+06
138538465099776 1.20863e+06
139637976727552 1.20863e+06
140737488355328 1.20863e+06
142936511610880 1.20863e+06
145135534866432 1.20863e+06
147334558121984 1.20863e+06
149533581377536 1.20863e+06
151732604633088 1.20863e+06
153931627888640 1.20863e+06
156130651144192 1.20863e+06
158329674399744 1.20863e+06
160528697655296 1.20863e+06
162727720910848 1.20863e+06
164926744166400 1.20863e+06
167125767421952 1.20863e+06
169324790677504 1.20863e+06
171523813933056 1.20863e+06
173722837188608 1.20863e+06
175921860444160 1.20863e+06
178120883699712 1.20863e+06
180319906955264 1.20863e+06
182518930210816 1.20863e+06
184717953466368 1.20863e+06
186916976721920 1.20863e+06
189115999977472 1.20863e+06
191315023233024 1.20863e+06
193514046488576 1.20863e+06
195713069744128 1.20863e+06
197912092999680 1.20863e+06
200111116255232 1.20863e+06
202310139510784 1.20863e+06
204509162766336 1.20863e+06
206708186021888 1.20863e+06
208907209277440 1.20863e+06
211106232532992 1.20863e+06
213305255788544 1.20863e+06
215504279044096 1.20863e+06
217703302299648 1.20863e+06
219902325555200 1.20863e+06
222101348810752 1.20863e+06
224300372066304 1.20863e+06
226499395321856 1.20863e+06
228698418577408 1.20863e+06
230897441832960 1.20863e+06
233096465088512 1.20863e+06
235295488344064 1.20863e+06
237494511599616 1.20863e+06
239693534855168 1.20863e+06
241892558110720 1.20863e+06
244091581366272 1.20863e+06
246290604621824 1.20863e+06
248489627877376 1.20863e+06
250688651132928 1.20863e+06
252887674388480 1.20863e+06
255086697644032 1.20863e+06
257285720899584 1.20863e+06
259484744155136 1.20863e+06
261683767410688 1.20863e+06
263882790666240 1.20863e+06
266081813921792 1.20863e+06
268280837177344 1.20863e+06
270479860432896 1.20863e+06
272678883688448 1.20863e+06
274877906944000 1.20863e+06
277076930199552 1.20863e+06
279275953455104 1.20863e+06
281474976710656 1.20863e+06
285873023221760 1.20863e+06
290271069732864 1.20863e+06
294669116243968 1.20863e+06
299067162755072 1.20863e+06
303465209266176 1.20863e+06
307863255777280 1.20863e+06
312261302288384 1.20863e+06
316659348799488 1.20863e+06
321057395310592 1.20863e+06
325455441821696 1.20863e+06
329853488332800 1.20863e+06
334251534843904 1.20863e+06
338649581355008 1.20863e+06
343047627866112 1.20863e+06
347445674377216 1.20863e+06
351843720888320 1.20863e+06
356241767399424 1.20863e+06
360639813910528 1.20863e+06
365037860421632 1.20863e+06
369435906932736 1.20863e+06
373833953443840 1.20863e+06
378231999954944 1.20863e+06
382630046466048 1.20863e+06
387028092977152 1.20863e+06
391426139488256 1.20863e+06
395824185999360 1.20863e+06
400222232510464 1.20863e+06
404620279021568 1.20863e+06
409018325532672 1.20863e+06
413416372043776 1.20863e+06
417814418554880 1.20863e+06
422212465065984 1.20863e+06
426610511577088 1.20863e+06
431008558088192 1.20863e+06
435406604599296 1.20863e+06
439804651110400 1.20863e+06
444202697621504 1.20863e+06
448600744132608 1.20863e+06
452998790643712 1.20863e+06
457396837154816 1.20863e+06
461794883665920 1.20863e+06
466192930177024 1.20863e+06
470590976688128 1.20863e+06
474989023199232 1.20863e+06
479387069710336 1.20863e+06
483785116221440 1.20863e+06
488183162732544 1.20863e+06
492581209243648 1.20863e+06
496979255754752 1.20863e+06
501377302265856 1.20863e+06
505775348776960 1.20863e+06
510173395288064 1.20863e+06
514571441799168 1.20863e+06
518969488310272 1.20863e+06
523367534821376 1.20863e+06
527765581332480 1.20863e+06
532163627843584 1.20863e+06
536561674354688 1.20863e+06
540959720865792 1.20863e+06
545357767376896 1.20863e+06
549755813888000 1.20863e+06
554153860399104 1.20863e+06
558551906910208 1.20863e+06
562949953421312 1.20863e+06
571746046443520 1.20863e+06
580542139465728 1.20863e+06
589338232487936 1.20863e+06
598134325510144 1.20863e+06
606930418532352 1.20863e+06
615726511554560 1.20863e+06
624522604576768 1.20863e+06
633318697598976 1.20863e+06
642114790621184 1.20863e+06
650910883643392 1.20863e+06
659706976665600 1.20863e+06
668503069687808 1.20863e+06
677299162710016 1.20863e+06
686095255732224 1.20863e+06
694891348754432 1.20863e+06
703687441776640 1.20863e+06
712483534798848 1.20863e+06
721279627821056 1.20863e+06
730075720843264 1.20863e+06
738871813865472 1.20863e+06
747667906887680 1.20863e+06
756463999909888 1.20863e+06
765260092932096 1.20863e+06
774056185954304 1.20863e+06
782852278976512 1.20863e+06
791648371998720 1.20863e+06
800444465020928 1.20863e+06
809240558043136 1.20863e+06
818036651065344 1.20863e+06
826832744087552 1.20863e+06
835628837109760 1.20863e+06
844424930131968 1.20863e+06
853221023154176 1.20863e+06
862017116176384 1.20863e+06
870813209198592 1.20863e+06
879609302220800 1.20863e+06
888405395243008 1.20863e+06
897201488265216 1.20863e+06
905997581287424 1.20863e+06
914793674309632 1.20863e+06
923589767331840 1.20863e+06
932385860354048 1.20863e+06
941181953376256 1.20863e+06
949978046398464 1.20863e+06
958774139420672 1.20863e+06
967570232442880 1.20863e+06
976366325465088 1.20863e+06
985162418487296 1.20863e+06
993958511509504 1.20863e+06
1002754604531712 1.20863e+06
1011550697553920 1.20863e+06
1020346790576128 1.20863e+06
1029142883598336 1.20863e+06
1037938976620544 1.20863e+06
1046735069642752 1.20863e+06
1055531162664960 1.20863e+06
1064327255687168 1.20863e+06
1073123348709376 1.20863e+06
1081919441731584 1.20863e+06
1090715534753792 1.20863e+06
1099511627776000 1.20863e+06
1108307720798208 1.20863e+06
1117103813820416 1.20863e+06
1125899906842624 1.20863e+06
1143492092887040 1.20863e+06
1161084278931456 1.20863e+06
1178676464975872 1.20863e+06
1196268651020288 1.20863e+06
1213860837064704 1.20863e+06
1231453023109120 1.20863e+06
1249045209153536 1.20863e+06
1266637395197952 1.20863e+06
1284229581242368 1.20863e+06
1301821767286784 1.20863e+06
1319413953331200 1.20863e+06
1337006139375616 1.20863e+06
1354598325420032 1.20863e+06
1372190511464448 1.20863e+06
1389782697508864 1.20863e+06
1407374883553280 1.20863e+06
1424967069597696 1.20863e+06
1442559255642112 1.20863e+06
1460151441686528 1.20863e+06
1477743627730944 1.20863e+06
1495335813775360 1.20863e+06
1512927999819776 1.20863e+06
1530520185864192 1.20863e+06
1548112371908608 1.20863e+06
1565704557953024 1.20863e+06
1583296743997440 1.20863e+06
1600888930041856 1.20863e+06
1618481116086272 1.20863e+06
1636073302130688 1.20863e+06
1653665488175104 1.20863e+06
1671257674219520 1.20863e+06
1688849860263936 1.20863e+06
1706442046308352 1.20863e+06
1724034232352768 1.20863e+06
1741626418397184 1.20863e+06
1759218604441600 1.20863e+06
1776810790486016 1.20863e+06
1794402976530432 1.20863e+06
1811995162574848 1.20863e+06
1829587348619264 1.20863e+06
1847179534663680 1.20863e+06
1864771720708096 1.20863e+06
1882363906752512 1.20863e+06
1899956092796928 1.20863e+06
1917548278841344 1.20863e+06
1935140464885760 1.20863e+06
1952732650930176 1.20863e+06
1970324836974592 1.20863e+06
1987917023019008 1.20863e+06
2005509209063424 1.20863e+06
2023101395107840 1.20863e+06
2040693581152256 1.20863e+06
2058285767196672 1.20863e+06
2075877953241088 1.20863e+06
2093470139285504 1.20863e+06
2111062325329920 1.20863e+06
2128654511374336 1.20863e+06
2146246697418752 1.20863e+06
2163838883463168 1.20863e+06
2181431069507584 1.20863e+06
2199023255552000 1.20863e+06
2216615441596416 1.20863e+06
2234207627640832 1.20863e+06
2251799813685248 1.20863e+06
2286984185774080 1.20863e+06
2322168557862912 1.20863e+06
2357352929951744 1.20863e+06
2392537302040576 1.20863e+06
2427721674129408 1.20863e+06
2462906046218240 1.20863e+06
2498090418307072 1.20863e+06
2533274790395904 1.20863e+06
2568459162484736 1.20863e+06
2603643534573568 1.20863e+06
2638827906662400 1.20863e+06
2674012278751232 1.20863e+06
2709196650840064 1.20863e+06
2744381022928896 1.20863e+06
2779565395017728 1.20863e+06
2814749767106560 1.20863e+06
2849934139195392 1.20863e+06
2885118511284224 1.20863e+06
2920302883373056 1.20863e+06
2955487255461888 1.20863e+06
2990671627550720 1.20863e+06
3025855999639552 1.20863e+06
3061040371728384 1.20863e+06
3096224743817216 1.20863e+06
3131409115906048 1.20863e+06
3166593487994880 1.20863e+06
3201777860083712 1.20863e+06
3236962232172544 1.20863e+06
3272146604261376 1.20863e+06
3307330976350208 1.20863e+06
3342515348439040 1.20863e+06
3377699720527872 1.20863e+06
3412884092616704 1.20863e+06
3448068464705536 1.20863e+06
3483252836794368 1.20863e+06
3518437208883200 1.20863e+06
3553621580972032 1.20863e+06
3588805953060864 1.20863e+06
3623990325149696 1.20863e+06
3659174697238528 1.20863e+06
3694359069327360 1.20863e+06
3729543441416192 1.20863e+06
3764727813505024 1.20863e+06
3799912185593856 1.20863e+06
3835096557682688 1.20863e+06
3870280929771520 1.20863e+06
3905465301860352 1.20863e+06
3940649673949184 1.20863e+06
3975834046038016 1.20863e+06
4011018418126848 1.20863e+06
4046202790215680 1.20863e+06
4081387162304512 1.20863e+06
4116571534393344 1.20863e+06
4151755906482176 1.20863e+06
4186940278571008 1.20863e+06
4222124650659840 1.20863e+06
4257309022748672 1.20863e+06
4292493394837504 1.20863e+06
4327677766926336 1.20863e+06
4362862139015168 1.20863e+06
4398046511104000 1.20863e+06
4433230883192832 1.20863e+06
4468415255281664 1.20863e+06
4503599627370496 1.20863e+06
4573968371548160 1.20863e+06
4644337115725824 1.20863e+06
4714705859903488 1.20863e+06
4785074604081152 1.20863e+06
4855443348258816 1.20863e+06
4925812092436480 1.20863e+06
4996180836614144 1.20863e+06
5066549580791808 1.20863e+06
5136918324969472 1.20863e+06
5207287069147136 1.20863e+06
5277655813324800 1.20863e+06
5348024557502464 1.20863e+06
5418393301680128 1.20863e+06
5488762045857792 1.20863e+06
5559130790035456 1.20863e+06
5629499534213120 1.20863e+06
5699868278390784 1.20863e+06
5770237022568448 1.20863e+06
5840605766746112 1.20863e+06
5910974510923776 1.20863e+06
5981343255101440 1.20863e+06
6051711999279104 1.20863e+06
6122080743456768 1.20863e+06
6192449487634432 1.20863e+06
6262818231812096 1.20863e+06
6333186975989760 1.20863e+06
6403555720167424 1.20863e+06
6473924464345088 1.20863e+06
6544293208522752 1.20863e+06
6614661952700416 1.20863e+06
6685030696878080 1.20863e+06
6755399441055744 1.20863e+06
6825768185233408 1.20863e+06
6896136929411072 1.20863e+06
6966505673588736 1.20863e+06
7036874417766400 1.20863e+06
7107243161944064 1.20863e+06
7177611906121728 1.20863e+06
7247980650299392 1.20863e+06
7318349394477056 1.20863e+06
7388718138654720 1.20863e+06
7459086882832384 1.20863e+06
7529455627010048 1.20863e+06
7599824371187712 1.20863e+06
7670193115365376 1.20863e+06
7740561859543040 1.20863e+06
7810930603720704 1.20863e+06
7881299347898368 1.20863e+06
7951668092076032 1.20863e+06
8022036836253696 1.20863e+06
8092405580431360 1.20863e+06
8162774324609024 1.20863e+06
8233143068786688 1.20863e+06
8303511812964352 1.20863e+06
8373880557142016 1.20863e+06
8444249301319680 1.20863e+06
8514618045497344 1.20863e+06
8584986789675008 1.20863e+06
8655355533852672 1.20863e+06
8725724278030336 1.20863e+06
8796093022208000 1.20863e+06
8866461766385664 1.20863e+06
8936830510563328 1.20863e+06
9007199254740992 1.20863e+06
9147936743096320 1.20863e+06
9288674231451648 1.20863e+06
9429411719806976 1.20863e+06
9570149208162304 1.20863e+06
9710886696517632 1.20863e+06
9851624184872960 1.20863e+06
9992361673228288 1.20863e+06
10133099161583616 1.20863e+06
10273836649938944 1.20863e+06
10414574138294272 1.20863e+06
10555311626649600 1.20863e+06
10696049115004928 1.20863e+06
10836786603360256 1.20863e+06
10977524091715584 1.20863e+06
11118261580070912 1.20863e+06
11258999068426240 1.20863e+06
11399736556781568 1.20863e+06
11540474045136896 1.20863e+06
11681211533492224 1.20863e+06
11821949021847552 1.20863e+06
11962686510202880 1.20863e+06
12103423998558208 1.20863e+06
12244161486913536 1.20863e+06
12384898975268864 1.20863e+06
12525636463624192 1.20863e+06
12666373951979520 1.20863e+06
12807111440334848 1.20863e+06
12947848928690176 1.20863e+06
13088586417045504 1.20863e+06
13229323905400832 1.20863e+06
13370061393756160 1.20863e+06
13510798882111488 1.20863e+06
13651536370466816 1.20863e+06
13792273858822144 1.20863e+06
13933011347177472 1.20863e+06
14073748835532800 1.20863e+06
14214486323888128 1.20863e+06
14355223812243456 1.20863e+06
14495961300598784 1.20863e+06
14636698788954112 1.20863e+06
14777436277309440 1.20863e+06
14918173765664768 1.20863e+06
15058911254020096 1.20863e+06
15199648742375424 1.20863e+06
15340386230730752 1.20863e+06
15481123719086080 1.20863e+06
15621861207441408 1.20863e+06
15762598695796736 1.20863e+06
15903336184152064 1.20863e+06
16044073672507392 1.20863e+06
16184811160862720 1.20863e+06
16325548649218048 1.20863e+06
16466286137573376 1.20863e+06
16607023625928704 1.20863e+06
16747761114284032 1.20863e+06
16888498602639360 1.20863e+06
17029236090994688 1.20863e+06
17169973579350016 1.20863e+06
17310711067705344 1.20863e+06
17451448556060672 1.20863e+06
17592186044416000 1.20863e+06
17732923532771328 1.20863e+06
17873661021126656 1.20863e+06
18014398509481984 1.20863e+06
18295873486192640 1.20863e+06
18577348462903296 1.20863e+06
18858823439613952 1.20863e+06
19140298416324608 1.20863e+06
19421773393035264 1.20863e+06
19703248369745920 1.20863e+06
19984723346456576 1.20863e+06
20266198323167232 1.20863e+06
20547673299877888 1.20863e+06
20829148276588544 1.20863e+06
21110623253299200 1.20863e+06
21392098230009856 1.20863e+06
21673573206720512 1.20863e+06
21955048183431168 1.20863e+06
22236523160141824 1.20863e+06
22517998136852480 1.20863e+06
22799473113563136 1.20863e+06
23080948090273792 1.20863e+06
23362423066984448 1.20863e+06
23643898043695104 1.20863e+06
23925373020405760 1.20863e+06
24206847997116416 1.20863e+06
24488322973827072 1.20863e+06
24769797950537728 1.20863e+06
25051272927248384 1.20863e+06
25332747903959040 1.20863e+06
25614222880669696 1.20863e+06
25895697857380352 1.20863e+06
26177172834091008 1.20863e+06
26458647810801664 1.20863e+06
26740122787512320 1.20863e+06
27021597764222976 1.20863e+06
27303072740933632 1.20863e+06
27584547717644288 1.20863e+06
27866022694354944 1.20863e+06
28147497671065600 1.20863e+06
28428972647776256 1.20863e+06
28710447624486912 1.20863e+06
28991922601197568 1.20863e+06
29273397577908224 1.20863e+06
29554872554618880 1.20863e+06
29836347531329536 1.20863e+06
30117822508040192 1.20863e+06
30399297484750848 1.20863e+06
30680772461461504 1.20863e+06
30962247438172160 1.20863e+06
31243722414882816 1.20863e+06
31525197391593472 1.20863e+06
31806672368304128 1.20863e+06
32088147345014784 1.20863e+06
32369622321725440 1.20863e+06
32651097298436096 1.20863e+06
32932572275146752 1.20863e+06
33214047251857408 1.20863e+06
33495522228568064 1.20863e+06
33776997205278720 1.20863e+06
34058472181989376 1.20863e+06
34339947158700032 1.20863e+06
34621422135410688 1.20863e+06
34902897112121344 1.20863e+06
35184372088832000 1.20863e+06
35465847065542656 1.20863e+06
35747322042253312 1.20863e+06
36028797018963968 1.20863e+06
36591746972385280 1.20863e+06
37154696925806592 1.20863e+06
37717646879227904 1.20863e+06
38280596832649216 1.20863e+06
38843546786070528 1.20863e+06
39406496739491840 1.20863e+06
39969446692913152 1.20863e+06
40532396646334464 1.20863e+06
41095346599755776 1.20863e+06
41658296553177088 1.20863e+06
42221246506598400 1.20863e+06
42784196460019712 1.20863e+06
43347146413441024 1.20863e+06
43910096366862336 1.20863e+06
44473046320283648 1.20863e+06
45035996273704960 1.20863e+06
45598946227126272 1.20863e+06
46161896180547584 1.20863e+06
46724846133968896 1.20863e+06
47287796087390208 1.20863e+06
47850746040811520 1.20863e+06
48413695994232832 1.20863e+06
48976645947654144 1.20863e+06
49539595901075456 1.20863e+06
50102545854496768 1.20863e+06
50665495807918080 1.20863e+06
51228445761339392 1.20863e+06
51791395714760704 1.20863e+06
52354345668182016 1.20863e+06
52917295621603328 1.20863e+06
53480245575024640 1.20863e+06
54043195528445952 1.20863e+06
54606145481867264 1.20863e+06
55169095435288576 1.20863e+06
55732045388709888 1.20863e+06
56294995342131200 1.20863e+06
56857945295552512 1.20863e+06
57420895248973824 1.20863e+06
57983845202395136 1.20863e+06
58546795155816448 1.20863e+06
59109745109237760 1.20863e+06
59672695062659072 1.20863e+06
60235645016080384 1.20863e+06
60798594969501696 1.20863e+06
61361544922923008 1.20863e+06
61924494876344320 1.20863e+06
62487444829765632 1.20863e+06
63050394783186944 1.20863e+06
63613344736608256 1.20863e+06
64176294690029568 1.20863e+06
64739244643450880 1.20863e+06
65302194596872192 1.20863e+06
65865144550293504 1.20863e+06
66428094503714816 1.20863e+06
66991044457136128 1.20863e+06
67553994410557440 1.20863e+06
68116944363978752 1.20863e+06
68679894317400064 1.20863e+06
69242844270821376 1.20863e+06
69805794224242688 1.20863e+06
70368744177664000 1.20863e+06
70931694131085312 1.20863e+06
71494644084506624 1.20863e+06
72057594037927936 1.20863e+06
73183493944770560 1.20863e+06
74309393851613184 1.20863e+06
75435293758455808 1.20863e+06
76561193665298432 1.20863e+06
77687093572141056 1.20863e+06
78812993478983680 1.20863e+06
79938893385826304 1.20863e+06
81064793292668928 1.20863e+06
82190693199511552 1.20863e+06
83316593106354176 1.20863e+06
84442493013196800 1.20863e+06
85568392920039424 1.20863e+06
86694292826882048 1.20863e+06
87820192733724672 1.20863e+06
88946092640567296 1.20863e+06
90071992547409920 1.20863e+06
91197892454252544 1.20863e+06
92323792361095168 1.20863e+06
93449692267937792 1.20863e+06
94575592174780416 1.20863e+06
95701492081623040 1.20863e+06
96827391988465664 1.20863e+06
97953291895308288 1.20863e+06
99079191802150912 1.20863e+06
100205091708993536 1.20863e+06
101330991615836160 1.20863e+06
102456891522678784 1.20863e+06
103582791429521408 1.20863e+06
104708691336364032 1.20863e+06
105834591243206656 1.20863e+06
106960491150049280 1.20863e+06
108086391056891904 1.20863e+06
109212290963734528 1.20863e+06
110338190870577152 1.20863e+06
111464090777419776 1.20863e+06
112589990684262400 1.20863e+06
113715890591105024 1.20863e+06
114841790497947648 1.20863e+06
115967690404790272 1.20863e+06
117093590311632896 1.20863e+06
118219490218475520 1.20863e+06
119345390125318144 1.20863e+06
120471290032160768 1.20863e+06
121597189939003392 1.20863e+06
122723089845846016 1.20863e+06
123848989752688640 1.20863e+06
124974889659531264 1.20863e+06
126100789566373888 1.20863e+06
127226689473216512 1.20863e+06
128352589380059136 1.20863e+06
129478489286901760 1.20863e+06
130604389193744384 1.20863e+06
131730289100587008 1.20863e+06
132856189007429632 1.20863e+06
133982088914272256 1.20863e+06
135107988821114880 1.20863e+06
136233888727957504 1.20863e+06
137359788634800128 1.20863e+06
138485688541642752 1.20863e+06
139611588448485376 1.20863e+06
140737488355328000 1.20863e+06
141863388262170624 1.20863e+06
142989288169013248 1.20863e+06
144115188075855872 1.20863e+06
146366987889541120 1.20863e+06
148618787703226368 1.20863e+06
150870587516911616 1.20863e+06
153122387330596864 1.20863e+06
155374187144282112 1.20863e+06
157625986957967360 1.20863e+06
159877786771652608 1.20863e+06
162129586585337856 1.20863e+06
164381386399023104 1.20863e+06
166633186212708352 1.20863e+06
168884986026393600 1.20863e+06
171136785840078848 1.20863e+06
173388585653764096 1.20863e+06
175640385467449344 1.20863e+06
177892185281134592 1.20863e+06
180143985094819840 1.20863e+06
182395784908505088 1.20863e+06
184647584722190336 1.20863e+06
186899384535875584 1.20863e+06
189151184349560832 1.20863e+06
191402984163246080 1.20863e+06
193654783976931328 1.20863e+06
195906583790616576 1.20863e+06
198158383604301824 1.20863e+06
200410183417987072 1.20863e+06
202661983231672320 1.20863e+06
204913783045357568 1.20863e+06
207165582859042816 1.20863e+06
209417382672728064 1.20863e+06
211669182486413312 1.20863e+06
213920982300098560 1.20863e+06
216172782113783808 1.20863e+06
218424581927469056 1.20863e+06
220676381741154304 1.20863e+06
222928181554839552 1.20863e+06
225179981368524800 1.20863e+06
227431781182210048 1.20863e+06
229683580995895296 1.20863e+06
231935380809580544 1.20863e+06
234187180623265792 1.20863e+06
236438980436951040 1.20863e+06
238690780250636288 1.20863e+06
240942580064321536 1.20863e+06
243194379878006784 1.20863e+06
245446179691692032 1.20863e+06
247697979505377280 1.20863e+06
249949779319062528 1.20863e+06
252201579132747776 1.20863e+06
254453378946433024 1.20863e+06
256705178760118272 1.20863e+06
258956978573803520 1.20863e+06
261208778387488768 1.20863e+06
263460578201174016 1.20863e+06
265712378014859264 1.20863e+06
267964177828544512 1.20863e+06
270215977642229760 1.20863e+06
272467777455915008 1.20863e+06
274719577269600256 1.20863e+06
276971377083285504 1.20863e+06
279223176896970752 1.20863e+06
281474976710656000 1.20863e+06
283726776524341248 1.20863e+06
285978576338026496 1.20863e+06
288230376151711744 1.20863e+06
292733975779082240 1.20863e+06
297237575406452736 1.20863e+06
301741175033823232 1.20863e+06
306244774661193728 1.20863e+06
310748374288564224 1.20863e+06
315251973915934720 1.20863e+06
319755573543305216 1.20863e+06
324259173170675712 1.20863e+06
328762772798046208 1.20863e+06
333266372425416704 1.20863e+06
337769972052787200 1.20863e+06
342273571680157696 1.20863e+06
346777171307528192 1.20863e+06
351280770934898688 1.20863e+06
355784370562269184 1.20863e+06
360287970189639680 1.20863e+06
364791569817010176 1.20863e+06
369295169444380672 1.20863e+06
373798769071751168 1.20863e+06
378302368699121664 1.20863e+06
382805968326492160 1.20863e+06
387309567953862656 1.20863e+06
391813167581233152 1.20863e+06
396316767208603648 1.20863e+06
400820366835974144 1.20863e+06
405323966463344640 1.20863e+06
409827566090715136 1.20863e+06
414331165718085632 1.20863e+06
418834765345456128 1.20863e+06
423338364972826624 1.20863e+06
427841964600197120 1.20863e+06
432345564227567616 1.20863e+06
436849163854938112 1.20863e+06
441352763482308608 1.20863e+06
445856363109679104 1.20863e+06
450359962737049600 1.20863e+06
454863562364420096 1.20863e+06
459367161991790592 1.20863e+06
463870761619161088 1.20863e+06
468374361246531584 1.20863e+06
472877960873902080 1.20863e+06
477381560501272576 1.20863e+06
481885160128643072 1.20863e+06
486388759756013568 1.20863e+06
490892359383384064 1.20863e+06
495395959010754560 1.20863e+06
499899558638125056 1.20863e+06
504403158265495552 1.20863e+06
508906757892866048 1.20863e+06
513410357520236544 1.20863e+06
517913957147607040 1.20863e+06
522417556774977536 1.20863e+06
526921156402348032 1.20863e+06
531424756029718528 1.20863e+06
535928355657089024 1.20863e+06
540431955284459520 1.20863e+06
544935554911830016 1.20863e+06
549439154539200512 1.20863e+06
553942754166571008 1.20863e+06
558446353793941504 1.20863e+06
562949953421312000 1.20863e+06
567453553048682496 1.20863e+06
571957152676052992 1.20863e+06
576460752303423488 1.20863e+06
585467951558164480 1.20863e+06
594475150812905472 1.20863e+06
603482350067646464 1.20863e+06
612489549322387456 1.20863e+06
621496748577128448 1.20863e+06
630503947831869440 1.20863e+06
639511147086610432 1.20863e+06
648518346341351424 1.20863e+06
657525545596092416 1.20863e+06
666532744850833408 1.20863e+06
675539944105574400 1.20863e+06
684547143360315392 1.20863e+06
693554342615056384 1.20863e+06
702561541869797376 1.20863e+06
711568741124538368 1.20863e+06
720575940379279360 1.20863e+06
729583139634020352 1.20863e+06
738590338888761344 1.20863e+06
747597538143502336 1.20863e+06
756604737398243328 1.20863e+06
765611936652984320 1.20863e+06
774619135907725312 1.20863e+06
783626335162466304 1.20863e+06
792633534417207296 1.20863e+06
801640733671948288 1.20863e+06
810647932926689280 1.20863e+06
819655132181430272 1.20863e+06
828662331436171264 1.20863e+06
837669530690912256 1.20863e+06
846676729945653248 1.20863e+06
855683929200394240 1.20863e+06
864691128455135232 1.20863e+06
873698327709876224 1.20863e+06
882705526964617216 1.20863e+06
891712726219358208 1.20863e+06
900719925474099200 1.20863e+06
909727124728840192 1.20863e+06
918734323983581184 1.20863e+06
927741523238322176 1.20863e+06
936748722493063168 1.20863e+06
945755921747804160 1.20863e+06
954763121002545152 1.20863e+06
963770320257286144 1.20863e+06
972777519512027136 1.20863e+06
981784718766768128 1.20863e+06
990791918021509120 1.20863e+06
999799117276250112 1.20863e+06
1008806316530991104 1.20863e+06
1017813515785732096 1.20863e+06
1026820715040473088 1.20863e+06
1035827914295214080 1.20863e+06
1044835113549955072 1.20863e+06
1053842312804696064 1.20863e+06
1062849512059437056 1.20863e+06
1071856711314178048 1.20863e+06
1080863910568919040 1.20863e+06
1089871109823660032 1.20863e+06
1098878309078401024 1.20863e+06
1107885508333142016 1.20863e+06
1116892707587883008 1.20863e+06
1125899906842624000 1.20863e+06
1134907106097364992 1.20863e+06
1143914305352105984 1.20863e+06
1152921504606846976 1.20863e+06
1170935903116328960 1.20863e+06
1188950301625810944 1.20863e+06
1206964700135292928 1.20863e+06
1224979098644774912 1.20863e+06
1242993497154256896 1.20863e+06
1261007895663738880 1.20863e+06
1279022294173220864 1.20863e+06
1297036692682702848 1.20863e+06
1315051091192184832 1.20863e+06
1333065489701666816 1.20863e+06
1351079888211148800 1.20863e+06
1369094286720630784 1.20863e+06
1387108685230112768 1.20863e+06
1405123083739594752 1.20863e+06
1423137482249076736 1.20863e+06
1441151880758558720 1.20863e+06
1459166279268040704 1.20863e+06
1477180677777522688 1.20863e+06
1495195076287004672 1.20863e+06
1513209474796486656 1.20863e+06
1531223873305968640 1.20863e+06
1549238271815450624 1.20863e+06
1567252670324932608 1.20863e+06
1585267068834414592 1.20863e+06
1603281467343896576 1.20863e+06
1621295865853378560 1.20863e+06
1639310264362860544 1.20863e+06
1657324662872342528 1.20863e+06
1675339061381824512 1.20863e+06
1693353459891306496 1.20863e+06
1711367858400788480 1.20863e+06
1729382256910270464 1.20863e+06
1747396655419752448 1.20863e+06
1765411053929234432 1.20863e+06
1783425452438716416 1.20863e+06
1801439850948198400 1.20863e+06
1819454249457680384 1.20863e+06
1837468647967162368 1.20863e+06
1855483046476644352 1.20863e+06
1873497444986126336 1.20863e+06
1891511843495608320 1.20863e+06
1909526242005090304 1.20863e+06
1927540640514572288 1.20863e+06
1945555039024054272 1.20863e+06
1963569437533536256 1.20863e+06
1981583836043018240 1.20863e+06
1999598234552500224 1.20863e+06
2017612633061982208 1.20863e+06
2035627031571464192 1.20863e+06
2053641430080946176 1.20863e+06
2071655828590428160 1.20863e+06
2089670227099910144 1.20863e+06
2107684625609392128 1.20863e+06
2125699024118874112 1.20863e+06
2143713422628356096 1.20863e+06
2161727821137838080 1.20863e+06
2179742219647320064 1.20863e+06
2197756618156802048 1.20863e+06
2215771016666284032 1.20863e+06
2233785415175766016 1.20863e+06
2251799813685248000 1.20863e+06
2269814212194729984 1.20863e+06
2287828610704211968 1.20863e+06
2305843009213693952 1.20863e+06
2341871806232657920 1.20863e+06
2377900603251621888 1.20863e+06
2413929400270585856 1.20863e+06
2449958197289549824 1.20863e+06
2485986994308513792 1.20863e+06
2522015791327477760 1.20863e+06
2558044588346441728 1.20863e+06
2594073385365405696 1.20863e+06
2630102182384369664 1.20863e+06
2666130979403333632 1.20863e+06
2702159776422297600 1.20863e+06
2738188573441261568 1.20863e+06
2774217370460225536 1.20863e+06
2810246167479189504 1.20863e+06
2846274964498153472 1.20863e+06
2882303761517117440 1.20863e+06
2918332558536081408 1.20863e+06
2954361355555045376 1.20863e+06
2990390152574009344 1.20863e+06
3026418949592973312 1.20863e+06
3062447746611937280 1.20863e+06
3098476543630901248 1.20863e+06
3134505340649865216 1.20863e+06
3170534137668829184 1.20863e+06
3206562934687793152 1.20863e+06
3242591731706757120 1.20863e+06
3278620528725721088 1.20863e+06
3314649325744685056 1.20863e+06
3350678122763649024 1.20863e+06
3386706919782612992 1.20863e+06
3422735716801576960 1.20863e+06
3458764513820540928 1.20863e+06
3494793310839504896 1.20863e+06
3530822107858468864 1.20863e+06
3566850904877432832 1.20863e+06
3602879701896396800 1.20863e+06
3638908498915360768 1.20863e+06
3674937295934324736 1.20863e+06
3710966092953288704 1.20863e+06
3746994889972252672 1.20863e+06
3783023686991216640 1.20863e+06
3819052484010180608 1.20863e+06
3855081281029144576 1.20863e+06
3891110078048108544 1.20863e+06
3927138875067072512 1.20863e+06
3963167672086036480 1.20863e+06
3999196469105000448 1.20863e+06
4035225266123964416 1.20863e+06
4071254063142928384 1.20863e+06
4107282860161892352 1.20863e+06
4143311657180856320 1.20863e+06
4179340454199820288 1.20863e+06
4215369251218784256 1.20863e+06
4251398048237748224 1.20863e+06
4287426845256712192 1.20863e+06
4323455642275676160 1.20863e+06
4359484439294640128 1.20863e+06
4395513236313604096 1.20863e+06
4431542033332568064 1.20863e+06
4467570830351532032 1.20863e+06
4503599627370496000 1.20863e+06
4539628424389459968 1.20863e+06
4575657221408423936 1.20863e+06
4611686018427387904 1.20863e+06
4683743612465315840 1.20863e+06
4755801206503243776 1.20863e+06
4827858800541171712 1.20863e+06
4899916394579099648 1.20863e+06
4971973988617027584 1.20863e+06
5044031582654955520 1.20863e+06
5116089176692883456 1.20863e+06
5188146770730811392 1.20863e+06
5260204364768739328 1.20863e+06
5332261958806667264 1.20863e+06
5404319552844595200 1.20863e+06
5476377146882523136 1.20863e+06
5548434740920451072 1.20863e+06
5620492334958379008 1.20863e+06
5692549928996306944 1.20863e+06
5764607523034234880 1.20863e+06
5836665117072162816 1.20863e+06
5908722711110090752 1.20863e+06
5980780305148018688 1.20863e+06
6052837899185946624 1.20863e+06
6124895493223874560 1.20863e+06
6196953087261802496 1.20863e+06
6269010681299730432 1.20863e+06
6341068275337658368 1.20863e+06
6413125869375586304 1.20863e+06
6485183463413514240 1.20863e+06
6557241057451442176 1.20863e+06
6629298651489370112 1.20863e+06
6701356245527298048 1.20863e+06
6773413839565225984 1.20863e+06
6845471433603153920 1.20863e+06
6917529027641081856 1.20863e+06
6989586621679009792 1.20863e+06
7061644215716937728 1.20863e+06
7133701809754865664 1.20863e+06
7205759403792793600 1.20863e+06
7277816997830721536 1.20863e+06
7349874591868649472 1.20863e+06
7421932185906577408 1.20863e+06
7493989779944505344 1.20863e+06
7566047373982433280 1.20863e+06
7638104968020361216 1.20863e+06
7710162562058289152 1.20863e+06
7782220156096217088 1.20863e+06
7854277750134145024 1.20863e+06
7926335344172072960 1.20863e+06
7998392938210000896 1.20863e+06
8070450532247928832 1.20863e+06
8142508126285856768 1.20863e+06
8214565720323784704 1.20863e+06
8286623314361712640 1.20863e+06
8358680908399640576 1.20863e+06
8430738502437568512 1.20863e+06
8502796096475496448 1.20863e+06
8574853690513424384 1.20863e+06
8646911284551352320 1.20863e+06
8718968878589280256 1.20863e+06
8791026472627208192 1.20863e+06
8863084066665136128 1.20863e+06
8935141660703064064 1.20863e+06
9007199254740992000 1.20863e+06
9079256848778919936 1.20863e+06
9151314442816847872 1.20863e+06
9223372036854775808 1.20863e+06
9367487224930631680 1.20863e+06
9511602413006487552 1.20863e+06
9655717601082343424 1.20863e+06
9799832789158199296 1.20863e+06
9943947977234055168 1.20863e+06
10088063165309911040 1.20863e+06
10232178353385766912 1.20863e+06
10376293541461622784 1.20863e+06
10520408729537478656 1.20863e+06
10664523917613334528 1.20863e+06
10808639105689190400 1.20863e+06
10952754293765046272 1.20863e+06
11096869481840902144 1.20863e+06
11240984669916758016 1.20863e+06
11385099857992613888 1.20863e+06
11529215046068469760 1.20863e+06
11673330234144325632 1.20863e+06
11817445422220181504 1.20863e+06
11961560610296037376 1.20863e+06
12105675798371893248 1.20863e+06
12249790986447749120 1.20863e+06
12393906174523604992 1.20863e+06
12538021362599460864 1.20863e+06
12682136550675316736 1.20863e+06
12826251738751172608 1.20863e+06
12970366926827028480 1.20863e+06
13114482114902884352 1.20863e+06
13258597302978740224 1.20863e+06
13402712491054596096 1.20863e+06
13546827679130451968 1.20863e+06
13690942867206307840 1.20863e+06
13835058055282163712 1.20863e+06
13979173243358019584 1.20863e+06
14123288431433875456 1.20863e+06
14267403619509731328 1.20863e+06
14411518807585587200 1.20863e+06
14555633995661443072 1.20863e+06
14699749183737298944 1.20863e+06
14843864371813154816 1.20863e+06
14987979559889010688 1.20863e+06
15132094747964866560 1.20863e+06
15276209936040722432 1.20863e+06
15420325124116578304 1.20863e+06
15564440312192434176 1.20863e+06
15708555500268290048 1.20863e+06
15852670688344145920 1.20863e+06
15996785876420001792 1.20863e+06
16140901064495857664 1.20863e+06
16285016252571713536 1.20863e+06
16429131440647569408 1.20863e+06
16573246628723425280 1.20863e+06
16717361816799281152 1.20863e+06
16861477004875137024 1.20863e+06
17005592192950992896 1.20863e+06
17149707381026848768 1.20863e+06
17293822569102704640 1.20863e+06
17437937757178560512 1.20863e+06
17582052945254416384 1.20863e+06
17726168133330272256 1.20863e+06
17870283321406128128 1.20863e+06
18014398509481984000 1.20863e+06
18158513697557839872 1.20863e+06
18302628885633695744 1.20863e+06
