0	0
1	1
2	1.64112
3	2.27905
4	2.9166
5	3.55395
6	4.19119
7	4.82833
8	5.46537
9	6.10231
10	6.73918
11	7.376
12	8.01279
13	8.64954
14	9.28625
15	9.92293
16	10.5595
17	11.1961
18	11.8325
19	12.4688
20	13.1048
21	13.7404
22	14.3756
23	15.0102
24	15.6444
25	16.2782
26	16.9117
27	17.5449
28	18.1779
29	18.8108
30	19.4436
31	20.0763
32	20.7089
33	21.3415
34	21.9741
35	22.6066
36	23.239
37	23.8714
38	24.5037
39	25.1359
40	25.7681
41	26.4001
42	27.032
43	27.6638
44	28.2955
45	28.9271
46	29.5585
47	30.1898
48	30.821
49	31.452
50	32.083
51	32.7138
52	33.3445
53	33.975
54	34.6054
55	35.2355
56	35.8654
57	36.4951
58	37.1246
59	37.7537
60	38.3827
61	39.0114
62	39.6398
63	40.2681
64	40.896
65	41.5238
66	42.1512
67	42.7785
68	43.4055
69	44.0322
70	44.6588
71	45.2851
72	45.9113
73	46.5373
74	47.1631
75	47.7888
76	48.4144
77	49.0399
78	49.6653
79	50.2906
80	50.9159
81	51.541
82	52.1661
83	52.7911
84	53.416
85	54.0408
86	54.6653
87	55.2896
88	55.9137
89	56.5375
90	57.161
91	57.7841
92	58.4069
93	59.0293
94	59.6513
95	60.2729
96	60.8941
97	61.515
98	62.1354
99	62.7555
100	63.3751
101	63.9943
102	64.613
103	65.2312
104	65.849
105	66.4662
106	67.0829
107	67.6991
108	68.3147
109	68.9299
110	69.5444
111	70.1585
112	70.7721
113	71.3852
114	71.998
115	72.6103
116	73.2222
117	73.8339
118	74.4453
119	75.0564
120	75.6673
121	76.278
122	76.8886
123	77.499
124	78.1093
125	78.7194
126	79.3294
127	79.939
128	80.5483
130	81.7654
132	82.9811
134	84.1959
136	85.4101
138	86.6237
140	87.8367
142	89.0493
144	90.2614
146	91.4731
148	92.6844
150	93.8955
152	95.1064
154	96.3171
156	97.5276
158	98.738
160	99.9482
162	101.158
164	102.368
166	103.578
168	104.788
170	105.998
172	107.207
174	108.416
176	109.626
178	110.834
180	112.043
182	113.252
184	114.46
186	115.668
188	116.875
190	118.083
192	119.29
194	120.497
196	121.704
198	122.911
200	124.117
202	125.323
204	126.529
206	127.734
208	128.938
210	130.142
212	131.345
214	132.548
216	133.75
218	134.952
220	136.153
222	137.354
224	138.554
226	139.754
228	140.953
230	142.152
232	143.351
234	144.55
236	145.749
238	146.947
240	148.146
242	149.344
244	150.542
246	151.74
248	152.938
250	154.136
252	155.334
254	156.532
256	157.73
260	160.125
264	162.52
268	164.914
272	167.308
276	169.702
280	172.096
284	174.49
288	176.883
292	179.276
296	181.669
300	184.062
304	186.455
308	188.848
312	191.24
316	193.632
320	196.024
324	198.416
328	200.807
332	203.199
336	205.59
340	207.981
344	210.372
348	212.763
352	215.153
356	217.543
360	219.934
364	222.324
368	224.714
372	227.104
376	229.493
380	231.883
384	234.272
388	236.661
392	239.05
396	241.439
400	243.827
404	246.214
408	248.597
412	250.971
416	253.34
420	255.703
424	258.065
428	260.424
432	262.782
436	265.14
440	267.497
444	269.854
448	272.21
452	274.566
456	276.922
460	279.278
464	281.633
468	283.988
472	286.343
476	288.697
480	291.051
484	293.404
488	295.757
492	298.11
496	300.463
500	302.816
504	305.168
508	307.52
512	309.872
520	314.576
528	319.28
536	323.983
544	328.685
552	333.387
560	338.088
568	342.789
576	347.489
584	352.188
592	356.888
600	361.586
608	366.284
616	370.982
624	375.679
632	380.376
640	385.072
648	389.767
656	394.462
664	399.157
672	403.851
680	408.544
688	413.236
696	417.929
704	422.62
712	427.312
720	432.002
728	436.692
736	441.381
744	446.069
752	450.756
760	455.443
768	460.129
776	464.813
784	469.497
792	474.179
800	478.853
808	483.456
816	488.05
824	492.641
832	497.229
840	501.815
848	506.4
856	510.984
864	515.567
872	520.149
880	524.731
888	529.312
896	533.893
904	538.473
912	543.054
920	547.633
928	552.213
936	556.792
944	561.371
952	565.949
960	570.527
968	575.105
976	579.683
984	584.26
992	588.836
1000	593.413
1008	597.989
1016	602.566
1024	607.141
1040	616.292
1056	625.443
1072	634.592
1088	643.74
1104	652.887
1120	662.034
1136	671.18
1152	680.324
1168	689.468
1184	698.611
1200	707.752
1216	716.892
1232	726.028
1248	735.161
1264	744.29
1280	753.417
1296	762.542
1312	771.666
1328	780.789
1344	789.911
1360	799.032
1376	808.151
1392	817.269
1408	826.386
1424	835.502
1440	844.617
1456	853.731
1472	862.843
1488	871.954
1504	881.063
1520	890.171
1536	899.277
1552	908.381
1568	917.483
1584	926.583
1600	935.678
1616	944.75
1632	953.819
1648	962.885
1664	971.948
1680	981.008
1696	990.067
1712	999.123
1728	1008.18
1744	1017.23
1760	1026.29
1776	1035.34
1792	1044.39
1808	1053.44
1824	1062.48
1840	1071.53
1856	1080.58
1872	1089.62
1888	1098.67
1904	1107.71
1920	1116.75
1936	1125.79
1952	1134.83
1968	1143.87
1984	1152.91
2000	1161.95
2016	1170.99
2032	1180.02
2048	1189.06
2080	1207.12
2112	1225.18
2144	1243.24
2176	1261.29
2208	1279.33
2240	1297.36
2272	1315.4
2304	1333.42
2336	1351.44
2368	1369.44
2400	1387.44
2432	1405.4
2464	1423.35
2496	1441.3
2528	1459.24
2560	1477.17
2592	1495.1
2624	1513.02
2656	1530.94
2688	1548.85
2720	1566.77
2752	1584.67
2784	1602.58
2816	1620.49
2848	1638.39
2880	1656.28
2912	1674.18
2944	1692.07
2976	1709.96
3008	1727.84
3040	1745.72
3072	1763.6
3104	1781.47
3136	1799.34
3168	1817.21
3200	1835.07
3232	1852.91
3264	1870.74
3296	1888.58
3328	1906.4
3360	1924.23
3392	1942.05
3424	1959.86
3456	1977.68
3488	1995.49
3520	2013.3
3552	2031.11
3584	2048.91
3616	2066.72
3648	2084.52
3680	2102.32
3712	2120.11
3744	2137.91
3776	2155.7
3808	2173.49
3840	2191.27
3872	2209.05
3904	2226.83
3936	2244.6
3968	2262.37
4000	2280.14
4032	2297.89
4064	2315.64
4096	2333.39
4160	2368.87
4224	2404.33
4288	2439.78
4352	2475.22
4416	2510.65
4480	2546.06
4544	2581.46
4608	2616.85
4672	2652.19
4736	2687.4
4800	2722.6
4864	2757.77
4928	2792.91
4992	2828.04
5056	2863.15
5120	2898.25
5184	2933.34
5248	2968.42
5312	3003.49
5376	3038.55
5440	3073.59
5504	3108.6
5568	3143.6
5632	3178.56
5696	3213.5
5760	3248.41
5824	3283.3
5888	3318.18
5952	3353.04
6016	3387.9
6080	3422.73
6144	3457.56
6208	3492.38
6272	3527.18
6336	3561.96
6400	3596.72
6464	3631.46
6528	3666.17
6592	3700.86
6656	3735.54
6720	3770.2
6784	3804.85
6848	3839.49
6912	3874.11
6976	3908.72
7040	3943.31
7104	3977.89
7168	4012.44
7232	4046.96
7296	4081.46
7360	4115.94
7424	4150.41
7488	4184.86
7552	4219.3
7616	4253.72
7680	4288.13
7744	4322.53
7808	4356.92
7872	4391.29
7936	4425.64
8000	4459.97
8064	4494.27
8128	4528.54
8192	4562.8
8320	4631.26
8448	4699.67
8576	4768.04
8704	4836.35
8832	4904.58
8960	4972.73
9088	5040.8
9216	5108.83
9344	5176.78
9472	5244.62
9600	5312.39
9728	5380.09
9856	5447.74
9984	5515.34
10112	5582.9
10240	5650.42
10368	5717.89
10496	5785.31
10624	5852.68
10752	5920.02
10880	5987.32
11008	6054.58
11136	6121.79
11264	6188.95
11392	6256.05
11520	6323.11
11648	6390.13
11776	6457.11
11904	6524.05
12032	6590.95
12160	6657.79
12288	6724.6
12416	6791.37
12544	6858.11
12672	6924.81
12800	6991.46
12928	7058.06
13056	7124.61
13184	7191.13
13312	7257.62
13440	7324.06
13568	7390.47
13696	7456.81
13824	7523.11
13952	7589.36
14080	7655.54
14208	7721.67
14336	7787.77
14464	7853.82
14592	7919.82
14720	7985.78
14848	8051.69
14976	8117.58
15104	8183.42
15232	8249.21
15360	8314.96
15488	8380.67
15616	8446.34
15744	8511.97
15872	8577.57
16000	8643.12
16128	8708.64
16256	8774.11
16384	8839.55
16640	8970.34
16896	9100.98
17152	9231.48
17408	9361.86
17664	9492.11
17920	9622.23
18176	9752.23
18432	9882.09
18688	10011.8
18944	10141.3
19200	10270.7
19456	10400
19712	10529.2
19968	10658.2
20224	10787.2
20480	10916
20736	11044.7
20992	11173.3
21248	11301.8
21504	11430.2
21760	11558.4
22016	11686.6
22272	11814.6
22528	11942.6
22784	12070.5
23040	12198.2
23296	12325.9
23552	12453.4
23808	12580.9
24064	12708.2
24320	12835.4
24576	12962.6
24832	13089.7
25088	13216.7
25344	13343.6
25600	13470.4
25856	13597.2
26112	13723.8
26368	13850.4
26624	13976.9
26880	14103.3
27136	14229.7
27392	14356
27648	14482.2
27904	14608.3
28160	14734.3
28416	14860.2
28672	14986.1
28928	15111.9
29184	15237.6
29440	15363.2
29696	15488.7
29952	15614.1
30208	15739.5
30464	15864.7
30720	15989.9
30976	16114.9
31232	16239.9
31488	16364.7
31744	16489.5
32000	16614.2
32256	16738.8
32512	16863.3
32768	16987.7
33280	17236.2
33792	17484.4
34304	17732.1
34816	17979.4
35328	18226.4
35840	18473
36352	18719.2
36864	18965
37376	19210.5
37888	19455.6
38400	19700.2
38912	19944.5
39424	20188.5
39936	20432.1
40448	20675.3
40960	20918.2
41472	21160.7
41984	21402.8
42496	21644.5
43008	21885.9
43520	22127
44032	22367.8
44544	22608.2
45056	22848.4
45568	23088.2
46080	23327.6
46592	23566.8
47104	23805.6
47616	24044
48128	24282.1
48640	24519.8
49152	24757.1
49664	24994.1
50176	25230.7
50688	25466.9
51200	25702.8
51712	25938.3
52224	26173.4
52736	26408.2
53248	26642.5
53760	26876.4
54272	27109.9
54784	27343
55296	27575.7
55808	27808
56320	28040
56832	28271.5
57344	28502.6
57856	28733.3
58368	28963.6
58880	29193.6
59392	29423.2
59904	29652.4
60416	29881.3
60928	30109.7
61440	30337.7
61952	30565.4
62464	30792.7
62976	31019.5
63488	31246
64000	31472.1
64512	31697.8
65024	31923.2
65536	32148.3
66560	32597.2
67584	33044.4
68608	33490
69632	33934.2
70656	34376.8
71680	34816.5
72704	35253.7
73728	35688.8
74752	36122.6
75776	36555.1
76800	36986.3
77824	37416.1
78848	37844.6
79872	38272.1
80896	38698.5
81920	39123.9
82944	39548.4
83968	39972
84992	40394.7
86016	40816.6
87040	41237.6
88064	41657.8
89088	42077.4
90112	42496.2
91136	42914.3
92160	43331.9
93184	43749
94208	44165.5
95232	44581.6
96256	44997.2
97280	45412.3
98304	45827.1
99328	46241.4
100352	46655.3
101376	47068.9
102400	47481.9
103424	47894.6
104448	48306.8
105472	48718.5
106496	49129.8
107520	49540.7
108544	49951.1
109568	50361
110592	50770.5
111616	51179.5
112640	51588
113664	51996.1
114688	52403.7
115712	52811
116736	53217.8
117760	53624.3
118784	54030.4
119808	54436
120832	54841.3
121856	55246.1
122880	55650.4
123904	56054.3
124928	56457.7
125952	56860.6
126976	57262.9
128000	57664.7
129024	58065.9
130048	58466.6
131072	58866.7
133120	59665.4
135168	60461.9
137216	61256.3
139264	62048.6
141312	62838.6
143360	63626.2
145408	64406.1
147456	65183.1
149504	65957.8
151552	66730.6
153600	67501.9
155648	68271.5
157696	69039.6
159744	69806.2
161792	70571.5
163840	71335.5
165888	72098.5
167936	72860.4
169984	73621.5
172032	74381.8
174080	75141.2
176128	75900
178176	76657.9
180224	77415
182272	78171.3
184320	78926.8
186368	79681.5
188416	80435.5
190464	81188.8
192512	81941.3
194560	82692.9
196608	83443.8
198656	84193.7
200704	84942.5
202752	85690.4
204800	86437.2
206848	87183
208896	87927.8
210944	88671.4
212992	89413.9
215040	90155.5
217088	90893.5
219136	91629.6
221184	92364.4
223232	93098.2
225280	93831
227328	94562.7
229376	95293.5
231424	96023.3
233472	96752.2
235520	97480.2
237568	98207.6
239616	98934.4
241664	99660.6
243712	100386
245760	101111
247808	101836
249856	102560
251904	103283
253952	104006
256000	104728
258048	105449
260096	106170
262144	106891
266240	108330
270336	109768
274432	111202
278528	112633
282624	114061
286720	115485
290816	116898
294912	118307
299008	119712
303104	121114
307200	122513
311296	123910
315392	125305
319488	126698
323584	128088
327680	129477
331776	130864
335872	132249
339968	133632
344064	135014
348160	136392
352256	137768
356352	139141
360448	140508
364544	141869
368640	143228
372736	144583
376832	145936
380928	147286
385024	148635
389120	149981
393216	151326
397312	152669
401408	154010
405504	155350
409600	156688
413696	158025
417792	159359
421888	160692
425984	162022
430080	163347
434176	164663
438272	165974
442368	167282
446464	168588
450560	169891
454656	171192
458752	172492
462848	173790
466944	175086
471040	176381
475136	177674
479232	178966
483328	180256
487424	181545
491520	182830
495616	184114
499712	185395
503808	186670
507904	187939
512000	189206
516096	190470
520192	191731
524288	192990
532480	195504
540672	198012
548864	200514
557056	203010
565248	205499
573440	207976
581632	210435
589824	212883
598016	215321
606208	217754
614400	220181
622592	222604
630784	225019
638976	227427
647168	229823
655360	232205
663552	234577
671744	236941
679936	239299
688128	241652
696320	244000
704512	246341
712704	248674
720896	250993
729088	253297
737280	255590
745472	257876
753664	260157
761856	262433
770048	264704
778240	266969
786432	269223
794624	271462
802816	273689
811008	275908
819200	278120
827392	280328
835584	282531
843776	284729
851968	286920
860160	289100
868352	291265
876544	293419
884736	295567
892928	297709
901120	299846
909312	301980
917504	304108
925696	306229
933888	308336
942080	310430
950272	312516
958464	314595
966656	316668
974848	318737
983040	320801
991232	322861
999424	324912
1007616	326953
1015808	328981
1024000	331000
1032192	333012
1040384	335021
1048576	337026
1064960	341022
1081344	344987
1097728	348917
1114112	352825
1130496	356718
1146880	360587
1163264	364416
1179648	368218
1196032	372005
1212416	375774
1228800	379505
1245184	383195
1261568	386868
1277952	390527
1294336	394158
1310720	397753
1327104	401328
1343488	404890
1359872	408431
1376256	411936
1392640	415413
1409024	418875
1425408	422323
1441792	425740
1458176	429125
1474560	432494
1490944	435852
1507328	439186
1523712	442486
1540096	445765
1556480	449031
1572864	452282
1589248	455500
1605632	458691
1622016	461867
1638400	465032
1654784	468172
1671168	471284
1687552	474378
1703936	477462
1720320	480527
1736704	483564
1753088	486581
1769472	489587
1785856	492580
1802240	495545
1818624	498483
1835008	501407
1851392	504321
1867776	507215
1884160	510078
1900544	512923
1916928	515758
1933312	518580
1949696	521376
1966080	524152
1982464	526917
1998848	529671
2015232	532406
2031616	535115
2048000	537813
2064384	540503
2080768	543178
2097152	545826
2129920	551077
2162688	556275
2195456	561397
2228224	566474
2260992	571472
2293760	576423
2326528	581293
2359296	586120
2392064	590868
2424832	595563
2457600	600199
2490368	604779
2523136	609313
2555904	613787
2588672	618223
2621440	622590
2654208	626923
2686976	631192
2719744	635426
2752512	639600
2785280	643732
2818048	647809
2850816	651840
2883584	655825
2916352	659757
2949120	663655
2981888	667499
3014656	671313
3047424	675073
3080192	678803
3112960	682482
3145728	686126
3178496	689729
3211264	693291
3244032	696814
3276800	700292
3309568	703736
3342336	707132
3375104	710500
3407872	713823
3440640	717121
3473408	720375
3506176	723602
3538944	726787
3571712	729944
3604480	733068
3637248	736156
3670016	739216
3702784	742238
3735552	745237
3768320	748194
3801088	751128
3833856	754023
3866624	756895
3899392	759734
3932160	762549
3964928	765332
3997696	768090
4030464	770823
4063232	773527
4096000	776209
4128768	778862
4161536	781494
4194304	784093
4259840	789217
4325376	794239
4390912	799167
4456448	804008
4521984	808755
4587520	813408
4653056	817978
4718592	822468
4784128	826876
4849664	831204
4915200	835457
4980736	839640
5046272	843753
5111808	847797
5177344	851770
5242880	855676
5308416	859512
5373952	863279
5439488	866980
5505024	870620
5570560	874199
5636096	877723
5701632	881194
5767168	884613
5832704	887977
5898240	891284
5963776	894539
6029312	897748
6094848	900914
6160384	904027
6225920	907094
6291456	910112
6356992	913082
6422528	916004
6488064	918884
6553600	921723
6619136	924521
6684672	927280
6750208	929997
6815744	932674
6881280	935312
6946816	937915
7012352	940489
7077888	943029
7143424	945530
7208960	947997
7274496	950433
7340032	952840
7405568	955219
7471104	957571
7536640	959893
7602176	962184
7667712	964446
7733248	966684
7798784	968899
7864320	971088
7929856	973252
7995392	975392
8060928	977508
8126464	979600
8192000	981666
8257536	983710
8323072	985735
8388608	987739
8519680	991683
8650752	995548
8781824	999326
8912896	1.00303e+06
9043968	1.00666e+06
9175040	1.01021e+06
9306112	1.01369e+06
9437184	1.01711e+06
9568256	1.02047e+06
9699328	1.02376e+06
9830400	1.02698e+06
9961472	1.03016e+06
10092544	1.03326e+06
10223616	1.03632e+06
10354688	1.03931e+06
10485760	1.04225e+06
10616832	1.04514e+06
10747904	1.04797e+06
10878976	1.05075e+06
11010048	1.05349e+06
11141120	1.05618e+06
11272192	1.05882e+06
11403264	1.06142e+06
11534336	1.06398e+06
11665408	1.06651e+06
11796480	1.06899e+06
11927552	1.07143e+06
12058624	1.07382e+06
12189696	1.07618e+06
12320768	1.07849e+06
12451840	1.08077e+06
12582912	1.08302e+06
12713984	1.08523e+06
12845056	1.08742e+06
12976128	1.08959e+06
13107200	1.09172e+06
13238272	1.09383e+06
13369344	1.09591e+06
13500416	1.09797e+06
13631488	1.10001e+06
13762560	1.10203e+06
13893632	1.10403e+06
14024704	1.106e+06
14155776	1.10796e+06
14286848	1.10988e+06
14417920	1.11178e+06
14548992	1.11366e+06
14680064	1.11551e+06
14811136	1.11734e+06
14942208	1.11914e+06
15073280	1.12092e+06
15204352	1.12267e+06
15335424	1.12441e+06
15466496	1.12612e+06
15597568	1.12782e+06
15728640	1.1295e+06
15859712	1.13116e+06
15990784	1.13281e+06
16121856	1.13444e+06
16252928	1.13605e+06
16384000	1.13764e+06
16515072	1.13921e+06
16646144	1.14077e+06
16777216	1.14231e+06
17039360	1.14533e+06
17301504	1.14829e+06
17563648	1.15119e+06
17825792	1.15403e+06
18087936	1.15679e+06
18350080	1.15949e+06
18612224	1.16215e+06
18874368	1.16477e+06
19136512	1.16732e+06
19398656	1.16983e+06
19660800	1.17229e+06
19922944	1.17471e+06
20185088	1.17708e+06
20447232	1.17944e+06
20709376	1.18176e+06
20971520	1.18405e+06
21233664	1.18631e+06
21495808	1.18853e+06
21757952	1.19073e+06
22020096	1.1929e+06
22282240	1.19504e+06
22544384	1.19714e+06
22806528	1.19919e+06
23068672	1.2012e+06
23330816	1.20319e+06
23592960	1.20518e+06
23855104	1.20715e+06
24117248	1.20908e+06
24379392	1.21098e+06
24641536	1.21287e+06
24903680	1.21474e+06
25165824	1.21657e+06
25427968	1.21838e+06
25690112	1.22018e+06
25952256	1.22196e+06
26214400	1.22371e+06
26476544	1.22541e+06
26738688	1.22713e+06
27000832	1.22884e+06
27262976	1.23054e+06
27525120	1.23225e+06
27787264	1.23396e+06
28049408	1.23578e+06
28311552	1.23765e+06
28573696	1.23966e+06
28835840	1.24289e+06
29097984	1.25444e+06
29360128	1.25444e+06
29622272	1.25444e+06
29884416	1.25444e+06
30146560	1.25444e+06
30408704	1.25444e+06
30670848	1.25444e+06
30932992	1.25444e+06
31195136	1.25444e+06
31457280	1.25444e+06
31719424	1.25444e+06
31981568	1.25444e+06
32243712	1.25444e+06
32505856	1.25444e+06
32768000	1.25444e+06
33030144	1.25444e+06
33292288	1.25444e+06
33554432	1.25444e+06
34078720	1.25444e+06
34603008	1.25444e+06
35127296	1.25444e+06
35651584	1.25444e+06
36175872	1.25444e+06
36700160	1.25444e+06
37224448	1.25444e+06
37748736	1.25444e+06
38273024	1.25444e+06
38797312	1.25444e+06
39321600	1.25444e+06
39845888	1.25444e+06
40370176	1.25444e+06
40894464	1.25444e+06
41418752	1.25444e+06
41943040	1.25444e+06
42467328	1.25444e+06
42991616	1.25444e+06
43515904	1.25444e+06
44040192	1.25444e+06
44564480	1.25444e+06
45088768	1.25444e+06
45613056	1.25444e+06
46137344	1.25444e+06
46661632	1.25444e+06
47185920	1.25444e+06
47710208	1.25444e+06
48234496	1.25444e+06
48758784	1.25444e+06
49283072	1.25444e+06
49807360	1.25444e+06
50331648	1.25444e+06
50855936	1.25444e+06
51380224	1.25444e+06
51904512	1.25444e+06
52428800	1.25444e+06
52953088	1.25444e+06
53477376	1.25444e+06
54001664	1.25444e+06
54525952	1.25444e+06
55050240	1.25444e+06
55574528	1.25444e+06
56098816	1.25444e+06
56623104	1.25444e+06
57147392	1.25444e+06
57671680	1.25444e+06
58195968	1.25444e+06
58720256	1.25444e+06
59244544	1.25444e+06
59768832	1.25444e+06
60293120	1.25444e+06
60817408	1.25444e+06
61341696	1.25444e+06
61865984	1.25444e+06
62390272	1.25444e+06
62914560	1.25444e+06
63438848	1.25444e+06
63963136	1.25444e+06
64487424	1.25444e+06
65011712	1.25444e+06
65536000	1.25444e+06
66060288	1.25444e+06
66584576	1.25444e+06
67108864	1.25444e+06
68157440	1.25444e+06
69206016	1.25444e+06
70254592	1.25444e+06
71303168	1.25444e+06
72351744	1.25444e+06
73400320	1.25444e+06
74448896	1.25444e+06
75497472	1.25444e+06
76546048	1.25444e+06
77594624	1.25444e+06
78643200	1.25444e+06
79691776	1.25444e+06
80740352	1.25444e+06
81788928	1.25444e+06
82837504	1.25444e+06
83886080	1.25444e+06
84934656	1.25444e+06
85983232	1.25444e+06
87031808	1.25444e+06
88080384	1.25444e+06
89128960	1.25444e+06
90177536	1.25444e+06
91226112	1.25444e+06
92274688	1.25444e+06
93323264	1.25444e+06
94371840	1.25444e+06
95420416	1.25444e+06
96468992	1.25444e+06
97517568	1.25444e+06
98566144	1.25444e+06
99614720	1.25444e+06
100663296	1.25444e+06
101711872	1.25444e+06
102760448	1.25444e+06
103809024	1.25444e+06
104857600	1.25444e+06
105906176	1.25444e+06
106954752	1.25444e+06
108003328	1.25444e+06
109051904	1.25444e+06
110100480	1.25444e+06
111149056	1.25444e+06
112197632	1.25444e+06
113246208	1.25444e+06
114294784	1.25444e+06
115343360	1.25444e+06
116391936	1.25444e+06
117440512	1.25444e+06
118489088	1.25444e+06
119537664	1.25444e+06
120586240	1.25444e+06
121634816	1.25444e+06
122683392	1.25444e+06
123731968	1.25444e+06
124780544	1.25444e+06
125829120	1.25444e+06
126877696	1.25444e+06
127926272	1.25444e+06
128974848	1.25444e+06
130023424	1.25444e+06
131072000	1.25444e+06
132120576	1.25444e+06
133169152	1.25444e+06
134217728	1.25444e+06
136314880	1.25444e+06
138412032	1.25444e+06
140509184	1.25444e+06
142606336	1.25444e+06
144703488	1.25444e+06
146800640	1.25444e+06
148897792	1.25444e+06
150994944	1.25444e+06
153092096	1.25444e+06
155189248	1.25444e+06
157286400	1.25444e+06
159383552	1.25444e+06
161480704	1.25444e+06
163577856	1.25444e+06
165675008	1.25444e+06
167772160	1.25444e+06
169869312	1.25444e+06
171966464	1.25444e+06
174063616	1.25444e+06
176160768	1.25444e+06
178257920	1.25444e+06
180355072	1.25444e+06
182452224	1.25444e+06
184549376	1.25444e+06
186646528	1.25444e+06
188743680	1.25444e+06
190840832	1.25444e+06
192937984	1.25444e+06
195035136	1.25444e+06
197132288	1.25444e+06
199229440	1.25444e+06
201326592	1.25444e+06
203423744	1.25444e+06
205520896	1.25444e+06
207618048	1.25444e+06
209715200	1.25444e+06
211812352	1.25444e+06
213909504	1.25444e+06
216006656	1.25444e+06
218103808	1.25444e+06
220200960	1.25444e+06
222298112	1.25444e+06
224395264	1.25444e+06
226492416	1.25444e+06
228589568	1.25444e+06
230686720	1.25444e+06
232783872	1.25444e+06
234881024	1.25444e+06
236978176	1.25444e+06
239075328	1.25444e+06
241172480	1.25444e+06
243269632	1.25444e+06
245366784	1.25444e+06
247463936	1.25444e+06
249561088	1.25444e+06
251658240	1.25444e+06
253755392	1.25444e+06
255852544	1.25444e+06
257949696	1.25444e+06
260046848	1.25444e+06
262144000	1.25444e+06
264241152	1.25444e+06
266338304	1.25444e+06
268435456	1.25444e+06
272629760	1.25444e+06
276824064	1.25444e+06
281018368	1.25444e+06
285212672	1.25444e+06
289406976	1.25444e+06
293601280	1.25444e+06
297795584	1.25444e+06
301989888	1.25444e+06
306184192	1.25444e+06
310378496	1.25444e+06
314572800	1.25444e+06
318767104	1.25444e+06
322961408	1.25444e+06
327155712	1.25444e+06
331350016	1.25444e+06
335544320	1.25444e+06
339738624	1.25444e+06
343932928	1.25444e+06
348127232	1.25444e+06
352321536	1.25444e+06
356515840	1.25444e+06
360710144	1.25444e+06
364904448	1.25444e+06
369098752	1.25444e+06
373293056	1.25444e+06
377487360	1.25444e+06
381681664	1.25444e+06
385875968	1.25444e+06
390070272	1.25444e+06
394264576	1.25444e+06
398458880	1.25444e+06
402653184	1.25444e+06
406847488	1.25444e+06
411041792	1.25444e+06
415236096	1.25444e+06
419430400	1.25444e+06
423624704	1.25444e+06
427819008	1.25444e+06
432013312	1.25444e+06
436207616	1.25444e+06
440401920	1.25444e+06
444596224	1.25444e+06
448790528	1.25444e+06
452984832	1.25444e+06
457179136	1.25444e+06
461373440	1.25444e+06
465567744	1.25444e+06
469762048	1.25444e+06
473956352	1.25444e+06
478150656	1.25444e+06
482344960	1.25444e+06
486539264	1.25444e+06
490733568	1.25444e+06
494927872	1.25444e+06
499122176	1.25444e+06
503316480	1.25444e+06
507510784	1.25444e+06
511705088	1.25444e+06
515899392	1.25444e+06
520093696	1.25444e+06
524288000	1.25444e+06
528482304	1.25444e+06
532676608	1.25444e+06
536870912	1.25444e+06
545259520	1.25444e+06
553648128	1.25444e+06
562036736	1.25444e+06
570425344	1.25444e+06
578813952	1.25444e+06
587202560	1.25444e+06
595591168	1.25444e+06
603979776	1.25444e+06
612368384	1.25444e+06
620756992	1.25444e+06
629145600	1.25444e+06
637534208	1.25444e+06
645922816	1.25444e+06
654311424	1.25444e+06
662700032	1.25444e+06
671088640	1.25444e+06
679477248	1.25444e+06
687865856	1.25444e+06
696254464	1.25444e+06
704643072	1.25444e+06
713031680	1.25444e+06
721420288	1.25444e+06
729808896	1.25444e+06
738197504	1.25444e+06
746586112	1.25444e+06
754974720	1.25444e+06
763363328	1.25444e+06
771751936	1.25444e+06
780140544	1.25444e+06
788529152	1.25444e+06
796917760	1.25444e+06
805306368	1.25444e+06
813694976	1.25444e+06
822083584	1.25444e+06
830472192	1.25444e+06
838860800	1.25444e+06
847249408	1.25444e+06
855638016	1.25444e+06
864026624	1.25444e+06
872415232	1.25444e+06
880803840	1.25444e+06
889192448	1.25444e+06
897581056	1.25444e+06
905969664	1.25444e+06
914358272	1.25444e+06
922746880	1.25444e+06
931135488	1.25444e+06
939524096	1.25444e+06
947912704	1.25444e+06
956301312	1.25444e+06
964689920	1.25444e+06
973078528	1.25444e+06
981467136	1.25444e+06
989855744	1.25444e+06
998244352	1.25444e+06
1006632960	1.25444e+06
1015021568	1.25444e+06
1023410176	1.25444e+06
1031798784	1.25444e+06
1040187392	1.25444e+06
1048576000	1.25444e+06
1056964608	1.25444e+06
1065353216	1.25444e+06
1073741824	1.25444e+06
1090519040	1.25444e+06
1107296256	1.25444e+06
1124073472	1.25444e+06
1140850688	1.25444e+06
1157627904	1.25444e+06
1174405120	1.25444e+06
1191182336	1.25444e+06
1207959552	1.25444e+06
1224736768	1.25444e+06
1241513984	1.25444e+06
1258291200	1.25444e+06
1275068416	1.25444e+06
1291845632	1.25444e+06
1308622848	1.25444e+06
1325400064	1.25444e+06
1342177280	1.25444e+06
1358954496	1.25444e+06
1375731712	1.25444e+06
1392508928	1.25444e+06
1409286144	1.25444e+06
1426063360	1.25444e+06
1442840576	1.25444e+06
1459617792	1.25444e+06
1476395008	1.25444e+06
1493172224	1.25444e+06
1509949440	1.25444e+06
1526726656	1.25444e+06
1543503872	1.25444e+06
1560281088	1.25444e+06
1577058304	1.25444e+06
1593835520	1.25444e+06
1610612736	1.25444e+06
1627389952	1.25444e+06
1644167168	1.25444e+06
1660944384	1.25444e+06
1677721600	1.25444e+06
1694498816	1.25444e+06
1711276032	1.25444e+06
1728053248	1.25444e+06
1744830464	1.25444e+06
1761607680	1.25444e+06
1778384896	1.25444e+06
1795162112	1.25444e+06
1811939328	1.25444e+06
1828716544	1.25444e+06
1845493760	1.25444e+06
1862270976	1.25444e+06
1879048192	1.25444e+06
1895825408	1.25444e+06
1912602624	1.25444e+06
1929379840	1.25444e+06
1946157056	1.25444e+06
1962934272	1.25444e+06
1979711488	1.25444e+06
1996488704	1.25444e+06
2013265920	1.25444e+06
2030043136	1.25444e+06
2046820352	1.25444e+06
2063597568	1.25444e+06
2080374784	1.25444e+06
2097152000	1.25444e+06
2113929216	1.25444e+06
2130706432	1.25444e+06
2147483648	1.25444e+06
2181038080	1.25444e+06
2214592512	1.25444e+06
2248146944	1.25444e+06
2281701376	1.25444e+06
2315255808	1.25444e+06
2348810240	1.25444e+06
2382364672	1.25444e+06
2415919104	1.25444e+06
2449473536	1.25444e+06
2483027968	1.25444e+06
2516582400	1.25444e+06
2550136832	1.25444e+06
2583691264	1.25444e+06
2617245696	1.25444e+06
2650800128	1.25444e+06
2684354560	1.25444e+06
2717908992	1.25444e+06
2751463424	1.25444e+06
2785017856	1.25444e+06
2818572288	1.25444e+06
2852126720	1.25444e+06
2885681152	1.25444e+06
2919235584	1.25444e+06
2952790016	1.25444e+06
2986344448	1.25444e+06
3019898880	1.25444e+06
3053453312	1.25444e+06
3087007744	1.25444e+06
3120562176	1.25444e+06
3154116608	1.25444e+06
3187671040	1.25444e+06
3221225472	1.25444e+06
3254779904	1.25444e+06
3288334336	1.25444e+06
3321888768	1.25444e+06
3355443200	1.25444e+06
3388997632	1.25444e+06
3422552064	1.25444e+06
3456106496	1.25444e+06
3489660928	1.25444e+06
3523215360	1.25444e+06
3556769792	1.25444e+06
3590324224	1.25444e+06
3623878656	1.25444e+06
3657433088	1.25444e+06
3690987520	1.25444e+06
3724541952	1.25444e+06
3758096384	1.25444e+06
3791650816	1.25444e+06
3825205248	1.25444e+06
3858759680	1.25444e+06
3892314112	1.25444e+06
3925868544	1.25444e+06
3959422976	1.25444e+06
3992977408	1.25444e+06
4026531840	1.25444e+06
4060086272	1.25444e+06
4093640704	1.25444e+06
4127195136	1.25444e+06
4160749568	1.25444e+06
4194304000	1.25444e+06
4227858432	1.25444e+06
4261412864	1.25444e+06
4294967296	1.25444e+06
4362076160	1.25444e+06
4429185024	1.25444e+06
4496293888	1.25444e+06
4563402752	1.25444e+06
4630511616	1.25444e+06
4697620480	1.25444e+06
4764729344	1.25444e+06
4831838208	1.25444e+06
4898947072	1.25444e+06
4966055936	1.25444e+06
5033164800	1.25444e+06
5100273664	1.25444e+06
5167382528	1.25444e+06
5234491392	1.25444e+06
5301600256	1.25444e+06
5368709120	1.25444e+06
5435817984	1.25444e+06
5502926848	1.25444e+06
5570035712	1.25444e+06
5637144576	1.25444e+06
5704253440	1.25444e+06
5771362304	1.25444e+06
5838471168	1.25444e+06
5905580032	1.25444e+06
5972688896	1.25444e+06
6039797760	1.25444e+06
6106906624	1.25444e+06
6174015488	1.25444e+06
6241124352	1.25444e+06
6308233216	1.25444e+06
6375342080	1.25444e+06
6442450944	1.25444e+06
6509559808	1.25444e+06
6576668672	1.25444e+06
6643777536	1.25444e+06
6710886400	1.25444e+06
6777995264	1.25444e+06
6845104128	1.25444e+06
6912212992	1.25444e+06
6979321856	1.25444e+06
7046430720	1.25444e+06
7113539584	1.25444e+06
7180648448	1.25444e+06
7247757312	1.25444e+06
7314866176	1.25444e+06
7381975040	1.25444e+06
7449083904	1.25444e+06
7516192768	1.25444e+06
7583301632	1.25444e+06
7650410496	1.25444e+06
7717519360	1.25444e+06
7784628224	1.25444e+06
7851737088	1.25444e+06
7918845952	1.25444e+06
7985954816	1.25444e+06
8053063680	1.25444e+06
8120172544	1.25444e+06
8187281408	1.25444e+06
8254390272	1.25444e+06
8321499136	1.25444e+06
8388608000	1.25444e+06
8455716864	1.25444e+06
8522825728	1.25444e+06
8589934592	1.25444e+06
8724152320	1.25444e+06
8858370048	1.25444e+06
8992587776	1.25444e+06
9126805504	1.25444e+06
9261023232	1.25444e+06
9395240960	1.25444e+06
9529458688	1.25444e+06
9663676416	1.25444e+06
9797894144	1.25444e+06
9932111872	1.25444e+06
10066329600	1.25444e+06
10200547328	1.25444e+06
10334765056	1.25444e+06
10468982784	1.25444e+06
10603200512	1.25444e+06
10737418240	1.25444e+06
10871635968	1.25444e+06
11005853696	1.25444e+06
11140071424	1.25444e+06
11274289152	1.25444e+06
11408506880	1.25444e+06
11542724608	1.25444e+06
11676942336	1.25444e+06
11811160064	1.25444e+06
11945377792	1.25444e+06
12079595520	1.25444e+06
12213813248	1.25444e+06
12348030976	1.25444e+06
12482248704	1.25444e+06
12616466432	1.25444e+06
12750684160	1.25444e+06
12884901888	1.25444e+06
13019119616	1.25444e+06
13153337344	1.25444e+06
13287555072	1.25444e+06
13421772800	1.25444e+06
13555990528	1.25444e+06
13690208256	1.25444e+06
13824425984	1.25444e+06
13958643712	1.25444e+06
14092861440	1.25444e+06
14227079168	1.25444e+06
14361296896	1.25444e+06
14495514624	1.25444e+06
14629732352	1.25444e+06
14763950080	1.25444e+06
14898167808	1.25444e+06
15032385536	1.25444e+06
15166603264	1.25444e+06
15300820992	1.25444e+06
15435038720	1.25444e+06
15569256448	1.25444e+06
15703474176	1.25444e+06
15837691904	1.25444e+06
15971909632	1.25444e+06
16106127360	1.25444e+06
16240345088	1.25444e+06
16374562816	1.25444e+06
16508780544	1.25444e+06
16642998272	1.25444e+06
16777216000	1.25444e+06
16911433728	1.25444e+06
17045651456	1.25444e+06
17179869184	1.25444e+06
17448304640	1.25444e+06
17716740096	1.25444e+06
17985175552	1.25444e+06
18253611008	1.25444e+06
18522046464	1.25444e+06
18790481920	1.25444e+06
19058917376	1.25444e+06
19327352832	1.25444e+06
19595788288	1.25444e+06
19864223744	1.25444e+06
20132659200	1.25444e+06
20401094656	1.25444e+06
20669530112	1.25444e+06
20937965568	1.25444e+06
21206401024	1.25444e+06
21474836480	1.25444e+06
21743271936	1.25444e+06
22011707392	1.25444e+06
22280142848	1.25444e+06
22548578304	1.25444e+06
22817013760	1.25444e+06
23085449216	1.25444e+06
23353884672	1.25444e+06
23622320128	1.25444e+06
23890755584	1.25444e+06
24159191040	1.25444e+06
24427626496	1.25444e+06
24696061952	1.25444e+06
24964497408	1.25444e+06
25232932864	1.25444e+06
25501368320	1.25444e+06
25769803776	1.25444e+06
26038239232	1.25444e+06
26306674688	1.25444e+06
26575110144	1.25444e+06
26843545600	1.25444e+06
27111981056	1.25444e+06
27380416512	1.25444e+06
27648851968	1.25444e+06
27917287424	1.25444e+06
28185722880	1.25444e+06
28454158336	1.25444e+06
28722593792	1.25444e+06
28991029248	1.25444e+06
29259464704	1.25444e+06
29527900160	1.25444e+06
29796335616	1.25444e+06
30064771072	1.25444e+06
30333206528	1.25444e+06
30601641984	1.25444e+06
30870077440	1.25444e+06
31138512896	1.25444e+06
31406948352	1.25444e+06
31675383808	1.25444e+06
31943819264	1.25444e+06
32212254720	1.25444e+06
32480690176	1.25444e+06
32749125632	1.25444e+06
33017561088	1.25444e+06
33285996544	1.25444e+06
33554432000	1.25444e+06
33822867456	1.25444e+06
34091302912	1.25444e+06
34359738368	1.25444e+06
34896609280	1.25444e+06
35433480192	1.25444e+06
35970351104	1.25444e+06
36507222016	1.25444e+06
37044092928	1.25444e+06
37580963840	1.25444e+06
38117834752	1.25444e+06
38654705664	1.25444e+06
39191576576	1.25444e+06
39728447488	1.25444e+06
40265318400	1.25444e+06
40802189312	1.25444e+06
41339060224	1.25444e+06
41875931136	1.25444e+06
42412802048	1.25444e+06
42949672960	1.25444e+06
43486543872	1.25444e+06
44023414784	1.25444e+06
44560285696	1.25444e+06
45097156608	1.25444e+06
45634027520	1.25444e+06
46170898432	1.25444e+06
46707769344	1.25444e+06
47244640256	1.25444e+06
47781511168	1.25444e+06
48318382080	1.25444e+06
48855252992	1.25444e+06
49392123904	1.25444e+06
49928994816	1.25444e+06
50465865728	1.25444e+06
51002736640	1.25444e+06
51539607552	1.25444e+06
52076478464	1.25444e+06
52613349376	1.25444e+06
53150220288	1.25444e+06
53687091200	1.25444e+06
54223962112	1.25444e+06
54760833024	1.25444e+06
55297703936	1.25444e+06
55834574848	1.25444e+06
56371445760	1.25444e+06
56908316672	1.25444e+06
57445187584	1.25444e+06
57982058496	1.25444e+06
58518929408	1.25444e+06
59055800320	1.25444e+06
59592671232	1.25444e+06
60129542144	1.25444e+06
60666413056	1.25444e+06
61203283968	1.25444e+06
61740154880	1.25444e+06
62277025792	1.25444e+06
62813896704	1.25444e+06
63350767616	1.25444e+06
63887638528	1.25444e+06
64424509440	1.25444e+06
64961380352	1.25444e+06
65498251264	1.25444e+06
66035122176	1.25444e+06
66571993088	1.25444e+06
67108864000	1.25444e+06
67645734912	1.25444e+06
68182605824	1.25444e+06
68719476736	1.25444e+06
69793218560	1.25444e+06
70866960384	1.25444e+06
71940702208	1.25444e+06
73014444032	1.25444e+06
74088185856	1.25444e+06
75161927680	1.25444e+06
76235669504	1.25444e+06
77309411328	1.25444e+06
78383153152	1.25444e+06
79456894976	1.25444e+06
80530636800	1.25444e+06
81604378624	1.25444e+06
82678120448	1.25444e+06
83751862272	1.25444e+06
84825604096	1.25444e+06
85899345920	1.25444e+06
86973087744	1.25444e+06
88046829568	1.25444e+06
89120571392	1.25444e+06
90194313216	1.25444e+06
91268055040	1.25444e+06
92341796864	1.25444e+06
93415538688	1.25444e+06
94489280512	1.25444e+06
95563022336	1.25444e+06
96636764160	1.25444e+06
97710505984	1.25444e+06
98784247808	1.25444e+06
99857989632	1.25444e+06
100931731456	1.25444e+06
102005473280	1.25444e+06
103079215104	1.25444e+06
104152956928	1.25444e+06
105226698752	1.25444e+06
106300440576	1.25444e+06
107374182400	1.25444e+06
108447924224	1.25444e+06
109521666048	1.25444e+06
110595407872	1.25444e+06
111669149696	1.25444e+06
112742891520	1.25444e+06
113816633344	1.25444e+06
114890375168	1.25444e+06
115964116992	1.25444e+06
117037858816	1.25444e+06
118111600640	1.25444e+06
119185342464	1.25444e+06
120259084288	1.25444e+06
121332826112	1.25444e+06
122406567936	1.25444e+06
123480309760	1.25444e+06
124554051584	1.25444e+06
125627793408	1.25444e+06
126701535232	1.25444e+06
127775277056	1.25444e+06
128849018880	1.25444e+06
129922760704	1.25444e+06
130996502528	1.25444e+06
132070244352	1.25444e+06
133143986176	1.25444e+06
134217728000	1.25444e+06
135291469824	1.25444e+06
136365211648	1.25444e+06
137438953472	1.25444e+06
139586437120	1.25444e+06
141733920768	1.25444e+06
143881404416	1.25444e+06
146028888064	1.25444e+06
148176371712	1.25444e+06
150323855360	1.25444e+06
152471339008	1.25444e+06
154618822656	1.25444e+06
156766306304	1.25444e+06
158913789952	1.25444e+06
161061273600	1.25444e+06
163208757248	1.25444e+06
165356240896	1.25444e+06
167503724544	1.25444e+06
169651208192	1.25444e+06
171798691840	1.25444e+06
173946175488	1.25444e+06
176093659136	1.25444e+06
178241142784	1.25444e+06
180388626432	1.25444e+06
182536110080	1.25444e+06
184683593728	1.25444e+06
186831077376	1.25444e+06
188978561024	1.25444e+06
191126044672	1.25444e+06
193273528320	1.25444e+06
195421011968	1.25444e+06
197568495616	1.25444e+06
199715979264	1.25444e+06
201863462912	1.25444e+06
204010946560	1.25444e+06
206158430208	1.25444e+06
208305913856	1.25444e+06
210453397504	1.25444e+06
212600881152	1.25444e+06
214748364800	1.25444e+06
216895848448	1.25444e+06
219043332096	1.25444e+06
221190815744	1.25444e+06
223338299392	1.25444e+06
225485783040	1.25444e+06
227633266688	1.25444e+06
229780750336	1.25444e+06
231928233984	1.25444e+06
234075717632	1.25444e+06
236223201280	1.25444e+06
238370684928	1.25444e+06
240518168576	1.25444e+06
242665652224	1.25444e+06
244813135872	1.25444e+06
246960619520	1.25444e+06
249108103168	1.25444e+06
251255586816	1.25444e+06
253403070464	1.25444e+06
255550554112	1.25444e+06
257698037760	1.25444e+06
259845521408	1.25444e+06
261993005056	1.25444e+06
264140488704	1.25444e+06
266287972352	1.25444e+06
268435456000	1.25444e+06
270582939648	1.25444e+06
272730423296	1.25444e+06
274877906944	1.25444e+06
279172874240	1.25444e+06
283467841536	1.25444e+06
287762808832	1.25444e+06
292057776128	1.25444e+06
296352743424	1.25444e+06
300647710720	1.25444e+06
304942678016	1.25444e+06
309237645312	1.25444e+06
313532612608	1.25444e+06
317827579904	1.25444e+06
322122547200	1.25444e+06
326417514496	1.25444e+06
330712481792	1.25444e+06
335007449088	1.25444e+06
339302416384	1.25444e+06
343597383680	1.25444e+06
347892350976	1.25444e+06
352187318272	1.25444e+06
356482285568	1.25444e+06
360777252864	1.25444e+06
365072220160	1.25444e+06
369367187456	1.25444e+06
373662154752	1.25444e+06
377957122048	1.25444e+06
382252089344	1.25444e+06
386547056640	1.25444e+06
390842023936	1.25444e+06
395136991232	1.25444e+06
399431958528	1.25444e+06
403726925824	1.25444e+06
408021893120	1.25444e+06
412316860416	1.25444e+06
416611827712	1.25444e+06
420906795008	1.25444e+06
425201762304	1.25444e+06
429496729600	1.25444e+06
433791696896	1.25444e+06
438086664192	1.25444e+06
442381631488	1.25444e+06
446676598784	1.25444e+06
450971566080	1.25444e+06
455266533376	1.25444e+06
459561500672	1.25444e+06
463856467968	1.25444e+06
468151435264	1.25444e+06
472446402560	1.25444e+06
476741369856	1.25444e+06
481036337152	1.25444e+06
485331304448	1.25444e+06
489626271744	1.25444e+06
493921239040	1.25444e+06
498216206336	1.25444e+06
502511173632	1.25444e+06
506806140928	1.25444e+06
511101108224	1.25444e+06
515396075520	1.25444e+06
519691042816	1.25444e+06
523986010112	1.25444e+06
528280977408	1.25444e+06
532575944704	1.25444e+06
536870912000	1.25444e+06
541165879296	1.25444e+06
545460846592	1.25444e+06
549755813888	1.25444e+06
558345748480	1.25444e+06
566935683072	1.25444e+06
575525617664	1.25444e+06
584115552256	1.25444e+06
592705486848	1.25444e+06
601295421440	1.25444e+06
609885356032	1.25444e+06
618475290624	1.25444e+06
627065225216	1.25444e+06
635655159808	1.25444e+06
644245094400	1.25444e+06
652835028992	1.25444e+06
661424963584	1.25444e+06
670014898176	1.25444e+06
678604832768	1.25444e+06
687194767360	1.25444e+06
695784701952	1.25444e+06
704374636544	1.25444e+06
712964571136	1.25444e+06
721554505728	1.25444e+06
730144440320	1.25444e+06
738734374912	1.25444e+06
747324309504	1.25444e+06
755914244096	1.25444e+06
764504178688	1.25444e+06
773094113280	1.25444e+06
781684047872	1.25444e+06
790273982464	1.25444e+06
798863917056	1.25444e+06
807453851648	1.25444e+06
816043786240	1.25444e+06
824633720832	1.25444e+06
833223655424	1.25444e+06
841813590016	1.25444e+06
850403524608	1.25444e+06
858993459200	1.25444e+06
867583393792	1.25444e+06
876173328384	1.25444e+06
884763262976	1.25444e+06
893353197568	1.25444e+06
901943132160	1.25444e+06
910533066752	1.25444e+06
919123001344	1.25444e+06
927712935936	1.25444e+06
936302870528	1.25444e+06
944892805120	1.25444e+06
953482739712	1.25444e+06
962072674304	1.25444e+06
970662608896	1.25444e+06
979252543488	1.25444e+06
987842478080	1.25444e+06
996432412672	1.25444e+06
1005022347264	1.25444e+06
1013612281856	1.25444e+06
1022202216448	1.25444e+06
1030792151040	1.25444e+06
1039382085632	1.25444e+06
1047972020224	1.25444e+06
1056561954816	1.25444e+06
1065151889408	1.25444e+06
1073741824000	1.25444e+06
1082331758592	1.25444e+06
1090921693184	1.25444e+06
1099511627776	1.25444e+06
1116691496960	1.25444e+06
1133871366144	1.25444e+06
1151051235328	1.25444e+06
1168231104512	1.25444e+06
1185410973696	1.25444e+06
1202590842880	1.25444e+06
1219770712064	1.25444e+06
1236950581248	1.25444e+06
1254130450432	1.25444e+06
1271310319616	1.25444e+06
1288490188800	1.25444e+06
1305670057984	1.25444e+06
1322849927168	1.25444e+06
1340029796352	1.25444e+06
1357209665536	1.25444e+06
1374389534720	1.25444e+06
1391569403904	1.25444e+06
1408749273088	1.25444e+06
1425929142272	1.25444e+06
1443109011456	1.25444e+06
1460288880640	1.25444e+06
1477468749824	1.25444e+06
1494648619008	1.25444e+06
1511828488192	1.25444e+06
1529008357376	1.25444e+06
1546188226560	1.25444e+06
1563368095744	1.25444e+06
1580547964928	1.25444e+06
1597727834112	1.25444e+06
1614907703296	1.25444e+06
1632087572480	1.25444e+06
1649267441664	1.25444e+06
1666447310848	1.25444e+06
1683627180032	1.25444e+06
1700807049216	1.25444e+06
1717986918400	1.25444e+06
1735166787584	1.25444e+06
1752346656768	1.25444e+06
1769526525952	1.25444e+06
1786706395136	1.25444e+06
1803886264320	1.25444e+06
1821066133504	1.25444e+06
1838246002688	1.25444e+06
1855425871872	1.25444e+06
1872605741056	1.25444e+06
1889785610240	1.25444e+06
1906965479424	1.25444e+06
1924145348608	1.25444e+06
1941325217792	1.25444e+06
1958505086976	1.25444e+06
1975684956160	1.25444e+06
1992864825344	1.25444e+06
2010044694528	1.25444e+06
2027224563712	1.25444e+06
2044404432896	1.25444e+06
2061584302080	1.25444e+06
2078764171264	1.25444e+06
2095944040448	1.25444e+06
2113123909632	1.25444e+06
2130303778816	1.25444e+06
2147483648000	1.25444e+06
2164663517184	1.25444e+06
2181843386368	1.25444e+06
2199023255552	1.25444e+06
2233382993920	1.25444e+06
2267742732288	1.25444e+06
2302102470656	1.25444e+06
2336462209024	1.25444e+06
2370821947392	1.25444e+06
2405181685760	1.25444e+06
2439541424128	1.25444e+06
2473901162496	1.25444e+06
2508260900864	1.25444e+06
2542620639232	1.25444e+06
2576980377600	1.25444e+06
2611340115968	1.25444e+06
2645699854336	1.25444e+06
2680059592704	1.25444e+06
2714419331072	1.25444e+06
2748779069440	1.25444e+06
2783138807808	1.25444e+06
2817498546176	1.25444e+06
2851858284544	1.25444e+06
2886218022912	1.25444e+06
2920577761280	1.25444e+06
2954937499648	1.25444e+06
2989297238016	1.25444e+06
3023656976384	1.25444e+06
3058016714752	1.25444e+06
3092376453120	1.25444e+06
3126736191488	1.25444e+06
3161095929856	1.25444e+06
3195455668224	1.25444e+06
3229815406592	1.25444e+06
3264175144960	1.25444e+06
3298534883328	1.25444e+06
3332894621696	1.25444e+06
3367254360064	1.25444e+06
3401614098432	1.25444e+06
3435973836800	1.25444e+06
3470333575168	1.25444e+06
3504693313536	1.25444e+06
3539053051904	1.25444e+06
3573412790272	1.25444e+06
3607772528640	1.25444e+06
3642132267008	1.25444e+06
3676492005376	1.25444e+06
3710851743744	1.25444e+06
3745211482112	1.25444e+06
3779571220480	1.25444e+06
3813930958848	1.25444e+06
3848290697216	1.25444e+06
3882650435584	1.25444e+06
3917010173952	1.25444e+06
3951369912320	1.25444e+06
3985729650688	1.25444e+06
4020089389056	1.25444e+06
4054449127424	1.25444e+06
4088808865792	1.25444e+06
4123168604160	1.25444e+06
4157528342528	1.25444e+06
4191888080896	1.25444e+06
4226247819264	1.25444e+06
4260607557632	1.25444e+06
4294967296000	1.25444e+06
4329327034368	1.25444e+06
4363686772736	1.25444e+06
4398046511104	1.25444e+06
4466765987840	1.25444e+06
4535485464576	1.25444e+06
4604204941312	1.25444e+06
4672924418048	1.25444e+06
4741643894784	1.25444e+06
4810363371520	1.25444e+06
4879082848256	1.25444e+06
4947802324992	1.25444e+06
5016521801728	1.25444e+06
5085241278464	1.25444e+06
5153960755200	1.25444e+06
5222680231936	1.25444e+06
5291399708672	1.25444e+06
5360119185408	1.25444e+06
5428838662144	1.25444e+06
5497558138880	1.25444e+06
5566277615616	1.25444e+06
5634997092352	1.25444e+06
5703716569088	1.25444e+06
5772436045824	1.25444e+06
5841155522560	1.25444e+06
5909874999296	1.25444e+06
5978594476032	1.25444e+06
6047313952768	1.25444e+06
6116033429504	1.25444e+06
6184752906240	1.25444e+06
6253472382976	1.25444e+06
6322191859712	1.25444e+06
6390911336448	1.25444e+06
6459630813184	1.25444e+06
6528350289920	1.25444e+06
6597069766656	1.25444e+06
6665789243392	1.25444e+06
6734508720128	1.25444e+06
6803228196864	1.25444e+06
6871947673600	1.25444e+06
6940667150336	1.25444e+06
7009386627072	1.25444e+06
7078106103808	1.25444e+06
7146825580544	1.25444e+06
7215545057280	1.25444e+06
7284264534016	1.25444e+06
7352984010752	1.25444e+06
7421703487488	1.25444e+06
7490422964224	1.25444e+06
7559142440960	1.25444e+06
7627861917696	1.25444e+06
7696581394432	1.25444e+06
7765300871168	1.25444e+06
7834020347904	1.25444e+06
7902739824640	1.25444e+06
7971459301376	1.25444e+06
8040178778112	1.25444e+06
8108898254848	1.25444e+06
8177617731584	1.25444e+06
8246337208320	1.25444e+06
8315056685056	1.25444e+06
8383776161792	1.25444e+06
8452495638528	1.25444e+06
8521215115264	1.25444e+06
8589934592000	1.25444e+06
8658654068736	1.25444e+06
8727373545472	1.25444e+06
8796093022208	1.25444e+06
8933531975680	1.25444e+06
9070970929152	1.25444e+06
9208409882624	1.25444e+06
9345848836096	1.25444e+06
9483287789568	1.25444e+06
9620726743040	1.25444e+06
9758165696512	1.25444e+06
9895604649984	1.25444e+06
10033043603456	1.25444e+06
10170482556928	1.25444e+06
10307921510400	1.25444e+06
10445360463872	1.25444e+06
10582799417344	1.25444e+06
10720238370816	1.25444e+06
10857677324288	1.25444e+06
10995116277760	1.25444e+06
11132555231232	1.25444e+06
11269994184704	1.25444e+06
11407433138176	1.25444e+06
11544872091648	1.25444e+06
11682311045120	1.25444e+06
11819749998592	1.25444e+06
11957188952064	1.25444e+06
12094627905536	1.25444e+06
12232066859008	1.25444e+06
12369505812480	1.25444e+06
12506944765952	1.25444e+06
12644383719424	1.25444e+06
12781822672896	1.25444e+06
12919261626368	1.25444e+06
13056700579840	1.25444e+06
13194139533312	1.25444e+06
13331578486784	1.25444e+06
13469017440256	1.25444e+06
13606456393728	1.25444e+06
13743895347200	1.25444e+06
13881334300672	1.25444e+06
14018773254144	1.25444e+06
14156212207616	1.25444e+06
14293651161088	1.25444e+06
14431090114560	1.25444e+06
14568529068032	1.25444e+06
14705968021504	1.25444e+06
14843406974976	1.25444e+06
14980845928448	1.25444e+06
15118284881920	1.25444e+06
15255723835392	1.25444e+06
15393162788864	1.25444e+06
15530601742336	1.25444e+06
15668040695808	1.25444e+06
15805479649280	1.25444e+06
15942918602752	1.25444e+06
16080357556224	1.25444e+06
16217796509696	1.25444e+06
16355235463168	1.25444e+06
16492674416640	1.25444e+06
16630113370112	1.25444e+06
16767552323584	1.25444e+06
16904991277056	1.25444e+06
17042430230528	1.25444e+06
17179869184000	1.25444e+06
17317308137472	1.25444e+06
17454747090944	1.25444e+06
17592186044416	1.25444e+06
17867063951360	1.25444e+06
18141941858304	1.25444e+06
18416819765248	1.25444e+06
18691697672192	1.25444e+06
18966575579136	1.25444e+06
19241453486080	1.25444e+06
19516331393024	1.25444e+06
19791209299968	1.25444e+06
20066087206912	1.25444e+06
20340965113856	1.25444e+06
20615843020800	1.25444e+06
20890720927744	1.25444e+06
21165598834688	1.25444e+06
21440476741632	1.25444e+06
21715354648576	1.25444e+06
21990232555520	1.25444e+06
22265110462464	1.25444e+06
22539988369408	1.25444e+06
22814866276352	1.25444e+06
23089744183296	1.25444e+06
23364622090240	1.25444e+06
23639499997184	1.25444e+06
23914377904128	1.25444e+06
24189255811072	1.25444e+06
24464133718016	1.25444e+06
24739011624960	1.25444e+06
25013889531904	1.25444e+06
25288767438848	1.25444e+06
25563645345792	1.25444e+06
25838523252736	1.25444e+06
26113401159680	1.25444e+06
26388279066624	1.25444e+06
26663156973568	1.25444e+06
26938034880512	1.25444e+06
27212912787456	1.25444e+06
27487790694400	1.25444e+06
27762668601344	1.25444e+06
28037546508288	1.25444e+06
28312424415232	1.25444e+06
28587302322176	1.25444e+06
28862180229120	1.25444e+06
29137058136064	1.25444e+06
29411936043008	1.25444e+06
29686813949952	1.25444e+06
29961691856896	1.25444e+06
30236569763840	1.25444e+06
30511447670784	1.25444e+06
30786325577728	1.25444e+06
31061203484672	1.25444e+06
31336081391616	1.25444e+06
31610959298560	1.25444e+06
31885837205504	1.25444e+06
32160715112448	1.25444e+06
32435593019392	1.25444e+06
32710470926336	1.25444e+06
32985348833280	1.25444e+06
33260226740224	1.25444e+06
33535104647168	1.25444e+06
33809982554112	1.25444e+06
34084860461056	1.25444e+06
34359738368000	1.25444e+06
34634616274944	1.25444e+06
34909494181888	1.25444e+06
35184372088832	1.25444e+06
35734127902720	1.25444e+06
36283883716608	1.25444e+06
36833639530496	1.25444e+06
37383395344384	1.25444e+06
37933151158272	1.25444e+06
38482906972160	1.25444e+06
39032662786048	1.25444e+06
39582418599936	1.25444e+06
40132174413824	1.25444e+06
40681930227712	1.25444e+06
41231686041600	1.25444e+06
41781441855488	1.25444e+06
42331197669376	1.25444e+06
42880953483264	1.25444e+06
43430709297152	1.25444e+06
43980465111040	1.25444e+06
44530220924928	1.25444e+06
45079976738816	1.25444e+06
45629732552704	1.25444e+06
46179488366592	1.25444e+06
46729244180480	1.25444e+06
47278999994368	1.25444e+06
47828755808256	1.25444e+06
48378511622144	1.25444e+06
48928267436032	1.25444e+06
49478023249920	1.25444e+06
50027779063808	1.25444e+06
50577534877696	1.25444e+06
51127290691584	1.25444e+06
51677046505472	1.25444e+06
52226802319360	1.25444e+06
52776558133248	1.25444e+06
53326313947136	1.25444e+06
53876069761024	1.25444e+06
54425825574912	1.25444e+06
54975581388800	1.25444e+06
55525337202688	1.25444e+06
56075093016576	1.25444e+06
56624848830464	1.25444e+06
57174604644352	1.25444e+06
57724360458240	1.25444e+06
58274116272128	1.25444e+06
58823872086016	1.25444e+06
59373627899904	1.25444e+06
59923383713792	1.25444e+06
60473139527680	1.25444e+06
61022895341568	1.25444e+06
61572651155456	1.25444e+06
62122406969344	1.25444e+06
62672162783232	1.25444e+06
63221918597120	1.25444e+06
63771674411008	1.25444e+06
64321430224896	1.25444e+06
64871186038784	1.25444e+06
65420941852672	1.25444e+06
65970697666560	1.25444e+06
66520453480448	1.25444e+06
67070209294336	1.25444e+06
67619965108224	1.25444e+06
68169720922112	1.25444e+06
68719476736000	1.25444e+06
69269232549888	1.25444e+06
69818988363776	1.25444e+06
70368744177664	1.25444e+06
71468255805440	1.25444e+06
72567767433216	1.25444e+06
73667279060992	1.25444e+06
74766790688768	1.25444e+06
75866302316544	1.25444e+06
76965813944320	1.25444e+06
78065325572096	1.25444e+06
79164837199872	1.25444e+06
80264348827648	1.25444e+06
81363860455424	1.25444e+06
82463372083200	1.25444e+06
83562883710976	1.25444e+06
84662395338752	1.25444e+06
85761906966528	1.25444e+06
86861418594304	1.25444e+06
87960930222080	1.25444e+06
89060441849856	1.25444e+06
90159953477632	1.25444e+06
91259465105408	1.25444e+06
92358976733184	1.25444e+06
93458488360960	1.25444e+06
94557999988736	1.25444e+06
95657511616512	1.25444e+06
96757023244288	1.25444e+06
97856534872064	1.25444e+06
98956046499840	1.25444e+06
100055558127616	1.25444e+06
101155069755392	1.25444e+06
102254581383168	1.25444e+06
103354093010944	1.25444e+06
104453604638720	1.25444e+06
105553116266496	1.25444e+06
106652627894272	1.25444e+06
107752139522048	1.25444e+06
108851651149824	1.25444e+06
109951162777600	1.25444e+06
111050674405376	1.25444e+06
112150186033152	1.25444e+06
113249697660928	1.25444e+06
114349209288704	1.25444e+06
115448720916480	1.25444e+06
116548232544256	1.25444e+06
117647744172032	1.25444e+06
118747255799808	1.25444e+06
119846767427584	1.25444e+06
120946279055360	1.25444e+06
122045790683136	1.25444e+06
123145302310912	1.25444e+06
124244813938688	1.25444e+06
125344325566464	1.25444e+06
126443837194240	1.25444e+06
127543348822016	1.25444e+06
128642860449792	1.25444e+06
129742372077568	1.25444e+06
130841883705344	1.25444e+06
131941395333120	1.25444e+06
133040906960896	1.25444e+06
134140418588672	1.25444e+06
135239930216448	1.25444e+06
136339441844224	1.25444e+06
137438953472000	1.25444e+06
138538465099776	1.25444e+06
139637976727552	1.25444e+06
140737488355328	1.25444e+06
142936511610880	1.25444e+06
145135534866432	1.25444e+06
147334558121984	1.25444e+06
149533581377536	1.25444e+06
151732604633088	1.25444e+06
153931627888640	1.25444e+06
156130651144192	1.25444e+06
158329674399744	1.25444e+06
160528697655296	1.25444e+06
162727720910848	1.25444e+06
164926744166400	1.25444e+06
167125767421952	1.25444e+06
169324790677504	1.25444e+06
171523813933056	1.25444e+06
173722837188608	1.25444e+06
175921860444160	1.25444e+06
178120883699712	1.25444e+06
180319906955264	1.25444e+06
182518930210816	1.25444e+06
184717953466368	1.25444e+06
186916976721920	1.25444e+06
189115999977472	1.25444e+06
191315023233024	1.25444e+06
193514046488576	1.25444e+06
195713069744128	1.25444e+06
197912092999680	1.25444e+06
200111116255232	1.25444e+06
202310139510784	1.25444e+06
204509162766336	1.25444e+06
206708186021888	1.25444e+06
208907209277440	1.25444e+06
211106232532992	1.25444e+06
213305255788544	1.25444e+06
215504279044096	1.25444e+06
217703302299648	1.25444e+06
219902325555200	1.25444e+06
222101348810752	1.25444e+06
224300372066304	1.25444e+06
226499395321856	1.25444e+06
228698418577408	1.25444e+06
230897441832960	1.25444e+06
233096465088512	1.25444e+06
235295488344064	1.25444e+06
237494511599616	1.25444e+06
239693534855168	1.25444e+06
241892558110720	1.25444e+06
244091581366272	1.25444e+06
246290604621824	1.25444e+06
248489627877376	1.25444e+06
250688651132928	1.25444e+06
252887674388480	1.25444e+06
255086697644032	1.25444e+06
257285720899584	1.25444e+06
259484744155136	1.25444e+06
261683767410688	1.25444e+06
263882790666240	1.25444e+06
266081813921792	1.25444e+06
268280837177344	1.25444e+06
270479860432896	1.25444e+06
272678883688448	1.25444e+06
274877906944000	1.25444e+06
277076930199552	1.25444e+06
279275953455104	1.25444e+06
281474976710656	1.25444e+06
285873023221760	1.25444e+06
290271069732864	1.25444e+06
294669116243968	1.25444e+06
299067162755072	1.25444e+06
303465209266176	1.25444e+06
307863255777280	1.25444e+06
312261302288384	1.25444e+06
316659348799488	1.25444e+06
321057395310592	1.25444e+06
325455441821696	1.25444e+06
329853488332800	1.25444e+06
334251534843904	1.25444e+06
338649581355008	1.25444e+06
343047627866112	1.25444e+06
347445674377216	1.25444e+06
351843720888320	1.25444e+06
356241767399424	1.25444e+06
360639813910528	1.25444e+06
365037860421632	1.25444e+06
369435906932736	1.25444e+06
373833953443840	1.25444e+06
378231999954944	1.25444e+06
382630046466048	1.25444e+06
387028092977152	1.25444e+06
391426139488256	1.25444e+06
395824185999360	1.25444e+06
400222232510464	1.25444e+06
404620279021568	1.25444e+06
409018325532672	1.25444e+06
413416372043776	1.25444e+06
417814418554880	1.25444e+06
422212465065984	1.25444e+06
426610511577088	1.25444e+06
431008558088192	1.25444e+06
435406604599296	1.25444e+06
439804651110400	1.25444e+06
444202697621504	1.25444e+06
448600744132608	1.25444e+06
452998790643712	1.25444e+06
457396837154816	1.25444e+06
461794883665920	1.25444e+06
466192930177024	1.25444e+06
470590976688128	1.25444e+06
474989023199232	1.25444e+06
479387069710336	1.25444e+06
483785116221440	1.25444e+06
488183162732544	1.25444e+06
492581209243648	1.25444e+06
496979255754752	1.25444e+06
501377302265856	1.25444e+06
505775348776960	1.25444e+06
510173395288064	1.25444e+06
514571441799168	1.25444e+06
518969488310272	1.25444e+06
523367534821376	1.25444e+06
527765581332480	1.25444e+06
532163627843584	1.25444e+06
536561674354688	1.25444e+06
540959720865792	1.25444e+06
545357767376896	1.25444e+06
549755813888000	1.25444e+06
554153860399104	1.25444e+06
558551906910208	1.25444e+06
562949953421312	1.25444e+06
571746046443520	1.25444e+06
580542139465728	1.25444e+06
589338232487936	1.25444e+06
598134325510144	1.25444e+06
606930418532352	1.25444e+06
615726511554560	1.25444e+06
624522604576768	1.25444e+06
633318697598976	1.25444e+06
642114790621184	1.25444e+06
650910883643392	1.25444e+06
659706976665600	1.25444e+06
668503069687808	1.25444e+06
677299162710016	1.25444e+06
686095255732224	1.25444e+06
694891348754432	1.25444e+06
703687441776640	1.25444e+06
712483534798848	1.25444e+06
721279627821056	1.25444e+06
730075720843264	1.25444e+06
738871813865472	1.25444e+06
747667906887680	1.25444e+06
756463999909888	1.25444e+06
765260092932096	1.25444e+06
774056185954304	1.25444e+06
782852278976512	1.25444e+06
791648371998720	1.25444e+06
800444465020928	1.25444e+06
809240558043136	1.25444e+06
818036651065344	1.25444e+06
826832744087552	1.25444e+06
835628837109760	1.25444e+06
844424930131968	1.25444e+06
853221023154176	1.25444e+06
862017116176384	1.25444e+06
870813209198592	1.25444e+06
879609302220800	1.25444e+06
888405395243008	1.25444e+06
897201488265216	1.25444e+06
905997581287424	1.25444e+06
914793674309632	1.25444e+06
923589767331840	1.25444e+06
932385860354048	1.25444e+06
941181953376256	1.25444e+06
949978046398464	1.25444e+06
958774139420672	1.25444e+06
967570232442880	1.25444e+06
976366325465088	1.25444e+06
985162418487296	1.25444e+06
993958511509504	1.25444e+06
1002754604531712	1.25444e+06
1011550697553920	1.25444e+06
1020346790576128	1.25444e+06
1029142883598336	1.25444e+06
1037938976620544	1.25444e+06
1046735069642752	1.25444e+06
1055531162664960	1.25444e+06
1064327255687168	1.25444e+06
1073123348709376	1.25444e+06
1081919441731584	1.25444e+06
1090715534753792	1.25444e+06
1099511627776000	1.25444e+06
1108307720798208	1.25444e+06
1117103813820416	1.25444e+06
1125899906842624	1.25444e+06
1143492092887040	1.25444e+06
1161084278931456	1.25444e+06
1178676464975872	1.25444e+06
1196268651020288	1.25444e+06
1213860837064704	1.25444e+06
1231453023109120	1.25444e+06
1249045209153536	1.25444e+06
1266637395197952	1.25444e+06
1284229581242368	1.25444e+06
1301821767286784	1.25444e+06
1319413953331200	1.25444e+06
1337006139375616	1.25444e+06
1354598325420032	1.25444e+06
1372190511464448	1.25444e+06
1389782697508864	1.25444e+06
1407374883553280	1.25444e+06
1424967069597696	1.25444e+06
1442559255642112	1.25444e+06
1460151441686528	1.25444e+06
1477743627730944	1.25444e+06
1495335813775360	1.25444e+06
1512927999819776	1.25444e+06
1530520185864192	1.25444e+06
1548112371908608	1.25444e+06
1565704557953024	1.25444e+06
1583296743997440	1.25444e+06
1600888930041856	1.25444e+06
1618481116086272	1.25444e+06
1636073302130688	1.25444e+06
1653665488175104	1.25444e+06
1671257674219520	1.25444e+06
1688849860263936	1.25444e+06
1706442046308352	1.25444e+06
1724034232352768	1.25444e+06
1741626418397184	1.25444e+06
1759218604441600	1.25444e+06
1776810790486016	1.25444e+06
1794402976530432	1.25444e+06
1811995162574848	1.25444e+06
1829587348619264	1.25444e+06
1847179534663680	1.25444e+06
1864771720708096	1.25444e+06
1882363906752512	1.25444e+06
1899956092796928	1.25444e+06
1917548278841344	1.25444e+06
1935140464885760	1.25444e+06
1952732650930176	1.25444e+06
1970324836974592	1.25444e+06
1987917023019008	1.25444e+06
2005509209063424	1.25444e+06
2023101395107840	1.25444e+06
2040693581152256	1.25444e+06
2058285767196672	1.25444e+06
2075877953241088	1.25444e+06
2093470139285504	1.25444e+06
2111062325329920	1.25444e+06
2128654511374336	1.25444e+06
2146246697418752	1.25444e+06
2163838883463168	1.25444e+06
2181431069507584	1.25444e+06
2199023255552000	1.25444e+06
2216615441596416	1.25444e+06
2234207627640832	1.25444e+06
2251799813685248	1.25444e+06
2286984185774080	1.25444e+06
2322168557862912	1.25444e+06
2357352929951744	1.25444e+06
2392537302040576	1.25444e+06
2427721674129408	1.25444e+06
2462906046218240	1.25444e+06
2498090418307072	1.25444e+06
2533274790395904	1.25444e+06
2568459162484736	1.25444e+06
2603643534573568	1.25444e+06
2638827906662400	1.25444e+06
2674012278751232	1.25444e+06
2709196650840064	1.25444e+06
2744381022928896	1.25444e+06
2779565395017728	1.25444e+06
2814749767106560	1.25444e+06
2849934139195392	1.25444e+06
2885118511284224	1.25444e+06
2920302883373056	1.25444e+06
2955487255461888	1.25444e+06
2990671627550720	1.25444e+06
3025855999639552	1.25444e+06
3061040371728384	1.25444e+06
3096224743817216	1.25444e+06
3131409115906048	1.25444e+06
3166593487994880	1.25444e+06
3201777860083712	1.25444e+06
3236962232172544	1.25444e+06
3272146604261376	1.25444e+06
3307330976350208	1.25444e+06
3342515348439040	1.25444e+06
3377699720527872	1.25444e+06
3412884092616704	1.25444e+06
3448068464705536	1.25444e+06
3483252836794368	1.25444e+06
3518437208883200	1.25444e+06
3553621580972032	1.25444e+06
3588805953060864	1.25444e+06
3623990325149696	1.25444e+06
3659174697238528	1.25444e+06
3694359069327360	1.25444e+06
3729543441416192	1.25444e+06
3764727813505024	1.25444e+06
3799912185593856	1.25444e+06
3835096557682688	1.25444e+06
3870280929771520	1.25444e+06
3905465301860352	1.25444e+06
3940649673949184	1.25444e+06
3975834046038016	1.25444e+06
4011018418126848	1.25444e+06
4046202790215680	1.25444e+06
4081387162304512	1.25444e+06
4116571534393344	1.25444e+06
4151755906482176	1.25444e+06
4186940278571008	1.25444e+06
4222124650659840	1.25444e+06
4257309022748672	1.25444e+06
4292493394837504	1.25444e+06
4327677766926336	1.25444e+06
4362862139015168	1.25444e+06
4398046511104000	1.25444e+06
4433230883192832	1.25444e+06
4468415255281664	1.25444e+06
4503599627370496	1.25444e+06
4573968371548160	1.25444e+06
4644337115725824	1.25444e+06
4714705859903488	1.25444e+06
4785074604081152	1.25444e+06
4855443348258816	1.25444e+06
4925812092436480	1.25444e+06
4996180836614144	1.25444e+06
5066549580791808	1.25444e+06
5136918324969472	1.25444e+06
5207287069147136	1.25444e+06
5277655813324800	1.25444e+06
5348024557502464	1.25444e+06
5418393301680128	1.25444e+06
5488762045857792	1.25444e+06
5559130790035456	1.25444e+06
5629499534213120	1.25444e+06
5699868278390784	1.25444e+06
5770237022568448	1.25444e+06
5840605766746112	1.25444e+06
5910974510923776	1.25444e+06
5981343255101440	1.25444e+06
6051711999279104	1.25444e+06
6122080743456768	1.25444e+06
6192449487634432	1.25444e+06
6262818231812096	1.25444e+06
6333186975989760	1.25444e+06
6403555720167424	1.25444e+06
6473924464345088	1.25444e+06
6544293208522752	1.25444e+06
6614661952700416	1.25444e+06
6685030696878080	1.25444e+06
6755399441055744	1.25444e+06
6825768185233408	1.25444e+06
6896136929411072	1.25444e+06
6966505673588736	1.25444e+06
7036874417766400	1.25444e+06
7107243161944064	1.25444e+06
7177611906121728	1.25444e+06
7247980650299392	1.25444e+06
7318349394477056	1.25444e+06
7388718138654720	1.25444e+06
7459086882832384	1.25444e+06
7529455627010048	1.25444e+06
7599824371187712	1.25444e+06
7670193115365376	1.25444e+06
7740561859543040	1.25444e+06
7810930603720704	1.25444e+06
7881299347898368	1.25444e+06
7951668092076032	1.25444e+06
8022036836253696	1.25444e+06
8092405580431360	1.25444e+06
8162774324609024	1.25444e+06
8233143068786688	1.25444e+06
8303511812964352	1.25444e+06
8373880557142016	1.25444e+06
8444249301319680	1.25444e+06
8514618045497344	1.25444e+06
8584986789675008	1.25444e+06
8655355533852672	1.25444e+06
8725724278030336	1.25444e+06
8796093022208000	1.25444e+06
8866461766385664	1.25444e+06
8936830510563328	1.25444e+06
9007199254740992	1.25444e+06
9147936743096320	1.25444e+06
9288674231451648	1.25444e+06
9429411719806976	1.25444e+06
9570149208162304	1.25444e+06
9710886696517632	1.25444e+06
9851624184872960	1.25444e+06
9992361673228288	1.25444e+06
10133099161583616	1.25444e+06
10273836649938944	1.25444e+06
10414574138294272	1.25444e+06
10555311626649600	1.25444e+06
10696049115004928	1.25444e+06
10836786603360256	1.25444e+06
10977524091715584	1.25444e+06
11118261580070912	1.25444e+06
11258999068426240	1.25444e+06
11399736556781568	1.25444e+06
11540474045136896	1.25444e+06
11681211533492224	1.25444e+06
11821949021847552	1.25444e+06
11962686510202880	1.25444e+06
12103423998558208	1.25444e+06
12244161486913536	1.25444e+06
12384898975268864	1.25444e+06
12525636463624192	1.25444e+06
12666373951979520	1.25444e+06
12807111440334848	1.25444e+06
12947848928690176	1.25444e+06
13088586417045504	1.25444e+06
13229323905400832	1.25444e+06
13370061393756160	1.25444e+06
13510798882111488	1.25444e+06
13651536370466816	1.25444e+06
13792273858822144	1.25444e+06
13933011347177472	1.25444e+06
14073748835532800	1.25444e+06
14214486323888128	1.25444e+06
14355223812243456	1.25444e+06
14495961300598784	1.25444e+06
14636698788954112	1.25444e+06
14777436277309440	1.25444e+06
14918173765664768	1.25444e+06
15058911254020096	1.25444e+06
15199648742375424	1.25444e+06
15340386230730752	1.25444e+06
15481123719086080	1.25444e+06
15621861207441408	1.25444e+06
15762598695796736	1.25444e+06
15903336184152064	1.25444e+06
16044073672507392	1.25444e+06
16184811160862720	1.25444e+06
16325548649218048	1.25444e+06
16466286137573376	1.25444e+06
16607023625928704	1.25444e+06
16747761114284032	1.25444e+06
16888498602639360	1.25444e+06
17029236090994688	1.25444e+06
17169973579350016	1.25444e+06
17310711067705344	1.25444e+06
17451448556060672	1.25444e+06
17592186044416000	1.25444e+06
17732923532771328	1.25444e+06
17873661021126656	1.25444e+06
18014398509481984	1.25444e+06
18295873486192640	1.25444e+06
18577348462903296	1.25444e+06
18858823439613952	1.25444e+06
19140298416324608	1.25444e+06
19421773393035264	1.25444e+06
19703248369745920	1.25444e+06
19984723346456576	1.25444e+06
20266198323167232	1.25444e+06
20547673299877888	1.25444e+06
20829148276588544	1.25444e+06
21110623253299200	1.25444e+06
21392098230009856	1.25444e+06
21673573206720512	1.25444e+06
21955048183431168	1.25444e+06
22236523160141824	1.25444e+06
22517998136852480	1.25444e+06
22799473113563136	1.25444e+06
23080948090273792	1.25444e+06
23362423066984448	1.25444e+06
23643898043695104	1.25444e+06
23925373020405760	1.25444e+06
24206847997116416	1.25444e+06
24488322973827072	1.25444e+06
24769797950537728	1.25444e+06
25051272927248384	1.25444e+06
25332747903959040	1.25444e+06
25614222880669696	1.25444e+06
25895697857380352	1.25444e+06
26177172834091008	1.25444e+06
26458647810801664	1.25444e+06
26740122787512320	1.25444e+06
27021597764222976	1.25444e+06
27303072740933632	1.25444e+06
27584547717644288	1.25444e+06
27866022694354944	1.25444e+06
28147497671065600	1.25444e+06
28428972647776256	1.25444e+06
28710447624486912	1.25444e+06
28991922601197568	1.25444e+06
29273397577908224	1.25444e+06
29554872554618880	1.25444e+06
29836347531329536	1.25444e+06
30117822508040192	1.25444e+06
30399297484750848	1.25444e+06
30680772461461504	1.25444e+06
30962247438172160	1.25444e+06
31243722414882816	1.25444e+06
31525197391593472	1.25444e+06
31806672368304128	1.25444e+06
32088147345014784	1.25444e+06
32369622321725440	1.25444e+06
32651097298436096	1.25444e+06
32932572275146752	1.25444e+06
33214047251857408	1.25444e+06
33495522228568064	1.25444e+06
33776997205278720	1.25444e+06
34058472181989376	1.25444e+06
34339947158700032	1.25444e+06
34621422135410688	1.25444e+06
34902897112121344	1.25444e+06
35184372088832000	1.25444e+06
35465847065542656	1.25444e+06
35747322042253312	1.25444e+06
36028797018963968	1.25444e+06
36591746972385280	1.25444e+06
37154696925806592	1.25444e+06
37717646879227904	1.25444e+06
38280596832649216	1.25444e+06
38843546786070528	1.25444e+06
39406496739491840	1.25444e+06
39969446692913152	1.25444e+06
40532396646334464	1.25444e+06
41095346599755776	1.25444e+06
41658296553177088	1.25444e+06
42221246506598400	1.25444e+06
42784196460019712	1.25444e+06
43347146413441024	1.25444e+06
43910096366862336	1.25444e+06
44473046320283648	1.25444e+06
45035996273704960	1.25444e+06
45598946227126272	1.25444e+06
46161896180547584	1.25444e+06
46724846133968896	1.25444e+06
47287796087390208	1.25444e+06
47850746040811520	1.25444e+06
48413695994232832	1.25444e+06
48976645947654144	1.25444e+06
49539595901075456	1.25444e+06
50102545854496768	1.25444e+06
50665495807918080	1.25444e+06
51228445761339392	1.25444e+06
51791395714760704	1.25444e+06
52354345668182016	1.25444e+06
52917295621603328	1.25444e+06
53480245575024640	1.25444e+06
54043195528445952	1.25444e+06
54606145481867264	1.25444e+06
55169095435288576	1.25444e+06
55732045388709888	1.25444e+06
56294995342131200	1.25444e+06
56857945295552512	1.25444e+06
57420895248973824	1.25444e+06
57983845202395136	1.25444e+06
58546795155816448	1.25444e+06
59109745109237760	1.25444e+06
59672695062659072	1.25444e+06
60235645016080384	1.25444e+06
60798594969501696	1.25444e+06
61361544922923008	1.25444e+06
61924494876344320	1.25444e+06
62487444829765632	1.25444e+06
63050394783186944	1.25444e+06
63613344736608256	1.25444e+06
64176294690029568	1.25444e+06
64739244643450880	1.25444e+06
65302194596872192	1.25444e+06
65865144550293504	1.25444e+06
66428094503714816	1.25444e+06
66991044457136128	1.25444e+06
67553994410557440	1.25444e+06
68116944363978752	1.25444e+06
68679894317400064	1.25444e+06
69242844270821376	1.25444e+06
69805794224242688	1.25444e+06
70368744177664000	1.25444e+06
70931694131085312	1.25444e+06
71494644084506624	1.25444e+06
72057594037927936	1.25444e+06
73183493944770560	1.25444e+06
74309393851613184	1.25444e+06
75435293758455808	1.25444e+06
76561193665298432	1.25444e+06
77687093572141056	1.25444e+06
78812993478983680	1.25444e+06
79938893385826304	1.25444e+06
81064793292668928	1.25444e+06
82190693199511552	1.25444e+06
83316593106354176	1.25444e+06
84442493013196800	1.25444e+06
85568392920039424	1.25444e+06
86694292826882048	1.25444e+06
87820192733724672	1.25444e+06
88946092640567296	1.25444e+06
90071992547409920	1.25444e+06
91197892454252544	1.25444e+06
92323792361095168	1.25444e+06
93449692267937792	1.25444e+06
94575592174780416	1.25444e+06
95701492081623040	1.25444e+06
96827391988465664	1.25444e+06
97953291895308288	1.25444e+06
99079191802150912	1.25444e+06
100205091708993536	1.25444e+06
101330991615836160	1.25444e+06
102456891522678784	1.25444e+06
103582791429521408	1.25444e+06
104708691336364032	1.25444e+06
105834591243206656	1.25444e+06
106960491150049280	1.25444e+06
108086391056891904	1.25444e+06
109212290963734528	1.25444e+06
110338190870577152	1.25444e+06
111464090777419776	1.25444e+06
112589990684262400	1.25444e+06
113715890591105024	1.25444e+06
114841790497947648	1.25444e+06
115967690404790272	1.25444e+06
117093590311632896	1.25444e+06
118219490218475520	1.25444e+06
119345390125318144	1.25444e+06
120471290032160768	1.25444e+06
121597189939003392	1.25444e+06
122723089845846016	1.25444e+06
123848989752688640	1.25444e+06
124974889659531264	1.25444e+06
126100789566373888	1.25444e+06
127226689473216512	1.25444e+06
128352589380059136	1.25444e+06
129478489286901760	1.25444e+06
130604389193744384	1.25444e+06
131730289100587008	1.25444e+06
132856189007429632	1.25444e+06
133982088914272256	1.25444e+06
135107988821114880	1.25444e+06
136233888727957504	1.25444e+06
137359788634800128	1.25444e+06
138485688541642752	1.25444e+06
139611588448485376	1.25444e+06
140737488355328000	1.25444e+06
141863388262170624	1.25444e+06
142989288169013248	1.25444e+06
144115188075855872	1.25444e+06
146366987889541120	1.25444e+06
148618787703226368	1.25444e+06
150870587516911616	1.25444e+06
153122387330596864	1.25444e+06
155374187144282112	1.25444e+06
157625986957967360	1.25444e+06
159877786771652608	1.25444e+06
162129586585337856	1.25444e+06
164381386399023104	1.25444e+06
166633186212708352	1.25444e+06
168884986026393600	1.25444e+06
171136785840078848	1.25444e+06
173388585653764096	1.25444e+06
175640385467449344	1.25444e+06
177892185281134592	1.25444e+06
180143985094819840	1.25444e+06
182395784908505088	1.25444e+06
184647584722190336	1.25444e+06
186899384535875584	1.25444e+06
189151184349560832	1.25444e+06
191402984163246080	1.25444e+06
193654783976931328	1.25444e+06
195906583790616576	1.25444e+06
198158383604301824	1.25444e+06
200410183417987072	1.25444e+06
202661983231672320	1.25444e+06
204913783045357568	1.25444e+06
207165582859042816	1.25444e+06
209417382672728064	1.25444e+06
211669182486413312	1.25444e+06
213920982300098560	1.25444e+06
216172782113783808	1.25444e+06
218424581927469056	1.25444e+06
220676381741154304	1.25444e+06
222928181554839552	1.25444e+06
225179981368524800	1.25444e+06
227431781182210048	1.25444e+06
229683580995895296	1.25444e+06
231935380809580544	1.25444e+06
234187180623265792	1.25444e+06
236438980436951040	1.25444e+06
238690780250636288	1.25444e+06
240942580064321536	1.25444e+06
243194379878006784	1.25444e+06
245446179691692032	1.25444e+06
247697979505377280	1.25444e+06
249949779319062528	1.25444e+06
252201579132747776	1.25444e+06
254453378946433024	1.25444e+06
256705178760118272	1.25444e+06
258956978573803520	1.25444e+06
261208778387488768	1.25444e+06
263460578201174016	1.25444e+06
265712378014859264	1.25444e+06
267964177828544512	1.25444e+06
270215977642229760	1.25444e+06
272467777455915008	1.25444e+06
274719577269600256	1.25444e+06
276971377083285504	1.25444e+06
279223176896970752	1.25444e+06
281474976710656000	1.25444e+06
283726776524341248	1.25444e+06
285978576338026496	1.25444e+06
288230376151711744	1.25444e+06
292733975779082240	1.25444e+06
297237575406452736	1.25444e+06
301741175033823232	1.25444e+06
306244774661193728	1.25444e+06
310748374288564224	1.25444e+06
315251973915934720	1.25444e+06
319755573543305216	1.25444e+06
324259173170675712	1.25444e+06
328762772798046208	1.25444e+06
333266372425416704	1.25444e+06
337769972052787200	1.25444e+06
342273571680157696	1.25444e+06
346777171307528192	1.25444e+06
351280770934898688	1.25444e+06
355784370562269184	1.25444e+06
360287970189639680	1.25444e+06
364791569817010176	1.25444e+06
369295169444380672	1.25444e+06
373798769071751168	1.25444e+06
378302368699121664	1.25444e+06
382805968326492160	1.25444e+06
387309567953862656	1.25444e+06
391813167581233152	1.25444e+06
396316767208603648	1.25444e+06
400820366835974144	1.25444e+06
405323966463344640	1.25444e+06
409827566090715136	1.25444e+06
414331165718085632	1.25444e+06
418834765345456128	1.25444e+06
423338364972826624	1.25444e+06
427841964600197120	1.25444e+06
432345564227567616	1.25444e+06
436849163854938112	1.25444e+06
441352763482308608	1.25444e+06
445856363109679104	1.25444e+06
450359962737049600	1.25444e+06
454863562364420096	1.25444e+06
459367161991790592	1.25444e+06
463870761619161088	1.25444e+06
468374361246531584	1.25444e+06
472877960873902080	1.25444e+06
477381560501272576	1.25444e+06
481885160128643072	1.25444e+06
486388759756013568	1.25444e+06
490892359383384064	1.25444e+06
495395959010754560	1.25444e+06
499899558638125056	1.25444e+06
504403158265495552	1.25444e+06
508906757892866048	1.25444e+06
513410357520236544	1.25444e+06
517913957147607040	1.25444e+06
522417556774977536	1.25444e+06
526921156402348032	1.25444e+06
531424756029718528	1.25444e+06
535928355657089024	1.25444e+06
540431955284459520	1.25444e+06
544935554911830016	1.25444e+06
549439154539200512	1.25444e+06
553942754166571008	1.25444e+06
558446353793941504	1.25444e+06
562949953421312000	1.25444e+06
567453553048682496	1.25444e+06
571957152676052992	1.25444e+06
576460752303423488	1.25444e+06
585467951558164480	1.25444e+06
594475150812905472	1.25444e+06
603482350067646464	1.25444e+06
612489549322387456	1.25444e+06
621496748577128448	1.25444e+06
630503947831869440	1.25444e+06
639511147086610432	1.25444e+06
648518346341351424	1.25444e+06
657525545596092416	1.25444e+06
666532744850833408	1.25444e+06
675539944105574400	1.25444e+06
684547143360315392	1.25444e+06
693554342615056384	1.25444e+06
702561541869797376	1.25444e+06
711568741124538368	1.25444e+06
720575940379279360	1.25444e+06
729583139634020352	1.25444e+06
738590338888761344	1.25444e+06
747597538143502336	1.25444e+06
756604737398243328	1.25444e+06
765611936652984320	1.25444e+06
774619135907725312	1.25444e+06
783626335162466304	1.25444e+06
792633534417207296	1.25444e+06
801640733671948288	1.25444e+06
810647932926689280	1.25444e+06
819655132181430272	1.25444e+06
828662331436171264	1.25444e+06
837669530690912256	1.25444e+06
846676729945653248	1.25444e+06
855683929200394240	1.25444e+06
864691128455135232	1.25444e+06
873698327709876224	1.25444e+06
882705526964617216	1.25444e+06
891712726219358208	1.25444e+06
900719925474099200	1.25444e+06
909727124728840192	1.25444e+06
918734323983581184	1.25444e+06
927741523238322176	1.25444e+06
936748722493063168	1.25444e+06
945755921747804160	1.25444e+06
954763121002545152	1.25444e+06
963770320257286144	1.25444e+06
972777519512027136	1.25444e+06
981784718766768128	1.25444e+06
990791918021509120	1.25444e+06
999799117276250112	1.25444e+06
1008806316530991104	1.25444e+06
1017813515785732096	1.25444e+06
1026820715040473088	1.25444e+06
1035827914295214080	1.25444e+06
1044835113549955072	1.25444e+06
1053842312804696064	1.25444e+06
1062849512059437056	1.25444e+06
1071856711314178048	1.25444e+06
1080863910568919040	1.25444e+06
1089871109823660032	1.25444e+06
1098878309078401024	1.25444e+06
1107885508333142016	1.25444e+06
1116892707587883008	1.25444e+06
1125899906842624000	1.25444e+06
1134907106097364992	1.25444e+06
1143914305352105984	1.25444e+06
1152921504606846976	1.25444e+06
1170935903116328960	1.25444e+06
1188950301625810944	1.25444e+06
1206964700135292928	1.25444e+06
1224979098644774912	1.25444e+06
1242993497154256896	1.25444e+06
1261007895663738880	1.25444e+06
1279022294173220864	1.25444e+06
1297036692682702848	1.25444e+06
1315051091192184832	1.25444e+06
1333065489701666816	1.25444e+06
1351079888211148800	1.25444e+06
1369094286720630784	1.25444e+06
1387108685230112768	1.25444e+06
1405123083739594752	1.25444e+06
1423137482249076736	1.25444e+06
1441151880758558720	1.25444e+06
1459166279268040704	1.25444e+06
1477180677777522688	1.25444e+06
1495195076287004672	1.25444e+06
1513209474796486656	1.25444e+06
1531223873305968640	1.25444e+06
1549238271815450624	1.25444e+06
1567252670324932608	1.25444e+06
1585267068834414592	1.25444e+06
1603281467343896576	1.25444e+06
1621295865853378560	1.25444e+06
1639310264362860544	1.25444e+06
1657324662872342528	1.25444e+06
1675339061381824512	1.25444e+06
1693353459891306496	1.25444e+06
1711367858400788480	1.25444e+06
1729382256910270464	1.25444e+06
1747396655419752448	1.25444e+06
1765411053929234432	1.25444e+06
1783425452438716416	1.25444e+06
1801439850948198400	1.25444e+06
1819454249457680384	1.25444e+06
1837468647967162368	1.25444e+06
1855483046476644352	1.25444e+06
1873497444986126336	1.25444e+06
1891511843495608320	1.25444e+06
1909526242005090304	1.25444e+06
1927540640514572288	1.25444e+06
1945555039024054272	1.25444e+06
1963569437533536256	1.25444e+06
1981583836043018240	1.25444e+06
1999598234552500224	1.25444e+06
2017612633061982208	1.25444e+06
2035627031571464192	1.25444e+06
2053641430080946176	1.25444e+06
2071655828590428160	1.25444e+06
2089670227099910144	1.25444e+06
2107684625609392128	1.25444e+06
2125699024118874112	1.25444e+06
2143713422628356096	1.25444e+06
2161727821137838080	1.25444e+06
2179742219647320064	1.25444e+06
2197756618156802048	1.25444e+06
2215771016666284032	1.25444e+06
2233785415175766016	1.25444e+06
2251799813685248000	1.25444e+06
2269814212194729984	1.25444e+06
2287828610704211968	1.25444e+06
2305843009213693952	1.25444e+06
2341871806232657920	1.25444e+06
2377900603251621888	1.25444e+06
2413929400270585856	1.25444e+06
2449958197289549824	1.25444e+06
2485986994308513792	1.25444e+06
2522015791327477760	1.25444e+06
2558044588346441728	1.25444e+06
2594073385365405696	1.25444e+06
2630102182384369664	1.25444e+06
2666130979403333632	1.25444e+06
2702159776422297600	1.25444e+06
2738188573441261568	1.25444e+06
2774217370460225536	1.25444e+06
2810246167479189504	1.25444e+06
2846274964498153472	1.25444e+06
2882303761517117440	1.25444e+06
2918332558536081408	1.25444e+06
2954361355555045376	1.25444e+06
2990390152574009344	1.25444e+06
3026418949592973312	1.25444e+06
3062447746611937280	1.25444e+06
3098476543630901248	1.25444e+06
3134505340649865216	1.25444e+06
3170534137668829184	1.25444e+06
3206562934687793152	1.25444e+06
3242591731706757120	1.25444e+06
3278620528725721088	1.25444e+06
3314649325744685056	1.25444e+06
3350678122763649024	1.25444e+06
3386706919782612992	1.25444e+06
3422735716801576960	1.25444e+06
3458764513820540928	1.25444e+06
3494793310839504896	1.25444e+06
3530822107858468864	1.25444e+06
3566850904877432832	1.25444e+06
3602879701896396800	1.25444e+06
3638908498915360768	1.25444e+06
3674937295934324736	1.25444e+06
3710966092953288704	1.25444e+06
3746994889972252672	1.25444e+06
3783023686991216640	1.25444e+06
3819052484010180608	1.25444e+06
3855081281029144576	1.25444e+06
3891110078048108544	1.25444e+06
3927138875067072512	1.25444e+06
3963167672086036480	1.25444e+06
3999196469105000448	1.25444e+06
4035225266123964416	1.25444e+06
4071254063142928384	1.25444e+06
4107282860161892352	1.25444e+06
4143311657180856320	1.25444e+06
4179340454199820288	1.25444e+06
4215369251218784256	1.25444e+06
4251398048237748224	1.25444e+06
4287426845256712192	1.25444e+06
4323455642275676160	1.25444e+06
4359484439294640128	1.25444e+06
4395513236313604096	1.25444e+06
4431542033332568064	1.25444e+06
4467570830351532032	1.25444e+06
4503599627370496000	1.25444e+06
4539628424389459968	1.25444e+06
4575657221408423936	1.25444e+06
4611686018427387904	1.25444e+06
4683743612465315840	1.25444e+06
4755801206503243776	1.25444e+06
4827858800541171712	1.25444e+06
4899916394579099648	1.25444e+06
4971973988617027584	1.25444e+06
5044031582654955520	1.25444e+06
5116089176692883456	1.25444e+06
5188146770730811392	1.25444e+06
5260204364768739328	1.25444e+06
5332261958806667264	1.25444e+06
5404319552844595200	1.25444e+06
5476377146882523136	1.25444e+06
5548434740920451072	1.25444e+06
5620492334958379008	1.25444e+06
5692549928996306944	1.25444e+06
5764607523034234880	1.25444e+06
5836665117072162816	1.25444e+06
5908722711110090752	1.25444e+06
5980780305148018688	1.25444e+06
6052837899185946624	1.25444e+06
6124895493223874560	1.25444e+06
6196953087261802496	1.25444e+06
6269010681299730432	1.25444e+06
6341068275337658368	1.25444e+06
6413125869375586304	1.25444e+06
6485183463413514240	1.25444e+06
6557241057451442176	1.25444e+06
6629298651489370112	1.25444e+06
6701356245527298048	1.25444e+06
6773413839565225984	1.25444e+06
6845471433603153920	1.25444e+06
6917529027641081856	1.25444e+06
6989586621679009792	1.25444e+06
7061644215716937728	1.25444e+06
7133701809754865664	1.25444e+06
7205759403792793600	1.25444e+06
7277816997830721536	1.25444e+06
7349874591868649472	1.25444e+06
7421932185906577408	1.25444e+06
7493989779944505344	1.25444e+06
7566047373982433280	1.25444e+06
7638104968020361216	1.25444e+06
7710162562058289152	1.25444e+06
7782220156096217088	1.25444e+06
7854277750134145024	1.25444e+06
7926335344172072960	1.25444e+06
7998392938210000896	1.25444e+06
8070450532247928832	1.25444e+06
8142508126285856768	1.25444e+06
8214565720323784704	1.25444e+06
8286623314361712640	1.25444e+06
8358680908399640576	1.25444e+06
8430738502437568512	1.25444e+06
8502796096475496448	1.25444e+06
8574853690513424384	1.25444e+06
8646911284551352320	1.25444e+06
8718968878589280256	1.25444e+06
8791026472627208192	1.25444e+06
8863084066665136128	1.25444e+06
8935141660703064064	1.25444e+06
9007199254740992000	1.25444e+06
9079256848778919936	1.25444e+06
9151314442816847872	1.25444e+06
9223372036854775808	1.25444e+06
9367487224930631680	1.25444e+06
9511602413006487552	1.25444e+06
9655717601082343424	1.25444e+06
9799832789158199296	1.25444e+06
9943947977234055168	1.25444e+06
10088063165309911040	1.25444e+06
10232178353385766912	1.25444e+06
10376293541461622784	1.25444e+06
10520408729537478656	1.25444e+06
10664523917613334528	1.25444e+06
10808639105689190400	1.25444e+06
10952754293765046272	1.25444e+06
11096869481840902144	1.25444e+06
11240984669916758016	1.25444e+06
11385099857992613888	1.25444e+06
11529215046068469760	1.25444e+06
11673330234144325632	1.25444e+06
11817445422220181504	1.25444e+06
11961560610296037376	1.25444e+06
12105675798371893248	1.25444e+06
12249790986447749120	1.25444e+06
12393906174523604992	1.25444e+06
12538021362599460864	1.25444e+06
12682136550675316736	1.25444e+06
12826251738751172608	1.25444e+06
12970366926827028480	1.25444e+06
13114482114902884352	1.25444e+06
13258597302978740224	1.25444e+06
13402712491054596096	1.25444e+06
13546827679130451968	1.25444e+06
13690942867206307840	1.25444e+06
13835058055282163712	1.25444e+06
13979173243358019584	1.25444e+06
14123288431433875456	1.25444e+06
14267403619509731328	1.25444e+06
14411518807585587200	1.25444e+06
14555633995661443072	1.25444e+06
14699749183737298944	1.25444e+06
14843864371813154816	1.25444e+06
14987979559889010688	1.25444e+06
15132094747964866560	1.25444e+06
15276209936040722432	1.25444e+06
15420325124116578304	1.25444e+06
15564440312192434176	1.25444e+06
15708555500268290048	1.25444e+06
15852670688344145920	1.25444e+06
15996785876420001792	1.25444e+06
16140901064495857664	1.25444e+06
16285016252571713536	1.25444e+06
16429131440647569408	1.25444e+06
16573246628723425280	1.25444e+06
16717361816799281152	1.25444e+06
16861477004875137024	1.25444e+06
17005592192950992896	1.25444e+06
17149707381026848768	1.25444e+06
17293822569102704640	1.25444e+06
17437937757178560512	1.25444e+06
17582052945254416384	1.25444e+06
17726168133330272256	1.25444e+06
17870283321406128128	1.25444e+06
18014398509481984000	1.25444e+06
18158513697557839872	1.25444e+06
18302628885633695744	0
