0	0
1	1
2	1.63472
3	2.26546
4	2.89469
5	3.52217
6	4.14866
7	4.77414
8	5.39891
9	6.02299
10	6.64657
11	7.26955
12	7.89202
13	8.51393
14	9.1354
15	9.75646
16	10.3771
17	10.9974
18	11.6173
19	12.2368
20	12.8561
21	13.475
22	14.0935
23	14.7117
24	15.3297
25	15.9473
26	16.5647
27	17.1819
28	17.7987
29	18.4154
30	19.0318
31	19.6479
32	20.2638
33	20.8795
34	21.4949
35	22.1101
36	22.7252
37	23.34
38	23.9545
39	24.5689
40	25.1831
41	25.797
42	26.4108
43	27.0243
44	27.6376
45	28.2508
46	28.8637
47	29.4765
48	30.0891
49	30.7015
50	31.3138
51	31.9259
52	32.5378
53	33.1496
54	33.7612
55	34.3727
56	34.984
57	35.5951
58	36.2061
59	36.817
60	37.4277
61	38.0382
62	38.6486
63	39.2588
64	39.8689
65	40.4788
66	41.0886
67	41.6982
68	42.3077
69	42.917
70	43.5261
71	44.1351
72	44.744
73	45.3527
74	45.9613
75	46.5697
76	47.178
77	47.7861
78	48.3941
79	49.002
80	49.6096
81	50.2172
82	50.8246
83	51.4318
84	52.0389
85	52.6459
86	53.2528
87	53.8595
88	54.4661
89	55.0725
90	55.6788
91	56.2851
92	56.8912
93	57.4971
94	58.103
95	58.7087
96	59.3144
97	59.9199
98	60.5252
99	61.1305
100	61.7357
101	62.3407
102	62.9456
103	63.5504
104	64.1551
105	64.7597
106	65.3642
107	65.9686
108	66.5728
109	67.177
110	67.781
111	68.385
112	68.9888
113	69.5925
114	70.1962
115	70.7997
116	71.4031
117	72.0064
118	72.6096
119	73.2127
120	73.8157
121	74.4186
122	75.0214
123	75.6241
124	76.2266
125	76.8291
126	77.4315
127	78.0338
128	78.636
130	79.84
132	81.0437
134	82.247
136	83.4499
138	84.6524
140	85.8546
142	87.0563
144	88.2577
146	89.4586
148	90.6592
150	91.8594
152	93.0591
154	94.2585
156	95.4574
158	96.656
160	97.8543
162	99.0522
164	100.25
166	101.447
168	102.644
170	103.84
172	105.037
174	106.233
176	107.428
178	108.624
180	109.819
182	111.013
184	112.208
186	113.402
188	114.596
190	115.789
192	116.982
194	118.175
196	119.368
198	120.56
200	121.752
202	122.944
204	124.135
206	125.326
208	126.517
210	127.708
212	128.898
214	130.088
216	131.278
218	132.467
220	133.656
222	134.845
224	136.034
226	137.222
228	138.41
230	139.598
232	140.785
234	141.973
236	143.16
238	144.346
240	145.533
242	146.719
244	147.905
246	149.09
248	150.276
250	151.461
252	152.646
254	153.831
256	155.015
260	157.383
264	159.75
268	162.117
272	164.482
276	166.846
280	169.21
284	171.572
288	173.934
292	176.295
296	178.655
300	181.014
304	183.371
308	185.728
312	188.084
316	190.439
320	192.793
324	195.147
328	197.499
332	199.851
336	202.202
340	204.552
344	206.902
348	209.251
352	211.599
356	213.946
360	216.293
364	218.638
368	220.983
372	223.328
376	225.671
380	228.014
384	230.356
388	232.698
392	235.039
396	237.379
400	239.718
404	242.057
408	244.396
412	246.733
416	249.07
420	251.406
424	253.741
428	256.076
432	258.41
436	260.744
440	263.076
444	265.409
448	267.74
452	270.071
456	272.401
460	274.731
464	277.06
468	279.388
472	281.716
476	284.043
480	286.369
484	288.694
488	291.018
492	293.342
496	295.664
500	297.986
504	300.307
508	302.627
512	304.946
520	309.583
528	314.217
536	318.849
544	323.478
552	328.105
560	332.73
568	337.352
576	341.972
584	346.59
592	351.205
600	355.817
608	360.428
616	365.035
624	369.641
632	374.244
640	378.845
648	383.444
656	388.042
664	392.637
672	397.231
680	401.823
688	406.414
696	411.003
704	415.591
712	420.178
720	424.764
728	429.348
736	433.931
744	438.513
752	443.093
760	447.673
768	452.251
776	456.829
784	461.405
792	465.98
800	470.554
808	475.126
816	479.697
824	484.266
832	488.835
840	493.403
848	497.969
856	502.535
864	507.1
872	511.663
880	516.226
888	520.788
896	525.349
904	529.909
912	534.468
920	539.026
928	543.583
936	548.14
944	552.695
952	557.25
960	561.803
968	566.356
976	570.906
984	575.456
992	580.004
1000	584.551
1008	589.097
1016	593.642
1024	598.186
1040	607.271
1056	616.353
1072	625.43
1088	634.505
1104	643.576
1120	652.645
1136	661.71
1152	670.772
1168	679.831
1184	688.886
1200	697.938
1216	706.986
1232	716.031
1248	725.072
1264	734.11
1280	743.146
1296	752.179
1312	761.209
1328	770.237
1344	779.263
1360	788.287
1376	797.309
1392	806.329
1408	815.347
1424	824.364
1440	833.378
1456	842.389
1472	851.398
1488	860.403
1504	869.407
1520	878.407
1536	887.406
1552	896.402
1568	905.396
1584	914.388
1600	923.377
1616	932.364
1632	941.349
1648	950.333
1664	959.314
1680	968.293
1696	977.27
1712	986.246
1728	995.22
1744	1004.19
1760	1013.16
1776	1022.13
1792	1031.1
1808	1040.06
1824	1049.02
1840	1057.99
1856	1066.94
1872	1075.9
1888	1084.86
1904	1093.81
1920	1102.76
1936	1111.71
1952	1120.66
1968	1129.61
1984	1138.55
2000	1147.5
2016	1156.44
2032	1165.38
2048	1174.32
2080	1192.19
2112	1210.05
2144	1227.91
2176	1245.76
2208	1263.6
2240	1281.45
2272	1299.28
2304	1317.11
2336	1334.94
2368	1352.76
2400	1370.58
2432	1388.39
2464	1406.2
2496	1424
2528	1441.79
2560	1459.58
2592	1477.36
2624	1495.15
2656	1512.92
2688	1530.69
2720	1548.46
2752	1566.23
2784	1583.99
2816	1601.74
2848	1619.5
2880	1637.24
2912	1654.99
2944	1672.73
2976	1690.46
3008	1708.19
3040	1725.91
3072	1743.63
3104	1761.35
3136	1779.06
3168	1796.77
3200	1814.47
3232	1832.17
3264	1849.87
3296	1867.56
3328	1885.25
3360	1902.93
3392	1920.61
3424	1938.28
3456	1955.94
3488	1973.6
3520	1991.26
3552	2008.9
3584	2026.54
3616	2044.18
3648	2061.81
3680	2079.43
3712	2097.05
3744	2114.66
3776	2132.27
3808	2149.88
3840	2167.48
3872	2185.08
3904	2202.68
3936	2220.27
3968	2237.86
4000	2255.45
4032	2273.03
4064	2290.61
4096	2308.19
4160	2343.33
4224	2378.45
4288	2413.56
4352	2448.64
4416	2483.71
4480	2518.75
4544	2553.78
4608	2588.78
4672	2623.77
4736	2658.71
4800	2693.64
4864	2728.54
4928	2763.42
4992	2798.28
5056	2833.13
5120	2867.96
5184	2902.78
5248	2937.58
5312	2972.37
5376	3007.15
5440	3041.9
5504	3076.64
5568	3111.36
5632	3146.06
5696	3180.75
5760	3215.42
5824	3250.07
5888	3284.7
5952	3319.31
6016	3353.9
6080	3388.47
6144	3423.03
6208	3457.57
6272	3492.08
6336	3526.58
6400	3561.07
6464	3595.53
6528	3629.97
6592	3664.4
6656	3698.8
6720	3733.19
6784	3767.56
6848	3801.91
6912	3836.24
6976	3870.54
7040	3904.82
7104	3939.08
7168	3973.31
7232	4007.52
7296	4041.7
7360	4075.85
7424	4109.95
7488	4143.99
7552	4177.93
7616	4211.75
7680	4245.45
7744	4279
7808	4312.4
7872	4345.66
7936	4378.77
8000	4411.73
8064	4444.53
8128	4477.16
8192	4509.61
8320	4573.92
8448	4637.73
8576	4701.35
8704	4764.88
8832	4828.34
8960	4891.77
9088	4955.16
9216	5018.53
9344	5081.86
9472	5145.16
9600	5208.44
9728	5271.69
9856	5334.92
9984	5398.12
10112	5461.27
10240	5524.35
10368	5587.3
10496	5650.1
10624	5712.79
10752	5775.36
10880	5837.78
11008	5899.91
11136	5961.82
11264	6023.65
11392	6085.41
11520	6147.14
11648	6208.82
11776	6270.47
11904	6332.1
12032	6393.69
12160	6455.26
12288	6516.8
12416	6578.32
12544	6639.8
12672	6701.26
12800	6762.69
12928	6824.1
13056	6885.49
13184	6946.86
13312	7008.22
13440	7069.56
13568	7130.9
13696	7192.22
13824	7253.53
13952	7314.83
14080	7376.11
14208	7437.37
14336	7498.61
14464	7559.83
14592	7621.03
14720	7682.19
14848	7743.31
14976	7804.36
15104	7865.36
15232	7926.26
15360	7987.06
15488	8047.71
15616	8108.2
15744	8168.46
15872	8228.49
16000	8288.28
16128	8347.82
16256	8407.13
16384	8466.24
16640	8584.05
16896	8701.55
17152	8818.94
17408	8936.27
17664	9053.55
17920	9170.8
18176	9288.01
18432	9405.18
18688	9522.3
18944	9639.37
19200	9756.38
19456	9873.34
19712	9990.22
19968	10107
20224	10223.8
20480	10340.4
20736	10456.9
20992	10573.2
21248	10689.4
21504	10805.4
21760	10921.3
22016	11036.9
22272	11152.3
22528	11267.6
22784	11382.7
23040	11497.6
23296	11612.4
23552	11726.9
23808	11841.1
24064	11955
24320	12068.3
24576	12181.3
24832	12294
25088	12406.6
25344	12519.2
25600	12631.6
25856	12744.1
26112	12856.5
26368	12968.9
26624	13081.3
26880	13193.6
27136	13305.9
27392	13418.1
27648	13530.3
27904	13642.5
28160	13754.6
28416	13866.6
28672	13978.6
28928	14090.6
29184	14202.5
29440	14314.4
29696	14426.3
29952	14538.1
30208	14649.8
30464	14761.4
30720	14872.9
30976	14984.2
31232	15095.3
31488	15206.2
31744	15317
32000	15427.5
32256	15537.9
32512	15647.9
32768	15757.8
33280	15976.7
33792	16195.4
34304	16413.9
34816	16632.3
35328	16850.5
35840	17068.6
36352	17286.5
36864	17504.2
37376	17721.7
37888	17938.8
38400	18155.6
38912	18372.2
39424	18588.5
39936	18804.4
40448	19019.8
40960	19234.7
41472	19449.1
41984	19663.1
42496	19876.9
43008	20090.5
43520	20303.9
44032	20516.9
44544	20729.5
45056	20941.6
45568	21153.4
46080	21364.9
46592	21576.3
47104	21787.4
47616	21998.3
48128	22208.9
48640	22419.2
49152	22629.3
49664	22839.1
50176	23048.7
50688	23258.2
51200	23467.4
51712	23676.5
52224	23885
52736	24093
53248	24300.5
53760	24507.6
54272	24714.5
54784	24921.1
55296	25127.4
55808	25333.5
56320	25539.3
56832	25745
57344	25950.4
57856	26155.7
58368	26360.9
58880	26565.9
59392	26770.7
59904	26975.3
60416	27179.5
60928	27383.1
61440	27586.3
61952	27789.2
62464	27991.8
62976	28194.1
63488	28396.2
64000	28598.1
64512	28799.9
65024	29001.4
65536	29202.8
66560	29604.9
67584	30006.2
68608	30406.6
69632	30805.5
70656	31203.4
71680	31600.4
72704	31996.9
73728	32392.7
74752	32787.7
75776	33181.9
76800	33574.9
77824	33966.5
78848	34357.1
79872	34747.2
80896	35136.9
81920	35525.9
82944	35914.5
83968	36302.1
84992	36688.6
86016	37073.7
87040	37457.9
88064	37841.5
89088	38224.6
90112	38607.2
91136	38989.3
92160	39370.4
93184	39750.4
94208	40129.5
95232	40507.5
96256	40884.9
97280	41261.5
98304	41637.7
99328	42013.3
100352	42388.1
101376	42762
102400	43134.8
103424	43506.8
104448	43878.2
105472	44249.1
106496	44619.4
107520	44989
108544	45357.8
109568	45725.7
110592	46092.6
111616	46458.6
112640	46823.5
113664	47187.6
114688	47550.7
115712	47912
116736	48271.2
117760	48628.2
118784	48982.9
119808	49335.8
120832	49687.5
121856	50038.1
122880	50387.7
123904	50736.3
124928	51083.7
125952	51430.3
126976	51776.2
128000	52121.4
129024	52465.8
130048	52809.5
131072	53152.7
133120	53837.3
135168	54519
137216	55198.9
139264	55877.3
141312	56552.6
143360	57225.5
145408	57896.1
147456	58565.3
149504	59232.6
151552	59896.1
153600	60557
155648	61216.4
157696	61874.5
159744	62530.9
161792	63185.4
163840	63837.8
165888	64489
167936	65139.2
169984	65788.2
172032	66436.2
174080	67082.5
176128	67727.4
178176	68371.4
180224	69014.3
182272	69656.1
184320	70296.7
186368	70936.1
188416	71574.6
190464	72212.1
192512	72848.7
194560	73484
196608	74118
198656	74751.1
200704	75383.3
202752	76014.2
204800	76644
206848	77272.3
208896	77899.6
210944	78525.7
212992	79150.7
215040	79774.2
217088	80396.3
219136	81017
221184	81636.6
223232	82254.7
225280	82871.1
227328	83485.6
229376	84098
231424	84708
233472	85315.4
235520	85919.5
237568	86520.4
239616	87118.2
241664	87713.5
243712	88306.4
245760	88897.1
247808	89486.1
249856	90073.8
251904	90660.5
253952	91246.2
256000	91830.9
258048	92414.4
260096	92996.9
262144	93578.5
266240	94738.8
270336	95895
274432	97047.6
278528	98197
282624	99342.4
286720	100484
290816	101622
294912	102756
299008	103887
303104	105013
307200	106134
311296	107252
315392	108365
319488	109475
323584	110581
327680	111684
331776	112783
335872	113879
339968	114971
344064	116059
348160	117142
352256	118217
356352	119286
360448	120346
364544	121399
368640	122447
372736	123492
376832	124534
380928	125573
385024	126609
389120	127643
393216	128674
397312	129703
401408	130729
405504	131754
409600	132776
413696	133795
417792	134812
421888	135827
425984	136839
430080	137849
434176	138856
438272	139860
442368	140861
446464	141860
450560	142855
454656	143847
458752	144835
462848	145818
466944	146796
471040	147769
475136	148735
479232	149696
483328	150651
487424	151602
491520	152550
495616	153496
499712	154440
503808	155382
507904	156322
512000	157260
516096	158196
520192	159130
524288	160062
532480	161921
540672	163774
548864	165619
557056	167456
565248	169286
573440	171105
581632	172913
589824	174706
598016	176480
606208	178235
614400	179976
622592	181706
630784	183429
638976	185145
647168	186855
655360	188559
663552	190256
671744	191946
679936	193630
688128	195306
696320	196972
704512	198628
712704	200272
720896	201901
729088	203520
737280	205130
745472	206732
753664	208327
761856	209915
770048	211494
778240	213066
786432	214633
794624	216193
802816	217748
811008	219295
819200	220833
827392	222363
835584	223882
843776	225389
851968	226889
860160	228383
868352	229870
876544	231352
884736	232829
892928	234301
901120	235767
909312	237227
917504	238679
925696	240124
933888	241560
942080	242988
950272	244408
958464	245817
966656	247220
974848	248615
983040	250005
991232	251389
999424	252769
1007616	254144
1015808	255514
1024000	256879
1032192	258240
1040384	259594
1048576	260941
1064960	263612
1081344	266249
1097728	268857
1114112	271448
1130496	274023
1146880	276582
1163264	279120
1179648	281634
1196032	284119
1212416	286575
1228800	289011
1245184	291430
1261568	293833
1277952	296219
1294336	298585
1310720	300928
1327104	303248
1343488	305551
1359872	307837
1376256	310107
1392640	312360
1409024	314594
1425408	316811
1441792	319006
1458176	321184
1474560	323349
1490944	325501
1507328	327637
1523712	329755
1540096	331854
1556480	333933
1572864	335996
1589248	338047
1605632	340087
1622016	342113
1638400	344125
1654784	346121
1671168	348100
1687552	350061
1703936	352008
1720320	353944
1736704	355868
1753088	357779
1769472	359674
1785856	361552
1802240	363414
1818624	365262
1835008	367097
1851392	368920
1867776	370731
1884160	372530
1900544	374316
1916928	376088
1933312	377848
1949696	379598
1966080	381338
1982464	383064
1998848	384778
2015232	386479
2031616	388168
2048000	389847
2064384	391516
2080768	393175
2097152	394825
2129920	398091
2162688	401309
2195456	404489
2228224	407633
2260992	410738
2293760	413799
2326528	416826
2359296	419816
2392064	422764
2424832	425675
2457600	428548
2490368	431385
2523136	434187
2555904	436961
2588672	439702
2621440	442408
2654208	445083
2686976	447731
2719744	450349
2752512	452935
2785280	455495
2818048	458028
2850816	460533
2883584	463008
2916352	465457
2949120	467880
2981888	470273
3014656	472639
3047424	474982
3080192	477299
3112960	479591
3145728	481862
3178496	484110
3211264	486331
3244032	488529
3276800	490705
3309568	492858
3342336	494990
3375104	497098
3407872	499187
3440640	501254
3473408	503302
3506176	505331
3538944	507339
3571712	509327
3604480	511295
3637248	513245
3670016	515175
3702784	517087
3735552	518982
3768320	520861
3801088	522721
3833856	524564
3866624	526391
3899392	528202
3932160	529996
3964928	531774
3997696	533535
4030464	535280
4063232	537009
4096000	538724
4128768	540423
4161536	542106
4194304	543773
4259840	547062
4325376	550295
4390912	553472
4456448	556597
4521984	559675
4587520	562703
4653056	565684
4718592	568615
4784128	571493
4849664	574323
4915200	577107
4980736	579851
5046272	582553
5111808	585214
5177344	587834
5242880	590415
5308416	592957
5373952	595460
5439488	597924
5505024	600348
5570560	602736
5636096	605089
5701632	607411
5767168	609701
5832704	611959
5898240	614187
5963776	616381
6029312	618544
6094848	620676
6160384	622777
6225920	624852
6291456	626901
6356992	628926
6422528	630926
6488064	632900
6553600	634849
6619136	636774
6684672	638675
6750208	640552
6815744	642405
6881280	644237
6946816	646045
7012352	647835
7077888	649602
7143424	651346
7208960	653068
7274496	654768
7340032	656446
7405568	658104
7471104	659742
7536640	661361
7602176	662964
7667712	664548
7733248	666110
7798784	667654
7864320	669178
7929856	670686
7995392	672176
8060928	673652
8126464	675110
8192000	676555
8257536	677982
8323072	679390
8388608	680780
8519680	683510
8650752	686189
8781824	688815
8912896	691390
9043968	693906
9175040	696371
9306112	698792
9437184	701169
9568256	703488
9699328	705755
9830400	707978
9961472	710156
10092544	712282
10223616	714355
10354688	716390
10485760	718391
10616832	720360
10747904	722284
10878976	724169
11010048	726023
11141120	727847
11272192	729636
11403264	731385
11534336	733103
11665408	734792
11796480	736455
11927552	738084
12058624	739683
12189696	741260
12320768	742818
12451840	744352
12582912	745856
12713984	747341
12845056	748807
12976128	750255
13107200	751678
13238272	753076
13369344	754458
13500416	755822
13631488	757169
13762560	758489
13893632	759788
14024704	761070
14155776	762336
14286848	763579
14417920	764800
14548992	766009
14680064	767208
14811136	768396
14942208	769561
15073280	770701
15204352	771824
15335424	772934
15466496	774020
15597568	775083
15728640	776138
15859712	777185
15990784	778223
16121856	779242
16252928	780249
16384000	781249
16515072	782245
16646144	783227
16777216	784195
17039360	786115
17301504	788010
17563648	789880
17825792	791726
18087936	793540
18350080	795340
18612224	797137
18874368	798953
19136512	800759
19398656	802596
19660800	804340
19922944	805978
20185088	807557
20447232	809028
20709376	810464
20971520	811846
21233664	813167
21495808	814447
21757952	815667
22020096	816828
22282240	817994
22544384	819149
22806528	820205
23068672	821313
23330816	822381
23592960	823404
23855104	824438
24117248	825347
24379392	826163
24641536	826872
24903680	828930
25165824	828930
25427968	828930
25690112	828930
25952256	828930
26214400	828930
26476544	828930
26738688	828930
27000832	828930
27262976	828930
27525120	828930
27787264	828930
28049408	828930
28311552	828930
28573696	828930
28835840	828930
29097984	828930
29360128	828930
29622272	828930
29884416	828930
30146560	828930
30408704	828930
30670848	828930
30932992	828930
31195136	828930
31457280	828930
31719424	828930
31981568	828930
32243712	828930
32505856	828930
32768000	828930
33030144	828930
33292288	828930
33554432	828930
34078720	828930
34603008	828930
35127296	828930
35651584	828930
36175872	828930
36700160	828930
37224448	828930
37748736	828930
38273024	828930
38797312	828930
39321600	828930
39845888	828930
40370176	828930
40894464	828930
41418752	828930
41943040	828930
42467328	828930
42991616	828930
43515904	828930
44040192	828930
44564480	828930
45088768	828930
45613056	828930
46137344	828930
46661632	828930
47185920	828930
47710208	828930
48234496	828930
48758784	828930
49283072	828930
49807360	828930
50331648	828930
50855936	828930
51380224	828930
51904512	828930
52428800	828930
52953088	828930
53477376	828930
54001664	828930
54525952	828930
55050240	828930
55574528	828930
56098816	828930
56623104	828930
57147392	828930
57671680	828930
58195968	828930
58720256	828930
59244544	828930
59768832	828930
60293120	828930
60817408	828930
61341696	828930
61865984	828930
62390272	828930
62914560	828930
63438848	828930
63963136	828930
64487424	828930
65011712	828930
65536000	828930
66060288	828930
66584576	828930
67108864	828930
68157440	828930
69206016	828930
70254592	828930
71303168	828930
72351744	828930
73400320	828930
74448896	828930
75497472	828930
76546048	828930
77594624	828930
78643200	828930
79691776	828930
80740352	828930
81788928	828930
82837504	828930
83886080	828930
84934656	828930
85983232	828930
87031808	828930
88080384	828930
89128960	828930
90177536	828930
91226112	828930
92274688	828930
93323264	828930
94371840	828930
95420416	828930
96468992	828930
97517568	828930
98566144	828930
99614720	828930
100663296	828930
101711872	828930
102760448	828930
103809024	828930
104857600	828930
105906176	828930
106954752	828930
108003328	828930
109051904	828930
110100480	828930
111149056	828930
112197632	828930
113246208	828930
114294784	828930
115343360	828930
116391936	828930
117440512	828930
118489088	828930
119537664	828930
120586240	828930
121634816	828930
122683392	828930
123731968	828930
124780544	828930
125829120	828930
126877696	828930
127926272	828930
128974848	828930
130023424	828930
131072000	828930
132120576	828930
133169152	828930
134217728	828930
136314880	828930
138412032	828930
140509184	828930
142606336	828930
144703488	828930
146800640	828930
148897792	828930
150994944	828930
153092096	828930
155189248	828930
157286400	828930
159383552	828930
161480704	828930
163577856	828930
165675008	828930
167772160	828930
169869312	828930
171966464	828930
174063616	828930
176160768	828930
178257920	828930
180355072	828930
182452224	828930
184549376	828930
186646528	828930
188743680	828930
190840832	828930
192937984	828930
195035136	828930
197132288	828930
199229440	828930
201326592	828930
203423744	828930
205520896	828930
207618048	828930
209715200	828930
211812352	828930
213909504	828930
216006656	828930
218103808	828930
220200960	828930
222298112	828930
224395264	828930
226492416	828930
228589568	828930
230686720	828930
232783872	828930
234881024	828930
236978176	828930
239075328	828930
241172480	828930
243269632	828930
245366784	828930
247463936	828930
249561088	828930
251658240	828930
253755392	828930
255852544	828930
257949696	828930
260046848	828930
262144000	828930
264241152	828930
266338304	828930
268435456	828930
272629760	828930
276824064	828930
281018368	828930
285212672	828930
289406976	828930
293601280	828930
297795584	828930
301989888	828930
306184192	828930
310378496	828930
314572800	828930
318767104	828930
322961408	828930
327155712	828930
331350016	828930
335544320	828930
339738624	828930
343932928	828930
348127232	828930
352321536	828930
356515840	828930
360710144	828930
364904448	828930
369098752	828930
373293056	828930
377487360	828930
381681664	828930
385875968	828930
390070272	828930
394264576	828930
398458880	828930
402653184	828930
406847488	828930
411041792	828930
415236096	828930
419430400	828930
423624704	828930
427819008	828930
432013312	828930
436207616	828930
440401920	828930
444596224	828930
448790528	828930
452984832	828930
457179136	828930
461373440	828930
465567744	828930
469762048	828930
473956352	828930
478150656	828930
482344960	828930
486539264	828930
490733568	828930
494927872	828930
499122176	828930
503316480	828930
507510784	828930
511705088	828930
515899392	828930
520093696	828930
524288000	828930
528482304	828930
532676608	828930
536870912	828930
545259520	828930
553648128	828930
562036736	828930
570425344	828930
578813952	828930
587202560	828930
595591168	828930
603979776	828930
612368384	828930
620756992	828930
629145600	828930
637534208	828930
645922816	828930
654311424	828930
662700032	828930
671088640	828930
679477248	828930
687865856	828930
696254464	828930
704643072	828930
713031680	828930
721420288	828930
729808896	828930
738197504	828930
746586112	828930
754974720	828930
763363328	828930
771751936	828930
780140544	828930
788529152	828930
796917760	828930
805306368	828930
813694976	828930
822083584	828930
830472192	828930
838860800	828930
847249408	828930
855638016	828930
864026624	828930
872415232	828930
880803840	828930
889192448	828930
897581056	828930
905969664	828930
914358272	828930
922746880	828930
931135488	828930
939524096	828930
947912704	828930
956301312	828930
964689920	828930
973078528	828930
981467136	828930
989855744	828930
998244352	828930
1006632960	828930
1015021568	828930
1023410176	828930
1031798784	828930
1040187392	828930
1048576000	828930
1056964608	828930
1065353216	828930
1073741824	828930
1090519040	828930
1107296256	828930
1124073472	828930
1140850688	828930
1157627904	828930
1174405120	828930
1191182336	828930
1207959552	828930
1224736768	828930
1241513984	828930
1258291200	828930
1275068416	828930
1291845632	828930
1308622848	828930
1325400064	828930
1342177280	828930
1358954496	828930
1375731712	828930
1392508928	828930
1409286144	828930
1426063360	828930
1442840576	828930
1459617792	828930
1476395008	828930
1493172224	828930
1509949440	828930
1526726656	828930
1543503872	828930
1560281088	828930
1577058304	828930
1593835520	828930
1610612736	828930
1627389952	828930
1644167168	828930
1660944384	828930
1677721600	828930
1694498816	828930
1711276032	828930
1728053248	828930
1744830464	828930
1761607680	828930
1778384896	828930
1795162112	828930
1811939328	828930
1828716544	828930
1845493760	828930
1862270976	828930
1879048192	828930
1895825408	828930
1912602624	828930
1929379840	828930
1946157056	828930
1962934272	828930
1979711488	828930
1996488704	828930
2013265920	828930
2030043136	828930
2046820352	828930
2063597568	828930
2080374784	828930
2097152000	828930
2113929216	828930
2130706432	828930
2147483648	828930
2181038080	828930
2214592512	828930
2248146944	828930
2281701376	828930
2315255808	828930
2348810240	828930
2382364672	828930
2415919104	828930
2449473536	828930
2483027968	828930
2516582400	828930
2550136832	828930
2583691264	828930
2617245696	828930
2650800128	828930
2684354560	828930
2717908992	828930
2751463424	828930
2785017856	828930
2818572288	828930
2852126720	828930
2885681152	828930
2919235584	828930
2952790016	828930
2986344448	828930
3019898880	828930
3053453312	828930
3087007744	828930
3120562176	828930
3154116608	828930
3187671040	828930
3221225472	828930
3254779904	828930
3288334336	828930
3321888768	828930
3355443200	828930
3388997632	828930
3422552064	828930
3456106496	828930
3489660928	828930
3523215360	828930
3556769792	828930
3590324224	828930
3623878656	828930
3657433088	828930
3690987520	828930
3724541952	828930
3758096384	828930
3791650816	828930
3825205248	828930
3858759680	828930
3892314112	828930
3925868544	828930
3959422976	828930
3992977408	828930
4026531840	828930
4060086272	828930
4093640704	828930
4127195136	828930
4160749568	828930
4194304000	828930
4227858432	828930
4261412864	828930
4294967296	828930
4362076160	828930
4429185024	828930
4496293888	828930
4563402752	828930
4630511616	828930
4697620480	828930
4764729344	828930
4831838208	828930
4898947072	828930
4966055936	828930
5033164800	828930
5100273664	828930
5167382528	828930
5234491392	828930
5301600256	828930
5368709120	828930
5435817984	828930
5502926848	828930
5570035712	828930
5637144576	828930
5704253440	828930
5771362304	828930
5838471168	828930
5905580032	828930
5972688896	828930
6039797760	828930
6106906624	828930
6174015488	828930
6241124352	828930
6308233216	828930
6375342080	828930
6442450944	828930
6509559808	828930
6576668672	828930
6643777536	828930
6710886400	828930
6777995264	828930
6845104128	828930
6912212992	828930
6979321856	828930
7046430720	828930
7113539584	828930
7180648448	828930
7247757312	828930
7314866176	828930
7381975040	828930
7449083904	828930
7516192768	828930
7583301632	828930
7650410496	828930
7717519360	828930
7784628224	828930
7851737088	828930
7918845952	828930
7985954816	828930
8053063680	828930
8120172544	828930
8187281408	828930
8254390272	828930
8321499136	828930
8388608000	828930
8455716864	828930
8522825728	828930
8589934592	828930
8724152320	828930
8858370048	828930
8992587776	828930
9126805504	828930
9261023232	828930
9395240960	828930
9529458688	828930
9663676416	828930
9797894144	828930
9932111872	828930
10066329600	828930
10200547328	828930
10334765056	828930
10468982784	828930
10603200512	828930
10737418240	828930
10871635968	828930
11005853696	828930
11140071424	828930
11274289152	828930
11408506880	828930
11542724608	828930
11676942336	828930
11811160064	828930
11945377792	828930
12079595520	828930
12213813248	828930
12348030976	828930
12482248704	828930
12616466432	828930
12750684160	828930
12884901888	828930
13019119616	828930
13153337344	828930
13287555072	828930
13421772800	828930
13555990528	828930
13690208256	828930
13824425984	828930
13958643712	828930
14092861440	828930
14227079168	828930
14361296896	828930
14495514624	828930
14629732352	828930
14763950080	828930
14898167808	828930
15032385536	828930
15166603264	828930
15300820992	828930
15435038720	828930
15569256448	828930
15703474176	828930
15837691904	828930
15971909632	828930
16106127360	828930
16240345088	828930
16374562816	828930
16508780544	828930
16642998272	828930
16777216000	828930
16911433728	828930
17045651456	828930
17179869184	828930
17448304640	828930
17716740096	828930
17985175552	828930
18253611008	828930
18522046464	828930
18790481920	828930
19058917376	828930
19327352832	828930
19595788288	828930
19864223744	828930
20132659200	828930
20401094656	828930
20669530112	828930
20937965568	828930
21206401024	828930
21474836480	828930
21743271936	828930
22011707392	828930
22280142848	828930
22548578304	828930
22817013760	828930
23085449216	828930
23353884672	828930
23622320128	828930
23890755584	828930
24159191040	828930
24427626496	828930
24696061952	828930
24964497408	828930
25232932864	828930
25501368320	828930
25769803776	828930
26038239232	828930
26306674688	828930
26575110144	828930
26843545600	828930
27111981056	828930
27380416512	828930
27648851968	828930
27917287424	828930
28185722880	828930
28454158336	828930
28722593792	828930
28991029248	828930
29259464704	828930
29527900160	828930
29796335616	828930
30064771072	828930
30333206528	828930
30601641984	828930
30870077440	828930
31138512896	828930
31406948352	828930
31675383808	828930
31943819264	828930
32212254720	828930
32480690176	828930
32749125632	828930
33017561088	828930
33285996544	828930
33554432000	828930
33822867456	828930
34091302912	828930
34359738368	828930
34896609280	828930
35433480192	828930
35970351104	828930
36507222016	828930
37044092928	828930
37580963840	828930
38117834752	828930
38654705664	828930
39191576576	828930
39728447488	828930
40265318400	828930
40802189312	828930
41339060224	828930
41875931136	828930
42412802048	828930
42949672960	828930
43486543872	828930
44023414784	828930
44560285696	828930
45097156608	828930
45634027520	828930
46170898432	828930
46707769344	828930
47244640256	828930
47781511168	828930
48318382080	828930
48855252992	828930
49392123904	828930
49928994816	828930
50465865728	828930
51002736640	828930
51539607552	828930
52076478464	828930
52613349376	828930
53150220288	828930
53687091200	828930
54223962112	828930
54760833024	828930
55297703936	828930
55834574848	828930
56371445760	828930
56908316672	828930
57445187584	828930
57982058496	828930
58518929408	828930
59055800320	828930
59592671232	828930
60129542144	828930
60666413056	828930
61203283968	828930
61740154880	828930
62277025792	828930
62813896704	828930
63350767616	828930
63887638528	828930
64424509440	828930
64961380352	828930
65498251264	828930
66035122176	828930
66571993088	828930
67108864000	828930
67645734912	828930
68182605824	828930
68719476736	828930
69793218560	828930
70866960384	828930
71940702208	828930
73014444032	828930
74088185856	828930
75161927680	828930
76235669504	828930
77309411328	828930
78383153152	828930
79456894976	828930
80530636800	828930
81604378624	828930
82678120448	828930
83751862272	828930
84825604096	828930
85899345920	828930
86973087744	828930
88046829568	828930
89120571392	828930
90194313216	828930
91268055040	828930
92341796864	828930
93415538688	828930
94489280512	828930
95563022336	828930
96636764160	828930
97710505984	828930
98784247808	828930
99857989632	828930
100931731456	828930
102005473280	828930
103079215104	828930
104152956928	828930
105226698752	828930
106300440576	828930
107374182400	828930
108447924224	828930
109521666048	828930
110595407872	828930
111669149696	828930
112742891520	828930
113816633344	828930
114890375168	828930
115964116992	828930
117037858816	828930
118111600640	828930
119185342464	828930
120259084288	828930
121332826112	828930
122406567936	828930
123480309760	828930
124554051584	828930
125627793408	828930
126701535232	828930
127775277056	828930
128849018880	828930
129922760704	828930
130996502528	828930
132070244352	828930
133143986176	828930
134217728000	828930
135291469824	828930
136365211648	828930
137438953472	828930
139586437120	828930
141733920768	828930
143881404416	828930
146028888064	828930
148176371712	828930
150323855360	828930
152471339008	828930
154618822656	828930
156766306304	828930
158913789952	828930
161061273600	828930
163208757248	828930
165356240896	828930
167503724544	828930
169651208192	828930
171798691840	828930
173946175488	828930
176093659136	828930
178241142784	828930
180388626432	828930
182536110080	828930
184683593728	828930
186831077376	828930
188978561024	828930
191126044672	828930
193273528320	828930
195421011968	828930
197568495616	828930
199715979264	828930
201863462912	828930
204010946560	828930
206158430208	828930
208305913856	828930
210453397504	828930
212600881152	828930
214748364800	828930
216895848448	828930
219043332096	828930
221190815744	828930
223338299392	828930
225485783040	828930
227633266688	828930
229780750336	828930
231928233984	828930
234075717632	828930
236223201280	828930
238370684928	828930
240518168576	828930
242665652224	828930
244813135872	828930
246960619520	828930
249108103168	828930
251255586816	828930
253403070464	828930
255550554112	828930
257698037760	828930
259845521408	828930
261993005056	828930
264140488704	828930
266287972352	828930
268435456000	828930
270582939648	828930
272730423296	828930
274877906944	828930
279172874240	828930
283467841536	828930
287762808832	828930
292057776128	828930
296352743424	828930
300647710720	828930
304942678016	828930
309237645312	828930
313532612608	828930
317827579904	828930
322122547200	828930
326417514496	828930
330712481792	828930
335007449088	828930
339302416384	828930
343597383680	828930
347892350976	828930
352187318272	828930
356482285568	828930
360777252864	828930
365072220160	828930
369367187456	828930
373662154752	828930
377957122048	828930
382252089344	828930
386547056640	828930
390842023936	828930
395136991232	828930
399431958528	828930
403726925824	828930
408021893120	828930
412316860416	828930
416611827712	828930
420906795008	828930
425201762304	828930
429496729600	828930
433791696896	828930
438086664192	828930
442381631488	828930
446676598784	828930
450971566080	828930
455266533376	828930
459561500672	828930
463856467968	828930
468151435264	828930
472446402560	828930
476741369856	828930
481036337152	828930
485331304448	828930
489626271744	828930
493921239040	828930
498216206336	828930
502511173632	828930
506806140928	828930
511101108224	828930
515396075520	828930
519691042816	828930
523986010112	828930
528280977408	828930
532575944704	828930
536870912000	828930
541165879296	828930
545460846592	828930
549755813888	828930
558345748480	828930
566935683072	828930
575525617664	828930
584115552256	828930
592705486848	828930
601295421440	828930
609885356032	828930
618475290624	828930
627065225216	828930
635655159808	828930
644245094400	828930
652835028992	828930
661424963584	828930
670014898176	828930
678604832768	828930
687194767360	828930
695784701952	828930
704374636544	828930
712964571136	828930
721554505728	828930
730144440320	828930
738734374912	828930
747324309504	828930
755914244096	828930
764504178688	828930
773094113280	828930
781684047872	828930
790273982464	828930
798863917056	828930
807453851648	828930
816043786240	828930
824633720832	828930
833223655424	828930
841813590016	828930
850403524608	828930
858993459200	828930
867583393792	828930
876173328384	828930
884763262976	828930
893353197568	828930
901943132160	828930
910533066752	828930
919123001344	828930
927712935936	828930
936302870528	828930
944892805120	828930
953482739712	828930
962072674304	828930
970662608896	828930
979252543488	828930
987842478080	828930
996432412672	828930
1005022347264	828930
1013612281856	828930
1022202216448	828930
1030792151040	828930
1039382085632	828930
1047972020224	828930
1056561954816	828930
1065151889408	828930
1073741824000	828930
1082331758592	828930
1090921693184	828930
1099511627776	828930
1116691496960	828930
1133871366144	828930
1151051235328	828930
1168231104512	828930
1185410973696	828930
1202590842880	828930
1219770712064	828930
1236950581248	828930
1254130450432	828930
1271310319616	828930
1288490188800	828930
1305670057984	828930
1322849927168	828930
1340029796352	828930
1357209665536	828930
1374389534720	828930
1391569403904	828930
1408749273088	828930
1425929142272	828930
1443109011456	828930
1460288880640	828930
1477468749824	828930
1494648619008	828930
1511828488192	828930
1529008357376	828930
1546188226560	828930
1563368095744	828930
1580547964928	828930
1597727834112	828930
1614907703296	828930
1632087572480	828930
1649267441664	828930
1666447310848	828930
1683627180032	828930
1700807049216	828930
1717986918400	828930
1735166787584	828930
1752346656768	828930
1769526525952	828930
1786706395136	828930
1803886264320	828930
1821066133504	828930
1838246002688	828930
1855425871872	828930
1872605741056	828930
1889785610240	828930
1906965479424	828930
1924145348608	828930
1941325217792	828930
1958505086976	828930
1975684956160	828930
1992864825344	828930
2010044694528	828930
2027224563712	828930
2044404432896	828930
2061584302080	828930
2078764171264	828930
2095944040448	828930
2113123909632	828930
2130303778816	828930
2147483648000	828930
2164663517184	828930
2181843386368	828930
2199023255552	828930
2233382993920	828930
2267742732288	828930
2302102470656	828930
2336462209024	828930
2370821947392	828930
2405181685760	828930
2439541424128	828930
2473901162496	828930
2508260900864	828930
2542620639232	828930
2576980377600	828930
2611340115968	828930
2645699854336	828930
2680059592704	828930
2714419331072	828930
2748779069440	828930
2783138807808	828930
2817498546176	828930
2851858284544	828930
2886218022912	828930
2920577761280	828930
2954937499648	828930
2989297238016	828930
3023656976384	828930
3058016714752	828930
3092376453120	828930
3126736191488	828930
3161095929856	828930
3195455668224	828930
3229815406592	828930
3264175144960	828930
3298534883328	828930
3332894621696	828930
3367254360064	828930
3401614098432	828930
3435973836800	828930
3470333575168	828930
3504693313536	828930
3539053051904	828930
3573412790272	828930
3607772528640	828930
3642132267008	828930
3676492005376	828930
3710851743744	828930
3745211482112	828930
3779571220480	828930
3813930958848	828930
3848290697216	828930
3882650435584	828930
3917010173952	828930
3951369912320	828930
3985729650688	828930
4020089389056	828930
4054449127424	828930
4088808865792	828930
4123168604160	828930
4157528342528	828930
4191888080896	828930
4226247819264	828930
4260607557632	828930
4294967296000	828930
4329327034368	828930
4363686772736	828930
4398046511104	828930
4466765987840	828930
4535485464576	828930
4604204941312	828930
4672924418048	828930
4741643894784	828930
4810363371520	828930
4879082848256	828930
4947802324992	828930
5016521801728	828930
5085241278464	828930
5153960755200	828930
5222680231936	828930
5291399708672	828930
5360119185408	828930
5428838662144	828930
5497558138880	828930
5566277615616	828930
5634997092352	828930
5703716569088	828930
5772436045824	828930
5841155522560	828930
5909874999296	828930
5978594476032	828930
6047313952768	828930
6116033429504	828930
6184752906240	828930
6253472382976	828930
6322191859712	828930
6390911336448	828930
6459630813184	828930
6528350289920	828930
6597069766656	828930
6665789243392	828930
6734508720128	828930
6803228196864	828930
6871947673600	828930
6940667150336	828930
7009386627072	828930
7078106103808	828930
7146825580544	828930
7215545057280	828930
7284264534016	828930
7352984010752	828930
7421703487488	828930
7490422964224	828930
7559142440960	828930
7627861917696	828930
7696581394432	828930
7765300871168	828930
7834020347904	828930
7902739824640	828930
7971459301376	828930
8040178778112	828930
8108898254848	828930
8177617731584	828930
8246337208320	828930
8315056685056	828930
8383776161792	828930
8452495638528	828930
8521215115264	828930
8589934592000	828930
8658654068736	828930
8727373545472	828930
8796093022208	828930
8933531975680	828930
9070970929152	828930
9208409882624	828930
9345848836096	828930
9483287789568	828930
9620726743040	828930
9758165696512	828930
9895604649984	828930
10033043603456	828930
10170482556928	828930
10307921510400	828930
10445360463872	828930
10582799417344	828930
10720238370816	828930
10857677324288	828930
10995116277760	828930
11132555231232	828930
11269994184704	828930
11407433138176	828930
11544872091648	828930
11682311045120	828930
11819749998592	828930
11957188952064	828930
12094627905536	828930
12232066859008	828930
12369505812480	828930
12506944765952	828930
12644383719424	828930
12781822672896	828930
12919261626368	828930
13056700579840	828930
13194139533312	828930
13331578486784	828930
13469017440256	828930
13606456393728	828930
13743895347200	828930
13881334300672	828930
14018773254144	828930
14156212207616	828930
14293651161088	828930
14431090114560	828930
14568529068032	828930
14705968021504	828930
14843406974976	828930
14980845928448	828930
15118284881920	828930
15255723835392	828930
15393162788864	828930
15530601742336	828930
15668040695808	828930
15805479649280	828930
15942918602752	828930
16080357556224	828930
16217796509696	828930
16355235463168	828930
16492674416640	828930
16630113370112	828930
16767552323584	828930
16904991277056	828930
17042430230528	828930
17179869184000	828930
17317308137472	828930
17454747090944	828930
17592186044416	828930
17867063951360	828930
18141941858304	828930
18416819765248	828930
18691697672192	828930
18966575579136	828930
19241453486080	828930
19516331393024	828930
19791209299968	828930
20066087206912	828930
20340965113856	828930
20615843020800	828930
20890720927744	828930
21165598834688	828930
21440476741632	828930
21715354648576	828930
21990232555520	828930
22265110462464	828930
22539988369408	828930
22814866276352	828930
23089744183296	828930
23364622090240	828930
23639499997184	828930
23914377904128	828930
24189255811072	828930
24464133718016	828930
24739011624960	828930
25013889531904	828930
25288767438848	828930
25563645345792	828930
25838523252736	828930
26113401159680	828930
26388279066624	828930
26663156973568	828930
26938034880512	828930
27212912787456	828930
27487790694400	828930
27762668601344	828930
28037546508288	828930
28312424415232	828930
28587302322176	828930
28862180229120	828930
29137058136064	828930
29411936043008	828930
29686813949952	828930
29961691856896	828930
30236569763840	828930
30511447670784	828930
30786325577728	828930
31061203484672	828930
31336081391616	828930
31610959298560	828930
31885837205504	828930
32160715112448	828930
32435593019392	828930
32710470926336	828930
32985348833280	828930
33260226740224	828930
33535104647168	828930
33809982554112	828930
34084860461056	828930
34359738368000	828930
34634616274944	828930
34909494181888	828930
35184372088832	828930
35734127902720	828930
36283883716608	828930
36833639530496	828930
37383395344384	828930
37933151158272	828930
38482906972160	828930
39032662786048	828930
39582418599936	828930
40132174413824	828930
40681930227712	828930
41231686041600	828930
41781441855488	828930
42331197669376	828930
42880953483264	828930
43430709297152	828930
43980465111040	828930
44530220924928	828930
45079976738816	828930
45629732552704	828930
46179488366592	828930
46729244180480	828930
47278999994368	828930
47828755808256	828930
48378511622144	828930
48928267436032	828930
49478023249920	828930
50027779063808	828930
50577534877696	828930
51127290691584	828930
51677046505472	828930
52226802319360	828930
52776558133248	828930
53326313947136	828930
53876069761024	828930
54425825574912	828930
54975581388800	828930
55525337202688	828930
56075093016576	828930
56624848830464	828930
57174604644352	828930
57724360458240	828930
58274116272128	828930
58823872086016	828930
59373627899904	828930
59923383713792	828930
60473139527680	828930
61022895341568	828930
61572651155456	828930
62122406969344	828930
62672162783232	828930
63221918597120	828930
63771674411008	828930
64321430224896	828930
64871186038784	828930
65420941852672	828930
65970697666560	828930
66520453480448	828930
67070209294336	828930
67619965108224	828930
68169720922112	828930
68719476736000	828930
69269232549888	828930
69818988363776	828930
70368744177664	828930
71468255805440	828930
72567767433216	828930
73667279060992	828930
74766790688768	828930
75866302316544	828930
76965813944320	828930
78065325572096	828930
79164837199872	828930
80264348827648	828930
81363860455424	828930
82463372083200	828930
83562883710976	828930
84662395338752	828930
85761906966528	828930
86861418594304	828930
87960930222080	828930
89060441849856	828930
90159953477632	828930
91259465105408	828930
92358976733184	828930
93458488360960	828930
94557999988736	828930
95657511616512	828930
96757023244288	828930
97856534872064	828930
98956046499840	828930
100055558127616	828930
101155069755392	828930
102254581383168	828930
103354093010944	828930
104453604638720	828930
105553116266496	828930
106652627894272	828930
107752139522048	828930
108851651149824	828930
109951162777600	828930
111050674405376	828930
112150186033152	828930
113249697660928	828930
114349209288704	828930
115448720916480	828930
116548232544256	828930
117647744172032	828930
118747255799808	828930
119846767427584	828930
120946279055360	828930
122045790683136	828930
123145302310912	828930
124244813938688	828930
125344325566464	828930
126443837194240	828930
127543348822016	828930
128642860449792	828930
129742372077568	828930
130841883705344	828930
131941395333120	828930
133040906960896	828930
134140418588672	828930
135239930216448	828930
136339441844224	828930
137438953472000	828930
138538465099776	828930
139637976727552	828930
140737488355328	828930
142936511610880	828930
145135534866432	828930
147334558121984	828930
149533581377536	828930
151732604633088	828930
153931627888640	828930
156130651144192	828930
158329674399744	828930
160528697655296	828930
162727720910848	828930
164926744166400	828930
167125767421952	828930
169324790677504	828930
171523813933056	828930
173722837188608	828930
175921860444160	828930
178120883699712	828930
180319906955264	828930
182518930210816	828930
184717953466368	828930
186916976721920	828930
189115999977472	828930
191315023233024	828930
193514046488576	828930
195713069744128	828930
197912092999680	828930
200111116255232	828930
202310139510784	828930
204509162766336	828930
206708186021888	828930
208907209277440	828930
211106232532992	828930
213305255788544	828930
215504279044096	828930
217703302299648	828930
219902325555200	828930
222101348810752	828930
224300372066304	828930
226499395321856	828930
228698418577408	828930
230897441832960	828930
233096465088512	828930
235295488344064	828930
237494511599616	828930
239693534855168	828930
241892558110720	828930
244091581366272	828930
246290604621824	828930
248489627877376	828930
250688651132928	828930
252887674388480	828930
255086697644032	828930
257285720899584	828930
259484744155136	828930
261683767410688	828930
263882790666240	828930
266081813921792	828930
268280837177344	828930
270479860432896	828930
272678883688448	828930
274877906944000	828930
277076930199552	828930
279275953455104	828930
281474976710656	828930
285873023221760	828930
290271069732864	828930
294669116243968	828930
299067162755072	828930
303465209266176	828930
307863255777280	828930
312261302288384	828930
316659348799488	828930
321057395310592	828930
325455441821696	828930
329853488332800	828930
334251534843904	828930
338649581355008	828930
343047627866112	828930
347445674377216	828930
351843720888320	828930
356241767399424	828930
360639813910528	828930
365037860421632	828930
369435906932736	828930
373833953443840	828930
378231999954944	828930
382630046466048	828930
387028092977152	828930
391426139488256	828930
395824185999360	828930
400222232510464	828930
404620279021568	828930
409018325532672	828930
413416372043776	828930
417814418554880	828930
422212465065984	828930
426610511577088	828930
431008558088192	828930
435406604599296	828930
439804651110400	828930
444202697621504	828930
448600744132608	828930
452998790643712	828930
457396837154816	828930
461794883665920	828930
466192930177024	828930
470590976688128	828930
474989023199232	828930
479387069710336	828930
483785116221440	828930
488183162732544	828930
492581209243648	828930
496979255754752	828930
501377302265856	828930
505775348776960	828930
510173395288064	828930
514571441799168	828930
518969488310272	828930
523367534821376	828930
527765581332480	828930
532163627843584	828930
536561674354688	828930
540959720865792	828930
545357767376896	828930
549755813888000	828930
554153860399104	828930
558551906910208	828930
562949953421312	828930
571746046443520	828930
580542139465728	828930
589338232487936	828930
598134325510144	828930
606930418532352	828930
615726511554560	828930
624522604576768	828930
633318697598976	828930
642114790621184	828930
650910883643392	828930
659706976665600	828930
668503069687808	828930
677299162710016	828930
686095255732224	828930
694891348754432	828930
703687441776640	828930
712483534798848	828930
721279627821056	828930
730075720843264	828930
738871813865472	828930
747667906887680	828930
756463999909888	828930
765260092932096	828930
774056185954304	828930
782852278976512	828930
791648371998720	828930
800444465020928	828930
809240558043136	828930
818036651065344	828930
826832744087552	828930
835628837109760	828930
844424930131968	828930
853221023154176	828930
862017116176384	828930
870813209198592	828930
879609302220800	828930
888405395243008	828930
897201488265216	828930
905997581287424	828930
914793674309632	828930
923589767331840	828930
932385860354048	828930
941181953376256	828930
949978046398464	828930
958774139420672	828930
967570232442880	828930
976366325465088	828930
985162418487296	828930
993958511509504	828930
1002754604531712	828930
1011550697553920	828930
1020346790576128	828930
1029142883598336	828930
1037938976620544	828930
1046735069642752	828930
1055531162664960	828930
1064327255687168	828930
1073123348709376	828930
1081919441731584	828930
1090715534753792	828930
1099511627776000	828930
1108307720798208	828930
1117103813820416	828930
1125899906842624	828930
1143492092887040	828930
1161084278931456	828930
1178676464975872	828930
1196268651020288	828930
1213860837064704	828930
1231453023109120	828930
1249045209153536	828930
1266637395197952	828930
1284229581242368	828930
1301821767286784	828930
1319413953331200	828930
1337006139375616	828930
1354598325420032	828930
1372190511464448	828930
1389782697508864	828930
1407374883553280	828930
1424967069597696	828930
1442559255642112	828930
1460151441686528	828930
1477743627730944	828930
1495335813775360	828930
1512927999819776	828930
1530520185864192	828930
1548112371908608	828930
1565704557953024	828930
1583296743997440	828930
1600888930041856	828930
1618481116086272	828930
1636073302130688	828930
1653665488175104	828930
1671257674219520	828930
1688849860263936	828930
1706442046308352	828930
1724034232352768	828930
1741626418397184	828930
1759218604441600	828930
1776810790486016	828930
1794402976530432	828930
1811995162574848	828930
1829587348619264	828930
1847179534663680	828930
1864771720708096	828930
1882363906752512	828930
1899956092796928	828930
1917548278841344	828930
1935140464885760	828930
1952732650930176	828930
1970324836974592	828930
1987917023019008	828930
2005509209063424	828930
2023101395107840	828930
2040693581152256	828930
2058285767196672	828930
2075877953241088	828930
2093470139285504	828930
2111062325329920	828930
2128654511374336	828930
2146246697418752	828930
2163838883463168	828930
2181431069507584	828930
2199023255552000	828930
2216615441596416	828930
2234207627640832	828930
2251799813685248	828930
2286984185774080	828930
2322168557862912	828930
2357352929951744	828930
2392537302040576	828930
2427721674129408	828930
2462906046218240	828930
2498090418307072	828930
2533274790395904	828930
2568459162484736	828930
2603643534573568	828930
2638827906662400	828930
2674012278751232	828930
2709196650840064	828930
2744381022928896	828930
2779565395017728	828930
2814749767106560	828930
2849934139195392	828930
2885118511284224	828930
2920302883373056	828930
2955487255461888	828930
2990671627550720	828930
3025855999639552	828930
3061040371728384	828930
3096224743817216	828930
3131409115906048	828930
3166593487994880	828930
3201777860083712	828930
3236962232172544	828930
3272146604261376	828930
3307330976350208	828930
3342515348439040	828930
3377699720527872	828930
3412884092616704	828930
3448068464705536	828930
3483252836794368	828930
3518437208883200	828930
3553621580972032	828930
3588805953060864	828930
3623990325149696	828930
3659174697238528	828930
3694359069327360	828930
3729543441416192	828930
3764727813505024	828930
3799912185593856	828930
3835096557682688	828930
3870280929771520	828930
3905465301860352	828930
3940649673949184	828930
3975834046038016	828930
4011018418126848	828930
4046202790215680	828930
4081387162304512	828930
4116571534393344	828930
4151755906482176	828930
4186940278571008	828930
4222124650659840	828930
4257309022748672	828930
4292493394837504	828930
4327677766926336	828930
4362862139015168	828930
4398046511104000	828930
4433230883192832	828930
4468415255281664	828930
4503599627370496	828930
4573968371548160	828930
4644337115725824	828930
4714705859903488	828930
4785074604081152	828930
4855443348258816	828930
4925812092436480	828930
4996180836614144	828930
5066549580791808	828930
5136918324969472	828930
5207287069147136	828930
5277655813324800	828930
5348024557502464	828930
5418393301680128	828930
5488762045857792	828930
5559130790035456	828930
5629499534213120	828930
5699868278390784	828930
5770237022568448	828930
5840605766746112	828930
5910974510923776	828930
5981343255101440	828930
6051711999279104	828930
6122080743456768	828930
6192449487634432	828930
6262818231812096	828930
6333186975989760	828930
6403555720167424	828930
6473924464345088	828930
6544293208522752	828930
6614661952700416	828930
6685030696878080	828930
6755399441055744	828930
6825768185233408	828930
6896136929411072	828930
6966505673588736	828930
7036874417766400	828930
7107243161944064	828930
7177611906121728	828930
7247980650299392	828930
7318349394477056	828930
7388718138654720	828930
7459086882832384	828930
7529455627010048	828930
7599824371187712	828930
7670193115365376	828930
7740561859543040	828930
7810930603720704	828930
7881299347898368	828930
7951668092076032	828930
8022036836253696	828930
8092405580431360	828930
8162774324609024	828930
8233143068786688	828930
8303511812964352	828930
8373880557142016	828930
8444249301319680	828930
8514618045497344	828930
8584986789675008	828930
8655355533852672	828930
8725724278030336	828930
8796093022208000	828930
8866461766385664	828930
8936830510563328	828930
9007199254740992	828930
9147936743096320	828930
9288674231451648	828930
9429411719806976	828930
9570149208162304	828930
9710886696517632	828930
9851624184872960	828930
9992361673228288	828930
10133099161583616	828930
10273836649938944	828930
10414574138294272	828930
10555311626649600	828930
10696049115004928	828930
10836786603360256	828930
10977524091715584	828930
11118261580070912	828930
11258999068426240	828930
11399736556781568	828930
11540474045136896	828930
11681211533492224	828930
11821949021847552	828930
11962686510202880	828930
12103423998558208	828930
12244161486913536	828930
12384898975268864	828930
12525636463624192	828930
12666373951979520	828930
12807111440334848	828930
12947848928690176	828930
13088586417045504	828930
13229323905400832	828930
13370061393756160	828930
13510798882111488	828930
13651536370466816	828930
13792273858822144	828930
13933011347177472	828930
14073748835532800	828930
14214486323888128	828930
14355223812243456	828930
14495961300598784	828930
14636698788954112	828930
14777436277309440	828930
14918173765664768	828930
15058911254020096	828930
15199648742375424	828930
15340386230730752	828930
15481123719086080	828930
15621861207441408	828930
15762598695796736	828930
15903336184152064	828930
16044073672507392	828930
16184811160862720	828930
16325548649218048	828930
16466286137573376	828930
16607023625928704	828930
16747761114284032	828930
16888498602639360	828930
17029236090994688	828930
17169973579350016	828930
17310711067705344	828930
17451448556060672	828930
17592186044416000	828930
17732923532771328	828930
17873661021126656	828930
18014398509481984	828930
18295873486192640	828930
18577348462903296	828930
18858823439613952	828930
19140298416324608	828930
19421773393035264	828930
19703248369745920	828930
19984723346456576	828930
20266198323167232	828930
20547673299877888	828930
20829148276588544	828930
21110623253299200	828930
21392098230009856	828930
21673573206720512	828930
21955048183431168	828930
22236523160141824	828930
22517998136852480	828930
22799473113563136	828930
23080948090273792	828930
23362423066984448	828930
23643898043695104	828930
23925373020405760	828930
24206847997116416	828930
24488322973827072	828930
24769797950537728	828930
25051272927248384	828930
25332747903959040	828930
25614222880669696	828930
25895697857380352	828930
26177172834091008	828930
26458647810801664	828930
26740122787512320	828930
27021597764222976	828930
27303072740933632	828930
27584547717644288	828930
27866022694354944	828930
28147497671065600	828930
28428972647776256	828930
28710447624486912	828930
28991922601197568	828930
29273397577908224	828930
29554872554618880	828930
29836347531329536	828930
30117822508040192	828930
30399297484750848	828930
30680772461461504	828930
30962247438172160	828930
31243722414882816	828930
31525197391593472	828930
31806672368304128	828930
32088147345014784	828930
32369622321725440	828930
32651097298436096	828930
32932572275146752	828930
33214047251857408	828930
33495522228568064	828930
33776997205278720	828930
34058472181989376	828930
34339947158700032	828930
34621422135410688	828930
34902897112121344	828930
35184372088832000	828930
35465847065542656	828930
35747322042253312	828930
36028797018963968	828930
36591746972385280	828930
37154696925806592	828930
37717646879227904	828930
38280596832649216	828930
38843546786070528	828930
39406496739491840	828930
39969446692913152	828930
40532396646334464	828930
41095346599755776	828930
41658296553177088	828930
42221246506598400	828930
42784196460019712	828930
43347146413441024	828930
43910096366862336	828930
44473046320283648	828930
45035996273704960	828930
45598946227126272	828930
46161896180547584	828930
46724846133968896	828930
47287796087390208	828930
47850746040811520	828930
48413695994232832	828930
48976645947654144	828930
49539595901075456	828930
50102545854496768	828930
50665495807918080	828930
51228445761339392	828930
51791395714760704	828930
52354345668182016	828930
52917295621603328	828930
53480245575024640	828930
54043195528445952	828930
54606145481867264	828930
55169095435288576	828930
55732045388709888	828930
56294995342131200	828930
56857945295552512	828930
57420895248973824	828930
57983845202395136	828930
58546795155816448	828930
59109745109237760	828930
59672695062659072	828930
60235645016080384	828930
60798594969501696	828930
61361544922923008	828930
61924494876344320	828930
62487444829765632	828930
63050394783186944	828930
63613344736608256	828930
64176294690029568	828930
64739244643450880	828930
65302194596872192	828930
65865144550293504	828930
66428094503714816	828930
66991044457136128	828930
67553994410557440	828930
68116944363978752	828930
68679894317400064	828930
69242844270821376	828930
69805794224242688	828930
70368744177664000	828930
70931694131085312	828930
71494644084506624	828930
72057594037927936	828930
73183493944770560	828930
74309393851613184	828930
75435293758455808	828930
76561193665298432	828930
77687093572141056	828930
78812993478983680	828930
79938893385826304	828930
81064793292668928	828930
82190693199511552	828930
83316593106354176	828930
84442493013196800	828930
85568392920039424	828930
86694292826882048	828930
87820192733724672	828930
88946092640567296	828930
90071992547409920	828930
91197892454252544	828930
92323792361095168	828930
93449692267937792	828930
94575592174780416	828930
95701492081623040	828930
96827391988465664	828930
97953291895308288	828930
99079191802150912	828930
100205091708993536	828930
101330991615836160	828930
102456891522678784	828930
103582791429521408	828930
104708691336364032	828930
105834591243206656	828930
106960491150049280	828930
108086391056891904	828930
109212290963734528	828930
110338190870577152	828930
111464090777419776	828930
112589990684262400	828930
113715890591105024	828930
114841790497947648	828930
115967690404790272	828930
117093590311632896	828930
118219490218475520	828930
119345390125318144	828930
120471290032160768	828930
121597189939003392	828930
122723089845846016	828930
123848989752688640	828930
124974889659531264	828930
126100789566373888	828930
127226689473216512	828930
128352589380059136	828930
129478489286901760	828930
130604389193744384	828930
131730289100587008	828930
132856189007429632	828930
133982088914272256	828930
135107988821114880	828930
136233888727957504	828930
137359788634800128	828930
138485688541642752	828930
139611588448485376	828930
140737488355328000	828930
141863388262170624	828930
142989288169013248	828930
144115188075855872	828930
146366987889541120	828930
148618787703226368	828930
150870587516911616	828930
153122387330596864	828930
155374187144282112	828930
157625986957967360	828930
159877786771652608	828930
162129586585337856	828930
164381386399023104	828930
166633186212708352	828930
168884986026393600	828930
171136785840078848	828930
173388585653764096	828930
175640385467449344	828930
177892185281134592	828930
180143985094819840	828930
182395784908505088	828930
184647584722190336	828930
186899384535875584	828930
189151184349560832	828930
191402984163246080	828930
193654783976931328	828930
195906583790616576	828930
198158383604301824	828930
200410183417987072	828930
202661983231672320	828930
204913783045357568	828930
207165582859042816	828930
209417382672728064	828930
211669182486413312	828930
213920982300098560	828930
216172782113783808	828930
218424581927469056	828930
220676381741154304	828930
222928181554839552	828930
225179981368524800	828930
227431781182210048	828930
229683580995895296	828930
231935380809580544	828930
234187180623265792	828930
236438980436951040	828930
238690780250636288	828930
240942580064321536	828930
243194379878006784	828930
245446179691692032	828930
247697979505377280	828930
249949779319062528	828930
252201579132747776	828930
254453378946433024	828930
256705178760118272	828930
258956978573803520	828930
261208778387488768	828930
263460578201174016	828930
265712378014859264	828930
267964177828544512	828930
270215977642229760	828930
272467777455915008	828930
274719577269600256	828930
276971377083285504	828930
279223176896970752	828930
281474976710656000	828930
283726776524341248	828930
285978576338026496	828930
288230376151711744	828930
292733975779082240	828930
297237575406452736	828930
301741175033823232	828930
306244774661193728	828930
310748374288564224	828930
315251973915934720	828930
319755573543305216	828930
324259173170675712	828930
328762772798046208	828930
333266372425416704	828930
337769972052787200	828930
342273571680157696	828930
346777171307528192	828930
351280770934898688	828930
355784370562269184	828930
360287970189639680	828930
364791569817010176	828930
369295169444380672	828930
373798769071751168	828930
378302368699121664	828930
382805968326492160	828930
387309567953862656	828930
391813167581233152	828930
396316767208603648	828930
400820366835974144	828930
405323966463344640	828930
409827566090715136	828930
414331165718085632	828930
418834765345456128	828930
423338364972826624	828930
427841964600197120	828930
432345564227567616	828930
436849163854938112	828930
441352763482308608	828930
445856363109679104	828930
450359962737049600	828930
454863562364420096	828930
459367161991790592	828930
463870761619161088	828930
468374361246531584	828930
472877960873902080	828930
477381560501272576	828930
481885160128643072	828930
486388759756013568	828930
490892359383384064	828930
495395959010754560	828930
499899558638125056	828930
504403158265495552	828930
508906757892866048	828930
513410357520236544	828930
517913957147607040	828930
522417556774977536	828930
526921156402348032	828930
531424756029718528	828930
535928355657089024	828930
540431955284459520	828930
544935554911830016	828930
549439154539200512	828930
553942754166571008	828930
558446353793941504	828930
562949953421312000	828930
567453553048682496	828930
571957152676052992	828930
576460752303423488	828930
585467951558164480	828930
594475150812905472	828930
603482350067646464	828930
612489549322387456	828930
621496748577128448	828930
630503947831869440	828930
639511147086610432	828930
648518346341351424	828930
657525545596092416	828930
666532744850833408	828930
675539944105574400	828930
684547143360315392	828930
693554342615056384	828930
702561541869797376	828930
711568741124538368	828930
720575940379279360	828930
729583139634020352	828930
738590338888761344	828930
747597538143502336	828930
756604737398243328	828930
765611936652984320	828930
774619135907725312	828930
783626335162466304	828930
792633534417207296	828930
801640733671948288	828930
810647932926689280	828930
819655132181430272	828930
828662331436171264	828930
837669530690912256	828930
846676729945653248	828930
855683929200394240	828930
864691128455135232	828930
873698327709876224	828930
882705526964617216	828930
891712726219358208	828930
900719925474099200	828930
909727124728840192	828930
918734323983581184	828930
927741523238322176	828930
936748722493063168	828930
945755921747804160	828930
954763121002545152	828930
963770320257286144	828930
972777519512027136	828930
981784718766768128	828930
990791918021509120	828930
999799117276250112	828930
1008806316530991104	828930
1017813515785732096	828930
1026820715040473088	828930
1035827914295214080	828930
1044835113549955072	828930
1053842312804696064	828930
1062849512059437056	828930
1071856711314178048	828930
1080863910568919040	828930
1089871109823660032	828930
1098878309078401024	828930
1107885508333142016	828930
1116892707587883008	828930
1125899906842624000	828930
1134907106097364992	828930
1143914305352105984	828930
1152921504606846976	828930
1170935903116328960	828930
1188950301625810944	828930
1206964700135292928	828930
1224979098644774912	828930
1242993497154256896	828930
1261007895663738880	828930
1279022294173220864	828930
1297036692682702848	828930
1315051091192184832	828930
1333065489701666816	828930
1351079888211148800	828930
1369094286720630784	828930
1387108685230112768	828930
1405123083739594752	828930
1423137482249076736	828930
1441151880758558720	828930
1459166279268040704	828930
1477180677777522688	828930
1495195076287004672	828930
1513209474796486656	828930
1531223873305968640	828930
1549238271815450624	828930
1567252670324932608	828930
1585267068834414592	828930
1603281467343896576	828930
1621295865853378560	828930
1639310264362860544	828930
1657324662872342528	828930
1675339061381824512	828930
1693353459891306496	828930
1711367858400788480	828930
1729382256910270464	828930
1747396655419752448	828930
1765411053929234432	828930
1783425452438716416	828930
1801439850948198400	828930
1819454249457680384	828930
1837468647967162368	828930
1855483046476644352	828930
1873497444986126336	828930
1891511843495608320	828930
1909526242005090304	828930
1927540640514572288	828930
1945555039024054272	828930
1963569437533536256	828930
1981583836043018240	828930
1999598234552500224	828930
2017612633061982208	828930
2035627031571464192	828930
2053641430080946176	828930
2071655828590428160	828930
2089670227099910144	828930
2107684625609392128	828930
2125699024118874112	828930
2143713422628356096	828930
2161727821137838080	828930
2179742219647320064	828930
2197756618156802048	828930
2215771016666284032	828930
2233785415175766016	828930
2251799813685248000	828930
2269814212194729984	828930
2287828610704211968	828930
2305843009213693952	828930
2341871806232657920	828930
2377900603251621888	828930
2413929400270585856	828930
2449958197289549824	828930
2485986994308513792	828930
2522015791327477760	828930
2558044588346441728	828930
2594073385365405696	828930
2630102182384369664	828930
2666130979403333632	828930
2702159776422297600	828930
2738188573441261568	828930
2774217370460225536	828930
2810246167479189504	828930
2846274964498153472	828930
2882303761517117440	828930
2918332558536081408	828930
2954361355555045376	828930
2990390152574009344	828930
3026418949592973312	828930
3062447746611937280	828930
3098476543630901248	828930
3134505340649865216	828930
3170534137668829184	828930
3206562934687793152	828930
3242591731706757120	828930
3278620528725721088	828930
3314649325744685056	828930
3350678122763649024	828930
3386706919782612992	828930
3422735716801576960	828930
3458764513820540928	828930
3494793310839504896	828930
3530822107858468864	828930
3566850904877432832	828930
3602879701896396800	828930
3638908498915360768	828930
3674937295934324736	828930
3710966092953288704	828930
3746994889972252672	828930
3783023686991216640	828930
3819052484010180608	828930
3855081281029144576	828930
3891110078048108544	828930
3927138875067072512	828930
3963167672086036480	828930
3999196469105000448	828930
4035225266123964416	828930
4071254063142928384	828930
4107282860161892352	828930
4143311657180856320	828930
4179340454199820288	828930
4215369251218784256	828930
4251398048237748224	828930
4287426845256712192	828930
4323455642275676160	828930
4359484439294640128	828930
4395513236313604096	828930
4431542033332568064	828930
4467570830351532032	828930
4503599627370496000	828930
4539628424389459968	828930
4575657221408423936	828930
4611686018427387904	828930
4683743612465315840	828930
4755801206503243776	828930
4827858800541171712	828930
4899916394579099648	828930
4971973988617027584	828930
5044031582654955520	828930
5116089176692883456	828930
5188146770730811392	828930
5260204364768739328	828930
5332261958806667264	828930
5404319552844595200	828930
5476377146882523136	828930
5548434740920451072	828930
5620492334958379008	828930
5692549928996306944	828930
5764607523034234880	828930
5836665117072162816	828930
5908722711110090752	828930
5980780305148018688	828930
6052837899185946624	828930
6124895493223874560	828930
6196953087261802496	828930
6269010681299730432	828930
6341068275337658368	828930
6413125869375586304	828930
6485183463413514240	828930
6557241057451442176	828930
6629298651489370112	828930
6701356245527298048	828930
6773413839565225984	828930
6845471433603153920	828930
6917529027641081856	828930
6989586621679009792	828930
7061644215716937728	828930
7133701809754865664	828930
7205759403792793600	828930
7277816997830721536	828930
7349874591868649472	828930
7421932185906577408	828930
7493989779944505344	828930
7566047373982433280	828930
7638104968020361216	828930
7710162562058289152	828930
7782220156096217088	828930
7854277750134145024	828930
7926335344172072960	828930
7998392938210000896	828930
8070450532247928832	828930
8142508126285856768	828930
8214565720323784704	828930
8286623314361712640	828930
8358680908399640576	828930
8430738502437568512	828930
8502796096475496448	828930
8574853690513424384	828930
8646911284551352320	828930
8718968878589280256	828930
8791026472627208192	828930
8863084066665136128	828930
8935141660703064064	828930
9007199254740992000	828930
9079256848778919936	828930
9151314442816847872	828930
9223372036854775808	828930
9367487224930631680	828930
9511602413006487552	828930
9655717601082343424	828930
9799832789158199296	828930
9943947977234055168	828930
10088063165309911040	828930
10232178353385766912	828930
10376293541461622784	828930
10520408729537478656	828930
10664523917613334528	828930
10808639105689190400	828930
10952754293765046272	828930
11096869481840902144	828930
11240984669916758016	828930
11385099857992613888	828930
11529215046068469760	828930
11673330234144325632	828930
11817445422220181504	828930
11961560610296037376	828930
12105675798371893248	828930
12249790986447749120	828930
12393906174523604992	828930
12538021362599460864	828930
12682136550675316736	828930
12826251738751172608	828930
12970366926827028480	828930
13114482114902884352	828930
13258597302978740224	828930
13402712491054596096	828930
13546827679130451968	828930
13690942867206307840	828930
13835058055282163712	828930
13979173243358019584	828930
14123288431433875456	828930
14267403619509731328	828930
14411518807585587200	828930
14555633995661443072	828930
14699749183737298944	828930
14843864371813154816	828930
14987979559889010688	828930
15132094747964866560	828930
15276209936040722432	828930
15420325124116578304	828930
15564440312192434176	828930
15708555500268290048	828930
15852670688344145920	828930
15996785876420001792	828930
16140901064495857664	828930
16285016252571713536	828930
16429131440647569408	828930
16573246628723425280	828930
16717361816799281152	828930
16861477004875137024	828930
17005592192950992896	828930
17149707381026848768	828930
17293822569102704640	828930
17437937757178560512	828930
17582052945254416384	828930
17726168133330272256	828930
17870283321406128128	828930
18014398509481984000	828930
18158513697557839872	828930
18302628885633695744	0
