0	0
1	1964680042
2	484988245
3	748686808
4	358752572
5	26280205
6	255488030
7	33556903
8	25360338
9	513169
10	19178325
11	23340076
12	668415
13	664
14	40452118
15	30970
16	660361
17	20845346
18	16677654
19	496641
20	20407269
21	207
22	15555650
23	18733560
24	1149671
25	30268
26	32222804
27	114
28	659288
29	17299834
30	13618897
31	44
32	16636580
33	189
34	13145279
35	15190521
36	657111
37	69
38	26263391
39	467785
40	688058
41	46239612
42	11078727
43	100
44	14189855
45	29324
46	10342896
47	12444335
48	655201
49	453244
50	21605993
51	116
52	648741
53	11352133
54	9508064
55	28943
56	11498945
57	25
58	8477317
59	10822382
60	678373
61	100
62	17867462
63	60
64	1077124
65	9569190
66	7431019
67	62
68	9784662
69	424693
70	6997190
71	8757067
72	645303
73	46
74	15373020
75	28502
76	643075
77	8067577
78	6130873
79	411176
80	8433317
81	22
82	5762518
83	7479950
84	1047151
85	28022
86	12633179
87	14
88	644967
89	7333448
90	5107186
91	18
92	7351913
93	16
94	5161720
95	6502377
96	640255
97	41
98	10724649
99	386696
100	664304
101	6052085
102	4210515
103	15
104	6871426
105	27489
106	3953102
107	5664492
108	632499
109	375195
110	9238929
111	21
112	628573
113	5314425
114	3894892
115	27141
116	5788552
117	22
118	3314081
119	5356342
120	659682
121	19
122	7971656
123	14
124	983627
125	4733814
126	2950106
127	27
128	5560991
130	7267723
132	624489
134	7329092
136	4847904
138	2828132
140	4742839
142	6350315
144	981849
146	6127646
148	4736177
150	2133076
152	4324602
154	5957335
156	615863
158	5727972
160	4075234
162	1792958
164	4304981
166	4977792
168	923069
170	4845334
172	3743492
174	1870385
176	3674323
178	4751159
180	634161
182	4318308
184	3800103
186	1315717
188	3696169
190	4017885
192	604722
194	4196449
196	3225400
198	1418240
200	3208394
202	3615792
204	902265
206	3502075
208	3301919
210	1016528
212	2969287
214	3571991
216	596430
218	3459396
220	2879627
222	863495
224	3091134
226	2990864
228	849145
230	2937241
232	2673747
234	1035204
236	2621700
238	2981901
240	618462
242	2671648
244	2792905
246	668381
248	2724367
250	2516356
252	591044
254	2710834
256	3199048
260	4673278
264	3078907
268	3030686
272	4583809
276	2864357
280	2628639
284	4314088
288	2734209
292	2689045
296	4012372
300	2378663
304	2535630
308	3819987
312	2431409
316	2375284
320	3407303
324	2314878
328	2273955
332	3393709
336	2180336
340	1982252
344	3205278
348	2088244
352	2042790
356	3009327
360	1818757
364	1962368
368	2879165
372	1892777
376	1846813
380	2571031
384	1807079
388	1788942
392	2597582
396	1706089
400	1557808
404	2461262
408	1659087
412	1634910
416	2328892
420	1450974
424	1576134
428	2239740
432	1517163
436	1496547
440	2010742
444	1464319
448	1441035
452	2039214
456	1387944
460	1275166
464	1950636
468	1349496
472	1341122
476	1839892
480	1194179
484	1295424
488	1788670
492	1258595
496	1221893
500	1598632
504	1220635
508	1200232
512	2786730
520	2634033
528	2273788
536	2493956
544	2552604
552	2102255
560	2344896
568	2353687
576	1885419
584	2270077
592	2194566
600	1802344
608	2128313
616	1974209
624	1780407
632	1971087
640	1884633
648	1688963
656	1785875
664	1847900
672	1590154
680	1714651
688	1746964
696	1460570
704	1699609
712	1631983
720	1420298
728	1597705
736	1507217
744	1408014
752	1499447
760	1454758
768	1351277
776	1391549
784	1443877
792	1288737
800	1356143
808	1374939
816	1203710
824	1341603
832	1301043
840	1187798
848	1287294
856	1218227
864	1173523
872	1223998
880	1196607
888	1141596
896	1152211
904	1183689
912	1090590
920	1128521
928	1147755
936	1031269
944	1123547
952	1090648
960	1023166
968	1087294
976	1032979
984	1023803
992	1035780
1000	1019693
1008	997442
1016	990094
1024	1975115
1040	1969254
1056	1882565
1072	1864966
1088	1856394
1104	1826774
1120	1801141
1136	1778930
1152	1735181
1168	1715338
1184	1724625
1200	1688410
1216	1645145
1232	1652450
1248	1610274
1264	1601568
1280	1610923
1296	1557013
1312	1538457
1328	1522557
1344	1515082
1360	1506509
1376	1487426
1392	1460112
1408	1444824
1424	1441263
1440	1423186
1456	1403529
1472	1392127
1488	1364263
1504	1364734
1520	1377531
1536	1327169
1552	1319017
1568	1318721
1584	1301724
1600	1299850
1616	1271871
1632	1258552
1648	1252217
1664	1250989
1680	1238364
1696	1219356
1712	1216220
1728	1193192
1744	1182793
1760	1197062
1776	1167926
1792	1160077
1808	1152437
1824	1137639
1840	1147836
1856	1124166
1872	1101797
1888	1093611
1904	1097888
1920	1094724
1936	1074073
1952	1063473
1968	1053378
1984	1048530
2000	1050785
2016	1025840
2032	1022261
2048	2023237
2080	2006477
2112	1948252
2144	1935810
2176	1891860
2208	1854983
2240	1846429
2272	1810571
2304	1789683
2336	1743308
2368	1720829
2400	1706443
2432	1667796
2464	1659634
2496	1613409
2528	1600539
2560	1577068
2592	1539331
2624	1534153
2656	1497256
2688	1478477
2720	1469354
2752	1427522
2784	1427267
2816	1397151
2848	1370497
2880	1360171
2912	1327991
2944	1323243
2976	1291057
3008	1268451
3040	1266419
3072	1233137
3104	1231511
3136	1199296
3168	1181951
3200	1179473
3232	1146148
3264	1143867
3296	1114295
3328	1095410
3360	1100482
3392	1065845
3424	1067503
3456	1044413
3488	1026760
3520	1025759
3552	993558
3584	993232
3616	964238
3648	955266
3680	951966
3712	932243
3744	931850
3776	903560
3808	898495
3840	884522
3872	871171
3904	867656
3936	843571
3968	832932
4000	836218
4032	814629
4064	814173
4096	1568423
4160	1540569
4224	1500613
4288	1460563
4352	1425582
4416	1378169
4480	1346678
4544	1316855
4608	1290376
4672	1254601
4736	1212868
4800	1187889
4864	1162460
4928	1130883
4992	1105026
5056	1070699
5120	1056657
5184	1029481
5248	1002282
5312	975650
5376	950022
5440	934148
5504	914267
5568	891692
5632	872415
5696	839537
5760	831624
5824	814510
5888	797117
5952	782648
6016	750411
6080	745494
6144	731981
6208	712418
6272	697626
6336	674698
6400	666200
6464	654858
6528	647066
6592	627955
6656	605746
6720	602812
6784	591760
6848	574504
6912	568061
6976	548181
7040	541978
7104	532018
7168	527386
7232	512873
7296	500703
7360	495399
7424	484775
7488	477622
7552	467720
7616	454378
7680	448148
7744	444033
7808	436222
7872	423236
7936	411174
8000	411753
8064	406832
8128	396525
8192	765377
8320	747835
8448	723573
8576	695583
8704	677867
8832	648470
8960	634556
9088	615563
9216	589620
9344	581032
9472	554316
9600	546264
9728	530686
9856	507780
9984	497391
10112	480956
10240	472572
10368	457586
10496	441937
10624	433218
10752	420573
10880	413117
11008	398302
11136	386569
11264	378177
11392	365427
11520	361966
11648	353675
11776	343202
11904	334078
12032	328567
12160	323822
12288	316033
12416	306618
12544	299790
12672	291065
12800	286753
12928	281882
13056	273380
13184	268879
13312	262112
13440	257992
13568	251658
13696	248226
13824	243579
13952	237424
14080	233119
14208	228556
14336	221992
14464	221898
14592	210678
14720	211598
14848	209474
14976	202502
15104	202234
15232	195635
15360	192279
15488	189942
15616	184145
15744	183131
15872	178375
16000	176777
16128	172577
16256	168211
16384	332786
16640	321313
16896	308220
17152	296540
17408	288643
17664	278194
17920	272725
18176	262233
18432	254072
18688	246670
18944	236725
19200	234209
19456	224877
19712	218751
19968	209099
20224	205459
20480	200822
20736	193646
20992	190252
21248	182310
21504	178352
21760	173726
22016	168328
22272	165212
22528	159632
22784	154476
23040	152938
23296	146216
23552	142953
23808	138793
24064	135772
24320	135533
24576	128444
24832	126817
25088	123239
25344	118037
25600	119159
25856	113448
26112	111232
26368	108745
26624	105859
26880	103657
27136	99603
27392	97961
27648	96691
27904	93476
28160	90488
28416	90290
28672	88091
28928	85809
29184	84536
29440	82112
29696	79375
29952	79322
30208	76780
30464	75042
30720	72842
30976	71169
31232	70667
31488	68493
31744	66532
32000	66716
32256	64670
32512	62852
32768	121800
33280	117971
33792	111271
34304	108781
34816	103651
35328	100880
35840	95411
36352	93073
36864	89941
37376	85445
37888	84526
38400	79486
38912	76759
39424	74156
39936	70825
40448	68919
40960	66967
41472	65125
41984	62376
42496	61146
43008	57647
43520	56749
44032	54649
44544	51501
45056	51588
45568	50027
46080	47238
46592	46530
47104	45854
47616	44558
48128	41877
48640	40904
49152	39472
49664	37974
50176	37828
50688	35223
51200	34443
51712	34839
52224	33322
52736	33231
53248	31944
53760	31578
54272	29557
54784	29113
55296	28743
55808	28740
56320	27678
56832	26524
57344	27574
57856	26002
58368	24633
58880	24604
59392	23200
59904	23313
60416	22668
60928	22931
61440	22036
61952	21233
62464	20322
62976	20589
63488	20142
64000	20181
64512	19250
65024	19428
65536	36529
66560	34966
67584	33827
68608	33627
69632	33223
70656	30710
71680	29550
72704	28595
73728	28117
74752	27435
75776	26387
76800	25535
77824	25207
78848	24365
79872	24508
80896	21383
81920	22524
82944	21462
83968	20164
84992	20649
86016	20833
87040	19704
88064	19084
89088	18980
90112	18172
91136	17977
92160	17018
93184	16758
94208	17528
95232	16655
96256	16234
97280	16017
98304	15349
99328	14635
100352	14617
101376	15065
102400	13786
103424	13114
104448	13138
105472	13459
106496	13404
107520	12999
108544	13272
109568	12512
110592	12264
111616	12109
112640	10985
113664	11118
114688	11106
115712	10938
116736	10415
117760	10331
118784	10206
119808	10047
120832	10305
121856	9863
122880	9665
123904	9463
124928	9605
125952	8913
126976	9447
128000	8920
129024	9369
130048	8244
131072	17400
133120	16783
135168	15200
137216	15408
139264	14360
141312	13447
143360	13355
145408	13226
147456	12882
149504	12453
151552	11424
153600	11518
155648	11167
157696	10741
159744	10045
161792	9837
163840	9980
165888	9297
167936	8829
169984	9212
172032	8558
174080	8160
176128	8009
178176	7335
180224	7242
182272	7065
184320	6913
186368	6316
188416	6713
190464	6058
192512	5925
194560	5762
196608	5448
198656	5543
200704	4902
202752	5232
204800	5008
206848	5228
208896	4517
210944	4220
212992	4107
215040	4461
217088	4309
219136	4133
221184	4214
223232	3712
225280	4012
227328	3907
229376	3552
231424	3562
233472	3441
235520	3360
237568	3309
239616	2990
241664	2711
243712	3022
245760	3084
247808	2697
249856	2875
251904	3113
253952	2559
256000	2481
258048	2797
260096	2625
262144	4666
266240	4838
270336	4772
274432	4492
278528	4512
282624	4053
286720	4041
290816	4029
294912	3917
299008	3746
303104	3289
307200	3484
311296	3490
315392	3314
319488	3043
323584	3501
327680	2842
331776	2988
335872	3288
339968	2717
344064	2773
348160	2862
352256	2600
356352	2353
360448	2233
364544	2077
368640	2172
372736	2405
376832	2188
380928	1919
385024	1937
389120	2126
393216	1850
397312	1763
401408	1784
405504	1745
409600	1937
413696	1553
417792	1800
421888	1640
425984	1368
430080	1498
434176	1634
438272	1602
442368	1560
446464	1355
450560	1285
454656	1273
458752	1380
462848	1293
466944	1466
471040	1146
475136	1184
479232	1207
483328	1130
487424	1185
491520	1012
495616	1072
499712	1177
503808	1125
507904	1035
512000	990
516096	1028
520192	822
524288	2054
532480	2006
540672	1798
548864	1974
557056	1696
565248	1632
573440	1809
581632	1536
589824	1499
598016	1244
606208	1300
614400	1369
622592	1197
630784	1323
638976	1260
647168	1031
655360	950
663552	1251
671744	1197
679936	1145
688128	1084
696320	948
704512	876
712704	953
720896	937
729088	872
737280	953
745472	867
753664	880
761856	904
770048	1124
778240	782
786432	742
794624	737
802816	702
811008	790
819200	694
827392	691
835584	647
843776	622
851968	738
860160	481
868352	565
876544	443
884736	666
892928	599
901120	534
909312	588
917504	502
925696	572
933888	440
942080	596
950272	473
958464	473
966656	486
974848	495
983040	559
991232	367
999424	483
1007616	411
1015808	365
1024000	349
1032192	354
1040384	451
1048576	807
1064960	790
1081344	733
1097728	697
1114112	714
1130496	673
1146880	547
1163264	573
1179648	436
1196032	433
1212416	532
1228800	540
1245184	591
1261568	435
1277952	411
1294336	597
1310720	517
1327104	387
1343488	390
1359872	570
1376256	325
1392640	444
1409024	371
1425408	285
1441792	463
1458176	380
1474560	256
1490944	320
1507328	302
1523712	215
1540096	207
1556480	382
1572864	229
1589248	347
1605632	324
1622016	290
1638400	289
1654784	308
1671168	218
1687552	230
1703936	235
1720320	193
1736704	349
1753088	203
1769472	219
1785856	293
1802240	235
1818624	223
1835008	125
1851392	252
1867776	215
1884160	260
1900544	202
1916928	192
1933312	265
1949696	253
1966080	268
1982464	187
1998848	217
2015232	195
2031616	227
2048000	108
2064384	174
2080768	98
2097152	349
2129920	246
2162688	249
2195456	246
2228224	334
2260992	323
2293760	268
2326528	397
2359296	331
2392064	236
2424832	217
2457600	182
2490368	167
2523136	181
2555904	199
2588672	238
2621440	229
2654208	197
2686976	197
2719744	229
2752512	198
2785280	166
2818048	172
2850816	184
2883584	208
2916352	136
2949120	105
2981888	125
3014656	187
3047424	97
3080192	64
3112960	174
3145728	76
3178496	118
3211264	133
3244032	240
3276800	96
3309568	130
3342336	135
3375104	68
3407872	84
3440640	125
3473408	42
3506176	120
3538944	142
3571712	61
3604480	121
3637248	89
3670016	156
3702784	115
3735552	88
3768320	43
3801088	67
3833856	118
3866624	25348
3899392	17624
3932160	14256
3964928	11249
3997696	9198
4030464	7172
4063232	5073
4096000	3227
4128768	2540
4161536	2417
4194304	3933
4259840	3241
4325376	3223
4390912	3161
4456448	3186
4521984	2425
4587520	2410
4653056	2338
4718592	2157
4784128	1894
4849664	2393
4915200	1592
4980736	1622
5046272	2320
5111808	1604
5177344	1574
5242880	1599
5308416	1540
5373952	1594
5439488	931
5505024	1528
5570560	1639
5636096	1610
5701632	816
5767168	1568
5832704	991
5898240	1368
5963776	1490
6029312	947
6094848	787
6160384	1509
6225920	872
6291456	1527
6356992	802
6422528	816
6488064	1230
6553600	1150
6619136	802
6684672	823
6750208	808
6815744	1518
6881280	820
6946816	811
7012352	806
7077888	803
7143424	806
7208960	768
7274496	779
7340032	1442
7405568	852
7471104	784
7536640	10757
7602176	28995
7667712	16334
7733248	13178
7798784	11413
7864320	10396
7929856	9436
7995392	7787
8060928	7174
8126464	5186
8192000	3723
8257536	3137
8323072	2931
8388608	5201
8519680	4512
8650752	4980
8781824	4642
8912896	3374
9043968	4336
9175040	3818
9306112	3417
9437184	3806
9568256	2897
9699328	3781
9830400	3210
9961472	2416
10092544	3822
10223616	2558
10354688	3464
10485760	2824
10616832	2475
10747904	3233
10878976	2498
11010048	2606
11141120	2571
11272192	3250
11403264	2552
11534336	2603
11665408	2553
11796480	2525
11927552	2679
12058624	2658
12189696	1899
12320768	2685
12451840	2717
12582912	2708
12713984	2657
12845056	2031
12976128	2788
13107200	2032
13238272	2744
13369344	2028
13500416	2060
13631488	2772
13762560	2099
13893632	2841
14024704	2187
14155776	2102
14286848	2112
14417920	2893
14548992	2191
14680064	2181
14811136	2559
14942208	2565
15073280	2222
15204352	2227
15335424	2259
15466496	2424
15597568	2817
15728640	2233
15859712	2421
15990784	2212
16121856	2408
16252928	2320
16384000	1693
16515072	2318
16646144	3040
16777216	6706
17039360	6756
17301504	6130
17563648	6755
17825792	6819
18087936	7035
18350080	6398
18612224	6935
18874368	5873
19136512	7042
19398656	7245
19660800	6802
19922944	7215
20185088	5885
20447232	7610
20709376	6893
20971520	7096
21233664	6774
21495808	7616
21757952	6261
22020096	7861
22282240	7230
22544384	6536
22806528	7679
23068672	6660
23330816	8469
23592960	7055
23855104	7104
24117248	8187
24379392	6665
24641536	8133
24903680	7639
25165824	7077
25427968	8492
25690112	7148
25952256	7963
26214400	7509
26476544	8890
26738688	7405
27000832	6782
27262976	9097
27525120	7891
27787264	8188
28049408	7706
28311552	8543
28573696	8937
28835840	7483
29097984	7977
29360128	9299
29622272	7952
29884416	8649
30146560	7593
30408704	9455
30670848	8391
30932992	9053
31195136	7892
31457280	9876
31719424	7976
31981568	10063
32243712	8270
32505856	8959
32768000	9626
33030144	8354
33292288	8370
33554432	20078
34078720	18781
34603008	18456
35127296	19203
35651584	19034
36175872	19277
36700160	20338
37224448	19176
37748736	19509
38273024	22595
38797312	20088
39321600	20449
39845888	20467
40370176	21579
40894464	21078
41418752	21851
41943040	22371
42467328	22569
42991616	22901
43515904	22143
44040192	21963
44564480	22307
45088768	23474
45613056	23579
46137344	23822
46661632	24097
47185920	24891
47710208	24559
48234496	22833
48758784	25326
49283072	25287
49807360	25676
50331648	25149
50855936	25006
51380224	26550
51904512	26629
52428800	24849
52953088	27876
53477376	28142
54001664	25907
54525952	28010
55050240	28272
55574528	26510
56098816	28694
56623104	28760
57147392	27568
57671680	29553
58195968	27467
58720256	30235
59244544	28532
59768832	30645
60293120	30197
60817408	30301
61341696	30992
61865984	30328
62390272	31877
62914560	29671
63438848	32283
63963136	30426
64487424	32868
65011712	31570
65536000	33157
66060288	32496
66584576	32600
67108864	65014
68157440	69036
69206016	68423
70254592	71016
71303168	69932
72351744	72468
73400320	71959
74448896	74345
75497472	75551
76546048	76683
77594624	76252
78643200	77186
79691776	80171
80740352	81328
81788928	79928
82837504	84025
83886080	84719
84934656	83509
85983232	87852
87031808	88317
88080384	87909
89128960	91471
90177536	92876
91226112	93759
92274688	95514
93323264	99015
94371840	100212
95420416	103444
96468992	108385
97517568	113307
98566144	120740
99614720	147753
100663296	661718
101711872	451583
102760448	454853
103809024	455667
104857600	496712
105906176	474628
106954752	477529
108003328	502508
109051904	479821
110100480	478900
111149056	481279
112197632	482159
113246208	483075
114294784	483967
115343360	484641
116391936	484584
117440512	484779
118489088	486504
119537664	487699
120586240	488562
121634816	489798
122683392	491250
123731968	492091
124780544	492097
125829120	492295
126877696	493457
127926272	494102
128974848	497298
130023424	495980
131072000	496844
132120576	499831
133169152	505543
134217728	279742
136314880	283191
138412032	286238
140509184	288824
142606336	289742
144703488	290154
146800640	289939
148897792	290948
150994944	290052
153092096	289321
155189248	289392
157286400	287765
159383552	289420
161480704	288228
163577856	288847
165675008	291188
167772160	278172
169869312	271318
171966464	238424
174063616	238132
176160768	237389
178257920	237256
180355072	237142
182452224	236457
184549376	236235
186646528	236197
188743680	235144
190840832	235514
192937984	235015
195035136	235440
197132288	234469
199229440	234540
201326592	233653
203423744	234486
205520896	231510
207618048	227440
209715200	223459
211812352	219810
213909504	871489
216006656	868159
218103808	864363
220200960	860100
222298112	856832
224395264	852931
226492416	848825
228589568	844958
230686720	841297
232783872	837757
234881024	833416
236978176	829435
239075328	1151397
241172480	1143991
243269632	813057
245366784	809215
247463936	218529
249561088	213986
251658240	209713
253755392	206364
255852544	202688
257949696	198368
260046848	195387
262144000	191760
264241152	188505
266338304	184917
268435456	358665
272629760	344177
276824064	329324
281018368	186707
285212672	173976
289406976	159752
293601280	146419
297795584	132609
301989888	118940
306184192	105858
310378496	92037
314572800	78119
318767104	64343
322961408	50595
327155712	36991
331350016	23044
335544320	8450
339738624	3449
343932928	3449
348127232	3669
352321536	3448
356515840	3449
360710144	3449
364904448	3450
369098752	3449
373293056	3449
377487360	3450
381681664	3449
385875968	3449
390070272	3449
394264576	3450
398458880	3449
402653184	3449
406847488	3449
411041792	3450
415236096	3449
419430400	3449
423624704	3449
427819008	3450
432013312	3449
436207616	3449
440401920	3449
444596224	3450
448790528	3449
452984832	3449
457179136	3450
461373440	3449
465567744	3449
469762048	3449
473956352	3450
478150656	3449
482344960	3449
486539264	3449
490733568	3450
494927872	3449
499122176	3449
503316480	3449
507510784	3450
511705088	3449
515899392	3449
520093696	3449
524288000	3450
528482304	3449
532676608	3470
536870912	6899
545259520	6898
553648128	6899
562036736	6898
570425344	6899
578813952	6898
587202560	6899
595591168	6898
603979776	6899
612368384	6899
620756992	6899
629145600	6899
637534208	6898
645922816	6899
654311424	6898
662700032	6899
671088640	6898
679477248	6898
687865856	6898
696254464	6899
704643072	6898
713031680	6899
721420288	6898
729808896	6899
738197504	6898
746586112	6899
754974720	6898
763363328	6899
771751936	6899
780140544	6898
788529152	6899
796917760	6898
805306368	6899
813694976	6898
822083584	6899
830472192	6898
838860800	6899
847249408	6898
855638016	6899
864026624	6898
872415232	6899
880803840	6898
889192448	6899
897581056	6898
905969664	6899
914358272	6898
922746880	6899
931135488	6899
939524096	6898
947912704	6899
956301312	6898
964689920	6899
973078528	6898
981467136	6899
989855744	6898
998244352	6899
1006632960	6898
1015021568	6899
1023410176	6898
1031798784	6899
1040187392	6898
1048576000	6899
1056964608	6898
1065353216	6899
1073741824	13797
1090519040	13797
1107296256	13797
1124073472	13797
1140850688	13797
1157627904	13798
1174405120	13796
1191182336	13797
1207959552	13797
1224736768	13797
1241513984	13798
1258291200	13797
1275068416	13797
1291845632	13797
1308622848	13797
1325400064	13797
1342177280	13797
1358954496	13797
1375731712	1
1392508928	0
1409286144	0
1426063360	0
1442840576	0
1459617792	0
1476395008	1
1493172224	0
1509949440	0
1526726656	0
1543503872	0
1560281088	0
1577058304	0
1593835520	0
1610612736	44
1627389952	0
1644167168	0
1660944384	0
1677721600	0
1694498816	0
1711276032	40
1728053248	0
1744830464	0
1761607680	0
1778384896	0
1795162112	0
1811939328	0
1828716544	0
1845493760	0
1862270976	0
1879048192	0
1895825408	0
1912602624	0
1929379840	0
1946157056	0
1962934272	0
1979711488	0
1996488704	0
2013265920	0
2030043136	0
2046820352	0
2063597568	0
2080374784	0
2097152000	0
2113929216	0
2130706432	0
2147483648	0
2181038080	0
2214592512	0
2248146944	0
2281701376	0
2315255808	0
2348810240	0
2382364672	0
2415919104	0
2449473536	0
2483027968	0
2516582400	0
2550136832	0
2583691264	0
2617245696	0
2650800128	0
2684354560	0
2717908992	0
2751463424	0
2785017856	0
2818572288	0
2852126720	0
2885681152	0
2919235584	0
2952790016	0
2986344448	0
3019898880	0
3053453312	0
3087007744	0
3120562176	0
3154116608	0
3187671040	0
3221225472	0
3254779904	0
3288334336	0
3321888768	0
3355443200	0
3388997632	0
3422552064	0
3456106496	4
3489660928	0
3523215360	0
3556769792	0
3590324224	0
3623878656	0
3657433088	14
3690987520	0
3724541952	0
3758096384	0
3791650816	0
3825205248	1
3858759680	0
3892314112	0
3925868544	0
3959422976	0
3992977408	0
4026531840	0
4060086272	0
4093640704	0
4127195136	0
4160749568	0
4194304000	0
4227858432	0
4261412864	0
4294967296	0
4362076160	0
4429185024	0
4496293888	0
4563402752	0
4630511616	0
4697620480	0
4764729344	0
4831838208	0
4898947072	0
4966055936	0
5033164800	0
5100273664	0
5167382528	0
5234491392	0
5301600256	0
5368709120	35
5435817984	0
5502926848	0
5570035712	0
5637144576	0
5704253440	0
5771362304	0
5838471168	0
5905580032	0
5972688896	0
6039797760	0
6106906624	0
6174015488	0
6241124352	0
6308233216	0
6375342080	0
6442450944	0
6509559808	0
6576668672	0
6643777536	0
6710886400	0
6777995264	0
6845104128	0
6912212992	0
6979321856	0
7046430720	0
7113539584	0
7180648448	0
7247757312	0
7314866176	0
7381975040	0
7449083904	0
7516192768	0
7583301632	0
7650410496	0
7717519360	0
7784628224	0
7851737088	0
7918845952	0
7985954816	0
8053063680	0
8120172544	0
8187281408	0
8254390272	0
8321499136	0
8388608000	0
8455716864	0
8522825728	0
8589934592	0
8724152320	0
8858370048	0
8992587776	0
9126805504	0
9261023232	0
9395240960	0
9529458688	0
9663676416	0
9797894144	0
9932111872	0
10066329600	0
10200547328	0
10334765056	0
10468982784	0
10603200512	0
10737418240	0
10871635968	0
11005853696	0
11140071424	0
11274289152	0
11408506880	0
11542724608	0
11676942336	0
11811160064	0
11945377792	0
12079595520	0
12213813248	0
12348030976	0
12482248704	0
12616466432	0
12750684160	0
12884901888	0
13019119616	0
13153337344	0
13287555072	0
13421772800	0
13555990528	0
13690208256	0
13824425984	0
13958643712	0
14092861440	0
14227079168	0
14361296896	0
14495514624	0
14629732352	0
14763950080	0
14898167808	0
15032385536	0
15166603264	0
15300820992	0
15435038720	0
15569256448	0
15703474176	0
15837691904	0
15971909632	0
16106127360	0
16240345088	0
16374562816	0
16508780544	0
16642998272	0
16777216000	0
16911433728	0
17045651456	0
17179869184	0
17448304640	0
17716740096	0
17985175552	0
18253611008	0
18522046464	0
18790481920	0
19058917376	0
19327352832	0
19595788288	0
19864223744	0
20132659200	0
20401094656	0
20669530112	0
20937965568	0
21206401024	0
21474836480	0
21743271936	0
22011707392	0
22280142848	0
22548578304	0
22817013760	0
23085449216	0
23353884672	0
23622320128	0
23890755584	0
24159191040	0
24427626496	0
24696061952	0
24964497408	0
25232932864	0
25501368320	0
25769803776	0
26038239232	0
26306674688	0
26575110144	0
26843545600	0
27111981056	0
27380416512	0
27648851968	0
27917287424	0
28185722880	0
28454158336	0
28722593792	0
28991029248	0
29259464704	0
29527900160	0
29796335616	0
30064771072	0
30333206528	0
30601641984	0
30870077440	0
31138512896	0
31406948352	0
31675383808	0
31943819264	0
32212254720	0
32480690176	0
32749125632	0
33017561088	0
33285996544	0
33554432000	0
33822867456	0
34091302912	0
34359738368	0
34896609280	0
35433480192	0
35970351104	0
36507222016	0
37044092928	0
37580963840	0
38117834752	0
38654705664	0
39191576576	0
39728447488	0
40265318400	0
40802189312	0
41339060224	0
41875931136	0
42412802048	0
42949672960	0
43486543872	0
44023414784	0
44560285696	0
45097156608	0
45634027520	0
46170898432	0
46707769344	0
47244640256	0
47781511168	0
48318382080	0
48855252992	0
49392123904	0
49928994816	0
50465865728	0
51002736640	0
51539607552	0
52076478464	0
52613349376	0
53150220288	0
53687091200	0
54223962112	0
54760833024	0
55297703936	0
55834574848	0
56371445760	0
56908316672	0
57445187584	0
57982058496	0
58518929408	0
59055800320	0
59592671232	0
60129542144	0
60666413056	0
61203283968	0
61740154880	0
62277025792	0
62813896704	0
63350767616	0
63887638528	0
64424509440	0
64961380352	0
65498251264	0
66035122176	0
66571993088	0
67108864000	0
67645734912	0
68182605824	0
68719476736	0
69793218560	0
70866960384	0
71940702208	0
73014444032	0
74088185856	0
75161927680	0
76235669504	0
77309411328	0
78383153152	0
79456894976	0
80530636800	0
81604378624	0
82678120448	0
83751862272	0
84825604096	0
85899345920	0
86973087744	0
88046829568	0
89120571392	0
90194313216	0
91268055040	0
92341796864	0
93415538688	0
94489280512	0
95563022336	0
96636764160	0
97710505984	0
98784247808	0
99857989632	0
100931731456	0
102005473280	0
103079215104	0
104152956928	0
105226698752	0
106300440576	0
107374182400	0
108447924224	0
109521666048	0
110595407872	0
111669149696	0
112742891520	0
113816633344	0
114890375168	0
115964116992	0
117037858816	0
118111600640	0
119185342464	0
120259084288	0
121332826112	0
122406567936	0
123480309760	0
124554051584	0
125627793408	0
126701535232	0
127775277056	0
128849018880	0
129922760704	0
130996502528	0
132070244352	0
133143986176	0
134217728000	0
135291469824	0
136365211648	0
137438953472	0
139586437120	0
141733920768	0
143881404416	0
146028888064	0
148176371712	0
150323855360	0
152471339008	0
154618822656	0
156766306304	0
158913789952	0
161061273600	0
163208757248	0
165356240896	0
167503724544	0
169651208192	0
171798691840	0
173946175488	0
176093659136	0
178241142784	0
180388626432	0
182536110080	0
184683593728	0
186831077376	0
188978561024	0
191126044672	0
193273528320	0
195421011968	0
197568495616	0
199715979264	0
201863462912	0
204010946560	0
206158430208	0
208305913856	0
210453397504	0
212600881152	0
214748364800	0
216895848448	0
219043332096	0
221190815744	0
223338299392	0
225485783040	0
227633266688	0
229780750336	0
231928233984	0
234075717632	0
236223201280	0
238370684928	0
240518168576	0
242665652224	0
244813135872	0
246960619520	0
249108103168	0
251255586816	0
253403070464	0
255550554112	0
257698037760	0
259845521408	0
261993005056	0
264140488704	0
266287972352	0
268435456000	0
270582939648	0
272730423296	0
274877906944	0
279172874240	0
283467841536	0
287762808832	0
292057776128	0
296352743424	0
300647710720	0
304942678016	0
309237645312	0
313532612608	0
317827579904	0
322122547200	0
326417514496	0
330712481792	0
335007449088	0
339302416384	0
343597383680	0
347892350976	0
352187318272	0
356482285568	0
360777252864	0
365072220160	0
369367187456	0
373662154752	0
377957122048	0
382252089344	0
386547056640	0
390842023936	0
395136991232	0
399431958528	0
403726925824	0
408021893120	0
412316860416	0
416611827712	0
420906795008	0
425201762304	0
429496729600	0
433791696896	0
438086664192	0
442381631488	0
446676598784	0
450971566080	0
455266533376	0
459561500672	0
463856467968	0
468151435264	0
472446402560	0
476741369856	0
481036337152	0
485331304448	0
489626271744	0
493921239040	0
498216206336	0
502511173632	0
506806140928	0
511101108224	0
515396075520	0
519691042816	0
523986010112	0
528280977408	0
532575944704	0
536870912000	0
541165879296	0
545460846592	0
549755813888	0
558345748480	0
566935683072	0
575525617664	0
584115552256	0
592705486848	0
601295421440	0
609885356032	0
618475290624	0
627065225216	0
635655159808	0
644245094400	0
652835028992	0
661424963584	0
670014898176	0
678604832768	0
687194767360	0
695784701952	0
704374636544	0
712964571136	0
721554505728	0
730144440320	0
738734374912	0
747324309504	0
755914244096	0
764504178688	0
773094113280	0
781684047872	0
790273982464	0
798863917056	0
807453851648	0
816043786240	0
824633720832	0
833223655424	0
841813590016	0
850403524608	0
858993459200	0
867583393792	0
876173328384	0
884763262976	0
893353197568	0
901943132160	0
910533066752	0
919123001344	0
927712935936	0
936302870528	0
944892805120	0
953482739712	0
962072674304	0
970662608896	0
979252543488	0
987842478080	0
996432412672	0
1005022347264	0
1013612281856	0
1022202216448	0
1030792151040	0
1039382085632	0
1047972020224	0
1056561954816	0
1065151889408	0
1073741824000	0
1082331758592	0
1090921693184	0
1099511627776	0
1116691496960	0
1133871366144	0
1151051235328	0
1168231104512	0
1185410973696	0
1202590842880	0
1219770712064	0
1236950581248	0
1254130450432	0
1271310319616	0
1288490188800	0
1305670057984	0
1322849927168	0
1340029796352	0
1357209665536	0
1374389534720	0
1391569403904	0
1408749273088	0
1425929142272	0
1443109011456	0
1460288880640	0
1477468749824	0
1494648619008	0
1511828488192	0
1529008357376	0
1546188226560	0
1563368095744	0
1580547964928	0
1597727834112	0
1614907703296	0
1632087572480	0
1649267441664	0
1666447310848	0
1683627180032	0
1700807049216	0
1717986918400	0
1735166787584	0
1752346656768	0
1769526525952	0
1786706395136	0
1803886264320	0
1821066133504	0
1838246002688	0
1855425871872	0
1872605741056	0
1889785610240	0
1906965479424	0
1924145348608	0
1941325217792	0
1958505086976	0
1975684956160	0
1992864825344	0
2010044694528	0
2027224563712	0
2044404432896	0
2061584302080	0
2078764171264	0
2095944040448	0
2113123909632	0
2130303778816	0
2147483648000	0
2164663517184	0
2181843386368	0
2199023255552	0
2233382993920	0
2267742732288	0
2302102470656	0
2336462209024	0
2370821947392	0
2405181685760	0
2439541424128	0
2473901162496	0
2508260900864	0
2542620639232	0
2576980377600	0
2611340115968	0
2645699854336	0
2680059592704	0
2714419331072	0
2748779069440	0
2783138807808	0
2817498546176	0
2851858284544	0
2886218022912	0
2920577761280	0
2954937499648	0
2989297238016	0
3023656976384	0
3058016714752	0
3092376453120	0
3126736191488	0
3161095929856	0
3195455668224	0
3229815406592	0
3264175144960	0
3298534883328	0
3332894621696	0
3367254360064	0
3401614098432	0
3435973836800	0
3470333575168	0
3504693313536	0
3539053051904	0
3573412790272	0
3607772528640	0
3642132267008	0
3676492005376	0
3710851743744	0
3745211482112	0
3779571220480	0
3813930958848	0
3848290697216	0
3882650435584	0
3917010173952	0
3951369912320	0
3985729650688	0
4020089389056	0
4054449127424	0
4088808865792	0
4123168604160	0
4157528342528	0
4191888080896	0
4226247819264	0
4260607557632	0
4294967296000	0
4329327034368	0
4363686772736	0
4398046511104	0
4466765987840	0
4535485464576	0
4604204941312	0
4672924418048	0
4741643894784	0
4810363371520	0
4879082848256	0
4947802324992	0
5016521801728	0
5085241278464	0
5153960755200	0
5222680231936	0
5291399708672	0
5360119185408	0
5428838662144	0
5497558138880	0
5566277615616	0
5634997092352	0
5703716569088	0
5772436045824	0
5841155522560	0
5909874999296	0
5978594476032	0
6047313952768	0
6116033429504	0
6184752906240	0
6253472382976	0
6322191859712	0
6390911336448	0
6459630813184	0
6528350289920	0
6597069766656	0
6665789243392	0
6734508720128	0
6803228196864	0
6871947673600	0
6940667150336	0
7009386627072	0
7078106103808	0
7146825580544	0
7215545057280	0
7284264534016	0
7352984010752	0
7421703487488	0
7490422964224	0
7559142440960	0
7627861917696	0
7696581394432	0
7765300871168	0
7834020347904	0
7902739824640	0
7971459301376	0
8040178778112	0
8108898254848	0
8177617731584	0
8246337208320	0
8315056685056	0
8383776161792	0
8452495638528	0
8521215115264	0
8589934592000	0
8658654068736	0
8727373545472	0
8796093022208	0
8933531975680	0
9070970929152	0
9208409882624	0
9345848836096	0
9483287789568	0
9620726743040	0
9758165696512	0
9895604649984	0
10033043603456	0
10170482556928	0
10307921510400	0
10445360463872	0
10582799417344	0
10720238370816	0
10857677324288	0
10995116277760	0
11132555231232	0
11269994184704	0
11407433138176	0
11544872091648	0
11682311045120	0
11819749998592	0
11957188952064	0
12094627905536	0
12232066859008	0
12369505812480	0
12506944765952	0
12644383719424	0
12781822672896	0
12919261626368	0
13056700579840	0
13194139533312	0
13331578486784	0
13469017440256	0
13606456393728	0
13743895347200	0
13881334300672	0
14018773254144	0
14156212207616	0
14293651161088	0
14431090114560	0
14568529068032	0
14705968021504	0
14843406974976	0
14980845928448	0
15118284881920	0
15255723835392	0
15393162788864	0
15530601742336	0
15668040695808	0
15805479649280	0
15942918602752	0
16080357556224	0
16217796509696	0
16355235463168	0
16492674416640	0
16630113370112	0
16767552323584	0
16904991277056	0
17042430230528	0
17179869184000	0
17317308137472	0
17454747090944	0
17592186044416	0
17867063951360	0
18141941858304	0
18416819765248	0
18691697672192	0
18966575579136	0
19241453486080	0
19516331393024	0
19791209299968	0
20066087206912	0
20340965113856	0
20615843020800	0
20890720927744	0
21165598834688	0
21440476741632	0
21715354648576	0
21990232555520	0
22265110462464	0
22539988369408	0
22814866276352	0
23089744183296	0
23364622090240	0
23639499997184	0
23914377904128	0
24189255811072	0
24464133718016	0
24739011624960	0
25013889531904	0
25288767438848	0
25563645345792	0
25838523252736	0
26113401159680	0
26388279066624	0
26663156973568	0
26938034880512	0
27212912787456	0
27487790694400	0
27762668601344	0
28037546508288	0
28312424415232	0
28587302322176	0
28862180229120	0
29137058136064	0
29411936043008	0
29686813949952	0
29961691856896	0
30236569763840	0
30511447670784	0
30786325577728	0
31061203484672	0
31336081391616	0
31610959298560	0
31885837205504	0
32160715112448	0
32435593019392	0
32710470926336	0
32985348833280	0
33260226740224	0
33535104647168	0
33809982554112	0
34084860461056	0
34359738368000	0
34634616274944	0
34909494181888	0
35184372088832	0
35734127902720	0
36283883716608	0
36833639530496	0
37383395344384	0
37933151158272	0
38482906972160	0
39032662786048	0
39582418599936	0
40132174413824	0
40681930227712	0
41231686041600	0
41781441855488	0
42331197669376	0
42880953483264	0
43430709297152	0
43980465111040	0
44530220924928	0
45079976738816	0
45629732552704	0
46179488366592	0
46729244180480	0
47278999994368	0
47828755808256	0
48378511622144	0
48928267436032	0
49478023249920	0
50027779063808	0
50577534877696	0
51127290691584	0
51677046505472	0
52226802319360	0
52776558133248	0
53326313947136	0
53876069761024	0
54425825574912	0
54975581388800	0
55525337202688	0
56075093016576	0
56624848830464	0
57174604644352	0
57724360458240	0
58274116272128	0
58823872086016	0
59373627899904	0
59923383713792	0
60473139527680	0
61022895341568	0
61572651155456	0
62122406969344	0
62672162783232	0
63221918597120	0
63771674411008	0
64321430224896	0
64871186038784	0
65420941852672	0
65970697666560	0
66520453480448	0
67070209294336	0
67619965108224	0
68169720922112	0
68719476736000	0
69269232549888	0
69818988363776	0
70368744177664	0
71468255805440	0
72567767433216	0
73667279060992	0
74766790688768	0
75866302316544	0
76965813944320	0
78065325572096	0
79164837199872	0
80264348827648	0
81363860455424	0
82463372083200	0
83562883710976	0
84662395338752	0
85761906966528	0
86861418594304	0
87960930222080	0
89060441849856	0
90159953477632	0
91259465105408	0
92358976733184	0
93458488360960	0
94557999988736	0
95657511616512	0
96757023244288	0
97856534872064	0
98956046499840	0
100055558127616	0
101155069755392	0
102254581383168	0
103354093010944	0
104453604638720	0
105553116266496	0
106652627894272	0
107752139522048	0
108851651149824	0
109951162777600	0
111050674405376	0
112150186033152	0
113249697660928	0
114349209288704	0
115448720916480	0
116548232544256	0
117647744172032	0
118747255799808	0
119846767427584	0
120946279055360	0
122045790683136	0
123145302310912	0
124244813938688	0
125344325566464	0
126443837194240	0
127543348822016	0
128642860449792	0
129742372077568	0
130841883705344	0
131941395333120	0
133040906960896	0
134140418588672	0
135239930216448	0
136339441844224	0
137438953472000	0
138538465099776	0
139637976727552	0
140737488355328	0
142936511610880	0
145135534866432	0
147334558121984	0
149533581377536	0
151732604633088	0
153931627888640	0
156130651144192	0
158329674399744	0
160528697655296	0
162727720910848	0
164926744166400	0
167125767421952	0
169324790677504	0
171523813933056	0
173722837188608	0
175921860444160	0
178120883699712	0
180319906955264	0
182518930210816	0
184717953466368	0
186916976721920	0
189115999977472	0
191315023233024	0
193514046488576	0
195713069744128	0
197912092999680	0
200111116255232	0
202310139510784	0
204509162766336	0
206708186021888	0
208907209277440	0
211106232532992	0
213305255788544	0
215504279044096	0
217703302299648	0
219902325555200	0
222101348810752	0
224300372066304	0
226499395321856	0
228698418577408	0
230897441832960	0
233096465088512	0
235295488344064	0
237494511599616	0
239693534855168	0
241892558110720	0
244091581366272	0
246290604621824	0
248489627877376	0
250688651132928	0
252887674388480	0
255086697644032	0
257285720899584	0
259484744155136	0
261683767410688	0
263882790666240	0
266081813921792	0
268280837177344	0
270479860432896	0
272678883688448	0
274877906944000	0
277076930199552	0
279275953455104	0
281474976710656	0
285873023221760	0
290271069732864	0
294669116243968	0
299067162755072	0
303465209266176	0
307863255777280	0
312261302288384	0
316659348799488	0
321057395310592	0
325455441821696	0
329853488332800	0
334251534843904	0
338649581355008	0
343047627866112	0
347445674377216	0
351843720888320	0
356241767399424	0
360639813910528	0
365037860421632	0
369435906932736	0
373833953443840	0
378231999954944	0
382630046466048	0
387028092977152	0
391426139488256	0
395824185999360	0
400222232510464	0
404620279021568	0
409018325532672	0
413416372043776	0
417814418554880	0
422212465065984	0
426610511577088	0
431008558088192	0
435406604599296	0
439804651110400	0
444202697621504	0
448600744132608	0
452998790643712	0
457396837154816	0
461794883665920	0
466192930177024	0
470590976688128	0
474989023199232	0
479387069710336	0
483785116221440	0
488183162732544	0
492581209243648	0
496979255754752	0
501377302265856	0
505775348776960	0
510173395288064	0
514571441799168	0
518969488310272	0
523367534821376	0
527765581332480	0
532163627843584	0
536561674354688	0
540959720865792	0
545357767376896	0
549755813888000	0
554153860399104	0
558551906910208	0
562949953421312	0
571746046443520	0
580542139465728	0
589338232487936	0
598134325510144	0
606930418532352	0
615726511554560	0
624522604576768	0
633318697598976	0
642114790621184	0
650910883643392	0
659706976665600	0
668503069687808	0
677299162710016	0
686095255732224	0
694891348754432	0
703687441776640	0
712483534798848	0
721279627821056	0
730075720843264	0
738871813865472	0
747667906887680	0
756463999909888	0
765260092932096	0
774056185954304	0
782852278976512	0
791648371998720	0
800444465020928	0
809240558043136	0
818036651065344	0
826832744087552	0
835628837109760	0
844424930131968	0
853221023154176	0
862017116176384	0
870813209198592	0
879609302220800	0
888405395243008	0
897201488265216	0
905997581287424	0
914793674309632	0
923589767331840	0
932385860354048	0
941181953376256	0
949978046398464	0
958774139420672	0
967570232442880	0
976366325465088	0
985162418487296	0
993958511509504	0
1002754604531712	0
1011550697553920	0
1020346790576128	0
1029142883598336	0
1037938976620544	0
1046735069642752	0
1055531162664960	0
1064327255687168	0
1073123348709376	0
1081919441731584	0
1090715534753792	0
1099511627776000	0
1108307720798208	0
1117103813820416	0
1125899906842624	0
1143492092887040	0
1161084278931456	0
1178676464975872	0
1196268651020288	0
1213860837064704	0
1231453023109120	0
1249045209153536	0
1266637395197952	0
1284229581242368	0
1301821767286784	0
1319413953331200	0
1337006139375616	0
1354598325420032	0
1372190511464448	0
1389782697508864	0
1407374883553280	0
1424967069597696	0
1442559255642112	0
1460151441686528	0
1477743627730944	0
1495335813775360	0
1512927999819776	0
1530520185864192	0
1548112371908608	0
1565704557953024	0
1583296743997440	0
1600888930041856	0
1618481116086272	0
1636073302130688	0
1653665488175104	0
1671257674219520	0
1688849860263936	0
1706442046308352	0
1724034232352768	0
1741626418397184	0
1759218604441600	0
1776810790486016	0
1794402976530432	0
1811995162574848	0
1829587348619264	0
1847179534663680	0
1864771720708096	0
1882363906752512	0
1899956092796928	0
1917548278841344	0
1935140464885760	0
1952732650930176	0
1970324836974592	0
1987917023019008	0
2005509209063424	0
2023101395107840	0
2040693581152256	0
2058285767196672	0
2075877953241088	0
2093470139285504	0
2111062325329920	0
2128654511374336	0
2146246697418752	0
2163838883463168	0
2181431069507584	0
2199023255552000	0
2216615441596416	0
2234207627640832	0
2251799813685248	0
2286984185774080	0
2322168557862912	0
2357352929951744	0
2392537302040576	0
2427721674129408	0
2462906046218240	0
2498090418307072	0
2533274790395904	0
2568459162484736	0
2603643534573568	0
2638827906662400	0
2674012278751232	0
2709196650840064	0
2744381022928896	0
2779565395017728	0
2814749767106560	0
2849934139195392	0
2885118511284224	0
2920302883373056	0
2955487255461888	0
2990671627550720	0
3025855999639552	0
3061040371728384	0
3096224743817216	0
3131409115906048	0
3166593487994880	0
3201777860083712	0
3236962232172544	0
3272146604261376	0
3307330976350208	0
3342515348439040	0
3377699720527872	0
3412884092616704	0
3448068464705536	0
3483252836794368	0
3518437208883200	0
3553621580972032	0
3588805953060864	0
3623990325149696	0
3659174697238528	0
3694359069327360	0
3729543441416192	0
3764727813505024	0
3799912185593856	0
3835096557682688	0
3870280929771520	0
3905465301860352	0
3940649673949184	0
3975834046038016	0
4011018418126848	0
4046202790215680	0
4081387162304512	0
4116571534393344	0
4151755906482176	0
4186940278571008	0
4222124650659840	0
4257309022748672	0
4292493394837504	0
4327677766926336	0
4362862139015168	0
4398046511104000	0
4433230883192832	0
4468415255281664	0
4503599627370496	0
4573968371548160	0
4644337115725824	0
4714705859903488	0
4785074604081152	0
4855443348258816	0
4925812092436480	0
4996180836614144	0
5066549580791808	0
5136918324969472	0
5207287069147136	0
5277655813324800	0
5348024557502464	0
5418393301680128	0
5488762045857792	0
5559130790035456	0
5629499534213120	0
5699868278390784	0
5770237022568448	0
5840605766746112	0
5910974510923776	0
5981343255101440	0
6051711999279104	0
6122080743456768	0
6192449487634432	0
6262818231812096	0
6333186975989760	0
6403555720167424	0
6473924464345088	0
6544293208522752	0
6614661952700416	0
6685030696878080	0
6755399441055744	0
6825768185233408	0
6896136929411072	0
6966505673588736	0
7036874417766400	0
7107243161944064	0
7177611906121728	0
7247980650299392	0
7318349394477056	0
7388718138654720	0
7459086882832384	0
7529455627010048	0
7599824371187712	0
7670193115365376	0
7740561859543040	0
7810930603720704	0
7881299347898368	0
7951668092076032	0
8022036836253696	0
8092405580431360	0
8162774324609024	0
8233143068786688	0
8303511812964352	0
8373880557142016	0
8444249301319680	0
8514618045497344	0
8584986789675008	0
8655355533852672	0
8725724278030336	0
8796093022208000	0
8866461766385664	0
8936830510563328	0
9007199254740992	0
9147936743096320	0
9288674231451648	0
9429411719806976	0
9570149208162304	0
9710886696517632	0
9851624184872960	0
9992361673228288	0
10133099161583616	0
10273836649938944	0
10414574138294272	0
10555311626649600	0
10696049115004928	0
10836786603360256	0
10977524091715584	0
11118261580070912	0
11258999068426240	0
11399736556781568	0
11540474045136896	0
11681211533492224	0
11821949021847552	0
11962686510202880	0
12103423998558208	0
12244161486913536	0
12384898975268864	0
12525636463624192	0
12666373951979520	0
12807111440334848	0
12947848928690176	0
13088586417045504	0
13229323905400832	0
13370061393756160	0
13510798882111488	0
13651536370466816	0
13792273858822144	0
13933011347177472	0
14073748835532800	0
14214486323888128	0
14355223812243456	0
14495961300598784	0
14636698788954112	0
14777436277309440	0
14918173765664768	0
15058911254020096	0
15199648742375424	0
15340386230730752	0
15481123719086080	0
15621861207441408	0
15762598695796736	0
15903336184152064	0
16044073672507392	0
16184811160862720	0
16325548649218048	0
16466286137573376	0
16607023625928704	0
16747761114284032	0
16888498602639360	0
17029236090994688	0
17169973579350016	0
17310711067705344	0
17451448556060672	0
17592186044416000	0
17732923532771328	0
17873661021126656	0
18014398509481984	0
18295873486192640	0
18577348462903296	0
18858823439613952	0
19140298416324608	0
19421773393035264	0
19703248369745920	0
19984723346456576	0
20266198323167232	0
20547673299877888	0
20829148276588544	0
21110623253299200	0
21392098230009856	0
21673573206720512	0
21955048183431168	0
22236523160141824	0
22517998136852480	0
22799473113563136	0
23080948090273792	0
23362423066984448	0
23643898043695104	0
23925373020405760	0
24206847997116416	0
24488322973827072	0
24769797950537728	0
25051272927248384	0
25332747903959040	0
25614222880669696	0
25895697857380352	0
26177172834091008	0
26458647810801664	0
26740122787512320	0
27021597764222976	0
27303072740933632	0
27584547717644288	0
27866022694354944	0
28147497671065600	0
28428972647776256	0
28710447624486912	0
28991922601197568	0
29273397577908224	0
29554872554618880	0
29836347531329536	0
30117822508040192	0
30399297484750848	0
30680772461461504	0
30962247438172160	0
31243722414882816	0
31525197391593472	0
31806672368304128	0
32088147345014784	0
32369622321725440	0
32651097298436096	0
32932572275146752	0
33214047251857408	0
33495522228568064	0
33776997205278720	0
34058472181989376	0
34339947158700032	0
34621422135410688	0
34902897112121344	0
35184372088832000	0
35465847065542656	0
35747322042253312	0
36028797018963968	0
36591746972385280	0
37154696925806592	0
37717646879227904	0
38280596832649216	0
38843546786070528	0
39406496739491840	0
39969446692913152	0
40532396646334464	0
41095346599755776	0
41658296553177088	0
42221246506598400	0
42784196460019712	0
43347146413441024	0
43910096366862336	0
44473046320283648	0
45035996273704960	0
45598946227126272	0
46161896180547584	0
46724846133968896	0
47287796087390208	0
47850746040811520	0
48413695994232832	0
48976645947654144	0
49539595901075456	0
50102545854496768	0
50665495807918080	0
51228445761339392	0
51791395714760704	0
52354345668182016	0
52917295621603328	0
53480245575024640	0
54043195528445952	0
54606145481867264	0
55169095435288576	0
55732045388709888	0
56294995342131200	0
56857945295552512	0
57420895248973824	0
57983845202395136	0
58546795155816448	0
59109745109237760	0
59672695062659072	0
60235645016080384	0
60798594969501696	0
61361544922923008	0
61924494876344320	0
62487444829765632	0
63050394783186944	0
63613344736608256	0
64176294690029568	0
64739244643450880	0
65302194596872192	0
65865144550293504	0
66428094503714816	0
66991044457136128	0
67553994410557440	0
68116944363978752	0
68679894317400064	0
69242844270821376	0
69805794224242688	0
70368744177664000	0
70931694131085312	0
71494644084506624	0
72057594037927936	0
73183493944770560	0
74309393851613184	0
75435293758455808	0
76561193665298432	0
77687093572141056	0
78812993478983680	0
79938893385826304	0
81064793292668928	0
82190693199511552	0
83316593106354176	0
84442493013196800	0
85568392920039424	0
86694292826882048	0
87820192733724672	0
88946092640567296	0
90071992547409920	0
91197892454252544	0
92323792361095168	0
93449692267937792	0
94575592174780416	0
95701492081623040	0
96827391988465664	0
97953291895308288	0
99079191802150912	0
100205091708993536	0
101330991615836160	0
102456891522678784	0
103582791429521408	0
104708691336364032	0
105834591243206656	0
106960491150049280	0
108086391056891904	0
109212290963734528	0
110338190870577152	0
111464090777419776	0
112589990684262400	0
113715890591105024	0
114841790497947648	0
115967690404790272	0
117093590311632896	0
118219490218475520	0
119345390125318144	0
120471290032160768	0
121597189939003392	0
122723089845846016	0
123848989752688640	0
124974889659531264	0
126100789566373888	0
127226689473216512	0
128352589380059136	0
129478489286901760	0
130604389193744384	0
131730289100587008	0
132856189007429632	0
133982088914272256	0
135107988821114880	0
136233888727957504	0
137359788634800128	0
138485688541642752	0
139611588448485376	0
140737488355328000	0
141863388262170624	0
142989288169013248	0
144115188075855872	0
146366987889541120	0
148618787703226368	0
150870587516911616	0
153122387330596864	0
155374187144282112	0
157625986957967360	0
159877786771652608	0
162129586585337856	0
164381386399023104	0
166633186212708352	0
168884986026393600	0
171136785840078848	0
173388585653764096	0
175640385467449344	0
177892185281134592	0
180143985094819840	0
182395784908505088	0
184647584722190336	0
186899384535875584	0
189151184349560832	0
191402984163246080	0
193654783976931328	0
195906583790616576	0
198158383604301824	0
200410183417987072	0
202661983231672320	0
204913783045357568	0
207165582859042816	0
209417382672728064	0
211669182486413312	0
213920982300098560	0
216172782113783808	0
218424581927469056	0
220676381741154304	0
222928181554839552	0
225179981368524800	0
227431781182210048	0
229683580995895296	0
231935380809580544	0
234187180623265792	0
236438980436951040	0
238690780250636288	0
240942580064321536	0
243194379878006784	0
245446179691692032	0
247697979505377280	0
249949779319062528	0
252201579132747776	0
254453378946433024	0
256705178760118272	0
258956978573803520	0
261208778387488768	0
263460578201174016	0
265712378014859264	0
267964177828544512	0
270215977642229760	0
272467777455915008	0
274719577269600256	0
276971377083285504	0
279223176896970752	0
281474976710656000	0
283726776524341248	0
285978576338026496	0
288230376151711744	0
292733975779082240	0
297237575406452736	0
301741175033823232	0
306244774661193728	0
310748374288564224	0
315251973915934720	0
319755573543305216	0
324259173170675712	0
328762772798046208	0
333266372425416704	0
337769972052787200	0
342273571680157696	0
346777171307528192	0
351280770934898688	0
355784370562269184	0
360287970189639680	0
364791569817010176	0
369295169444380672	0
373798769071751168	0
378302368699121664	0
382805968326492160	0
387309567953862656	0
391813167581233152	0
396316767208603648	0
400820366835974144	0
405323966463344640	0
409827566090715136	0
414331165718085632	0
418834765345456128	0
423338364972826624	0
427841964600197120	0
432345564227567616	0
436849163854938112	0
441352763482308608	0
445856363109679104	0
450359962737049600	0
454863562364420096	0
459367161991790592	0
463870761619161088	0
468374361246531584	0
472877960873902080	0
477381560501272576	0
481885160128643072	0
486388759756013568	0
490892359383384064	0
495395959010754560	0
499899558638125056	0
504403158265495552	0
508906757892866048	0
513410357520236544	0
517913957147607040	0
522417556774977536	0
526921156402348032	0
531424756029718528	0
535928355657089024	0
540431955284459520	0
544935554911830016	0
549439154539200512	0
553942754166571008	0
558446353793941504	0
562949953421312000	0
567453553048682496	0
571957152676052992	0
576460752303423488	0
585467951558164480	0
594475150812905472	0
603482350067646464	0
612489549322387456	0
621496748577128448	0
630503947831869440	0
639511147086610432	0
648518346341351424	0
657525545596092416	0
666532744850833408	0
675539944105574400	0
684547143360315392	0
693554342615056384	0
702561541869797376	0
711568741124538368	0
720575940379279360	0
729583139634020352	0
738590338888761344	0
747597538143502336	0
756604737398243328	0
765611936652984320	0
774619135907725312	0
783626335162466304	0
792633534417207296	0
801640733671948288	0
810647932926689280	0
819655132181430272	0
828662331436171264	0
837669530690912256	0
846676729945653248	0
855683929200394240	0
864691128455135232	0
873698327709876224	0
882705526964617216	0
891712726219358208	0
900719925474099200	0
909727124728840192	0
918734323983581184	0
927741523238322176	0
936748722493063168	0
945755921747804160	0
954763121002545152	0
963770320257286144	0
972777519512027136	0
981784718766768128	0
990791918021509120	0
999799117276250112	0
1008806316530991104	0
1017813515785732096	0
1026820715040473088	0
1035827914295214080	0
1044835113549955072	0
1053842312804696064	0
1062849512059437056	0
1071856711314178048	0
1080863910568919040	0
1089871109823660032	0
1098878309078401024	0
1107885508333142016	0
1116892707587883008	0
1125899906842624000	0
1134907106097364992	0
1143914305352105984	0
1152921504606846976	0
1170935903116328960	0
1188950301625810944	0
1206964700135292928	0
1224979098644774912	0
1242993497154256896	0
1261007895663738880	0
1279022294173220864	0
1297036692682702848	0
1315051091192184832	0
1333065489701666816	0
1351079888211148800	0
1369094286720630784	0
1387108685230112768	0
1405123083739594752	0
1423137482249076736	0
1441151880758558720	0
1459166279268040704	0
1477180677777522688	0
1495195076287004672	0
1513209474796486656	0
1531223873305968640	0
1549238271815450624	0
1567252670324932608	0
1585267068834414592	0
1603281467343896576	0
1621295865853378560	0
1639310264362860544	0
1657324662872342528	0
1675339061381824512	0
1693353459891306496	0
1711367858400788480	0
1729382256910270464	0
1747396655419752448	0
1765411053929234432	0
1783425452438716416	0
1801439850948198400	0
1819454249457680384	0
1837468647967162368	0
1855483046476644352	0
1873497444986126336	0
1891511843495608320	0
1909526242005090304	0
1927540640514572288	0
1945555039024054272	0
1963569437533536256	0
1981583836043018240	0
1999598234552500224	0
2017612633061982208	0
2035627031571464192	0
2053641430080946176	0
2071655828590428160	0
2089670227099910144	0
2107684625609392128	0
2125699024118874112	0
2143713422628356096	0
2161727821137838080	0
2179742219647320064	0
2197756618156802048	0
2215771016666284032	0
2233785415175766016	0
2251799813685248000	0
2269814212194729984	0
2287828610704211968	0
2305843009213693952	0
2341871806232657920	0
2377900603251621888	0
2413929400270585856	0
2449958197289549824	0
2485986994308513792	0
2522015791327477760	0
2558044588346441728	0
2594073385365405696	0
2630102182384369664	0
2666130979403333632	0
2702159776422297600	0
2738188573441261568	0
2774217370460225536	0
2810246167479189504	0
2846274964498153472	0
2882303761517117440	0
2918332558536081408	0
2954361355555045376	0
2990390152574009344	0
3026418949592973312	0
3062447746611937280	0
3098476543630901248	0
3134505340649865216	0
3170534137668829184	0
3206562934687793152	0
3242591731706757120	0
3278620528725721088	0
3314649325744685056	0
3350678122763649024	0
3386706919782612992	0
3422735716801576960	0
3458764513820540928	0
3494793310839504896	0
3530822107858468864	0
3566850904877432832	0
3602879701896396800	0
3638908498915360768	0
3674937295934324736	0
3710966092953288704	0
3746994889972252672	0
3783023686991216640	0
3819052484010180608	0
3855081281029144576	0
3891110078048108544	0
3927138875067072512	0
3963167672086036480	0
3999196469105000448	0
4035225266123964416	0
4071254063142928384	0
4107282860161892352	0
4143311657180856320	0
4179340454199820288	0
4215369251218784256	0
4251398048237748224	0
4287426845256712192	0
4323455642275676160	0
4359484439294640128	0
4395513236313604096	0
4431542033332568064	0
4467570830351532032	0
4503599627370496000	0
4539628424389459968	0
4575657221408423936	0
4611686018427387904	0
4683743612465315840	0
4755801206503243776	0
4827858800541171712	0
4899916394579099648	0
4971973988617027584	0
5044031582654955520	0
5116089176692883456	0
5188146770730811392	0
5260204364768739328	0
5332261958806667264	0
5404319552844595200	0
5476377146882523136	0
5548434740920451072	0
5620492334958379008	0
5692549928996306944	0
5764607523034234880	0
5836665117072162816	0
5908722711110090752	0
5980780305148018688	0
6052837899185946624	0
6124895493223874560	0
6196953087261802496	0
6269010681299730432	0
6341068275337658368	0
6413125869375586304	0
6485183463413514240	0
6557241057451442176	0
6629298651489370112	0
6701356245527298048	0
6773413839565225984	0
6845471433603153920	0
6917529027641081856	0
6989586621679009792	0
7061644215716937728	0
7133701809754865664	0
7205759403792793600	0
7277816997830721536	0
7349874591868649472	0
7421932185906577408	0
7493989779944505344	0
7566047373982433280	0
7638104968020361216	0
7710162562058289152	0
7782220156096217088	0
7854277750134145024	0
7926335344172072960	0
7998392938210000896	0
8070450532247928832	0
8142508126285856768	0
8214565720323784704	0
8286623314361712640	0
8358680908399640576	0
8430738502437568512	0
8502796096475496448	0
8574853690513424384	0
8646911284551352320	0
8718968878589280256	0
8791026472627208192	0
8863084066665136128	0
8935141660703064064	0
9007199254740992000	0
9079256848778919936	0
9151314442816847872	0
9223372036854775808	0
9367487224930631680	0
9511602413006487552	0
9655717601082343424	0
9799832789158199296	0
9943947977234055168	0
10088063165309911040	0
10232178353385766912	0
10376293541461622784	0
10520408729537478656	0
10664523917613334528	0
10808639105689190400	0
10952754293765046272	0
11096869481840902144	0
11240984669916758016	0
11385099857992613888	0
11529215046068469760	0
11673330234144325632	0
11817445422220181504	0
11961560610296037376	0
12105675798371893248	0
12249790986447749120	0
12393906174523604992	0
12538021362599460864	0
12682136550675316736	0
12826251738751172608	0
12970366926827028480	0
13114482114902884352	0
13258597302978740224	0
13402712491054596096	0
13546827679130451968	0
13690942867206307840	0
13835058055282163712	0
13979173243358019584	0
14123288431433875456	0
14267403619509731328	0
14411518807585587200	0
14555633995661443072	0
14699749183737298944	0
14843864371813154816	0
14987979559889010688	0
15132094747964866560	0
15276209936040722432	0
15420325124116578304	0
15564440312192434176	0
15708555500268290048	0
15852670688344145920	0
15996785876420001792	0
16140901064495857664	0
16285016252571713536	0
16429131440647569408	0
16573246628723425280	0
16717361816799281152	0
16861477004875137024	0
17005592192950992896	0
17149707381026848768	0
17293822569102704640	0
17437937757178560512	0
17582052945254416384	0
17726168133330272256	0
17870283321406128128	0
18014398509481984000	0
18158513697557839872	0
18302628885633695744	0
