0	1309448
1	1309448
2	44959
3	44347
4	43561
5	42787
6	42087
7	41446
8	40857
9	40278
10	39758
11	39255
12	38796
13	38361
14	37933
15	37474
16	37085
17	36717
18	36408
19	36097
20	35765
21	35442
22	35136
23	34864
24	34609
25	34354
26	34100
27	33869
28	33644
29	33467
30	33294
31	33096
32	32920
33	32756
34	32595
35	32424
36	32239
37	32077
38	31945
39	31805
40	31676
41	31558
42	31418
43	31293
44	31183
45	31064
46	30964
47	30850
48	30761
49	30682
50	30576
51	30476
52	30394
53	30306
54	30228
55	30153
56	30076
57	30001
58	29930
59	29858
60	29786
61	29707
62	29631
63	29568
64	29503
65	29437
66	29368
67	29299
68	29233
69	29186
70	29133
71	29080
72	29023
73	28960
74	28907
75	28846
76	28798
77	28752
78	28700
79	28658
80	28602
81	28563
82	28511
83	28464
84	28413
85	28373
86	28329
87	28286
88	28261
89	28220
90	28175
91	28142
92	28111
93	28086
94	28056
95	28024
96	27972
97	27941
98	27912
99	27883
100	27840
101	27795
102	27765
103	27731
104	27692
105	27655
106	27626
107	27587
108	27557
109	27522
110	27491
111	27454
112	27427
113	27403
114	27381
115	27360
116	27331
117	27304
118	27281
119	27257
120	27232
121	27214
122	27193
123	27171
124	27149
125	27133
126	27111
127	27081
128	27065
130	27022
132	26972
134	26926
136	26892
138	26851
140	26815
142	26776
144	26734
146	26698
148	26662
150	26629
152	26594
154	26562
156	26536
158	26502
160	26464
162	26427
164	26389
166	26355
168	26319
170	26297
172	26271
174	26251
176	26218
178	26187
180	26161
182	26137
184	26104
186	26075
188	26035
190	26004
192	25969
194	25942
196	25904
198	25882
200	25863
202	25846
204	25826
206	25800
208	25777
210	25756
212	25739
214	25713
216	25684
218	25663
220	25644
222	25620
224	25599
226	25581
228	25566
230	25549
232	25536
234	25519
236	25501
238	25486
240	25469
242	25446
244	25429
246	25403
248	25378
250	25360
252	25344
254	25322
256	25309
260	25279
264	25239
268	25217
272	25180
276	25155
280	25123
284	25095
288	25061
292	25042
296	25009
300	24983
304	24946
308	24921
312	24899
316	24879
320	24851
324	24818
328	24781
332	24756
336	24735
340	24708
344	24668
348	24626
352	24581
356	24539
360	24502
364	24433
368	24384
372	24335
376	24262
380	24158
384	24105
388	24059
392	23951
396	23863
400	23840
404	23769
408	23743
412	23724
416	23713
420	23699
424	23686
428	23671
432	23653
436	23639
440	23625
444	23619
448	23606
452	23592
456	23577
460	23564
464	23548
468	23539
472	23531
476	23511
480	23495
484	23480
488	23470
492	23458
496	23448
500	23432
504	23417
508	23405
512	23399
520	23377
528	23354
536	23328
544	23310
552	23284
560	23258
568	23236
576	23208
584	23184
592	23151
600	23120
608	23090
616	23075
624	23051
632	23033
640	23011
648	22985
656	22959
664	22925
672	22896
680	22867
688	22830
696	22792
704	22768
712	22742
720	22693
728	22642
736	22611
744	22557
752	22489
760	22406
768	22328
776	22269
784	22184
792	22091
800	22004
808	21972
816	21950
824	21927
832	21902
840	21885
848	21856
856	21837
864	21815
872	21789
880	21764
888	21750
896	21722
904	21697
912	21668
920	21633
928	21607
936	21579
944	21554
952	21517
960	21491
968	21470
976	21439
984	21423
992	21391
1000	21364
1008	21339
1016	21324
1024	21255
1040	21226
1056	21194
1072	21156
1088	21127
1104	21091
1120	21026
1136	20958
1152	20894
1168	20838
1184	20714
1200	20643
1216	20627
1232	20606
1248	20587
1264	20575
1280	20559
1296	20537
1312	20519
1328	20495
1344	20472
1360	20448
1376	20410
1392	20387
1408	20363
1424	20341
1440	20308
1456	20280
1472	20250
1488	20216
1504	20165
1520	20121
1536	20084
1552	20034
1568	19969
1584	19901
1600	19840
1616	19819
1632	19809
1648	19783
1664	19762
1680	19746
1696	19722
1712	19703
1728	19678
1744	19658
1760	19634
1776	19607
1792	19568
1808	19528
1824	19488
1840	19438
1856	19398
1872	19339
1888	19281
1904	19233
1920	19171
1936	19106
1952	19032
1968	18953
1984	18859
2000	18790
2016	18730
2032	18669
2048	18581
2080	18557
2112	18527
2144	18493
2176	18451
2208	18414
2240	18373
2272	18329
2304	18274
2336	18221
2368	18152
2400	18103
2432	18075
2464	18049
2496	18021
2528	17992
2560	17959
2592	17922
2624	17877
2656	17831
2688	17777
2720	17717
2752	17656
2784	17585
2816	17528
2848	17487
2880	17456
2912	17414
2944	17359
2976	17285
3008	17195
3040	17092
3072	16961
3104	16916
3136	16884
3168	16847
3200	16813
3232	16793
3264	16773
3296	16749
3328	16734
3360	16704
3392	16674
3424	16647
3456	16611
3488	16580
3520	16543
3552	16511
3584	16470
3616	16447
3648	16425
3680	16393
3712	16365
3744	16336
3776	16304
3808	16265
3840	16227
3872	16192
3904	16153
3936	16098
3968	16047
4000	16012
4032	15968
4064	15925
4096	15837
4160	15802
4224	15752
4288	15697
4352	15650
4416	15626
4480	15590
4544	15544
4608	15496
4672	15445
4736	15406
4800	15366
4864	15314
4928	15273
4992	15214
5056	15092
5120	14979
5184	14946
5248	14920
5312	14897
5376	14864
5440	14825
5504	14795
5568	14758
5632	14730
5696	14712
5760	14670
5824	14633
5888	14598
5952	14552
6016	14504
6080	14444
6144	14352
6208	14322
6272	14299
6336	14274
6400	14249
6464	14213
6528	14177
6592	14148
6656	14114
6720	14087
6784	14063
6848	13997
6912	13351
6976	10314
7040	9299
7104	9127
7168	8973
7232	8957
7296	8939
7360	8911
7424	8892
7488	8878
7552	8845
7616	8824
7680	8803
7744	8773
7808	8750
7872	8728
7936	8691
8000	8659
8064	8632
8128	8575
8192	8498
8320	8462
8448	8428
8576	8392
8704	8354
8832	8312
8960	8279
9088	8237
9216	8119
9344	8083
9472	8060
9600	8034
9728	8011
9856	7991
9984	7965
10112	7914
10240	7839
10368	7808
10496	7780
10624	7758
10752	7722
10880	7702
11008	7674
11136	7631
11264	7551
11392	7527
11520	7503
11648	7475
11776	7460
11904	7433
12032	7408
12160	7374
12288	7282
12416	7264
12544	7244
12672	7226
12800	7204
12928	7191
13056	7158
13184	7129
13312	7078
13440	7053
13568	7033
13696	7025
13824	6813
13952	5929
14080	5728
14208	5588
14336	5542
14464	5532
14592	5519
14720	5501
14848	5487
14976	5475
15104	5454
15232	5429
15360	5397
15488	5388
15616	5375
15744	5351
15872	5334
16000	5322
16128	5304
16256	5276
16384	5227
16640	5199
16896	5174
17152	5146
17408	5095
17664	5071
17920	5052
18176	5017
18432	4978
18688	4954
18944	4937
19200	4908
19456	4864
19712	4840
19968	4826
20224	4804
20480	4769
20736	4743
20992	4185
21248	4017
21504	3986
21760	3953
22016	3933
22272	3916
22528	3885
22784	3867
23040	3851
23296	3828
23552	3804
23808	3793
24064	3778
24320	3753
24576	3720
24832	3702
25088	3685
25344	3672
25600	3652
25856	3641
26112	3629
26368	3615
26624	3590
26880	3578
27136	3562
27392	3546
27648	3534
27904	3315
28160	3105
28416	3088
28672	3059
28928	3037
29184	3027
29440	3017
29696	3002
29952	2991
30208	2984
30464	2966
30720	2951
30976	2942
31232	2926
31488	2914
31744	2903
32000	2890
32256	2885
32512	2879
32768	2861
33280	2846
33792	2822
34304	2798
34816	2676
35328	2479
35840	2459
36352	2436
36864	2415
37376	2395
37888	2381
38400	2362
38912	2347
39424	2324
39936	2310
40448	2293
40960	2269
41472	2252
41984	2061
42496	2047
43008	2023
43520	2015
44032	1998
44544	1988
45056	1968
45568	1958
46080	1943
46592	1936
47104	1921
47616	1906
48128	1895
48640	1881
49152	1702
49664	1686
50176	1667
50688	1658
51200	1646
51712	1638
52224	1626
52736	1617
53248	1603
53760	1593
54272	1586
54784	1571
55296	1559
55808	1464
56320	1447
56832	1436
57344	1421
57856	1408
58368	1402
58880	1393
59392	1383
59904	1375
60416	1369
60928	1359
61440	1343
61952	1335
62464	1326
62976	1261
63488	1253
64000	1247
64512	1238
65024	1233
65536	1224
66560	1209
67584	1189
68608	1176
69632	1131
70656	1117
71680	1101
72704	1095
73728	1079
74752	1064
75776	1048
76800	1031
77824	1014
78848	1008
79872	1000
80896	991
81920	977
82944	973
83968	961
84992	953
86016	928
87040	919
88064	914
89088	909
90112	901
91136	894
92160	890
93184	885
94208	878
95232	872
96256	861
97280	853
98304	836
99328	830
100352	825
101376	821
102400	808
103424	803
104448	794
105472	784
106496	777
107520	768
108544	764
109568	762
110592	753
111616	749
112640	747
113664	742
114688	739
115712	735
116736	731
117760	725
118784	718
119808	715
120832	709
121856	701
122880	694
123904	686
124928	683
125952	677
126976	670
128000	663
129024	662
130048	659
131072	653
133120	644
135168	637
137216	631
139264	623
141312	616
143360	602
145408	597
147456	583
149504	579
151552	569
153600	564
155648	552
157696	550
159744	543
161792	539
163840	528
165888	524
167936	516
169984	513
172032	507
174080	501
176128	492
178176	488
180224	483
182272	482
184320	471
186368	468
188416	464
190464	461
192512	453
194560	448
196608	441
198656	437
200704	436
202752	434
204800	433
206848	429
208896	421
210944	417
212992	411
215040	410
217088	405
219136	403
221184	401
223232	400
225280	399
227328	398
229376	389
231424	387
233472	382
235520	382
237568	380
239616	378
241664	373
243712	369
245760	367
247808	363
249856	359
251904	357
253952	354
256000	354
258048	351
260096	350
262144	347
266240	344
270336	343
274432	335
278528	330
282624	327
286720	325
290816	322
294912	312
299008	308
303104	304
307200	297
311296	294
315392	290
319488	288
323584	283
327680	275
331776	272
335872	268
339968	266
344064	261
348160	257
352256	254
356352	251
360448	250
364544	244
368640	238
372736	232
376832	230
380928	227
385024	227
389120	223
393216	218
397312	217
401408	215
405504	212
409600	209
413696	207
417792	206
421888	203
425984	203
430080	200
434176	199
438272	197
442368	194
446464	194
450560	193
454656	193
458752	189
462848	188
466944	186
471040	184
475136	183
479232	182
483328	179
487424	174
491520	172
495616	170
499712	170
503808	165
507904	163
512000	160
516096	160
520192	158
524288	155
532480	154
540672	153
548864	150
557056	145
565248	137
573440	128
581632	123
589824	115
598016	112
606208	111
614400	108
622592	106
630784	104
638976	100
647168	99
655360	96
663552	91
671744	91
679936	87
688128	85
696320	85
704512	85
712704	81
720896	78
729088	78
737280	76
745472	74
753664	73
761856	73
770048	73
778240	71
786432	71
794624	71
802816	70
811008	70
819200	69
827392	66
835584	66
843776	65
851968	64
860160	64
868352	61
876544	59
884736	59
892928	59
901120	59
909312	56
917504	56
925696	56
933888	55
942080	55
950272	55
958464	55
966656	55
974848	54
983040	54
991232	54
999424	54
1007616	53
1015808	51
1024000	51
1032192	51
1040384	51
1048576	50
1064960	50
1081344	49
1097728	48
1114112	48
1130496	48
1146880	45
1163264	45
1179648	44
1196032	36
1212416	20
1228800	14
1245184	8
1261568	7
1277952	3
1294336	3
1310720	3
1327104	1
1343488	1
1359872	1
1376256	0
1392640	0
1409024	0
1425408	0
1441792	0
1458176	0
1474560	0
1490944	0
1507328	0
1523712	0
1540096	0
1556480	0
1572864	0
1589248	0
1605632	0
1622016	0
1638400	0
1654784	0
1671168	0
1687552	0
1703936	0
1720320	0
1736704	0
1753088	0
1769472	0
1785856	0
1802240	0
1818624	0
1835008	0
1851392	0
1867776	0
1884160	0
1900544	0
1916928	0
1933312	0
1949696	0
1966080	0
1982464	0
1998848	0
2015232	0
2031616	0
2048000	0
2064384	0
2080768	0
2097152	0
2129920	0
2162688	0
2195456	0
2228224	0
2260992	0
2293760	0
2326528	0
2359296	0
2392064	0
2424832	0
2457600	0
2490368	0
2523136	0
2555904	0
2588672	0
2621440	0
2654208	0
2686976	0
2719744	0
2752512	0
2785280	0
2818048	0
2850816	0
2883584	0
2916352	0
2949120	0
2981888	0
3014656	0
3047424	0
3080192	0
3112960	0
3145728	0
3178496	0
3211264	0
3244032	0
3276800	0
3309568	0
3342336	0
3375104	0
3407872	0
3440640	0
3473408	0
3506176	0
3538944	0
3571712	0
3604480	0
3637248	0
3670016	0
3702784	0
3735552	0
3768320	0
3801088	0
3833856	0
3866624	0
3899392	0
3932160	0
3964928	0
3997696	0
4030464	0
4063232	0
4096000	0
4128768	0
4161536	0
4194304	0
4259840	0
4325376	0
4390912	0
4456448	0
4521984	0
4587520	0
4653056	0
4718592	0
4784128	0
4849664	0
4915200	0
4980736	0
5046272	0
5111808	0
5177344	0
5242880	0
5308416	0
5373952	0
5439488	0
5505024	0
5570560	0
5636096	0
5701632	0
5767168	0
5832704	0
5898240	0
5963776	0
6029312	0
6094848	0
6160384	0
6225920	0
6291456	0
6356992	0
6422528	0
6488064	0
6553600	0
6619136	0
6684672	0
6750208	0
6815744	0
6881280	0
6946816	0
7012352	0
7077888	0
7143424	0
7208960	0
7274496	0
7340032	0
7405568	0
7471104	0
7536640	0
7602176	0
7667712	0
7733248	0
7798784	0
7864320	0
7929856	0
7995392	0
8060928	0
8126464	0
8192000	0
8257536	0
8323072	0
8388608	0
8519680	0
8650752	0
8781824	0
8912896	0
9043968	0
9175040	0
9306112	0
9437184	0
9568256	0
9699328	0
9830400	0
9961472	0
10092544	0
10223616	0
10354688	0
10485760	0
10616832	0
10747904	0
10878976	0
11010048	0
11141120	0
11272192	0
11403264	0
11534336	0
11665408	0
11796480	0
11927552	0
12058624	0
12189696	0
12320768	0
12451840	0
12582912	0
12713984	0
12845056	0
12976128	0
13107200	0
13238272	0
13369344	0
13500416	0
13631488	0
13762560	0
13893632	0
14024704	0
14155776	0
14286848	0
14417920	0
14548992	0
14680064	0
14811136	0
14942208	0
15073280	0
15204352	0
15335424	0
15466496	0
15597568	0
15728640	0
15859712	0
15990784	0
16121856	0
16252928	0
16384000	0
16515072	0
16646144	0
16777216	0
17039360	0
17301504	0
17563648	0
17825792	0
18087936	0
18350080	0
18612224	0
18874368	0
19136512	0
19398656	0
19660800	0
19922944	0
20185088	0
20447232	0
20709376	0
20971520	0
21233664	0
21495808	0
21757952	0
22020096	0
22282240	0
22544384	0
22806528	0
23068672	0
23330816	0
23592960	0
23855104	0
24117248	0
24379392	0
24641536	0
24903680	0
25165824	0
25427968	0
25690112	0
25952256	0
26214400	0
26476544	0
26738688	0
27000832	0
27262976	0
27525120	0
27787264	0
28049408	0
28311552	0
28573696	0
28835840	0
29097984	0
29360128	0
29622272	0
29884416	0
30146560	0
30408704	0
30670848	0
30932992	0
31195136	0
31457280	0
31719424	0
31981568	0
32243712	0
32505856	0
32768000	0
33030144	0
33292288	0
33554432	0
34078720	0
34603008	0
35127296	0
35651584	0
36175872	0
36700160	0
37224448	0
37748736	0
38273024	0
38797312	0
39321600	0
39845888	0
40370176	0
40894464	0
41418752	0
41943040	0
42467328	0
42991616	0
43515904	0
44040192	0
44564480	0
45088768	0
45613056	0
46137344	0
46661632	0
47185920	0
47710208	0
48234496	0
48758784	0
49283072	0
49807360	0
50331648	0
50855936	0
51380224	0
51904512	0
52428800	0
52953088	0
53477376	0
54001664	0
54525952	0
55050240	0
55574528	0
56098816	0
56623104	0
57147392	0
57671680	0
58195968	0
58720256	0
59244544	0
59768832	0
60293120	0
60817408	0
61341696	0
61865984	0
62390272	0
62914560	0
63438848	0
63963136	0
64487424	0
65011712	0
65536000	0
66060288	0
66584576	0
67108864	0
68157440	0
69206016	0
70254592	0
71303168	0
72351744	0
73400320	0
74448896	0
75497472	0
76546048	0
77594624	0
78643200	0
79691776	0
80740352	0
81788928	0
82837504	0
83886080	0
84934656	0
85983232	0
87031808	0
88080384	0
89128960	0
90177536	0
91226112	0
92274688	0
93323264	0
94371840	0
95420416	0
96468992	0
97517568	0
98566144	0
99614720	0
100663296	0
101711872	0
102760448	0
103809024	0
104857600	0
105906176	0
106954752	0
108003328	0
109051904	0
110100480	0
111149056	0
112197632	0
113246208	0
114294784	0
115343360	0
116391936	0
117440512	0
118489088	0
119537664	0
120586240	0
121634816	0
122683392	0
123731968	0
124780544	0
125829120	0
126877696	0
127926272	0
128974848	0
130023424	0
131072000	0
132120576	0
133169152	0
134217728	0
136314880	0
138412032	0
140509184	0
142606336	0
144703488	0
146800640	0
148897792	0
150994944	0
153092096	0
155189248	0
157286400	0
159383552	0
161480704	0
163577856	0
165675008	0
167772160	0
169869312	0
171966464	0
174063616	0
176160768	0
178257920	0
180355072	0
182452224	0
184549376	0
186646528	0
188743680	0
190840832	0
192937984	0
195035136	0
197132288	0
199229440	0
201326592	0
203423744	0
205520896	0
207618048	0
209715200	0
211812352	0
213909504	0
216006656	0
218103808	0
220200960	0
222298112	0
224395264	0
226492416	0
228589568	0
230686720	0
232783872	0
234881024	0
236978176	0
239075328	0
241172480	0
243269632	0
245366784	0
247463936	0
249561088	0
251658240	0
253755392	0
255852544	0
257949696	0
260046848	0
262144000	0
264241152	0
266338304	0
268435456	0
272629760	0
276824064	0
281018368	0
285212672	0
289406976	0
293601280	0
297795584	0
301989888	0
306184192	0
310378496	0
314572800	0
318767104	0
322961408	0
327155712	0
331350016	0
335544320	0
339738624	0
343932928	0
348127232	0
352321536	0
356515840	0
360710144	0
364904448	0
369098752	0
373293056	0
377487360	0
381681664	0
385875968	0
390070272	0
394264576	0
398458880	0
402653184	0
406847488	0
411041792	0
415236096	0
419430400	0
423624704	0
427819008	0
432013312	0
436207616	0
440401920	0
444596224	0
448790528	0
452984832	0
457179136	0
461373440	0
465567744	0
469762048	0
473956352	0
478150656	0
482344960	0
486539264	0
490733568	0
494927872	0
499122176	0
503316480	0
507510784	0
511705088	0
515899392	0
520093696	0
524288000	0
528482304	0
532676608	0
536870912	0
545259520	0
553648128	0
562036736	0
570425344	0
578813952	0
587202560	0
595591168	0
603979776	0
612368384	0
620756992	0
629145600	0
637534208	0
645922816	0
654311424	0
662700032	0
671088640	0
679477248	0
687865856	0
696254464	0
704643072	0
713031680	0
721420288	0
729808896	0
738197504	0
746586112	0
754974720	0
763363328	0
771751936	0
780140544	0
788529152	0
796917760	0
805306368	0
813694976	0
822083584	0
830472192	0
838860800	0
847249408	0
855638016	0
864026624	0
872415232	0
880803840	0
889192448	0
897581056	0
905969664	0
914358272	0
922746880	0
931135488	0
939524096	0
947912704	0
956301312	0
964689920	0
973078528	0
981467136	0
989855744	0
998244352	0
1006632960	0
1015021568	0
1023410176	0
1031798784	0
1040187392	0
1048576000	0
1056964608	0
1065353216	0
1073741824	0
1090519040	0
1107296256	0
1124073472	0
1140850688	0
1157627904	0
1174405120	0
1191182336	0
1207959552	0
1224736768	0
1241513984	0
1258291200	0
1275068416	0
1291845632	0
1308622848	0
1325400064	0
1342177280	0
1358954496	0
1375731712	0
1392508928	0
1409286144	0
1426063360	0
1442840576	0
1459617792	0
1476395008	0
1493172224	0
1509949440	0
1526726656	0
1543503872	0
1560281088	0
1577058304	0
1593835520	0
1610612736	0
1627389952	0
1644167168	0
1660944384	0
1677721600	0
1694498816	0
1711276032	0
1728053248	0
1744830464	0
1761607680	0
1778384896	0
1795162112	0
1811939328	0
1828716544	0
1845493760	0
1862270976	0
1879048192	0
1895825408	0
1912602624	0
1929379840	0
1946157056	0
1962934272	0
1979711488	0
1996488704	0
2013265920	0
2030043136	0
2046820352	0
2063597568	0
2080374784	0
2097152000	0
2113929216	0
2130706432	0
2147483648	0
2181038080	0
2214592512	0
2248146944	0
2281701376	0
2315255808	0
2348810240	0
2382364672	0
2415919104	0
2449473536	0
2483027968	0
2516582400	0
2550136832	0
2583691264	0
2617245696	0
2650800128	0
2684354560	0
2717908992	0
2751463424	0
2785017856	0
2818572288	0
2852126720	0
2885681152	0
2919235584	0
2952790016	0
2986344448	0
3019898880	0
3053453312	0
3087007744	0
3120562176	0
3154116608	0
3187671040	0
3221225472	0
3254779904	0
3288334336	0
3321888768	0
3355443200	0
3388997632	0
3422552064	0
3456106496	0
3489660928	0
3523215360	0
3556769792	0
3590324224	0
3623878656	0
3657433088	0
3690987520	0
3724541952	0
3758096384	0
3791650816	0
3825205248	0
3858759680	0
3892314112	0
3925868544	0
3959422976	0
3992977408	0
4026531840	0
4060086272	0
4093640704	0
4127195136	0
4160749568	0
4194304000	0
4227858432	0
4261412864	0
4294967296	0
4362076160	0
4429185024	0
4496293888	0
4563402752	0
4630511616	0
4697620480	0
4764729344	0
4831838208	0
4898947072	0
4966055936	0
5033164800	0
5100273664	0
5167382528	0
5234491392	0
5301600256	0
5368709120	0
5435817984	0
5502926848	0
5570035712	0
5637144576	0
5704253440	0
5771362304	0
5838471168	0
5905580032	0
5972688896	0
6039797760	0
6106906624	0
6174015488	0
6241124352	0
6308233216	0
6375342080	0
6442450944	0
6509559808	0
6576668672	0
6643777536	0
6710886400	0
6777995264	0
6845104128	0
6912212992	0
6979321856	0
7046430720	0
7113539584	0
7180648448	0
7247757312	0
7314866176	0
7381975040	0
7449083904	0
7516192768	0
7583301632	0
7650410496	0
7717519360	0
7784628224	0
7851737088	0
7918845952	0
7985954816	0
8053063680	0
8120172544	0
8187281408	0
8254390272	0
8321499136	0
8388608000	0
8455716864	0
8522825728	0
8589934592	0
8724152320	0
8858370048	0
8992587776	0
9126805504	0
9261023232	0
9395240960	0
9529458688	0
9663676416	0
9797894144	0
9932111872	0
10066329600	0
10200547328	0
10334765056	0
10468982784	0
10603200512	0
10737418240	0
10871635968	0
11005853696	0
11140071424	0
11274289152	0
11408506880	0
11542724608	0
11676942336	0
11811160064	0
11945377792	0
12079595520	0
12213813248	0
12348030976	0
12482248704	0
12616466432	0
12750684160	0
12884901888	0
13019119616	0
13153337344	0
13287555072	0
13421772800	0
13555990528	0
13690208256	0
13824425984	0
13958643712	0
14092861440	0
14227079168	0
14361296896	0
14495514624	0
14629732352	0
14763950080	0
14898167808	0
15032385536	0
15166603264	0
15300820992	0
15435038720	0
15569256448	0
15703474176	0
15837691904	0
15971909632	0
16106127360	0
16240345088	0
16374562816	0
16508780544	0
16642998272	0
16777216000	0
16911433728	0
17045651456	0
17179869184	0
17448304640	0
17716740096	0
17985175552	0
18253611008	0
18522046464	0
18790481920	0
19058917376	0
19327352832	0
19595788288	0
19864223744	0
20132659200	0
20401094656	0
20669530112	0
20937965568	0
21206401024	0
21474836480	0
21743271936	0
22011707392	0
22280142848	0
22548578304	0
22817013760	0
23085449216	0
23353884672	0
23622320128	0
23890755584	0
24159191040	0
24427626496	0
24696061952	0
24964497408	0
25232932864	0
25501368320	0
25769803776	0
26038239232	0
26306674688	0
26575110144	0
26843545600	0
27111981056	0
27380416512	0
27648851968	0
27917287424	0
28185722880	0
28454158336	0
28722593792	0
28991029248	0
29259464704	0
29527900160	0
29796335616	0
30064771072	0
30333206528	0
30601641984	0
30870077440	0
31138512896	0
31406948352	0
31675383808	0
31943819264	0
32212254720	0
32480690176	0
32749125632	0
33017561088	0
33285996544	0
33554432000	0
33822867456	0
34091302912	0
34359738368	0
34896609280	0
35433480192	0
35970351104	0
36507222016	0
37044092928	0
37580963840	0
38117834752	0
38654705664	0
39191576576	0
39728447488	0
40265318400	0
40802189312	0
41339060224	0
41875931136	0
42412802048	0
42949672960	0
43486543872	0
44023414784	0
44560285696	0
45097156608	0
45634027520	0
46170898432	0
46707769344	0
47244640256	0
47781511168	0
48318382080	0
48855252992	0
49392123904	0
49928994816	0
50465865728	0
51002736640	0
51539607552	0
52076478464	0
52613349376	0
53150220288	0
53687091200	0
54223962112	0
54760833024	0
55297703936	0
55834574848	0
56371445760	0
56908316672	0
57445187584	0
57982058496	0
58518929408	0
59055800320	0
59592671232	0
60129542144	0
60666413056	0
61203283968	0
61740154880	0
62277025792	0
62813896704	0
63350767616	0
63887638528	0
64424509440	0
64961380352	0
65498251264	0
66035122176	0
66571993088	0
67108864000	0
67645734912	0
68182605824	0
68719476736	0
69793218560	0
70866960384	0
71940702208	0
73014444032	0
74088185856	0
75161927680	0
76235669504	0
77309411328	0
78383153152	0
79456894976	0
80530636800	0
81604378624	0
82678120448	0
83751862272	0
84825604096	0
85899345920	0
86973087744	0
88046829568	0
89120571392	0
90194313216	0
91268055040	0
92341796864	0
93415538688	0
94489280512	0
95563022336	0
96636764160	0
97710505984	0
98784247808	0
99857989632	0
100931731456	0
102005473280	0
103079215104	0
104152956928	0
105226698752	0
106300440576	0
107374182400	0
108447924224	0
109521666048	0
110595407872	0
111669149696	0
112742891520	0
113816633344	0
114890375168	0
115964116992	0
117037858816	0
118111600640	0
119185342464	0
120259084288	0
121332826112	0
122406567936	0
123480309760	0
124554051584	0
125627793408	0
126701535232	0
127775277056	0
128849018880	0
129922760704	0
130996502528	0
132070244352	0
133143986176	0
134217728000	0
135291469824	0
136365211648	0
137438953472	0
139586437120	0
141733920768	0
143881404416	0
146028888064	0
148176371712	0
150323855360	0
152471339008	0
154618822656	0
156766306304	0
158913789952	0
161061273600	0
163208757248	0
165356240896	0
167503724544	0
169651208192	0
171798691840	0
173946175488	0
176093659136	0
178241142784	0
180388626432	0
182536110080	0
184683593728	0
186831077376	0
188978561024	0
191126044672	0
193273528320	0
195421011968	0
197568495616	0
199715979264	0
201863462912	0
204010946560	0
206158430208	0
208305913856	0
210453397504	0
212600881152	0
214748364800	0
216895848448	0
219043332096	0
221190815744	0
223338299392	0
225485783040	0
227633266688	0
229780750336	0
231928233984	0
234075717632	0
236223201280	0
238370684928	0
240518168576	0
242665652224	0
244813135872	0
246960619520	0
249108103168	0
251255586816	0
253403070464	0
255550554112	0
257698037760	0
259845521408	0
261993005056	0
264140488704	0
266287972352	0
268435456000	0
270582939648	0
272730423296	0
274877906944	0
279172874240	0
283467841536	0
287762808832	0
292057776128	0
296352743424	0
300647710720	0
304942678016	0
309237645312	0
313532612608	0
317827579904	0
322122547200	0
326417514496	0
330712481792	0
335007449088	0
339302416384	0
343597383680	0
347892350976	0
352187318272	0
356482285568	0
360777252864	0
365072220160	0
369367187456	0
373662154752	0
377957122048	0
382252089344	0
386547056640	0
390842023936	0
395136991232	0
399431958528	0
403726925824	0
408021893120	0
412316860416	0
416611827712	0
420906795008	0
425201762304	0
429496729600	0
433791696896	0
438086664192	0
442381631488	0
446676598784	0
450971566080	0
455266533376	0
459561500672	0
463856467968	0
468151435264	0
472446402560	0
476741369856	0
481036337152	0
485331304448	0
489626271744	0
493921239040	0
498216206336	0
502511173632	0
506806140928	0
511101108224	0
515396075520	0
519691042816	0
523986010112	0
528280977408	0
532575944704	0
536870912000	0
541165879296	0
545460846592	0
549755813888	0
558345748480	0
566935683072	0
575525617664	0
584115552256	0
592705486848	0
601295421440	0
609885356032	0
618475290624	0
627065225216	0
635655159808	0
644245094400	0
652835028992	0
661424963584	0
670014898176	0
678604832768	0
687194767360	0
695784701952	0
704374636544	0
712964571136	0
721554505728	0
730144440320	0
738734374912	0
747324309504	0
755914244096	0
764504178688	0
773094113280	0
781684047872	0
790273982464	0
798863917056	0
807453851648	0
816043786240	0
824633720832	0
833223655424	0
841813590016	0
850403524608	0
858993459200	0
867583393792	0
876173328384	0
884763262976	0
893353197568	0
901943132160	0
910533066752	0
919123001344	0
927712935936	0
936302870528	0
944892805120	0
953482739712	0
962072674304	0
970662608896	0
979252543488	0
987842478080	0
996432412672	0
1005022347264	0
1013612281856	0
1022202216448	0
1030792151040	0
1039382085632	0
1047972020224	0
1056561954816	0
1065151889408	0
1073741824000	0
1082331758592	0
1090921693184	0
1099511627776	0
1116691496960	0
1133871366144	0
1151051235328	0
1168231104512	0
1185410973696	0
1202590842880	0
1219770712064	0
1236950581248	0
1254130450432	0
1271310319616	0
1288490188800	0
1305670057984	0
1322849927168	0
1340029796352	0
1357209665536	0
1374389534720	0
1391569403904	0
1408749273088	0
1425929142272	0
1443109011456	0
1460288880640	0
1477468749824	0
1494648619008	0
1511828488192	0
1529008357376	0
1546188226560	0
1563368095744	0
1580547964928	0
1597727834112	0
1614907703296	0
1632087572480	0
1649267441664	0
1666447310848	0
1683627180032	0
1700807049216	0
1717986918400	0
1735166787584	0
1752346656768	0
1769526525952	0
1786706395136	0
1803886264320	0
1821066133504	0
1838246002688	0
1855425871872	0
1872605741056	0
1889785610240	0
1906965479424	0
1924145348608	0
1941325217792	0
1958505086976	0
1975684956160	0
1992864825344	0
2010044694528	0
2027224563712	0
2044404432896	0
2061584302080	0
2078764171264	0
2095944040448	0
2113123909632	0
2130303778816	0
2147483648000	0
2164663517184	0
2181843386368	0
2199023255552	0
2233382993920	0
2267742732288	0
2302102470656	0
2336462209024	0
2370821947392	0
2405181685760	0
2439541424128	0
2473901162496	0
2508260900864	0
2542620639232	0
2576980377600	0
2611340115968	0
2645699854336	0
2680059592704	0
2714419331072	0
2748779069440	0
2783138807808	0
2817498546176	0
2851858284544	0
2886218022912	0
2920577761280	0
2954937499648	0
2989297238016	0
3023656976384	0
3058016714752	0
3092376453120	0
3126736191488	0
3161095929856	0
3195455668224	0
3229815406592	0
3264175144960	0
3298534883328	0
3332894621696	0
3367254360064	0
3401614098432	0
3435973836800	0
3470333575168	0
3504693313536	0
3539053051904	0
3573412790272	0
3607772528640	0
3642132267008	0
3676492005376	0
3710851743744	0
3745211482112	0
3779571220480	0
3813930958848	0
3848290697216	0
3882650435584	0
3917010173952	0
3951369912320	0
3985729650688	0
4020089389056	0
4054449127424	0
4088808865792	0
4123168604160	0
4157528342528	0
4191888080896	0
4226247819264	0
4260607557632	0
4294967296000	0
4329327034368	0
4363686772736	0
4398046511104	0
4466765987840	0
4535485464576	0
4604204941312	0
4672924418048	0
4741643894784	0
4810363371520	0
4879082848256	0
4947802324992	0
5016521801728	0
5085241278464	0
5153960755200	0
5222680231936	0
5291399708672	0
5360119185408	0
5428838662144	0
5497558138880	0
5566277615616	0
5634997092352	0
5703716569088	0
5772436045824	0
5841155522560	0
5909874999296	0
5978594476032	0
6047313952768	0
6116033429504	0
6184752906240	0
6253472382976	0
6322191859712	0
6390911336448	0
6459630813184	0
6528350289920	0
6597069766656	0
6665789243392	0
6734508720128	0
6803228196864	0
6871947673600	0
6940667150336	0
7009386627072	0
7078106103808	0
7146825580544	0
7215545057280	0
7284264534016	0
7352984010752	0
7421703487488	0
7490422964224	0
7559142440960	0
7627861917696	0
7696581394432	0
7765300871168	0
7834020347904	0
7902739824640	0
7971459301376	0
8040178778112	0
8108898254848	0
8177617731584	0
8246337208320	0
8315056685056	0
8383776161792	0
8452495638528	0
8521215115264	0
8589934592000	0
8658654068736	0
8727373545472	0
8796093022208	0
8933531975680	0
9070970929152	0
9208409882624	0
9345848836096	0
9483287789568	0
9620726743040	0
9758165696512	0
9895604649984	0
10033043603456	0
10170482556928	0
10307921510400	0
10445360463872	0
10582799417344	0
10720238370816	0
10857677324288	0
10995116277760	0
11132555231232	0
11269994184704	0
11407433138176	0
11544872091648	0
11682311045120	0
11819749998592	0
11957188952064	0
12094627905536	0
12232066859008	0
12369505812480	0
12506944765952	0
12644383719424	0
12781822672896	0
12919261626368	0
13056700579840	0
13194139533312	0
13331578486784	0
13469017440256	0
13606456393728	0
13743895347200	0
13881334300672	0
14018773254144	0
14156212207616	0
14293651161088	0
14431090114560	0
14568529068032	0
14705968021504	0
14843406974976	0
14980845928448	0
15118284881920	0
15255723835392	0
15393162788864	0
15530601742336	0
15668040695808	0
15805479649280	0
15942918602752	0
16080357556224	0
16217796509696	0
16355235463168	0
16492674416640	0
16630113370112	0
16767552323584	0
16904991277056	0
17042430230528	0
17179869184000	0
17317308137472	0
17454747090944	0
17592186044416	0
17867063951360	0
18141941858304	0
18416819765248	0
18691697672192	0
18966575579136	0
19241453486080	0
19516331393024	0
19791209299968	0
20066087206912	0
20340965113856	0
20615843020800	0
20890720927744	0
21165598834688	0
21440476741632	0
21715354648576	0
21990232555520	0
22265110462464	0
22539988369408	0
22814866276352	0
23089744183296	0
23364622090240	0
23639499997184	0
23914377904128	0
24189255811072	0
24464133718016	0
24739011624960	0
25013889531904	0
25288767438848	0
25563645345792	0
25838523252736	0
26113401159680	0
26388279066624	0
26663156973568	0
26938034880512	0
27212912787456	0
27487790694400	0
27762668601344	0
28037546508288	0
28312424415232	0
28587302322176	0
28862180229120	0
29137058136064	0
29411936043008	0
29686813949952	0
29961691856896	0
30236569763840	0
30511447670784	0
30786325577728	0
31061203484672	0
31336081391616	0
31610959298560	0
31885837205504	0
32160715112448	0
32435593019392	0
32710470926336	0
32985348833280	0
33260226740224	0
33535104647168	0
33809982554112	0
34084860461056	0
34359738368000	0
34634616274944	0
34909494181888	0
35184372088832	0
35734127902720	0
36283883716608	0
36833639530496	0
37383395344384	0
37933151158272	0
38482906972160	0
39032662786048	0
39582418599936	0
40132174413824	0
40681930227712	0
41231686041600	0
41781441855488	0
42331197669376	0
42880953483264	0
43430709297152	0
43980465111040	0
44530220924928	0
45079976738816	0
45629732552704	0
46179488366592	0
46729244180480	0
47278999994368	0
47828755808256	0
48378511622144	0
48928267436032	0
49478023249920	0
50027779063808	0
50577534877696	0
51127290691584	0
51677046505472	0
52226802319360	0
52776558133248	0
53326313947136	0
53876069761024	0
54425825574912	0
54975581388800	0
55525337202688	0
56075093016576	0
56624848830464	0
57174604644352	0
57724360458240	0
58274116272128	0
58823872086016	0
59373627899904	0
59923383713792	0
60473139527680	0
61022895341568	0
61572651155456	0
62122406969344	0
62672162783232	0
63221918597120	0
63771674411008	0
64321430224896	0
64871186038784	0
65420941852672	0
65970697666560	0
66520453480448	0
67070209294336	0
67619965108224	0
68169720922112	0
68719476736000	0
69269232549888	0
69818988363776	0
70368744177664	0
71468255805440	0
72567767433216	0
73667279060992	0
74766790688768	0
75866302316544	0
76965813944320	0
78065325572096	0
79164837199872	0
80264348827648	0
81363860455424	0
82463372083200	0
83562883710976	0
84662395338752	0
85761906966528	0
86861418594304	0
87960930222080	0
89060441849856	0
90159953477632	0
91259465105408	0
92358976733184	0
93458488360960	0
94557999988736	0
95657511616512	0
96757023244288	0
97856534872064	0
98956046499840	0
100055558127616	0
101155069755392	0
102254581383168	0
103354093010944	0
104453604638720	0
105553116266496	0
106652627894272	0
107752139522048	0
108851651149824	0
109951162777600	0
111050674405376	0
112150186033152	0
113249697660928	0
114349209288704	0
115448720916480	0
116548232544256	0
117647744172032	0
118747255799808	0
119846767427584	0
120946279055360	0
122045790683136	0
123145302310912	0
124244813938688	0
125344325566464	0
126443837194240	0
127543348822016	0
128642860449792	0
129742372077568	0
130841883705344	0
131941395333120	0
133040906960896	0
134140418588672	0
135239930216448	0
136339441844224	0
137438953472000	0
138538465099776	0
139637976727552	0
140737488355328	0
142936511610880	0
145135534866432	0
147334558121984	0
149533581377536	0
151732604633088	0
153931627888640	0
156130651144192	0
158329674399744	0
160528697655296	0
162727720910848	0
164926744166400	0
167125767421952	0
169324790677504	0
171523813933056	0
173722837188608	0
175921860444160	0
178120883699712	0
180319906955264	0
182518930210816	0
184717953466368	0
186916976721920	0
189115999977472	0
191315023233024	0
193514046488576	0
195713069744128	0
197912092999680	0
200111116255232	0
202310139510784	0
204509162766336	0
206708186021888	0
208907209277440	0
211106232532992	0
213305255788544	0
215504279044096	0
217703302299648	0
219902325555200	0
222101348810752	0
224300372066304	0
226499395321856	0
228698418577408	0
230897441832960	0
233096465088512	0
235295488344064	0
237494511599616	0
239693534855168	0
241892558110720	0
244091581366272	0
246290604621824	0
248489627877376	0
250688651132928	0
252887674388480	0
255086697644032	0
257285720899584	0
259484744155136	0
261683767410688	0
263882790666240	0
266081813921792	0
268280837177344	0
270479860432896	0
272678883688448	0
274877906944000	0
277076930199552	0
279275953455104	0
281474976710656	0
285873023221760	0
290271069732864	0
294669116243968	0
299067162755072	0
303465209266176	0
307863255777280	0
312261302288384	0
316659348799488	0
321057395310592	0
325455441821696	0
329853488332800	0
334251534843904	0
338649581355008	0
343047627866112	0
347445674377216	0
351843720888320	0
356241767399424	0
360639813910528	0
365037860421632	0
369435906932736	0
373833953443840	0
378231999954944	0
382630046466048	0
387028092977152	0
391426139488256	0
395824185999360	0
400222232510464	0
404620279021568	0
409018325532672	0
413416372043776	0
417814418554880	0
422212465065984	0
426610511577088	0
431008558088192	0
435406604599296	0
439804651110400	0
444202697621504	0
448600744132608	0
452998790643712	0
457396837154816	0
461794883665920	0
466192930177024	0
470590976688128	0
474989023199232	0
479387069710336	0
483785116221440	0
488183162732544	0
492581209243648	0
496979255754752	0
501377302265856	0
505775348776960	0
510173395288064	0
514571441799168	0
518969488310272	0
523367534821376	0
527765581332480	0
532163627843584	0
536561674354688	0
540959720865792	0
545357767376896	0
549755813888000	0
554153860399104	0
558551906910208	0
562949953421312	0
571746046443520	0
580542139465728	0
589338232487936	0
598134325510144	0
606930418532352	0
615726511554560	0
624522604576768	0
633318697598976	0
642114790621184	0
650910883643392	0
659706976665600	0
668503069687808	0
677299162710016	0
686095255732224	0
694891348754432	0
703687441776640	0
712483534798848	0
721279627821056	0
730075720843264	0
738871813865472	0
747667906887680	0
756463999909888	0
765260092932096	0
774056185954304	0
782852278976512	0
791648371998720	0
800444465020928	0
809240558043136	0
818036651065344	0
826832744087552	0
835628837109760	0
844424930131968	0
853221023154176	0
862017116176384	0
870813209198592	0
879609302220800	0
888405395243008	0
897201488265216	0
905997581287424	0
914793674309632	0
923589767331840	0
932385860354048	0
941181953376256	0
949978046398464	0
958774139420672	0
967570232442880	0
976366325465088	0
985162418487296	0
993958511509504	0
1002754604531712	0
1011550697553920	0
1020346790576128	0
1029142883598336	0
1037938976620544	0
1046735069642752	0
1055531162664960	0
1064327255687168	0
1073123348709376	0
1081919441731584	0
1090715534753792	0
1099511627776000	0
1108307720798208	0
1117103813820416	0
1125899906842624	0
1143492092887040	0
1161084278931456	0
1178676464975872	0
1196268651020288	0
1213860837064704	0
1231453023109120	0
1249045209153536	0
1266637395197952	0
1284229581242368	0
1301821767286784	0
1319413953331200	0
1337006139375616	0
1354598325420032	0
1372190511464448	0
1389782697508864	0
1407374883553280	0
1424967069597696	0
1442559255642112	0
1460151441686528	0
1477743627730944	0
1495335813775360	0
1512927999819776	0
1530520185864192	0
1548112371908608	0
1565704557953024	0
1583296743997440	0
1600888930041856	0
1618481116086272	0
1636073302130688	0
1653665488175104	0
1671257674219520	0
1688849860263936	0
1706442046308352	0
1724034232352768	0
1741626418397184	0
1759218604441600	0
1776810790486016	0
1794402976530432	0
1811995162574848	0
1829587348619264	0
1847179534663680	0
1864771720708096	0
1882363906752512	0
1899956092796928	0
1917548278841344	0
1935140464885760	0
1952732650930176	0
1970324836974592	0
1987917023019008	0
2005509209063424	0
2023101395107840	0
2040693581152256	0
2058285767196672	0
2075877953241088	0
2093470139285504	0
2111062325329920	0
2128654511374336	0
2146246697418752	0
2163838883463168	0
2181431069507584	0
2199023255552000	0
2216615441596416	0
2234207627640832	0
2251799813685248	0
2286984185774080	0
2322168557862912	0
2357352929951744	0
2392537302040576	0
2427721674129408	0
2462906046218240	0
2498090418307072	0
2533274790395904	0
2568459162484736	0
2603643534573568	0
2638827906662400	0
2674012278751232	0
2709196650840064	0
2744381022928896	0
2779565395017728	0
2814749767106560	0
2849934139195392	0
2885118511284224	0
2920302883373056	0
2955487255461888	0
2990671627550720	0
3025855999639552	0
3061040371728384	0
3096224743817216	0
3131409115906048	0
3166593487994880	0
3201777860083712	0
3236962232172544	0
3272146604261376	0
3307330976350208	0
3342515348439040	0
3377699720527872	0
3412884092616704	0
3448068464705536	0
3483252836794368	0
3518437208883200	0
3553621580972032	0
3588805953060864	0
3623990325149696	0
3659174697238528	0
3694359069327360	0
3729543441416192	0
3764727813505024	0
3799912185593856	0
3835096557682688	0
3870280929771520	0
3905465301860352	0
3940649673949184	0
3975834046038016	0
4011018418126848	0
4046202790215680	0
4081387162304512	0
4116571534393344	0
4151755906482176	0
4186940278571008	0
4222124650659840	0
4257309022748672	0
4292493394837504	0
4327677766926336	0
4362862139015168	0
4398046511104000	0
4433230883192832	0
4468415255281664	0
4503599627370496	0
4573968371548160	0
4644337115725824	0
4714705859903488	0
4785074604081152	0
4855443348258816	0
4925812092436480	0
4996180836614144	0
5066549580791808	0
5136918324969472	0
5207287069147136	0
5277655813324800	0
5348024557502464	0
5418393301680128	0
5488762045857792	0
5559130790035456	0
5629499534213120	0
5699868278390784	0
5770237022568448	0
5840605766746112	0
5910974510923776	0
5981343255101440	0
6051711999279104	0
6122080743456768	0
6192449487634432	0
6262818231812096	0
6333186975989760	0
6403555720167424	0
6473924464345088	0
6544293208522752	0
6614661952700416	0
6685030696878080	0
6755399441055744	0
6825768185233408	0
6896136929411072	0
6966505673588736	0
7036874417766400	0
7107243161944064	0
7177611906121728	0
7247980650299392	0
7318349394477056	0
7388718138654720	0
7459086882832384	0
7529455627010048	0
7599824371187712	0
7670193115365376	0
7740561859543040	0
7810930603720704	0
7881299347898368	0
7951668092076032	0
8022036836253696	0
8092405580431360	0
8162774324609024	0
8233143068786688	0
8303511812964352	0
8373880557142016	0
8444249301319680	0
8514618045497344	0
8584986789675008	0
8655355533852672	0
8725724278030336	0
8796093022208000	0
8866461766385664	0
8936830510563328	0
9007199254740992	0
9147936743096320	0
9288674231451648	0
9429411719806976	0
9570149208162304	0
9710886696517632	0
9851624184872960	0
9992361673228288	0
10133099161583616	0
10273836649938944	0
10414574138294272	0
10555311626649600	0
10696049115004928	0
10836786603360256	0
10977524091715584	0
11118261580070912	0
11258999068426240	0
11399736556781568	0
11540474045136896	0
11681211533492224	0
11821949021847552	0
11962686510202880	0
12103423998558208	0
12244161486913536	0
12384898975268864	0
12525636463624192	0
12666373951979520	0
12807111440334848	0
12947848928690176	0
13088586417045504	0
13229323905400832	0
13370061393756160	0
13510798882111488	0
13651536370466816	0
13792273858822144	0
13933011347177472	0
14073748835532800	0
14214486323888128	0
14355223812243456	0
14495961300598784	0
14636698788954112	0
14777436277309440	0
14918173765664768	0
15058911254020096	0
15199648742375424	0
15340386230730752	0
15481123719086080	0
15621861207441408	0
15762598695796736	0
15903336184152064	0
16044073672507392	0
16184811160862720	0
16325548649218048	0
16466286137573376	0
16607023625928704	0
16747761114284032	0
16888498602639360	0
17029236090994688	0
17169973579350016	0
17310711067705344	0
17451448556060672	0
17592186044416000	0
17732923532771328	0
17873661021126656	0
18014398509481984	0
18295873486192640	0
18577348462903296	0
18858823439613952	0
19140298416324608	0
19421773393035264	0
19703248369745920	0
19984723346456576	0
20266198323167232	0
20547673299877888	0
20829148276588544	0
21110623253299200	0
21392098230009856	0
21673573206720512	0
21955048183431168	0
22236523160141824	0
22517998136852480	0
22799473113563136	0
23080948090273792	0
23362423066984448	0
23643898043695104	0
23925373020405760	0
24206847997116416	0
24488322973827072	0
24769797950537728	0
25051272927248384	0
25332747903959040	0
25614222880669696	0
25895697857380352	0
26177172834091008	0
26458647810801664	0
26740122787512320	0
27021597764222976	0
27303072740933632	0
27584547717644288	0
27866022694354944	0
28147497671065600	0
28428972647776256	0
28710447624486912	0
28991922601197568	0
29273397577908224	0
29554872554618880	0
29836347531329536	0
30117822508040192	0
30399297484750848	0
30680772461461504	0
30962247438172160	0
31243722414882816	0
31525197391593472	0
31806672368304128	0
32088147345014784	0
32369622321725440	0
32651097298436096	0
32932572275146752	0
33214047251857408	0
33495522228568064	0
33776997205278720	0
34058472181989376	0
34339947158700032	0
34621422135410688	0
34902897112121344	0
35184372088832000	0
35465847065542656	0
35747322042253312	0
36028797018963968	0
36591746972385280	0
37154696925806592	0
37717646879227904	0
38280596832649216	0
38843546786070528	0
39406496739491840	0
39969446692913152	0
40532396646334464	0
41095346599755776	0
41658296553177088	0
42221246506598400	0
42784196460019712	0
43347146413441024	0
43910096366862336	0
44473046320283648	0
45035996273704960	0
45598946227126272	0
46161896180547584	0
46724846133968896	0
47287796087390208	0
47850746040811520	0
48413695994232832	0
48976645947654144	0
49539595901075456	0
50102545854496768	0
50665495807918080	0
51228445761339392	0
51791395714760704	0
52354345668182016	0
52917295621603328	0
53480245575024640	0
54043195528445952	0
54606145481867264	0
55169095435288576	0
55732045388709888	0
56294995342131200	0
56857945295552512	0
57420895248973824	0
57983845202395136	0
58546795155816448	0
59109745109237760	0
59672695062659072	0
60235645016080384	0
60798594969501696	0
61361544922923008	0
61924494876344320	0
62487444829765632	0
63050394783186944	0
63613344736608256	0
64176294690029568	0
64739244643450880	0
65302194596872192	0
65865144550293504	0
66428094503714816	0
66991044457136128	0
67553994410557440	0
68116944363978752	0
68679894317400064	0
69242844270821376	0
69805794224242688	0
70368744177664000	0
70931694131085312	0
71494644084506624	0
72057594037927936	0
73183493944770560	0
74309393851613184	0
75435293758455808	0
76561193665298432	0
77687093572141056	0
78812993478983680	0
79938893385826304	0
81064793292668928	0
82190693199511552	0
83316593106354176	0
84442493013196800	0
85568392920039424	0
86694292826882048	0
87820192733724672	0
88946092640567296	0
90071992547409920	0
91197892454252544	0
92323792361095168	0
93449692267937792	0
94575592174780416	0
95701492081623040	0
96827391988465664	0
97953291895308288	0
99079191802150912	0
100205091708993536	0
101330991615836160	0
102456891522678784	0
103582791429521408	0
104708691336364032	0
105834591243206656	0
106960491150049280	0
108086391056891904	0
109212290963734528	0
110338190870577152	0
111464090777419776	0
112589990684262400	0
113715890591105024	0
114841790497947648	0
115967690404790272	0
117093590311632896	0
118219490218475520	0
119345390125318144	0
120471290032160768	0
121597189939003392	0
122723089845846016	0
123848989752688640	0
124974889659531264	0
126100789566373888	0
127226689473216512	0
128352589380059136	0
129478489286901760	0
130604389193744384	0
131730289100587008	0
132856189007429632	0
133982088914272256	0
135107988821114880	0
136233888727957504	0
137359788634800128	0
138485688541642752	0
139611588448485376	0
140737488355328000	0
141863388262170624	0
142989288169013248	0
144115188075855872	0
146366987889541120	0
148618787703226368	0
150870587516911616	0
153122387330596864	0
155374187144282112	0
157625986957967360	0
159877786771652608	0
162129586585337856	0
164381386399023104	0
166633186212708352	0
168884986026393600	0
171136785840078848	0
173388585653764096	0
175640385467449344	0
177892185281134592	0
180143985094819840	0
182395784908505088	0
184647584722190336	0
186899384535875584	0
189151184349560832	0
191402984163246080	0
193654783976931328	0
195906583790616576	0
198158383604301824	0
200410183417987072	0
202661983231672320	0
204913783045357568	0
207165582859042816	0
209417382672728064	0
211669182486413312	0
213920982300098560	0
216172782113783808	0
218424581927469056	0
220676381741154304	0
222928181554839552	0
225179981368524800	0
227431781182210048	0
229683580995895296	0
231935380809580544	0
234187180623265792	0
236438980436951040	0
238690780250636288	0
240942580064321536	0
243194379878006784	0
245446179691692032	0
247697979505377280	0
249949779319062528	0
252201579132747776	0
254453378946433024	0
256705178760118272	0
258956978573803520	0
261208778387488768	0
263460578201174016	0
265712378014859264	0
267964177828544512	0
270215977642229760	0
272467777455915008	0
274719577269600256	0
276971377083285504	0
279223176896970752	0
281474976710656000	0
283726776524341248	0
285978576338026496	0
288230376151711744	0
292733975779082240	0
297237575406452736	0
301741175033823232	0
306244774661193728	0
310748374288564224	0
315251973915934720	0
319755573543305216	0
324259173170675712	0
328762772798046208	0
333266372425416704	0
337769972052787200	0
342273571680157696	0
346777171307528192	0
351280770934898688	0
355784370562269184	0
360287970189639680	0
364791569817010176	0
369295169444380672	0
373798769071751168	0
378302368699121664	0
382805968326492160	0
387309567953862656	0
391813167581233152	0
396316767208603648	0
400820366835974144	0
405323966463344640	0
409827566090715136	0
414331165718085632	0
418834765345456128	0
423338364972826624	0
427841964600197120	0
432345564227567616	0
436849163854938112	0
441352763482308608	0
445856363109679104	0
450359962737049600	0
454863562364420096	0
459367161991790592	0
463870761619161088	0
468374361246531584	0
472877960873902080	0
477381560501272576	0
481885160128643072	0
486388759756013568	0
490892359383384064	0
495395959010754560	0
499899558638125056	0
504403158265495552	0
508906757892866048	0
513410357520236544	0
517913957147607040	0
522417556774977536	0
526921156402348032	0
531424756029718528	0
535928355657089024	0
540431955284459520	0
544935554911830016	0
549439154539200512	0
553942754166571008	0
558446353793941504	0
562949953421312000	0
567453553048682496	0
571957152676052992	0
576460752303423488	0
585467951558164480	0
594475150812905472	0
603482350067646464	0
612489549322387456	0
621496748577128448	0
630503947831869440	0
639511147086610432	0
648518346341351424	0
657525545596092416	0
666532744850833408	0
675539944105574400	0
684547143360315392	0
693554342615056384	0
702561541869797376	0
711568741124538368	0
720575940379279360	0
729583139634020352	0
738590338888761344	0
747597538143502336	0
756604737398243328	0
765611936652984320	0
774619135907725312	0
783626335162466304	0
792633534417207296	0
801640733671948288	0
810647932926689280	0
819655132181430272	0
828662331436171264	0
837669530690912256	0
846676729945653248	0
855683929200394240	0
864691128455135232	0
873698327709876224	0
882705526964617216	0
891712726219358208	0
900719925474099200	0
909727124728840192	0
918734323983581184	0
927741523238322176	0
936748722493063168	0
945755921747804160	0
954763121002545152	0
963770320257286144	0
972777519512027136	0
981784718766768128	0
990791918021509120	0
999799117276250112	0
1008806316530991104	0
1017813515785732096	0
1026820715040473088	0
1035827914295214080	0
1044835113549955072	0
1053842312804696064	0
1062849512059437056	0
1071856711314178048	0
1080863910568919040	0
1089871109823660032	0
1098878309078401024	0
1107885508333142016	0
1116892707587883008	0
1125899906842624000	0
1134907106097364992	0
1143914305352105984	0
1152921504606846976	0
1170935903116328960	0
1188950301625810944	0
1206964700135292928	0
1224979098644774912	0
1242993497154256896	0
1261007895663738880	0
1279022294173220864	0
1297036692682702848	0
1315051091192184832	0
1333065489701666816	0
1351079888211148800	0
1369094286720630784	0
1387108685230112768	0
1405123083739594752	0
1423137482249076736	0
1441151880758558720	0
1459166279268040704	0
1477180677777522688	0
1495195076287004672	0
1513209474796486656	0
1531223873305968640	0
1549238271815450624	0
1567252670324932608	0
1585267068834414592	0
1603281467343896576	0
1621295865853378560	0
1639310264362860544	0
1657324662872342528	0
1675339061381824512	0
1693353459891306496	0
1711367858400788480	0
1729382256910270464	0
1747396655419752448	0
1765411053929234432	0
1783425452438716416	0
1801439850948198400	0
1819454249457680384	0
1837468647967162368	0
1855483046476644352	0
1873497444986126336	0
1891511843495608320	0
1909526242005090304	0
1927540640514572288	0
1945555039024054272	0
1963569437533536256	0
1981583836043018240	0
1999598234552500224	0
2017612633061982208	0
2035627031571464192	0
2053641430080946176	0
2071655828590428160	0
2089670227099910144	0
2107684625609392128	0
2125699024118874112	0
2143713422628356096	0
2161727821137838080	0
2179742219647320064	0
2197756618156802048	0
2215771016666284032	0
2233785415175766016	0
2251799813685248000	0
2269814212194729984	0
2287828610704211968	0
2305843009213693952	0
2341871806232657920	0
2377900603251621888	0
2413929400270585856	0
2449958197289549824	0
2485986994308513792	0
2522015791327477760	0
2558044588346441728	0
2594073385365405696	0
2630102182384369664	0
2666130979403333632	0
2702159776422297600	0
2738188573441261568	0
2774217370460225536	0
2810246167479189504	0
2846274964498153472	0
2882303761517117440	0
2918332558536081408	0
2954361355555045376	0
2990390152574009344	0
3026418949592973312	0
3062447746611937280	0
3098476543630901248	0
3134505340649865216	0
3170534137668829184	0
3206562934687793152	0
3242591731706757120	0
3278620528725721088	0
3314649325744685056	0
3350678122763649024	0
3386706919782612992	0
3422735716801576960	0
3458764513820540928	0
3494793310839504896	0
3530822107858468864	0
3566850904877432832	0
3602879701896396800	0
3638908498915360768	0
3674937295934324736	0
3710966092953288704	0
3746994889972252672	0
3783023686991216640	0
3819052484010180608	0
3855081281029144576	0
3891110078048108544	0
3927138875067072512	0
3963167672086036480	0
3999196469105000448	0
4035225266123964416	0
4071254063142928384	0
4107282860161892352	0
4143311657180856320	0
4179340454199820288	0
4215369251218784256	0
4251398048237748224	0
4287426845256712192	0
4323455642275676160	0
4359484439294640128	0
4395513236313604096	0
4431542033332568064	0
4467570830351532032	0
4503599627370496000	0
4539628424389459968	0
4575657221408423936	0
4611686018427387904	0
4683743612465315840	0
4755801206503243776	0
4827858800541171712	0
4899916394579099648	0
4971973988617027584	0
5044031582654955520	0
5116089176692883456	0
5188146770730811392	0
5260204364768739328	0
5332261958806667264	0
5404319552844595200	0
5476377146882523136	0
5548434740920451072	0
5620492334958379008	0
5692549928996306944	0
5764607523034234880	0
5836665117072162816	0
5908722711110090752	0
5980780305148018688	0
6052837899185946624	0
6124895493223874560	0
6196953087261802496	0
6269010681299730432	0
6341068275337658368	0
6413125869375586304	0
6485183463413514240	0
6557241057451442176	0
6629298651489370112	0
6701356245527298048	0
6773413839565225984	0
6845471433603153920	0
6917529027641081856	0
6989586621679009792	0
7061644215716937728	0
7133701809754865664	0
7205759403792793600	0
7277816997830721536	0
7349874591868649472	0
7421932185906577408	0
7493989779944505344	0
7566047373982433280	0
7638104968020361216	0
7710162562058289152	0
7782220156096217088	0
7854277750134145024	0
7926335344172072960	0
7998392938210000896	0
8070450532247928832	0
8142508126285856768	0
8214565720323784704	0
8286623314361712640	0
8358680908399640576	0
8430738502437568512	0
8502796096475496448	0
8574853690513424384	0
8646911284551352320	0
8718968878589280256	0
8791026472627208192	0
8863084066665136128	0
8935141660703064064	0
9007199254740992000	0
9079256848778919936	0
9151314442816847872	0
9223372036854775808	0
9367487224930631680	0
9511602413006487552	0
9655717601082343424	0
9799832789158199296	0
9943947977234055168	0
10088063165309911040	0
10232178353385766912	0
10376293541461622784	0
10520408729537478656	0
10664523917613334528	0
10808639105689190400	0
10952754293765046272	0
11096869481840902144	0
11240984669916758016	0
11385099857992613888	0
11529215046068469760	0
11673330234144325632	0
11817445422220181504	0
11961560610296037376	0
12105675798371893248	0
12249790986447749120	0
12393906174523604992	0
12538021362599460864	0
12682136550675316736	0
12826251738751172608	0
12970366926827028480	0
13114482114902884352	0
13258597302978740224	0
13402712491054596096	0
13546827679130451968	0
13690942867206307840	0
13835058055282163712	0
13979173243358019584	0
14123288431433875456	0
14267403619509731328	0
14411518807585587200	0
14555633995661443072	0
14699749183737298944	0
14843864371813154816	0
14987979559889010688	0
15132094747964866560	0
15276209936040722432	0
15420325124116578304	0
15564440312192434176	0
15708555500268290048	0
15852670688344145920	0
15996785876420001792	0
16140901064495857664	0
16285016252571713536	0
16429131440647569408	0
16573246628723425280	0
16717361816799281152	0
16861477004875137024	0
17005592192950992896	0
17149707381026848768	0
17293822569102704640	0
17437937757178560512	0
17582052945254416384	0
17726168133330272256	0
17870283321406128128	0
18014398509481984000	0
18158513697557839872	0
18302628885633695744	0
