0	18026754
1	18026754
2	17888405
3	17866336
4	17850235
5	17813642
6	17756365
7	17666792
8	17612977
9	17574505
10	17527380
11	17460322
12	17417000
13	17383475
14	17342376
15	17297762
16	17252439
17	17202777
18	17165394
19	17137808
20	17116377
21	17091803
22	17065206
23	17044615
24	17023479
25	17003839
26	16984349
27	16963498
28	16942168
29	16922011
30	16904117
31	16885014
32	16864957
33	16845404
34	16826149
35	16809161
36	16795548
37	16784108
38	16772260
39	16760541
40	16749544
41	16739295
42	16729518
43	16720071
44	16710773
45	16701174
46	16692748
47	16685292
48	16677899
49	16670435
50	16663264
51	16656430
52	16649988
53	16644221
54	16638609
55	16632907
56	16627392
57	16622338
58	16617662
59	16612916
60	16607834
61	16602578
62	16597260
63	16592207
64	16587705
65	16583195
66	16578751
67	16574567
68	16570803
69	16567305
70	16563878
71	16560438
72	16557027
73	16553902
74	16550900
75	16548095
76	16545184
77	16542411
78	16539581
79	16536782
80	16533965
81	16531400
82	16528823
83	16526355
84	16524004
85	16521749
86	16519647
87	16517396
88	16515074
89	16512799
90	16510589
91	16508406
92	16506262
93	16504075
94	16501836
95	16499669
96	16497453
97	16495264
98	16493120
99	16491079
100	16488969
101	16486950
102	16484915
103	16482783
104	16480683
105	16478467
106	16476354
107	16474185
108	16471886
109	16469632
110	16467403
111	16465148
112	16462824
113	16460529
114	16458241
115	16455934
116	16453569
117	16451208
118	16448864
119	16446468
120	16444120
121	16441747
122	16439315
123	16436801
124	16434357
125	16431860
126	16429372
127	16426922
128	16424543
130	16419749
132	16415120
134	16410293
136	16405672
138	16401072
140	16396521
142	16392125
144	16387726
146	16383512
148	16379333
150	16375167
152	16371154
154	16367022
156	16363182
158	16359263
160	16355421
162	16351662
164	16347972
166	16344243
168	16340599
170	16337024
172	16333497
174	16330078
176	16326671
178	16323348
180	16319988
182	16316728
184	16313335
186	16310073
188	16306728
190	16303386
192	16300078
194	16296573
196	16292947
198	16289531
200	16285952
202	16282500
204	16279018
206	16275445
208	16271624
210	16267441
212	16263012
214	16258267
216	16253190
218	16247768
220	16242088
222	16236257
224	16230141
226	16223734
228	16216981
230	16210089
232	16203047
234	16195701
236	16187998
238	16179864
240	16171346
242	16162407
244	16153428
246	16144045
248	16134749
250	16125420
252	16115808
254	16106010
256	16095587
260	16072096
264	16047485
268	16027184
272	16013779
276	16005316
280	15999327
284	15994108
288	15989494
292	15985473
296	15981505
300	15977965
304	15974672
308	15971340
312	15964947
316	15946868
320	15916934
324	15898039
328	15892350
332	15890103
336	15888325
340	15886596
344	15885005
348	15883532
352	15882147
356	15880807
360	15879562
364	15878356
368	15877163
372	15876030
376	15874888
380	15873811
384	15872809
388	15871732
392	15870650
396	15869585
400	15868443
404	15867399
408	15866232
412	15865044
416	15863776
420	15862415
424	15860951
428	15859255
432	15857395
436	15855188
440	15852787
444	15850568
448	15848632
452	15847079
456	15845785
460	15844541
464	15843406
468	15842219
472	15840849
476	15839381
480	15837657
484	15835754
488	15833582
492	15831360
496	15828999
500	15826603
504	15824047
508	15821233
512	15817872
520	15809354
528	15799801
536	15793009
544	15789881
552	15788055
560	15786377
568	15784740
576	15783102
584	15781439
592	15779873
600	15778161
608	15775813
616	15772105
624	15767434
632	15755983
640	15738099
648	15732691
656	15730991
664	15729699
672	15728375
680	15727124
688	15725897
696	15724615
704	15723294
712	15721829
720	15720024
728	15717714
736	15715229
744	15712265
752	15709086
760	15705571
768	15701563
776	15696600
784	15690541
792	15684683
800	15680426
808	15678452
816	15677419
824	15676517
832	15675641
840	15674813
848	15674076
856	15673263
864	15672315
872	15671167
880	15669982
888	15668804
896	15667714
904	15666761
912	15665867
920	15664891
928	15663861
936	15662624
944	15657916
952	15643704
960	15631524
968	15627528
976	15625248
984	15623056
992	15620704
1000	15618201
1008	15615542
1016	15612810
1024	15609825
1040	15602203
1056	15593809
1072	15589275
1088	15588114
1104	15587182
1120	15586270
1136	15585377
1152	15584316
1168	15583170
1184	15581560
1200	15579647
1216	15576945
1232	15572605
1248	15567461
1264	15554632
1280	15530218
1296	15522609
1312	15514908
1328	15508647
1344	15506165
1360	15505267
1376	15504603
1392	15504020
1408	15503356
1424	15502444
1440	15501233
1456	15499837
1472	15497785
1488	15494963
1504	15491447
1520	15487544
1536	15483938
1552	15479895
1568	15474038
1584	15456251
1600	15437592
1616	15435080
1632	15434031
1648	15433193
1664	15432310
1680	15431258
1696	15429987
1712	15428586
1728	15426483
1744	15423389
1760	15419984
1776	15416496
1792	15413608
1808	15410676
1824	15406950
1840	15401820
1856	15397156
1872	15395186
1888	15392967
1904	15377107
1920	15365196
1936	15363138
1952	15361859
1968	15360289
1984	15358166
2000	15355413
2016	15352201
2032	15349333
2048	15346707
2080	15341501
2112	15334476
2144	15331461
2176	15329248
2208	15323171
2240	15295620
2272	15289512
2304	15284391
2336	15279920
2368	15274020
2400	15270066
2432	15267971
2464	15264572
2496	15260798
2528	15250212
2560	15224454
2592	15220270
2624	15214966
2656	15209644
2688	15207376
2720	15205560
2752	15202755
2784	15197991
2816	15193824
2848	15182684
2880	15160644
2912	15154962
2944	15152704
2976	15150875
3008	15148324
3040	15143438
3072	15138164
3104	15134424
3136	15131323
3168	15114993
3200	15097198
3232	15095193
3264	15092549
3296	15088123
3328	15084471
3360	15082646
3392	15080648
3424	15075722
3456	15072121
3488	15057185
3520	15042593
3552	15037754
3584	15033857
3616	15032272
3648	15030448
3680	15025699
3712	15020997
3744	15019223
3776	15016400
3808	14996718
3840	14984227
3872	14982619
3904	14980846
3936	14977211
3968	14972886
4000	14970739
4032	14968001
4064	14963754
4096	14960099
4160	14933834
4224	14926899
4288	14922063
4352	14912836
4416	14909118
4480	14880457
4544	14875572
4608	14869312
4672	14866768
4736	14859970
4800	14832744
4864	14826540
4928	14822282
4992	14817336
5056	14809906
5120	14784438
5184	14781443
5248	14776939
5312	14771446
5376	14762800
5440	14741849
5504	14737758
5568	14731040
5632	14726462
5696	14717428
5760	14697412
5824	14692482
5888	14688556
5952	14685397
6016	14674562
6080	14655337
6144	14650893
6208	14647100
6272	14643189
6336	14629974
6400	14614705
6464	14611526
6528	14607783
6592	14603062
6656	14589530
6720	14576707
6784	14571966
6848	14567147
6912	14564054
6976	14549161
7040	14538066
7104	14533745
7168	14530710
7232	14527915
7296	14511971
7360	14501247
7424	14497169
7488	14494466
7552	14491641
7616	14474393
7680	14466532
7744	14463706
7808	14460888
7872	14457709
7936	14440237
8000	14432407
8064	14429254
8128	14426310
8192	14423926
8320	14400304
8448	14395306
8576	14374361
8704	14366103
8832	14360591
8960	14338728
9088	14333663
9216	14312735
9344	14305829
9472	14300985
9600	14279993
9728	14275153
9856	14254531
9984	14248916
10112	14243768
10240	14224882
10368	14220632
10496	14200472
10624	14195456
10752	14190899
10880	14172642
11008	14169135
11136	14149442
11264	14145880
11392	14139595
11520	14124577
11648	14120728
11776	14102336
11904	14099023
12032	14091910
12160	14078683
12288	14075137
12416	14057958
12544	14055203
12672	14046487
12800	14036672
12928	14031844
13056	14017283
13184	14013562
13312	14005218
13440	13995911
13568	13992624
13696	13977504
13824	13975352
13952	13965309
14080	13958312
14208	13954404
14336	13941071
14464	13938138
14592	13928520
14720	13922155
14848	13919484
14976	13906137
15104	13904763
15232	13892918
15360	13888720
15488	13884912
15616	13873757
15744	13871053
15872	13860868
16000	13856292
16128	13853387
16256	13842338
16384	13840109
16640	13825542
16896	13812445
17152	13799862
17408	13792749
17664	13781624
17920	13768312
18176	13756227
18432	13744295
18688	13737329
18944	13728583
19200	13716152
19456	13704860
19712	13693295
19968	13685466
20224	13677966
20480	13666585
20736	13656376
20992	13645219
21248	13637288
21504	13630956
21760	13621561
22016	13612334
22272	13602508
22528	13594689
22784	13588770
23040	13580923
23296	13572493
23552	13564124
23808	13556494
24064	13550528
24320	13543554
24576	13535562
24832	13527876
25088	13521070
25344	13515114
25600	13509731
25856	13502554
26112	13496237
26368	13489730
26624	13484183
26880	13479339
27136	13472678
27392	13466944
27648	13461042
27904	13455933
28160	13451410
28416	13445752
28672	13440586
28928	13435104
29184	13430481
29440	13426371
29696	13421300
29952	13416751
30208	13411657
30464	13407580
30720	13403699
30976	13399605
31232	13395587
31488	13391147
31744	13387328
32000	13382843
32256	13378731
32512	13374917
32768	13370979
33280	13363593
33792	13356248
34304	13348795
34816	13341038
35328	13333161
35840	13325876
36352	13318450
36864	13310886
37376	13303443
37888	13296188
38400	13289221
38912	13281770
39424	13274504
39936	13267289
40448	13260371
40960	13253310
41472	13245922
41984	13238649
42496	13231360
43008	13224306
43520	13217648
44032	13210162
44544	13202622
45056	13194449
45568	13186023
46080	13176877
46592	13166751
47104	13156337
47616	13144634
48128	13132116
48640	13119714
49152	13106108
49664	13093382
50176	13079122
50688	13063799
51200	13048693
51712	13029715
52224	13010955
52736	12991822
53248	12970242
53760	12950085
54272	12926166
54784	12902481
55296	12879551
55808	12853270
56320	12829793
56832	12804270
57344	12778445
57856	12755155
58368	12728179
58880	12703027
59392	12677578
59904	12649490
60416	12624584
60928	12596061
61440	12569009
61952	12543590
62464	12514422
62976	12488667
63488	12460619
64000	12431312
64512	12405595
65024	12375554
65536	12347960
66560	12289810
67584	12234110
68608	12178121
69632	12119274
70656	12059889
71680	12003538
72704	11948123
73728	11891784
74752	11834346
75776	11719769
76800	11245976
77824	11196435
78848	11147963
79872	11101872
80896	11060116
81920	11020456
82944	10981109
83968	10944051
84992	10910881
86016	10879302
87040	10849075
88064	10820087
89088	10792895
90112	10768783
91136	10745812
92160	10723452
93184	10701738
94208	10681996
95232	10662795
96256	10642800
97280	10623126
98304	10605225
99328	10588555
100352	10572354
101376	10556940
102400	10542541
103424	10529117
104448	10516420
105472	10504559
106496	10492960
107520	10482420
108544	10472460
109568	10462648
110592	10452782
111616	10442949
112640	10433580
113664	10424145
114688	10414801
115712	10405327
116736	10395882
117760	10386255
118784	10376345
119808	10366688
120832	10356673
121856	10345447
122880	10333242
123904	10319867
124928	10303045
125952	10287736
126976	10271022
128000	10252958
129024	10234515
130048	10214780
131072	10191781
133120	10149147
135168	10106433
137216	10063075
139264	9995224
141312	9943164
143360	9893834
145408	9842271
147456	9790631
149504	9738689
151552	9682783
153600	9265514
155648	9219814
157696	9176344
159744	9136750
161792	9100319
163840	9067691
165888	9038412
167936	9012741
169984	8988164
172032	8963313
174080	8939096
176128	8917125
178176	8897104
180224	8878838
182272	8862405
184320	8847360
186368	8832996
188416	8818978
190464	8805296
192512	8791951
194560	8777745
196608	8763195
198656	8746876
200704	8725268
202752	8704700
204800	8682108
206848	8654357
208896	8627841
210944	8602964
212992	8577887
215040	8551608
217088	8524278
219136	8495121
221184	8465399
223232	8434605
225280	8404194
227328	8372598
229376	8038604
231424	8010330
233472	7983366
235520	7958101
237568	7934359
239616	7912425
241664	7892785
243712	7874982
245760	7857460
247808	7839688
249856	7822020
251904	7805874
253952	7790476
256000	7776416
258048	7763333
260096	7751015
262144	7739341
266240	7717211
270336	7694892
274432	7670618
278528	7623626
282624	7587343
286720	7550116
290816	7515663
294912	7478099
299008	7437834
303104	7397436
307200	7111654
311296	7075445
315392	7043111
319488	7015849
323584	6989950
327680	6963726
331776	6940624
335872	6920312
339968	6901777
344064	6884450
348160	6865799
352256	6842817
356352	6816763
360448	6785429
364544	6759287
368640	6728368
372736	6699376
376832	6669241
380928	6432524
385024	6405199
389120	6379010
393216	6355901
397312	6336025
401408	6314315
405504	6294106
409600	6276036
413696	6259962
417792	6237677
421888	6223019
425984	6207069
430080	6184279
434176	6164007
438272	6138035
442368	6118634
446464	6097597
450560	6074346
454656	6051722
458752	5853435
462848	5832063
466944	5811941
471040	5795083
475136	5778834
479232	5761132
483328	5745028
487424	5730624
491520	5717450
495616	5705505
499712	5692542
503808	5678106
507904	5654063
512000	5631923
516096	5614866
520192	5598802
524288	5580382
532480	5402089
540672	5359256
548864	5330234
557056	5298220
565248	5273547
573440	5252212
581632	5223404
589824	5189997
598016	5162811
606208	5131907
614400	4974047
622592	4947976
630784	4923855
638976	4901519
647168	4880329
655360	4860509
663552	4827432
671744	4804133
679936	4777832
688128	4641490
696320	4616788
704512	4596448
712704	4576133
720896	4559104
729088	4542693
737280	4518451
745472	4493135
753664	4471500
761856	4350601
770048	4329473
778240	4312139
786432	4292076
794624	4276098
802816	4262292
811008	4241585
819200	4218544
827392	4200890
835584	4166329
843776	4075802
851968	4059541
860160	4043682
868352	4029158
876544	4016639
884736	3998332
892928	3977555
901120	3962472
909312	3945072
917504	3852151
925696	3835831
933888	3822123
942080	3808823
950272	3797491
958464	3785969
966656	3766698
974848	3749680
983040	3734086
991232	3651435
999424	3636778
1007616	3624689
1015808	3612411
1024000	3601525
1032192	3591644
1040384	3575815
1048576	3558807
1064960	3472227
1081344	3446356
1097728	3425209
1114112	3402255
1130496	3375784
1146880	3295960
1163264	3275269
1179648	3258018
1196032	3230922
1212416	3209405
1228800	3137821
1245184	3120178
1261568	3105155
1277952	3079187
1294336	3012992
1310720	2994989
1327104	2979396
1343488	2960785
1359872	2939585
1376256	2878960
1392640	2863439
1409024	2850488
1425408	2827974
1441792	2811692
1458176	2757209
1474560	2744030
1490944	2732393
1507328	2710733
1523712	2659616
1540096	2645318
1556480	2633806
1572864	2618564
1589248	2600805
1605632	2553739
1622016	2542148
1638400	2531947
1654784	2512752
1671168	2497641
1687552	2456398
1703936	2446053
1720320	2432858
1736704	2417812
1753088	2376964
1769472	2365594
1785856	2356418
1802240	2342664
1818624	2327922
1835008	2289743
1851392	2280565
1867776	2272485
1884160	2255538
1900544	2220751
1916928	2209534
1933312	2201195
1949696	2189709
1966080	2176383
1982464	2142884
1998848	2134079
2015232	2126733
2031616	2113121
2048000	2101650
2064384	2070779
2080768	2063466
2097152	2056562
2129920	2011767
2162688	1996311
2195456	1974105
2228224	1939271
2260992	1918854
2293760	1884433
2326528	1872323
2359296	1833725
2392064	1820751
2424832	1800311
2457600	1770933
2490368	1752820
2523136	1723390
2555904	1709610
2588672	1678761
2621440	1667899
2654208	1648949
2686976	1623900
2719744	1607257
2752512	1582000
2785280	1569228
2818048	1542258
2850816	1532768
2883584	1515531
2916352	1493749
2949120	1478609
2981888	1456596
3014656	1445148
3047424	1420535
3080192	1412225
3112960	1396538
3145728	1377448
3178496	1363739
3211264	1343807
3244032	1333560
3276800	1311524
3309568	1304327
3342336	1290212
3375104	1272831
3407872	1260421
3440640	1242454
3473408	1233074
3506176	1213102
3538944	1206815
3571712	1186877
3604480	1178371
3637248	1166937
3670016	1150809
3702784	1141581
3735552	1123955
3768320	1118184
3801088	1098765
3833856	1092452
3866624	1081384
3899392	1066874
3932160	1057061
3964928	1042230
3997696	1036911
4030464	1019240
4063232	1013497
4096000	1003439
4128768	990526
4161536	981353
4194304	968126
4259840	947144
4325376	932457
4390912	912541
4456448	894141
4521984	876328
4587520	857067
4653056	837937
4718592	819699
4784128	807253
4849664	790250
4915200	774727
4980736	759462
5046272	743107
5111808	726885
5177344	711300
5242880	699586
5308416	685927
5373952	672430
5439488	659436
5505024	645259
5570560	631414
5636096	617569
5701632	604786
5767168	595617
5832704	583446
5898240	573379
5963776	561266
6029312	549242
6094848	537730
6160384	526758
6225920	518680
6291456	508202
6356992	498408
6422528	489201
6488064	478865
6553600	468564
6619136	458885
6684672	452017
6750208	442985
6815744	434805
6881280	426818
6946816	417806
7012352	408803
7077888	400176
7143424	392303
7208960	386173
7274496	378544
7340032	371927
7405568	364162
7471104	356554
7536640	348806
7602176	341756
7667712	336319
7733248	329493
7798784	323365
7864320	317429
7929856	310555
7995392	303952
8060928	297610
8126464	292654
8192000	286605
8257536	281246
8323072	276132
8388608	270238
8519680	258639
8650752	248925
8781824	239841
8912896	229589
9043968	219807
9175040	211274
9306112	203362
9437184	194461
9568256	186929
9699328	179395
9830400	172168
9961472	164631
10092544	157870
10223616	151760
10354688	145003
10485760	138917
10616832	133153
10747904	127784
10878976	121827
11010048	116518
11141120	112134
11272192	106851
11403264	101703
11534336	97087
11665408	93299
11796480	88812
11927552	84608
12058624	80772
12189696	77253
12320768	73293
12451840	69670
12582912	66894
12713984	63459
12845056	60032
12976128	56949
13107200	54587
13238272	51630
13369344	48656
13500416	46235
13631488	44010
13762560	41433
13893632	39032
14024704	37253
14155776	35122
14286848	33026
14417920	30970
14548992	29367
14680064	27607
14811136	25774
14942208	24165
15073280	22808
15204352	21312
15335424	19774
15466496	18403
15597568	17278
15728640	16002
15859712	14704
15990784	13562
16121856	12696
16252928	11645
16384000	10625
16515072	9891
16646144	8977
16777216	8148
17039360	6654
17301504	5337
17563648	4226
17825792	3177
18087936	2354
18350080	1664
18612224	1076
18874368	636
19136512	310
19398656	77
19660800	0
19922944	0
20185088	0
20447232	0
20709376	0
20971520	0
21233664	0
21495808	0
21757952	0
22020096	0
22282240	0
22544384	0
22806528	0
23068672	0
23330816	0
23592960	0
23855104	0
24117248	0
24379392	0
24641536	0
24903680	0
25165824	0
25427968	0
25690112	0
25952256	0
26214400	0
26476544	0
26738688	0
27000832	0
27262976	0
27525120	0
27787264	0
28049408	0
28311552	0
28573696	0
28835840	0
29097984	0
29360128	0
29622272	0
29884416	0
30146560	0
30408704	0
30670848	0
30932992	0
31195136	0
31457280	0
31719424	0
31981568	0
32243712	0
32505856	0
32768000	0
33030144	0
33292288	0
33554432	0
34078720	0
34603008	0
35127296	0
35651584	0
36175872	0
36700160	0
37224448	0
37748736	0
38273024	0
38797312	0
39321600	0
39845888	0
40370176	0
40894464	0
41418752	0
41943040	0
42467328	0
42991616	0
43515904	0
44040192	0
44564480	0
45088768	0
45613056	0
46137344	0
46661632	0
47185920	0
47710208	0
48234496	0
48758784	0
49283072	0
49807360	0
50331648	0
50855936	0
51380224	0
51904512	0
52428800	0
52953088	0
53477376	0
54001664	0
54525952	0
55050240	0
55574528	0
56098816	0
56623104	0
57147392	0
57671680	0
58195968	0
58720256	0
59244544	0
59768832	0
60293120	0
60817408	0
61341696	0
61865984	0
62390272	0
62914560	0
63438848	0
63963136	0
64487424	0
65011712	0
65536000	0
66060288	0
66584576	0
67108864	0
68157440	0
69206016	0
70254592	0
71303168	0
72351744	0
73400320	0
74448896	0
75497472	0
76546048	0
77594624	0
78643200	0
79691776	0
80740352	0
81788928	0
82837504	0
83886080	0
84934656	0
85983232	0
87031808	0
88080384	0
89128960	0
90177536	0
91226112	0
92274688	0
93323264	0
94371840	0
95420416	0
96468992	0
97517568	0
98566144	0
99614720	0
100663296	0
101711872	0
102760448	0
103809024	0
104857600	0
105906176	0
106954752	0
108003328	0
109051904	0
110100480	0
111149056	0
112197632	0
113246208	0
114294784	0
115343360	0
116391936	0
117440512	0
118489088	0
119537664	0
120586240	0
121634816	0
122683392	0
123731968	0
124780544	0
125829120	0
126877696	0
127926272	0
128974848	0
130023424	0
131072000	0
132120576	0
133169152	0
134217728	0
136314880	0
138412032	0
140509184	0
142606336	0
144703488	0
146800640	0
148897792	0
150994944	0
153092096	0
155189248	0
157286400	0
159383552	0
161480704	0
163577856	0
165675008	0
167772160	0
169869312	0
171966464	0
174063616	0
176160768	0
178257920	0
180355072	0
182452224	0
184549376	0
186646528	0
188743680	0
190840832	0
192937984	0
195035136	0
197132288	0
199229440	0
201326592	0
203423744	0
205520896	0
207618048	0
209715200	0
211812352	0
213909504	0
216006656	0
218103808	0
220200960	0
222298112	0
224395264	0
226492416	0
228589568	0
230686720	0
232783872	0
234881024	0
236978176	0
239075328	0
241172480	0
243269632	0
245366784	0
247463936	0
249561088	0
251658240	0
253755392	0
255852544	0
257949696	0
260046848	0
262144000	0
264241152	0
266338304	0
268435456	0
272629760	0
276824064	0
281018368	0
285212672	0
289406976	0
293601280	0
297795584	0
301989888	0
306184192	0
310378496	0
314572800	0
318767104	0
322961408	0
327155712	0
331350016	0
335544320	0
339738624	0
343932928	0
348127232	0
352321536	0
356515840	0
360710144	0
364904448	0
369098752	0
373293056	0
377487360	0
381681664	0
385875968	0
390070272	0
394264576	0
398458880	0
402653184	0
406847488	0
411041792	0
415236096	0
419430400	0
423624704	0
427819008	0
432013312	0
436207616	0
440401920	0
444596224	0
448790528	0
452984832	0
457179136	0
461373440	0
465567744	0
469762048	0
473956352	0
478150656	0
482344960	0
486539264	0
490733568	0
494927872	0
499122176	0
503316480	0
507510784	0
511705088	0
515899392	0
520093696	0
524288000	0
528482304	0
532676608	0
536870912	0
545259520	0
553648128	0
562036736	0
570425344	0
578813952	0
587202560	0
595591168	0
603979776	0
612368384	0
620756992	0
629145600	0
637534208	0
645922816	0
654311424	0
662700032	0
671088640	0
679477248	0
687865856	0
696254464	0
704643072	0
713031680	0
721420288	0
729808896	0
738197504	0
746586112	0
754974720	0
763363328	0
771751936	0
780140544	0
788529152	0
796917760	0
805306368	0
813694976	0
822083584	0
830472192	0
838860800	0
847249408	0
855638016	0
864026624	0
872415232	0
880803840	0
889192448	0
897581056	0
905969664	0
914358272	0
922746880	0
931135488	0
939524096	0
947912704	0
956301312	0
964689920	0
973078528	0
981467136	0
989855744	0
998244352	0
1006632960	0
1015021568	0
1023410176	0
1031798784	0
1040187392	0
1048576000	0
1056964608	0
1065353216	0
1073741824	0
1090519040	0
1107296256	0
1124073472	0
1140850688	0
1157627904	0
1174405120	0
1191182336	0
1207959552	0
1224736768	0
1241513984	0
1258291200	0
1275068416	0
1291845632	0
1308622848	0
1325400064	0
1342177280	0
1358954496	0
1375731712	0
1392508928	0
1409286144	0
1426063360	0
1442840576	0
1459617792	0
1476395008	0
1493172224	0
1509949440	0
1526726656	0
1543503872	0
1560281088	0
1577058304	0
1593835520	0
1610612736	0
1627389952	0
1644167168	0
1660944384	0
1677721600	0
1694498816	0
1711276032	0
1728053248	0
1744830464	0
1761607680	0
1778384896	0
1795162112	0
1811939328	0
1828716544	0
1845493760	0
1862270976	0
1879048192	0
1895825408	0
1912602624	0
1929379840	0
1946157056	0
1962934272	0
1979711488	0
1996488704	0
2013265920	0
2030043136	0
2046820352	0
2063597568	0
2080374784	0
2097152000	0
2113929216	0
2130706432	0
2147483648	0
2181038080	0
2214592512	0
2248146944	0
2281701376	0
2315255808	0
2348810240	0
2382364672	0
2415919104	0
2449473536	0
2483027968	0
2516582400	0
2550136832	0
2583691264	0
2617245696	0
2650800128	0
2684354560	0
2717908992	0
2751463424	0
2785017856	0
2818572288	0
2852126720	0
2885681152	0
2919235584	0
2952790016	0
2986344448	0
3019898880	0
3053453312	0
3087007744	0
3120562176	0
3154116608	0
3187671040	0
3221225472	0
3254779904	0
3288334336	0
3321888768	0
3355443200	0
3388997632	0
3422552064	0
3456106496	0
3489660928	0
3523215360	0
3556769792	0
3590324224	0
3623878656	0
3657433088	0
3690987520	0
3724541952	0
3758096384	0
3791650816	0
3825205248	0
3858759680	0
3892314112	0
3925868544	0
3959422976	0
3992977408	0
4026531840	0
4060086272	0
4093640704	0
4127195136	0
4160749568	0
4194304000	0
4227858432	0
4261412864	0
4294967296	0
4362076160	0
4429185024	0
4496293888	0
4563402752	0
4630511616	0
4697620480	0
4764729344	0
4831838208	0
4898947072	0
4966055936	0
5033164800	0
5100273664	0
5167382528	0
5234491392	0
5301600256	0
5368709120	0
5435817984	0
5502926848	0
5570035712	0
5637144576	0
5704253440	0
5771362304	0
5838471168	0
5905580032	0
5972688896	0
6039797760	0
6106906624	0
6174015488	0
6241124352	0
6308233216	0
6375342080	0
6442450944	0
6509559808	0
6576668672	0
6643777536	0
6710886400	0
6777995264	0
6845104128	0
6912212992	0
6979321856	0
7046430720	0
7113539584	0
7180648448	0
7247757312	0
7314866176	0
7381975040	0
7449083904	0
7516192768	0
7583301632	0
7650410496	0
7717519360	0
7784628224	0
7851737088	0
7918845952	0
7985954816	0
8053063680	0
8120172544	0
8187281408	0
8254390272	0
8321499136	0
8388608000	0
8455716864	0
8522825728	0
8589934592	0
8724152320	0
8858370048	0
8992587776	0
9126805504	0
9261023232	0
9395240960	0
9529458688	0
9663676416	0
9797894144	0
9932111872	0
10066329600	0
10200547328	0
10334765056	0
10468982784	0
10603200512	0
10737418240	0
10871635968	0
11005853696	0
11140071424	0
11274289152	0
11408506880	0
11542724608	0
11676942336	0
11811160064	0
11945377792	0
12079595520	0
12213813248	0
12348030976	0
12482248704	0
12616466432	0
12750684160	0
12884901888	0
13019119616	0
13153337344	0
13287555072	0
13421772800	0
13555990528	0
13690208256	0
13824425984	0
13958643712	0
14092861440	0
14227079168	0
14361296896	0
14495514624	0
14629732352	0
14763950080	0
14898167808	0
15032385536	0
15166603264	0
15300820992	0
15435038720	0
15569256448	0
15703474176	0
15837691904	0
15971909632	0
16106127360	0
16240345088	0
16374562816	0
16508780544	0
16642998272	0
16777216000	0
16911433728	0
17045651456	0
17179869184	0
17448304640	0
17716740096	0
17985175552	0
18253611008	0
18522046464	0
18790481920	0
19058917376	0
19327352832	0
19595788288	0
19864223744	0
20132659200	0
20401094656	0
20669530112	0
20937965568	0
21206401024	0
21474836480	0
21743271936	0
22011707392	0
22280142848	0
22548578304	0
22817013760	0
23085449216	0
23353884672	0
23622320128	0
23890755584	0
24159191040	0
24427626496	0
24696061952	0
24964497408	0
25232932864	0
25501368320	0
25769803776	0
26038239232	0
26306674688	0
26575110144	0
26843545600	0
27111981056	0
27380416512	0
27648851968	0
27917287424	0
28185722880	0
28454158336	0
28722593792	0
28991029248	0
29259464704	0
29527900160	0
29796335616	0
30064771072	0
30333206528	0
30601641984	0
30870077440	0
31138512896	0
31406948352	0
31675383808	0
31943819264	0
32212254720	0
32480690176	0
32749125632	0
33017561088	0
33285996544	0
33554432000	0
33822867456	0
34091302912	0
34359738368	0
34896609280	0
35433480192	0
35970351104	0
36507222016	0
37044092928	0
37580963840	0
38117834752	0
38654705664	0
39191576576	0
39728447488	0
40265318400	0
40802189312	0
41339060224	0
41875931136	0
42412802048	0
42949672960	0
43486543872	0
44023414784	0
44560285696	0
45097156608	0
45634027520	0
46170898432	0
46707769344	0
47244640256	0
47781511168	0
48318382080	0
48855252992	0
49392123904	0
49928994816	0
50465865728	0
51002736640	0
51539607552	0
52076478464	0
52613349376	0
53150220288	0
53687091200	0
54223962112	0
54760833024	0
55297703936	0
55834574848	0
56371445760	0
56908316672	0
57445187584	0
57982058496	0
58518929408	0
59055800320	0
59592671232	0
60129542144	0
60666413056	0
61203283968	0
61740154880	0
62277025792	0
62813896704	0
63350767616	0
63887638528	0
64424509440	0
64961380352	0
65498251264	0
66035122176	0
66571993088	0
67108864000	0
67645734912	0
68182605824	0
68719476736	0
69793218560	0
70866960384	0
71940702208	0
73014444032	0
74088185856	0
75161927680	0
76235669504	0
77309411328	0
78383153152	0
79456894976	0
80530636800	0
81604378624	0
82678120448	0
83751862272	0
84825604096	0
85899345920	0
86973087744	0
88046829568	0
89120571392	0
90194313216	0
91268055040	0
92341796864	0
93415538688	0
94489280512	0
95563022336	0
96636764160	0
97710505984	0
98784247808	0
99857989632	0
100931731456	0
102005473280	0
103079215104	0
104152956928	0
105226698752	0
106300440576	0
107374182400	0
108447924224	0
109521666048	0
110595407872	0
111669149696	0
112742891520	0
113816633344	0
114890375168	0
115964116992	0
117037858816	0
118111600640	0
119185342464	0
120259084288	0
121332826112	0
122406567936	0
123480309760	0
124554051584	0
125627793408	0
126701535232	0
127775277056	0
128849018880	0
129922760704	0
130996502528	0
132070244352	0
133143986176	0
134217728000	0
135291469824	0
136365211648	0
137438953472	0
139586437120	0
141733920768	0
143881404416	0
146028888064	0
148176371712	0
150323855360	0
152471339008	0
154618822656	0
156766306304	0
158913789952	0
161061273600	0
163208757248	0
165356240896	0
167503724544	0
169651208192	0
171798691840	0
173946175488	0
176093659136	0
178241142784	0
180388626432	0
182536110080	0
184683593728	0
186831077376	0
188978561024	0
191126044672	0
193273528320	0
195421011968	0
197568495616	0
199715979264	0
201863462912	0
204010946560	0
206158430208	0
208305913856	0
210453397504	0
212600881152	0
214748364800	0
216895848448	0
219043332096	0
221190815744	0
223338299392	0
225485783040	0
227633266688	0
229780750336	0
231928233984	0
234075717632	0
236223201280	0
238370684928	0
240518168576	0
242665652224	0
244813135872	0
246960619520	0
249108103168	0
251255586816	0
253403070464	0
255550554112	0
257698037760	0
259845521408	0
261993005056	0
264140488704	0
266287972352	0
268435456000	0
270582939648	0
272730423296	0
274877906944	0
279172874240	0
283467841536	0
287762808832	0
292057776128	0
296352743424	0
300647710720	0
304942678016	0
309237645312	0
313532612608	0
317827579904	0
322122547200	0
326417514496	0
330712481792	0
335007449088	0
339302416384	0
343597383680	0
347892350976	0
352187318272	0
356482285568	0
360777252864	0
365072220160	0
369367187456	0
373662154752	0
377957122048	0
382252089344	0
386547056640	0
390842023936	0
395136991232	0
399431958528	0
403726925824	0
408021893120	0
412316860416	0
416611827712	0
420906795008	0
425201762304	0
429496729600	0
433791696896	0
438086664192	0
442381631488	0
446676598784	0
450971566080	0
455266533376	0
459561500672	0
463856467968	0
468151435264	0
472446402560	0
476741369856	0
481036337152	0
485331304448	0
489626271744	0
493921239040	0
498216206336	0
502511173632	0
506806140928	0
511101108224	0
515396075520	0
519691042816	0
523986010112	0
528280977408	0
532575944704	0
536870912000	0
541165879296	0
545460846592	0
549755813888	0
558345748480	0
566935683072	0
575525617664	0
584115552256	0
592705486848	0
601295421440	0
609885356032	0
618475290624	0
627065225216	0
635655159808	0
644245094400	0
652835028992	0
661424963584	0
670014898176	0
678604832768	0
687194767360	0
695784701952	0
704374636544	0
712964571136	0
721554505728	0
730144440320	0
738734374912	0
747324309504	0
755914244096	0
764504178688	0
773094113280	0
781684047872	0
790273982464	0
798863917056	0
807453851648	0
816043786240	0
824633720832	0
833223655424	0
841813590016	0
850403524608	0
858993459200	0
867583393792	0
876173328384	0
884763262976	0
893353197568	0
901943132160	0
910533066752	0
919123001344	0
927712935936	0
936302870528	0
944892805120	0
953482739712	0
962072674304	0
970662608896	0
979252543488	0
987842478080	0
996432412672	0
1005022347264	0
1013612281856	0
1022202216448	0
1030792151040	0
1039382085632	0
1047972020224	0
1056561954816	0
1065151889408	0
1073741824000	0
1082331758592	0
1090921693184	0
1099511627776	0
1116691496960	0
1133871366144	0
1151051235328	0
1168231104512	0
1185410973696	0
1202590842880	0
1219770712064	0
1236950581248	0
1254130450432	0
1271310319616	0
1288490188800	0
1305670057984	0
1322849927168	0
1340029796352	0
1357209665536	0
1374389534720	0
1391569403904	0
1408749273088	0
1425929142272	0
1443109011456	0
1460288880640	0
1477468749824	0
1494648619008	0
1511828488192	0
1529008357376	0
1546188226560	0
1563368095744	0
1580547964928	0
1597727834112	0
1614907703296	0
1632087572480	0
1649267441664	0
1666447310848	0
1683627180032	0
1700807049216	0
1717986918400	0
1735166787584	0
1752346656768	0
1769526525952	0
1786706395136	0
1803886264320	0
1821066133504	0
1838246002688	0
1855425871872	0
1872605741056	0
1889785610240	0
1906965479424	0
1924145348608	0
1941325217792	0
1958505086976	0
1975684956160	0
1992864825344	0
2010044694528	0
2027224563712	0
2044404432896	0
2061584302080	0
2078764171264	0
2095944040448	0
2113123909632	0
2130303778816	0
2147483648000	0
2164663517184	0
2181843386368	0
2199023255552	0
2233382993920	0
2267742732288	0
2302102470656	0
2336462209024	0
2370821947392	0
2405181685760	0
2439541424128	0
2473901162496	0
2508260900864	0
2542620639232	0
2576980377600	0
2611340115968	0
2645699854336	0
2680059592704	0
2714419331072	0
2748779069440	0
2783138807808	0
2817498546176	0
2851858284544	0
2886218022912	0
2920577761280	0
2954937499648	0
2989297238016	0
3023656976384	0
3058016714752	0
3092376453120	0
3126736191488	0
3161095929856	0
3195455668224	0
3229815406592	0
3264175144960	0
3298534883328	0
3332894621696	0
3367254360064	0
3401614098432	0
3435973836800	0
3470333575168	0
3504693313536	0
3539053051904	0
3573412790272	0
3607772528640	0
3642132267008	0
3676492005376	0
3710851743744	0
3745211482112	0
3779571220480	0
3813930958848	0
3848290697216	0
3882650435584	0
3917010173952	0
3951369912320	0
3985729650688	0
4020089389056	0
4054449127424	0
4088808865792	0
4123168604160	0
4157528342528	0
4191888080896	0
4226247819264	0
4260607557632	0
4294967296000	0
4329327034368	0
4363686772736	0
4398046511104	0
4466765987840	0
4535485464576	0
4604204941312	0
4672924418048	0
4741643894784	0
4810363371520	0
4879082848256	0
4947802324992	0
5016521801728	0
5085241278464	0
5153960755200	0
5222680231936	0
5291399708672	0
5360119185408	0
5428838662144	0
5497558138880	0
5566277615616	0
5634997092352	0
5703716569088	0
5772436045824	0
5841155522560	0
5909874999296	0
5978594476032	0
6047313952768	0
6116033429504	0
6184752906240	0
6253472382976	0
6322191859712	0
6390911336448	0
6459630813184	0
6528350289920	0
6597069766656	0
6665789243392	0
6734508720128	0
6803228196864	0
6871947673600	0
6940667150336	0
7009386627072	0
7078106103808	0
7146825580544	0
7215545057280	0
7284264534016	0
7352984010752	0
7421703487488	0
7490422964224	0
7559142440960	0
7627861917696	0
7696581394432	0
7765300871168	0
7834020347904	0
7902739824640	0
7971459301376	0
8040178778112	0
8108898254848	0
8177617731584	0
8246337208320	0
8315056685056	0
8383776161792	0
8452495638528	0
8521215115264	0
8589934592000	0
8658654068736	0
8727373545472	0
8796093022208	0
8933531975680	0
9070970929152	0
9208409882624	0
9345848836096	0
9483287789568	0
9620726743040	0
9758165696512	0
9895604649984	0
10033043603456	0
10170482556928	0
10307921510400	0
10445360463872	0
10582799417344	0
10720238370816	0
10857677324288	0
10995116277760	0
11132555231232	0
11269994184704	0
11407433138176	0
11544872091648	0
11682311045120	0
11819749998592	0
11957188952064	0
12094627905536	0
12232066859008	0
12369505812480	0
12506944765952	0
12644383719424	0
12781822672896	0
12919261626368	0
13056700579840	0
13194139533312	0
13331578486784	0
13469017440256	0
13606456393728	0
13743895347200	0
13881334300672	0
14018773254144	0
14156212207616	0
14293651161088	0
14431090114560	0
14568529068032	0
14705968021504	0
14843406974976	0
14980845928448	0
15118284881920	0
15255723835392	0
15393162788864	0
15530601742336	0
15668040695808	0
15805479649280	0
15942918602752	0
16080357556224	0
16217796509696	0
16355235463168	0
16492674416640	0
16630113370112	0
16767552323584	0
16904991277056	0
17042430230528	0
17179869184000	0
17317308137472	0
17454747090944	0
17592186044416	0
17867063951360	0
18141941858304	0
18416819765248	0
18691697672192	0
18966575579136	0
19241453486080	0
19516331393024	0
19791209299968	0
20066087206912	0
20340965113856	0
20615843020800	0
20890720927744	0
21165598834688	0
21440476741632	0
21715354648576	0
21990232555520	0
22265110462464	0
22539988369408	0
22814866276352	0
23089744183296	0
23364622090240	0
23639499997184	0
23914377904128	0
24189255811072	0
24464133718016	0
24739011624960	0
25013889531904	0
25288767438848	0
25563645345792	0
25838523252736	0
26113401159680	0
26388279066624	0
26663156973568	0
26938034880512	0
27212912787456	0
27487790694400	0
27762668601344	0
28037546508288	0
28312424415232	0
28587302322176	0
28862180229120	0
29137058136064	0
29411936043008	0
29686813949952	0
29961691856896	0
30236569763840	0
30511447670784	0
30786325577728	0
31061203484672	0
31336081391616	0
31610959298560	0
31885837205504	0
32160715112448	0
32435593019392	0
32710470926336	0
32985348833280	0
33260226740224	0
33535104647168	0
33809982554112	0
34084860461056	0
34359738368000	0
34634616274944	0
34909494181888	0
35184372088832	0
35734127902720	0
36283883716608	0
36833639530496	0
37383395344384	0
37933151158272	0
38482906972160	0
39032662786048	0
39582418599936	0
40132174413824	0
40681930227712	0
41231686041600	0
41781441855488	0
42331197669376	0
42880953483264	0
43430709297152	0
43980465111040	0
44530220924928	0
45079976738816	0
45629732552704	0
46179488366592	0
46729244180480	0
47278999994368	0
47828755808256	0
48378511622144	0
48928267436032	0
49478023249920	0
50027779063808	0
50577534877696	0
51127290691584	0
51677046505472	0
52226802319360	0
52776558133248	0
53326313947136	0
53876069761024	0
54425825574912	0
54975581388800	0
55525337202688	0
56075093016576	0
56624848830464	0
57174604644352	0
57724360458240	0
58274116272128	0
58823872086016	0
59373627899904	0
59923383713792	0
60473139527680	0
61022895341568	0
61572651155456	0
62122406969344	0
62672162783232	0
63221918597120	0
63771674411008	0
64321430224896	0
64871186038784	0
65420941852672	0
65970697666560	0
66520453480448	0
67070209294336	0
67619965108224	0
68169720922112	0
68719476736000	0
69269232549888	0
69818988363776	0
70368744177664	0
71468255805440	0
72567767433216	0
73667279060992	0
74766790688768	0
75866302316544	0
76965813944320	0
78065325572096	0
79164837199872	0
80264348827648	0
81363860455424	0
82463372083200	0
83562883710976	0
84662395338752	0
85761906966528	0
86861418594304	0
87960930222080	0
89060441849856	0
90159953477632	0
91259465105408	0
92358976733184	0
93458488360960	0
94557999988736	0
95657511616512	0
96757023244288	0
97856534872064	0
98956046499840	0
100055558127616	0
101155069755392	0
102254581383168	0
103354093010944	0
104453604638720	0
105553116266496	0
106652627894272	0
107752139522048	0
108851651149824	0
109951162777600	0
111050674405376	0
112150186033152	0
113249697660928	0
114349209288704	0
115448720916480	0
116548232544256	0
117647744172032	0
118747255799808	0
119846767427584	0
120946279055360	0
122045790683136	0
123145302310912	0
124244813938688	0
125344325566464	0
126443837194240	0
127543348822016	0
128642860449792	0
129742372077568	0
130841883705344	0
131941395333120	0
133040906960896	0
134140418588672	0
135239930216448	0
136339441844224	0
137438953472000	0
138538465099776	0
139637976727552	0
140737488355328	0
142936511610880	0
145135534866432	0
147334558121984	0
149533581377536	0
151732604633088	0
153931627888640	0
156130651144192	0
158329674399744	0
160528697655296	0
162727720910848	0
164926744166400	0
167125767421952	0
169324790677504	0
171523813933056	0
173722837188608	0
175921860444160	0
178120883699712	0
180319906955264	0
182518930210816	0
184717953466368	0
186916976721920	0
189115999977472	0
191315023233024	0
193514046488576	0
195713069744128	0
197912092999680	0
200111116255232	0
202310139510784	0
204509162766336	0
206708186021888	0
208907209277440	0
211106232532992	0
213305255788544	0
215504279044096	0
217703302299648	0
219902325555200	0
222101348810752	0
224300372066304	0
226499395321856	0
228698418577408	0
230897441832960	0
233096465088512	0
235295488344064	0
237494511599616	0
239693534855168	0
241892558110720	0
244091581366272	0
246290604621824	0
248489627877376	0
250688651132928	0
252887674388480	0
255086697644032	0
257285720899584	0
259484744155136	0
261683767410688	0
263882790666240	0
266081813921792	0
268280837177344	0
270479860432896	0
272678883688448	0
274877906944000	0
277076930199552	0
279275953455104	0
281474976710656	0
285873023221760	0
290271069732864	0
294669116243968	0
299067162755072	0
303465209266176	0
307863255777280	0
312261302288384	0
316659348799488	0
321057395310592	0
325455441821696	0
329853488332800	0
334251534843904	0
338649581355008	0
343047627866112	0
347445674377216	0
351843720888320	0
356241767399424	0
360639813910528	0
365037860421632	0
369435906932736	0
373833953443840	0
378231999954944	0
382630046466048	0
387028092977152	0
391426139488256	0
395824185999360	0
400222232510464	0
404620279021568	0
409018325532672	0
413416372043776	0
417814418554880	0
422212465065984	0
426610511577088	0
431008558088192	0
435406604599296	0
439804651110400	0
444202697621504	0
448600744132608	0
452998790643712	0
457396837154816	0
461794883665920	0
466192930177024	0
470590976688128	0
474989023199232	0
479387069710336	0
483785116221440	0
488183162732544	0
492581209243648	0
496979255754752	0
501377302265856	0
505775348776960	0
510173395288064	0
514571441799168	0
518969488310272	0
523367534821376	0
527765581332480	0
532163627843584	0
536561674354688	0
540959720865792	0
545357767376896	0
549755813888000	0
554153860399104	0
558551906910208	0
562949953421312	0
571746046443520	0
580542139465728	0
589338232487936	0
598134325510144	0
606930418532352	0
615726511554560	0
624522604576768	0
633318697598976	0
642114790621184	0
650910883643392	0
659706976665600	0
668503069687808	0
677299162710016	0
686095255732224	0
694891348754432	0
703687441776640	0
712483534798848	0
721279627821056	0
730075720843264	0
738871813865472	0
747667906887680	0
756463999909888	0
765260092932096	0
774056185954304	0
782852278976512	0
791648371998720	0
800444465020928	0
809240558043136	0
818036651065344	0
826832744087552	0
835628837109760	0
844424930131968	0
853221023154176	0
862017116176384	0
870813209198592	0
879609302220800	0
888405395243008	0
897201488265216	0
905997581287424	0
914793674309632	0
923589767331840	0
932385860354048	0
941181953376256	0
949978046398464	0
958774139420672	0
967570232442880	0
976366325465088	0
985162418487296	0
993958511509504	0
1002754604531712	0
1011550697553920	0
1020346790576128	0
1029142883598336	0
1037938976620544	0
1046735069642752	0
1055531162664960	0
1064327255687168	0
1073123348709376	0
1081919441731584	0
1090715534753792	0
1099511627776000	0
1108307720798208	0
1117103813820416	0
1125899906842624	0
1143492092887040	0
1161084278931456	0
1178676464975872	0
1196268651020288	0
1213860837064704	0
1231453023109120	0
1249045209153536	0
1266637395197952	0
1284229581242368	0
1301821767286784	0
1319413953331200	0
1337006139375616	0
1354598325420032	0
1372190511464448	0
1389782697508864	0
1407374883553280	0
1424967069597696	0
1442559255642112	0
1460151441686528	0
1477743627730944	0
1495335813775360	0
1512927999819776	0
1530520185864192	0
1548112371908608	0
1565704557953024	0
1583296743997440	0
1600888930041856	0
1618481116086272	0
1636073302130688	0
1653665488175104	0
1671257674219520	0
1688849860263936	0
1706442046308352	0
1724034232352768	0
1741626418397184	0
1759218604441600	0
1776810790486016	0
1794402976530432	0
1811995162574848	0
1829587348619264	0
1847179534663680	0
1864771720708096	0
1882363906752512	0
1899956092796928	0
1917548278841344	0
1935140464885760	0
1952732650930176	0
1970324836974592	0
1987917023019008	0
2005509209063424	0
2023101395107840	0
2040693581152256	0
2058285767196672	0
2075877953241088	0
2093470139285504	0
2111062325329920	0
2128654511374336	0
2146246697418752	0
2163838883463168	0
2181431069507584	0
2199023255552000	0
2216615441596416	0
2234207627640832	0
2251799813685248	0
2286984185774080	0
2322168557862912	0
2357352929951744	0
2392537302040576	0
2427721674129408	0
2462906046218240	0
2498090418307072	0
2533274790395904	0
2568459162484736	0
2603643534573568	0
2638827906662400	0
2674012278751232	0
2709196650840064	0
2744381022928896	0
2779565395017728	0
2814749767106560	0
2849934139195392	0
2885118511284224	0
2920302883373056	0
2955487255461888	0
2990671627550720	0
3025855999639552	0
3061040371728384	0
3096224743817216	0
3131409115906048	0
3166593487994880	0
3201777860083712	0
3236962232172544	0
3272146604261376	0
3307330976350208	0
3342515348439040	0
3377699720527872	0
3412884092616704	0
3448068464705536	0
3483252836794368	0
3518437208883200	0
3553621580972032	0
3588805953060864	0
3623990325149696	0
3659174697238528	0
3694359069327360	0
3729543441416192	0
3764727813505024	0
3799912185593856	0
3835096557682688	0
3870280929771520	0
3905465301860352	0
3940649673949184	0
3975834046038016	0
4011018418126848	0
4046202790215680	0
4081387162304512	0
4116571534393344	0
4151755906482176	0
4186940278571008	0
4222124650659840	0
4257309022748672	0
4292493394837504	0
4327677766926336	0
4362862139015168	0
4398046511104000	0
4433230883192832	0
4468415255281664	0
4503599627370496	0
4573968371548160	0
4644337115725824	0
4714705859903488	0
4785074604081152	0
4855443348258816	0
4925812092436480	0
4996180836614144	0
5066549580791808	0
5136918324969472	0
5207287069147136	0
5277655813324800	0
5348024557502464	0
5418393301680128	0
5488762045857792	0
5559130790035456	0
5629499534213120	0
5699868278390784	0
5770237022568448	0
5840605766746112	0
5910974510923776	0
5981343255101440	0
6051711999279104	0
6122080743456768	0
6192449487634432	0
6262818231812096	0
6333186975989760	0
6403555720167424	0
6473924464345088	0
6544293208522752	0
6614661952700416	0
6685030696878080	0
6755399441055744	0
6825768185233408	0
6896136929411072	0
6966505673588736	0
7036874417766400	0
7107243161944064	0
7177611906121728	0
7247980650299392	0
7318349394477056	0
7388718138654720	0
7459086882832384	0
7529455627010048	0
7599824371187712	0
7670193115365376	0
7740561859543040	0
7810930603720704	0
7881299347898368	0
7951668092076032	0
8022036836253696	0
8092405580431360	0
8162774324609024	0
8233143068786688	0
8303511812964352	0
8373880557142016	0
8444249301319680	0
8514618045497344	0
8584986789675008	0
8655355533852672	0
8725724278030336	0
8796093022208000	0
8866461766385664	0
8936830510563328	0
9007199254740992	0
9147936743096320	0
9288674231451648	0
9429411719806976	0
9570149208162304	0
9710886696517632	0
9851624184872960	0
9992361673228288	0
10133099161583616	0
10273836649938944	0
10414574138294272	0
10555311626649600	0
10696049115004928	0
10836786603360256	0
10977524091715584	0
11118261580070912	0
11258999068426240	0
11399736556781568	0
11540474045136896	0
11681211533492224	0
11821949021847552	0
11962686510202880	0
12103423998558208	0
12244161486913536	0
12384898975268864	0
12525636463624192	0
12666373951979520	0
12807111440334848	0
12947848928690176	0
13088586417045504	0
13229323905400832	0
13370061393756160	0
13510798882111488	0
13651536370466816	0
13792273858822144	0
13933011347177472	0
14073748835532800	0
14214486323888128	0
14355223812243456	0
14495961300598784	0
14636698788954112	0
14777436277309440	0
14918173765664768	0
15058911254020096	0
15199648742375424	0
15340386230730752	0
15481123719086080	0
15621861207441408	0
15762598695796736	0
15903336184152064	0
16044073672507392	0
16184811160862720	0
16325548649218048	0
16466286137573376	0
16607023625928704	0
16747761114284032	0
16888498602639360	0
17029236090994688	0
17169973579350016	0
17310711067705344	0
17451448556060672	0
17592186044416000	0
17732923532771328	0
17873661021126656	0
18014398509481984	0
18295873486192640	0
18577348462903296	0
18858823439613952	0
19140298416324608	0
19421773393035264	0
19703248369745920	0
19984723346456576	0
20266198323167232	0
20547673299877888	0
20829148276588544	0
21110623253299200	0
21392098230009856	0
21673573206720512	0
21955048183431168	0
22236523160141824	0
22517998136852480	0
22799473113563136	0
23080948090273792	0
23362423066984448	0
23643898043695104	0
23925373020405760	0
24206847997116416	0
24488322973827072	0
24769797950537728	0
25051272927248384	0
25332747903959040	0
25614222880669696	0
25895697857380352	0
26177172834091008	0
26458647810801664	0
26740122787512320	0
27021597764222976	0
27303072740933632	0
27584547717644288	0
27866022694354944	0
28147497671065600	0
28428972647776256	0
28710447624486912	0
28991922601197568	0
29273397577908224	0
29554872554618880	0
29836347531329536	0
30117822508040192	0
30399297484750848	0
30680772461461504	0
30962247438172160	0
31243722414882816	0
31525197391593472	0
31806672368304128	0
32088147345014784	0
32369622321725440	0
32651097298436096	0
32932572275146752	0
33214047251857408	0
33495522228568064	0
33776997205278720	0
34058472181989376	0
34339947158700032	0
34621422135410688	0
34902897112121344	0
35184372088832000	0
35465847065542656	0
35747322042253312	0
36028797018963968	0
36591746972385280	0
37154696925806592	0
37717646879227904	0
38280596832649216	0
38843546786070528	0
39406496739491840	0
39969446692913152	0
40532396646334464	0
41095346599755776	0
41658296553177088	0
42221246506598400	0
42784196460019712	0
43347146413441024	0
43910096366862336	0
44473046320283648	0
45035996273704960	0
45598946227126272	0
46161896180547584	0
46724846133968896	0
47287796087390208	0
47850746040811520	0
48413695994232832	0
48976645947654144	0
49539595901075456	0
50102545854496768	0
50665495807918080	0
51228445761339392	0
51791395714760704	0
52354345668182016	0
52917295621603328	0
53480245575024640	0
54043195528445952	0
54606145481867264	0
55169095435288576	0
55732045388709888	0
56294995342131200	0
56857945295552512	0
57420895248973824	0
57983845202395136	0
58546795155816448	0
59109745109237760	0
59672695062659072	0
60235645016080384	0
60798594969501696	0
61361544922923008	0
61924494876344320	0
62487444829765632	0
63050394783186944	0
63613344736608256	0
64176294690029568	0
64739244643450880	0
65302194596872192	0
65865144550293504	0
66428094503714816	0
66991044457136128	0
67553994410557440	0
68116944363978752	0
68679894317400064	0
69242844270821376	0
69805794224242688	0
70368744177664000	0
70931694131085312	0
71494644084506624	0
72057594037927936	0
73183493944770560	0
74309393851613184	0
75435293758455808	0
76561193665298432	0
77687093572141056	0
78812993478983680	0
79938893385826304	0
81064793292668928	0
82190693199511552	0
83316593106354176	0
84442493013196800	0
85568392920039424	0
86694292826882048	0
87820192733724672	0
88946092640567296	0
90071992547409920	0
91197892454252544	0
92323792361095168	0
93449692267937792	0
94575592174780416	0
95701492081623040	0
96827391988465664	0
97953291895308288	0
99079191802150912	0
100205091708993536	0
101330991615836160	0
102456891522678784	0
103582791429521408	0
104708691336364032	0
105834591243206656	0
106960491150049280	0
108086391056891904	0
109212290963734528	0
110338190870577152	0
111464090777419776	0
112589990684262400	0
113715890591105024	0
114841790497947648	0
115967690404790272	0
117093590311632896	0
118219490218475520	0
119345390125318144	0
120471290032160768	0
121597189939003392	0
122723089845846016	0
123848989752688640	0
124974889659531264	0
126100789566373888	0
127226689473216512	0
128352589380059136	0
129478489286901760	0
130604389193744384	0
131730289100587008	0
132856189007429632	0
133982088914272256	0
135107988821114880	0
136233888727957504	0
137359788634800128	0
138485688541642752	0
139611588448485376	0
140737488355328000	0
141863388262170624	0
142989288169013248	0
144115188075855872	0
146366987889541120	0
148618787703226368	0
150870587516911616	0
153122387330596864	0
155374187144282112	0
157625986957967360	0
159877786771652608	0
162129586585337856	0
164381386399023104	0
166633186212708352	0
168884986026393600	0
171136785840078848	0
173388585653764096	0
175640385467449344	0
177892185281134592	0
180143985094819840	0
182395784908505088	0
184647584722190336	0
186899384535875584	0
189151184349560832	0
191402984163246080	0
193654783976931328	0
195906583790616576	0
198158383604301824	0
200410183417987072	0
202661983231672320	0
204913783045357568	0
207165582859042816	0
209417382672728064	0
211669182486413312	0
213920982300098560	0
216172782113783808	0
218424581927469056	0
220676381741154304	0
222928181554839552	0
225179981368524800	0
227431781182210048	0
229683580995895296	0
231935380809580544	0
234187180623265792	0
236438980436951040	0
238690780250636288	0
240942580064321536	0
243194379878006784	0
245446179691692032	0
247697979505377280	0
249949779319062528	0
252201579132747776	0
254453378946433024	0
256705178760118272	0
258956978573803520	0
261208778387488768	0
263460578201174016	0
265712378014859264	0
267964177828544512	0
270215977642229760	0
272467777455915008	0
274719577269600256	0
276971377083285504	0
279223176896970752	0
281474976710656000	0
283726776524341248	0
285978576338026496	0
288230376151711744	0
292733975779082240	0
297237575406452736	0
301741175033823232	0
306244774661193728	0
310748374288564224	0
315251973915934720	0
319755573543305216	0
324259173170675712	0
328762772798046208	0
333266372425416704	0
337769972052787200	0
342273571680157696	0
346777171307528192	0
351280770934898688	0
355784370562269184	0
360287970189639680	0
364791569817010176	0
369295169444380672	0
373798769071751168	0
378302368699121664	0
382805968326492160	0
387309567953862656	0
391813167581233152	0
396316767208603648	0
400820366835974144	0
405323966463344640	0
409827566090715136	0
414331165718085632	0
418834765345456128	0
423338364972826624	0
427841964600197120	0
432345564227567616	0
436849163854938112	0
441352763482308608	0
445856363109679104	0
450359962737049600	0
454863562364420096	0
459367161991790592	0
463870761619161088	0
468374361246531584	0
472877960873902080	0
477381560501272576	0
481885160128643072	0
486388759756013568	0
490892359383384064	0
495395959010754560	0
499899558638125056	0
504403158265495552	0
508906757892866048	0
513410357520236544	0
517913957147607040	0
522417556774977536	0
526921156402348032	0
531424756029718528	0
535928355657089024	0
540431955284459520	0
544935554911830016	0
549439154539200512	0
553942754166571008	0
558446353793941504	0
562949953421312000	0
567453553048682496	0
571957152676052992	0
576460752303423488	0
585467951558164480	0
594475150812905472	0
603482350067646464	0
612489549322387456	0
621496748577128448	0
630503947831869440	0
639511147086610432	0
648518346341351424	0
657525545596092416	0
666532744850833408	0
675539944105574400	0
684547143360315392	0
693554342615056384	0
702561541869797376	0
711568741124538368	0
720575940379279360	0
729583139634020352	0
738590338888761344	0
747597538143502336	0
756604737398243328	0
765611936652984320	0
774619135907725312	0
783626335162466304	0
792633534417207296	0
801640733671948288	0
810647932926689280	0
819655132181430272	0
828662331436171264	0
837669530690912256	0
846676729945653248	0
855683929200394240	0
864691128455135232	0
873698327709876224	0
882705526964617216	0
891712726219358208	0
900719925474099200	0
909727124728840192	0
918734323983581184	0
927741523238322176	0
936748722493063168	0
945755921747804160	0
954763121002545152	0
963770320257286144	0
972777519512027136	0
981784718766768128	0
990791918021509120	0
999799117276250112	0
1008806316530991104	0
1017813515785732096	0
1026820715040473088	0
1035827914295214080	0
1044835113549955072	0
1053842312804696064	0
1062849512059437056	0
1071856711314178048	0
1080863910568919040	0
1089871109823660032	0
1098878309078401024	0
1107885508333142016	0
1116892707587883008	0
1125899906842624000	0
1134907106097364992	0
1143914305352105984	0
1152921504606846976	0
1170935903116328960	0
1188950301625810944	0
1206964700135292928	0
1224979098644774912	0
1242993497154256896	0
1261007895663738880	0
1279022294173220864	0
1297036692682702848	0
1315051091192184832	0
1333065489701666816	0
1351079888211148800	0
1369094286720630784	0
1387108685230112768	0
1405123083739594752	0
1423137482249076736	0
1441151880758558720	0
1459166279268040704	0
1477180677777522688	0
1495195076287004672	0
1513209474796486656	0
1531223873305968640	0
1549238271815450624	0
1567252670324932608	0
1585267068834414592	0
1603281467343896576	0
1621295865853378560	0
1639310264362860544	0
1657324662872342528	0
1675339061381824512	0
1693353459891306496	0
1711367858400788480	0
1729382256910270464	0
1747396655419752448	0
1765411053929234432	0
1783425452438716416	0
1801439850948198400	0
1819454249457680384	0
1837468647967162368	0
1855483046476644352	0
1873497444986126336	0
1891511843495608320	0
1909526242005090304	0
1927540640514572288	0
1945555039024054272	0
1963569437533536256	0
1981583836043018240	0
1999598234552500224	0
2017612633061982208	0
2035627031571464192	0
2053641430080946176	0
2071655828590428160	0
2089670227099910144	0
2107684625609392128	0
2125699024118874112	0
2143713422628356096	0
2161727821137838080	0
2179742219647320064	0
2197756618156802048	0
2215771016666284032	0
2233785415175766016	0
2251799813685248000	0
2269814212194729984	0
2287828610704211968	0
2305843009213693952	0
2341871806232657920	0
2377900603251621888	0
2413929400270585856	0
2449958197289549824	0
2485986994308513792	0
2522015791327477760	0
2558044588346441728	0
2594073385365405696	0
2630102182384369664	0
2666130979403333632	0
2702159776422297600	0
2738188573441261568	0
2774217370460225536	0
2810246167479189504	0
2846274964498153472	0
2882303761517117440	0
2918332558536081408	0
2954361355555045376	0
2990390152574009344	0
3026418949592973312	0
3062447746611937280	0
3098476543630901248	0
3134505340649865216	0
3170534137668829184	0
3206562934687793152	0
3242591731706757120	0
3278620528725721088	0
3314649325744685056	0
3350678122763649024	0
3386706919782612992	0
3422735716801576960	0
3458764513820540928	0
3494793310839504896	0
3530822107858468864	0
3566850904877432832	0
3602879701896396800	0
3638908498915360768	0
3674937295934324736	0
3710966092953288704	0
3746994889972252672	0
3783023686991216640	0
3819052484010180608	0
3855081281029144576	0
3891110078048108544	0
3927138875067072512	0
3963167672086036480	0
3999196469105000448	0
4035225266123964416	0
4071254063142928384	0
4107282860161892352	0
4143311657180856320	0
4179340454199820288	0
4215369251218784256	0
4251398048237748224	0
4287426845256712192	0
4323455642275676160	0
4359484439294640128	0
4395513236313604096	0
4431542033332568064	0
4467570830351532032	0
4503599627370496000	0
4539628424389459968	0
4575657221408423936	0
4611686018427387904	0
4683743612465315840	0
4755801206503243776	0
4827858800541171712	0
4899916394579099648	0
4971973988617027584	0
5044031582654955520	0
5116089176692883456	0
5188146770730811392	0
5260204364768739328	0
5332261958806667264	0
5404319552844595200	0
5476377146882523136	0
5548434740920451072	0
5620492334958379008	0
5692549928996306944	0
5764607523034234880	0
5836665117072162816	0
5908722711110090752	0
5980780305148018688	0
6052837899185946624	0
6124895493223874560	0
6196953087261802496	0
6269010681299730432	0
6341068275337658368	0
6413125869375586304	0
6485183463413514240	0
6557241057451442176	0
6629298651489370112	0
6701356245527298048	0
6773413839565225984	0
6845471433603153920	0
6917529027641081856	0
6989586621679009792	0
7061644215716937728	0
7133701809754865664	0
7205759403792793600	0
7277816997830721536	0
7349874591868649472	0
7421932185906577408	0
7493989779944505344	0
7566047373982433280	0
7638104968020361216	0
7710162562058289152	0
7782220156096217088	0
7854277750134145024	0
7926335344172072960	0
7998392938210000896	0
8070450532247928832	0
8142508126285856768	0
8214565720323784704	0
8286623314361712640	0
8358680908399640576	0
8430738502437568512	0
8502796096475496448	0
8574853690513424384	0
8646911284551352320	0
8718968878589280256	0
8791026472627208192	0
8863084066665136128	0
8935141660703064064	0
9007199254740992000	0
9079256848778919936	0
9151314442816847872	0
9223372036854775808	0
9367487224930631680	0
9511602413006487552	0
9655717601082343424	0
9799832789158199296	0
9943947977234055168	0
10088063165309911040	0
10232178353385766912	0
10376293541461622784	0
10520408729537478656	0
10664523917613334528	0
10808639105689190400	0
10952754293765046272	0
11096869481840902144	0
11240984669916758016	0
11385099857992613888	0
11529215046068469760	0
11673330234144325632	0
11817445422220181504	0
11961560610296037376	0
12105675798371893248	0
12249790986447749120	0
12393906174523604992	0
12538021362599460864	0
12682136550675316736	0
12826251738751172608	0
12970366926827028480	0
13114482114902884352	0
13258597302978740224	0
13402712491054596096	0
13546827679130451968	0
13690942867206307840	0
13835058055282163712	0
13979173243358019584	0
14123288431433875456	0
14267403619509731328	0
14411518807585587200	0
14555633995661443072	0
14699749183737298944	0
14843864371813154816	0
14987979559889010688	0
15132094747964866560	0
15276209936040722432	0
15420325124116578304	0
15564440312192434176	0
15708555500268290048	0
15852670688344145920	0
15996785876420001792	0
16140901064495857664	0
16285016252571713536	0
16429131440647569408	0
16573246628723425280	0
16717361816799281152	0
16861477004875137024	0
17005592192950992896	0
17149707381026848768	0
17293822569102704640	0
17437937757178560512	0
17582052945254416384	0
17726168133330272256	0
17870283321406128128	0
18014398509481984000	0
18158513697557839872	0
18302628885633695744	0
